1.0 1.00000011921 0.997106850147 1.04667329788 1.1043087244 1.10428631306 1.04657483101 1.00000023842 1.0 1.0 0.999999940395 1.00713336468 1.0862313509 1.15998494625 1.17599642277 1.17598938942 1.15992558002 1.0474896431 1.00706660748 1.0 1.0 1.07041621208 1.14303636551 1.17521691322 1.18382406235 1.18381977081 1.17518424988 1.11885273457 1.07035017014 1.00000011921 1.0 1.10491836071 1.15568780899 1.17817759514 1.18493294716 1.18493080139 1.17815434933 1.1437394619 1.10485970974 1.00000011921 1.0 1.12737357616 1.16153657436 1.17981803417 1.18538081646 1.18537986279 1.1797990799 1.15380823612 1.1273175478 1.00000011921 1.0 1.12736546993 1.16153287888 1.17981672287 1.18538594246 1.18538463116 1.17979753017 1.15380418301 1.12730932236 1.00000011921 1.0 1.10487210751 1.15566909313 1.17816579342 1.18493402004 1.18493115902 1.17814278603 1.14371025562 1.10481333733 1.0 1.0 1.05277228355 1.13497245312 1.17418432236 1.18381047249 1.18380916119 1.17414987087 1.0997658968 1.05270028114 1.00000011921 1.0 1.00706005096 1.08613932133 1.15997135639 1.17601573467 1.17600274086 1.15992772579 1.04739892483 1.00699305534 1.00000011921 1.0 1.00000011921 0.997113764286 1.04656910896 1.10400652885 1.10406541824 1.04643261433 1.00000011921 1.0 0.999999940395 
1.0 1.00000011921 0.997106850147 1.04667329788 1.1043087244 1.10428631306 1.04657483101 1.00000023842 1.0 1.0 0.999999940395 1.00713336468 1.0862313509 1.1873831749 1.27649140358 1.27646183968 1.18728351593 1.0474896431 1.00706660748 1.0 1.0 1.07041621208 1.16637969017 1.27944934368 1.33777451515 1.33775770664 1.27935433388 1.1188262701 1.07035017014 1.00000011921 1.0 1.10491836071 1.20247256756 1.30130791664 1.34425604343 1.34424436092 1.30121839046 1.1537604332 1.10485970974 1.00000011921 1.0 1.1303204298 1.23353266716 1.31641995907 1.3475830555 1.3475754261 1.31634163857 1.18088126183 1.13026332855 1.00000011921 1.0 1.13031041622 1.23352134228 1.31641125679 1.34760844707 1.34759926796 1.31633007526 1.18087351322 1.13025331497 1.00000011921 1.0 1.10487210751 1.20243251324 1.3012355566 1.34427165985 1.34425723553 1.30114376545 1.15371537209 1.10481333733 1.0 1.0 1.05277228355 1.13974392414 1.24600172043 1.33121705055 1.33121395111 1.24588954449 1.0997658968 1.05270028114 1.00000011921 1.0 1.00706005096 1.08613932133 1.18740391731 1.27663373947 1.27655112743 1.18736612797 1.04739892483 1.00699305534 1.00000011921 1.0 1.00000011921 0.997113764286 1.04656910896 1.10400652885 1.10406541824 1.04643261433 1.00000011921 1.0 0.999999940395 
1.0 1.00000011921 0.997106850147 1.04667329788 1.1043087244 1.10428631306 1.04657483101 1.00000023842 1.0 1.0 0.999999940395 1.00713336468 1.0862313509 1.1873831749 1.27718031406 1.27715134621 1.18728351593 1.0474896431 1.00706660748 1.0 1.0 1.07041621208 1.16637969017 1.2807277441 1.39482331276 1.39480185509 1.28063547611 1.1188262701 1.07035017014 1.00000011921 1.0 1.10491836071 1.20247256756 1.30846059322 1.41179144382 1.41176652908 1.30838024616 1.1537604332 1.10485970974 1.00000011921 1.0 1.1303204298 1.23353266716 1.33843529224 1.42771661282 1.42769622803 1.33837234974 1.18088126183 1.13026332855 1.00000011921 1.0 1.13031041622 1.23352134228 1.3384141922 1.4278345108 1.4278062582 1.33834350109 1.18087351322 1.13025331497 1.00000011921 1.0 1.10487210751 1.20243251324 1.3083627224 1.41192364693 1.41188597679 1.30827724934 1.15371537209 1.10481333733 1.0 1.0 1.05277228355 1.13974392414 1.24600172043 1.35331356525 1.35330879688 1.24588954449 1.0997658968 1.05270028114 1.00000011921 1.0 1.00706005096 1.08613932133 1.18740391731 1.27733922005 1.27725315094 1.18736612797 1.04739892483 1.00699305534 1.00000011921 1.0 1.00000011921 0.997113764286 1.04656910896 1.10400652885 1.10406541824 1.04643261433 1.00000011921 1.0 0.999999940395 
1.0 1.00000011921 0.997106850147 1.04667329788 1.1043087244 1.10428631306 1.04657483101 1.00000023842 1.0 1.0 0.999999940395 1.00713336468 1.0862313509 1.1873831749 1.27718031406 1.27715134621 1.18728351593 1.0474896431 1.00706660748 1.0 1.0 1.07041621208 1.16637969017 1.2807277441 1.39655804634 1.3965369463 1.28063547611 1.1188262701 1.07035017014 1.00000011921 1.0 1.10491836071 1.20247256756 1.30846059322 1.41573011875 1.41570842266 1.30838024616 1.1537604332 1.10485970974 1.00000011921 1.0 1.1303204298 1.23353266716 1.33843529224 1.43666017056 1.43664181232 1.33837234974 1.18088126183 1.13026332855 1.00000011921 1.0 1.13031041622 1.23352134228 1.3384141922 1.43684530258 1.43681681156 1.33834350109 1.18087351322 1.13025331497 1.00000011921 1.0 1.10487210751 1.20243251324 1.3083627224 1.41592895985 1.41589212418 1.30827724934 1.15371537209 1.10481333733 1.0 1.0 1.05277228355 1.13974392414 1.24600172043 1.35331356525 1.35330879688 1.24588954449 1.0997658968 1.05270028114 1.00000011921 1.0 1.00706005096 1.08613932133 1.18740391731 1.27733922005 1.27725315094 1.18736612797 1.04739892483 1.00699305534 1.00000011921 1.0 1.00000011921 0.997113764286 1.04656910896 1.10400652885 1.10406541824 1.04643261433 1.00000011921 1.0 0.999999940395 
1.0 1.00000011921 0.997106850147 1.04667329788 1.1043087244 1.10428631306 1.04657483101 1.00000023842 1.0 1.0 0.999999940395 1.00713336468 1.0862313509 1.1873831749 1.27718031406 1.27715134621 1.18728351593 1.0474896431 1.00706660748 1.0 1.0 1.07041621208 1.16637969017 1.2807277441 1.39655804634 1.3965369463 1.28063547611 1.1188262701 1.07035017014 1.00000011921 1.0 1.10491836071 1.20247256756 1.30846059322 1.41573262215 1.41571104527 1.30838024616 1.1537604332 1.10485970974 1.00000011921 1.0 1.1303204298 1.23353266716 1.33843529224 1.43686974049 1.43685150146 1.33837234974 1.18088126183 1.13026332855 1.00000011921 1.0 1.13031041622 1.23352134228 1.3384141922 1.43706274033 1.43703460693 1.33834350109 1.18087351322 1.13025331497 1.00000011921 1.0 1.10487210751 1.20243251324 1.3083627224 1.41593384743 1.41589701176 1.30827724934 1.15371537209 1.10481333733 1.0 1.0 1.05277228355 1.13974392414 1.24600172043 1.35331356525 1.35330879688 1.24588954449 1.0997658968 1.05270028114 1.00000011921 1.0 1.00706005096 1.08613932133 1.18740391731 1.27733922005 1.27725315094 1.18736612797 1.04739892483 1.00699305534 1.00000011921 1.0 1.00000011921 0.997113764286 1.04656910896 1.10400652885 1.10406541824 1.04643261433 1.00000011921 1.0 0.999999940395 
1.0 1.00000011921 0.997106850147 1.04667329788 1.1043087244 1.10428631306 1.04657483101 1.00000023842 1.0 1.0 0.999999940395 1.00713336468 1.0862313509 1.1873831749 1.27718031406 1.27715134621 1.18728351593 1.0474896431 1.00706660748 1.0 1.0 1.07041621208 1.16637969017 1.2807277441 1.39655804634 1.3965369463 1.28063547611 1.1188262701 1.07035017014 1.00000011921 1.0 1.10491836071 1.20247256756 1.30846059322 1.4157371521 1.41571545601 1.30838024616 1.1537604332 1.10485970974 1.00000011921 1.0 1.1303204298 1.23353266716 1.33843529224 1.43687915802 1.43686115742 1.33837234974 1.18088126183 1.13026332855 1.00000011921 1.0 1.13031041622 1.23352134228 1.3384141922 1.4370726347 1.43704426289 1.33834350109 1.18087351322 1.13025331497 1.00000011921 1.0 1.10487210751 1.20243251324 1.3083627224 1.41593849659 1.41590189934 1.30827724934 1.15371537209 1.10481333733 1.0 1.0 1.05277228355 1.13974392414 1.24600172043 1.35331356525 1.35330879688 1.24588954449 1.0997658968 1.05270028114 1.00000011921 1.0 1.00706005096 1.08613932133 1.18740391731 1.27733922005 1.27725315094 1.18736612797 1.04739892483 1.00699305534 1.00000011921 1.0 1.00000011921 0.997113764286 1.04656910896 1.10400652885 1.10406541824 1.04643261433 1.00000011921 1.0 0.999999940395 
1.0 1.00000011921 0.997106850147 1.04667329788 1.1043087244 1.10428631306 1.04657483101 1.00000023842 1.0 1.0 0.999999940395 1.00713336468 1.0862313509 1.1873831749 1.27718031406 1.27715134621 1.18728351593 1.0474896431 1.00706660748 1.0 1.0 1.07041621208 1.16637969017 1.2807277441 1.39655804634 1.3965369463 1.28063547611 1.1188262701 1.07035017014 1.00000011921 1.0 1.10491836071 1.20247256756 1.30846059322 1.41574251652 1.41572082043 1.30838024616 1.1537604332 1.10485970974 1.00000011921 1.0 1.1303204298 1.23353266716 1.33843529224 1.43688774109 1.4368698597 1.33837234974 1.18088126183 1.13026332855 1.00000011921 1.0 1.13031041622 1.23352134228 1.3384141922 1.43708145618 1.43705296516 1.33834350109 1.18087351322 1.13025331497 1.00000011921 1.0 1.10487210751 1.20243251324 1.3083627224 1.41594481468 1.41590797901 1.30827724934 1.15371537209 1.10481333733 1.0 1.0 1.05277228355 1.13974392414 1.24600172043 1.35331356525 1.35330879688 1.24588954449 1.0997658968 1.05270028114 1.00000011921 1.0 1.00706005096 1.08613932133 1.18740391731 1.27733922005 1.27725315094 1.18736612797 1.04739892483 1.00699305534 1.00000011921 1.0 1.00000011921 0.997113764286 1.04656910896 1.10400652885 1.10406541824 1.04643261433 1.00000011921 1.0 0.999999940395 
