0.981215119362 1.00768446922 1.03938829899 1.10080683231 1.17479074001 1.17477083206 1.10074985027 1.02724683285 1.00764918327 0.981269955635 0.972039461136 1.04646325111 1.16354322433 1.27637124062 1.3692047596 1.3691920042 1.27630281448 1.0940233469 1.04639852047 0.972101390362 0.969139158726 1.1307502985 1.26958847046 1.38879978657 1.49171853065 1.49170899391 1.38874030113 1.19557368755 1.13067114353 0.96918463707 0.967846333981 1.17456424236 1.31403160095 1.4235970974 1.51764833927 1.51763761044 1.42354893684 1.24004876614 1.17449128628 0.967880010605 0.966349244118 1.2091960907 1.35105752945 1.45628046989 1.53742730618 1.53742170334 1.45624125004 1.27635574341 1.20911967754 0.966379702091 0.966351091862 1.2091858387 1.35104882717 1.45626008511 1.5375071764 1.53749644756 1.45621538162 1.2763531208 1.20910954475 0.966381549835 0.967851340771 1.17451798916 1.31399452686 1.42351603508 1.51772844791 1.51771068573 1.4234623909 1.24001431465 1.17444586754 0.967885136604 0.969814300537 1.09941160679 1.23361885548 1.34787118435 1.45310676098 1.4531058073 1.34780979156 1.16055309772 1.09934449196 0.969861030579 0.972046256065 1.04638421535 1.16343569756 1.27637052536 1.36924338341 1.36919236183 1.27632832527 1.09393918514 1.04632127285 0.972107827663 0.981243550777 1.00764489174 1.03935694695 1.10061764717 1.17464518547 1.17471051216 1.10051500797 1.02723109722 1.00761055946 0.981296956539 
0.981216788292 1.00719738007 1.03862762451 1.09969758987 1.17352771759 1.17350769043 1.09964108467 1.02650809288 1.00716257095 0.98127156496 0.972038865089 1.04576766491 1.16265189648 1.27533066273 1.36814761162 1.36813473701 1.2752623558 1.09316587448 1.04570364952 0.972100973129 0.969116091728 1.12993741035 1.26869785786 1.38766610622 1.49321913719 1.49320995808 1.38760662079 1.19472455978 1.12985873222 0.969161510468 0.967799246311 1.1737370491 1.31312549114 1.42267346382 1.52258312702 1.52257418633 1.42262542248 1.23924922943 1.17366409302 0.967832863331 0.966278791428 1.20840167999 1.35033929348 1.45756101608 1.54814434052 1.54813992977 1.45752334595 1.27580034733 1.20832514763 0.966309309006 0.966280698776 1.20839190483 1.35033023357 1.45754134655 1.54825854301 1.54824781418 1.45749723911 1.27579748631 1.20831525326 0.966311275959 0.967804074287 1.1736907959 1.31308865547 1.42259407043 1.5226982832 1.52268111706 1.42254030704 1.23921537399 1.17361843586 0.967838048935 0.96979367733 1.09860181808 1.23268437386 1.34671282768 1.45210123062 1.45210206509 1.34665107727 1.15968513489 1.09853541851 0.969840347767 0.972045779228 1.04568886757 1.16254389286 1.27533149719 1.36818432808 1.36813306808 1.27528953552 1.09308183193 1.04562664032 0.972107291222 0.981245338917 1.00715827942 1.03859746456 1.09950733185 1.17338359356 1.17344927788 1.09940481186 1.02649378777 1.00712442398 0.981298565865 
0.981216788292 1.00719690323 1.0386275053 1.09969758987 1.17352759838 1.17350780964 1.09964072704 1.02650773525 1.00716209412 0.981271624565 0.972038865089 1.04576742649 1.16265177727 1.27533066273 1.36814785004 1.36813485622 1.2752622366 1.09316563606 1.0457034111 0.972100913525 0.969115972519 1.12993729115 1.26869809628 1.38766634464 1.49321866035 1.49320948124 1.38760674 1.1947247982 1.12985897064 0.969161331654 0.967798829079 1.17373740673 1.31312632561 1.4226744175 1.52258419991 1.52257525921 1.42262637615 1.23924982548 1.17366445065 0.967832744122 0.966278374195 1.20840227604 1.35034024715 1.45756542683 1.54818069935 1.54817640781 1.45752775669 1.27580153942 1.20832586288 0.966309010983 0.966280460358 1.20839250088 1.35033142567 1.45754599571 1.54829549789 1.54828476906 1.45750153065 1.2757986784 1.2083158493 0.966310858727 0.967803955078 1.17369127274 1.31308960915 1.4225949049 1.52269935608 1.52268218994 1.4225410223 1.23921597004 1.17361903191 0.967837750912 0.969793498516 1.09860193729 1.23268461227 1.3467130661 1.45210146904 1.45210206509 1.3466514349 1.15968537331 1.09853541851 0.969840228558 0.972045779228 1.04568886757 1.16254413128 1.2753316164 1.36818432808 1.36813306808 1.27528965473 1.09308159351 1.04562652111 0.972107291222 0.981245160103 1.00715792179 1.03859710693 1.09950709343 1.17338359356 1.17344939709 1.09940445423 1.02649331093 1.00712418556 0.981298387051 
0.981216728687 1.00719738007 1.03862810135 1.09969902039 1.17352950573 1.17350935936 1.09964227676 1.0265083313 1.00716245174 0.981271386147 0.97203874588 1.04576826096 1.16265296936 1.27533221245 1.36814904213 1.36813640594 1.27526366711 1.09316670895 1.04570412636 0.972100734711 0.9691157341 1.12993860245 1.26869976521 1.3876683712 1.4932205677 1.49321115017 1.38760864735 1.1947259903 1.12986016273 0.969161093235 0.967798650265 1.17373883724 1.31312811375 1.42267656326 1.5225867033 1.52257788181 1.42262852192 1.23925161362 1.17366600037 0.967832446098 0.966278254986 1.20840418339 1.35034251213 1.45757126808 1.5481903553 1.54818606377 1.45753347874 1.27580344677 1.20832765102 0.966309010983 0.966279983521 1.20839416981 1.35033369064 1.45755159855 1.54830515385 1.5482943058 1.45750784874 1.27580082417 1.20831751823 0.966310620308 0.967803835869 1.17369258404 1.3130916357 1.42259716988 1.52270185947 1.52268481255 1.42254328728 1.23921751976 1.17362058163 0.967837393284 0.969793260098 1.09860312939 1.23268580437 1.34671497345 1.45210289955 1.45210397243 1.34665310383 1.15968668461 1.0985366106 0.969839930534 0.972045660019 1.04568934441 1.16254532337 1.2753329277 1.36818599701 1.36813461781 1.27529108524 1.09308254719 1.04562735558 0.972107112408 0.981245100498 1.00715839863 1.03859770298 1.09950840473 1.17338562012 1.17345106602 1.09940588474 1.0264942646 1.00712454319 0.981298327446 
0.981216728687 1.00719773769 1.03862857819 1.09970021248 1.17353129387 1.1735111475 1.09964346886 1.02650892735 1.00716292858 0.981271326542 0.972038626671 1.04576897621 1.16265416145 1.27533340454 1.36815071106 1.36813771725 1.27526497841 1.09316778183 1.04570496082 0.972100496292 0.969115614891 1.12993979454 1.26870143414 1.38767027855 1.49322199821 1.49321305752 1.38761079311 1.19472742081 1.12986135483 0.969161093235 0.967798650265 1.17374038696 1.3131301403 1.42267870903 1.52259087563 1.52258217335 1.42263066769 1.23925316334 1.17366731167 0.967832267284 0.966278016567 1.20840597153 1.35034501553 1.45757734776 1.54819989204 1.54819560051 1.4575394392 1.27580559254 1.20832920074 0.966308653355 0.966279983521 1.20839571953 1.35033619404 1.45755767822 1.54831469059 1.54830396175 1.45751368999 1.27580296993 1.20831930637 0.966310381889 0.967803657055 1.17369413376 1.31309342384 1.42259931564 1.52270698547 1.52268946171 1.42254543304 1.2392193079 1.17362213135 0.967837274075 0.969793379307 1.09860420227 1.23268723488 1.3467168808 1.4521048069 1.45210576057 1.34665501118 1.15968775749 1.09853768349 0.96983975172 0.972045660019 1.04569029808 1.16254627705 1.27533459663 1.36818730831 1.36813616753 1.27529251575 1.09308362007 1.04562795162 0.972107052803 0.981245040894 1.00715863705 1.03859853745 1.09950983524 1.17338693142 1.17345273495 1.09940719604 1.02649450302 1.00712490082 0.981298387051 
0.981216490269 1.00719797611 1.03862941265 1.09970164299 1.17353284359 1.17351269722 1.09964489937 1.02650952339 1.007163167 0.981271266937 0.972038507462 1.04576957226 1.16265511513 1.27533507347 1.36815190315 1.36813926697 1.27526640892 1.0931687355 1.04570567608 0.972100377083 0.969115495682 1.12994110584 1.26870274544 1.38767230511 1.49322390556 1.49321472645 1.38761281967 1.19472885132 1.12986242771 0.969160854816 0.967798411846 1.17374169827 1.31313204765 1.4226808548 1.52259707451 1.52258849144 1.42263293266 1.23925471306 1.17366886139 0.967832148075 0.966277658939 1.20840752125 1.35034739971 1.45758342743 1.548209548 1.54820525646 1.4575458765 1.2758077383 1.20833098888 0.966308414936 0.966279864311 1.20839750767 1.35033857822 1.45756399632 1.54832446575 1.54831373692 1.45751988888 1.27580487728 1.20832109451 0.966310322285 0.967803359032 1.17369556427 1.31309521198 1.42260146141 1.5227137804 1.52269649506 1.42254769802 1.23922073841 1.17362344265 0.96783721447 0.969793021679 1.09860527515 1.23268842697 1.34671854973 1.45210695267 1.45210754871 1.34665691853 1.15968894958 1.09853863716 0.969839692116 0.9720454216 1.04569089413 1.16254746914 1.27533578873 1.36818885803 1.36813747883 1.27529382706 1.09308445454 1.04562854767 0.972106993198 0.981244921684 1.00715875626 1.03859913349 1.09951102734 1.17338860035 1.17345452309 1.09940838814 1.02649509907 1.00712525845 0.981298327446 
0.981216549873 1.00719821453 1.0386300087 1.09970271587 1.17353439331 1.17351436615 1.09964609146 1.02651000023 1.00716352463 0.981271147728 0.972038328648 1.04577040672 1.16265630722 1.27533626556 1.36815357208 1.36814057827 1.27526772022 1.09316945076 1.04570627213 0.972100436687 0.969115257263 1.12994217873 1.26870417595 1.38767409325 1.49322557449 1.4932166338 1.38761472702 1.19473004341 1.1298636198 0.969160795212 0.967798233032 1.1737433672 1.31313383579 1.42268300056 1.52260494232 1.52259600163 1.42263519764 1.23925638199 1.1736702919 0.967831969261 0.966277599335 1.20840919018 1.3503497839 1.45759141445 1.54821932316 1.54821503162 1.4575535059 1.27580964565 1.20833265781 0.966308176517 0.966279625893 1.2083991766 1.35034072399 1.45757174492 1.54833436012 1.54832363129 1.4575278759 1.27580678463 1.20832252502 0.966310083866 0.967803180218 1.17369687557 1.31309723854 1.42260360718 1.5227214098 1.52270412445 1.422549963 1.23922228813 1.17362475395 0.967836916447 0.96979290247 1.09860634804 1.2326900959 1.34672021866 1.45210874081 1.45210957527 1.34665858746 1.15968990326 1.09853971004 0.969839632511 0.972045183182 1.04569172859 1.1625483036 1.27533710003 1.36819040775 1.36813902855 1.27529501915 1.09308564663 1.04562938213 0.972106814384 0.98124486208 1.00715911388 1.03859972954 1.09951245785 1.17339026928 1.1734559536 1.09940969944 1.0264954567 1.00712549686 0.981298148632 
