1.0 1.00000011921 0.998744487762 1.03679823875 1.0936113596 1.0935857296 1.0367051363 1.00000023842 1.0 1.0 0.999999940395 1.0016784668 1.07826149464 1.18163526058 1.26850914955 1.26848351955 1.18155050278 1.03526031971 1.00165295601 1.0 1.0 1.05964851379 1.16148984432 1.27297961712 1.34281480312 1.34279561043 1.27289545536 1.10907959938 1.05957710743 1.00000011921 1.0 1.09507787228 1.19894766808 1.2950373888 1.35281693935 1.35280036926 1.29495704174 1.14480769634 1.09501421452 1.00000011921 1.0 1.12173604965 1.22928440571 1.3134303093 1.35908901691 1.35907745361 1.3133585453 1.17392754555 1.12167358398 1.00000011921 1.0 1.12172627449 1.22927522659 1.31341838837 1.35913252831 1.3591183424 1.3133430481 1.17392134666 1.12166380882 1.00000011921 1.0 1.09503209591 1.19890832901 1.29496240616 1.35285067558 1.35282945633 1.29487907887 1.14476573467 1.09496831894 1.0 1.0 1.04023897648 1.13263475895 1.23992788792 1.32887434959 1.32887136936 1.23983442783 1.08723652363 1.0401674509 1.00000011921 1.0 1.00165009499 1.07817173004 1.18166422844 1.26863110065 1.26855671406 1.18163752556 1.03518033028 1.00162553787 1.00000011921 1.0 1.00000011921 0.998754024506 1.03668475151 1.09333109856 1.09338712692 1.0365575552 1.00000011921 1.0 0.999999940395 
1.0 1.00000011921 0.998744487762 1.03679823875 1.0936113596 1.0935857296 1.0367051363 1.00000023842 1.0 1.0 0.999999940395 1.0016784668 1.07826149464 1.18163526058 1.27202403545 1.27199935913 1.18155050278 1.03526031971 1.00165295601 1.0 1.0 1.05964851379 1.16148984432 1.27865362167 1.39469587803 1.39467656612 1.27857279778 1.10907959938 1.05957710743 1.00000011921 1.0 1.09507787228 1.19894766808 1.30775129795 1.41434884071 1.41432881355 1.3076839447 1.14480769634 1.09501421452 1.00000011921 1.0 1.12173604965 1.23234665394 1.34106302261 1.4342546463 1.43423938751 1.34100675583 1.17392754555 1.12167358398 1.00000011921 1.0 1.12172627449 1.2323359251 1.34104216099 1.43440175056 1.43437790871 1.34097766876 1.17392134666 1.12166380882 1.00000011921 1.0 1.09503209591 1.19890832901 1.30765783787 1.41450572014 1.41447246075 1.30758392811 1.14476573467 1.09496831894 1.0 1.0 1.04023897648 1.13263475895 1.23992788792 1.35065209866 1.35065090656 1.23983442783 1.08723652363 1.0401674509 1.00000011921 1.0 1.00165009499 1.07817173004 1.18166422844 1.27216696739 1.27208733559 1.18163752556 1.03518033028 1.00162553787 1.00000011921 1.0 1.00000011921 0.998754024506 1.03668475151 1.09333109856 1.09338712692 1.0365575552 1.00000011921 1.0 0.999999940395 
1.0 1.00000011921 0.998744487762 1.03679823875 1.0936113596 1.0935857296 1.0367051363 1.00000023842 1.0 1.0 0.999999940395 1.0016784668 1.07826149464 1.18163526058 1.27202403545 1.27199935913 1.18155050278 1.03526031971 1.00165295601 1.0 1.0 1.05964851379 1.16148984432 1.27865362167 1.3970168829 1.3969976902 1.27857279778 1.10907959938 1.05957710743 1.00000011921 1.0 1.09507787228 1.19894766808 1.30775129795 1.41749441624 1.4174747467 1.3076839447 1.14480769634 1.09501421452 1.00000011921 1.0 1.12173604965 1.23234665394 1.34212422371 1.43949794769 1.43948292732 1.34206926823 1.17392754555 1.12167358398 1.00000011921 1.0 1.12172627449 1.2323359251 1.34210467339 1.43966972828 1.43964529037 1.34204053879 1.17392134666 1.12166380882 1.00000011921 1.0 1.09503209591 1.19890832901 1.30765783787 1.41767716408 1.41764342785 1.30758392811 1.14476573467 1.09496831894 1.0 1.0 1.04023897648 1.13263475895 1.23992788792 1.35065209866 1.35065090656 1.23983442783 1.08723652363 1.0401674509 1.00000011921 1.0 1.00165009499 1.07817173004 1.18166422844 1.27216696739 1.27208733559 1.18163752556 1.03518033028 1.00162553787 1.00000011921 1.0 1.00000011921 0.998754024506 1.03668475151 1.09333109856 1.09338712692 1.0365575552 1.00000011921 1.0 0.999999940395 
1.0 1.00000011921 0.998744487762 1.03679823875 1.0936113596 1.0935857296 1.0367051363 1.00000023842 1.0 1.0 0.999999940395 1.0016784668 1.07826149464 1.18163526058 1.27202403545 1.27199935913 1.18155050278 1.03526031971 1.00165295601 1.0 1.0 1.05964851379 1.16148984432 1.27865362167 1.3972645998 1.3972452879 1.27857279778 1.10907959938 1.05957710743 1.00000011921 1.0 1.09507787228 1.19894766808 1.30775129795 1.41786134243 1.41784179211 1.3076839447 1.14480769634 1.09501421452 1.00000011921 1.0 1.12173604965 1.23234665394 1.34225463867 1.44023835659 1.44022345543 1.3421998024 1.17392754555 1.12167358398 1.00000011921 1.0 1.12172627449 1.2323359251 1.34223556519 1.44041621685 1.44039177895 1.34217166901 1.17392134666 1.12166380882 1.00000011921 1.0 1.09503209591 1.19890832901 1.30765783787 1.41805064678 1.41801679134 1.30758392811 1.14476573467 1.09496831894 1.0 1.0 1.04023897648 1.13263475895 1.23992788792 1.35065209866 1.35065090656 1.23983442783 1.08723652363 1.0401674509 1.00000011921 1.0 1.00165009499 1.07817173004 1.18166422844 1.27216696739 1.27208733559 1.18163752556 1.03518033028 1.00162553787 1.00000011921 1.0 1.00000011921 0.998754024506 1.03668475151 1.09333109856 1.09338712692 1.0365575552 1.00000011921 1.0 0.999999940395 
1.0 1.00000011921 0.998744487762 1.03679823875 1.0936113596 1.0935857296 1.0367051363 1.00000023842 1.0 1.0 0.999999940395 1.0016784668 1.07826149464 1.18163526058 1.27202403545 1.27199935913 1.18155050278 1.03526031971 1.00165295601 1.0 1.0 1.05964851379 1.16148984432 1.27865362167 1.39731276035 1.39729344845 1.27857279778 1.10907959938 1.05957710743 1.00000011921 1.0 1.09507787228 1.19894766808 1.30775129795 1.41793656349 1.41791689396 1.3076839447 1.14480769634 1.09501421452 1.00000011921 1.0 1.12173604965 1.23234665394 1.34228599072 1.44041192532 1.44039714336 1.34223139286 1.17392754555 1.12167358398 1.00000011921 1.0 1.12172627449 1.2323359251 1.34226763248 1.44059181213 1.44056737423 1.3422036171 1.17392134666 1.12166380882 1.00000011921 1.0 1.09503209591 1.19890832901 1.30765783787 1.4181278944 1.41809380054 1.30758392811 1.14476573467 1.09496831894 1.0 1.0 1.04023897648 1.13263475895 1.23992788792 1.35065209866 1.35065090656 1.23983442783 1.08723652363 1.0401674509 1.00000011921 1.0 1.00165009499 1.07817173004 1.18166422844 1.27216696739 1.27208733559 1.18163752556 1.03518033028 1.00162553787 1.00000011921 1.0 1.00000011921 0.998754024506 1.03668475151 1.09333109856 1.09338712692 1.0365575552 1.00000011921 1.0 0.999999940395 
1.0 1.00000011921 0.998744487762 1.03679823875 1.0936113596 1.0935857296 1.0367051363 1.00000023842 1.0 1.0 0.999999940395 1.0016784668 1.07826149464 1.18163526058 1.27202403545 1.27199935913 1.18155050278 1.03526031971 1.00165295601 1.0 1.0 1.05964851379 1.16148984432 1.27865362167 1.39732861519 1.39730930328 1.27857279778 1.10907959938 1.05957710743 1.00000011921 1.0 1.09507787228 1.19894766808 1.30775129795 1.41796040535 1.41794085503 1.3076839447 1.14480769634 1.09501421452 1.00000011921 1.0 1.12173604965 1.23234665394 1.34229946136 1.44046986103 1.44045495987 1.34224462509 1.17392754555 1.12167358398 1.00000011921 1.0 1.12172627449 1.2323359251 1.34228122234 1.44065070152 1.44062626362 1.34221756458 1.17392134666 1.12166380882 1.00000011921 1.0 1.09503209591 1.19890832901 1.30765783787 1.41815280914 1.4181189537 1.30758392811 1.14476573467 1.09496831894 1.0 1.0 1.04023897648 1.13263475895 1.23992788792 1.35065209866 1.35065090656 1.23983442783 1.08723652363 1.0401674509 1.00000011921 1.0 1.00165009499 1.07817173004 1.18166422844 1.27216696739 1.27208733559 1.18163752556 1.03518033028 1.00162553787 1.00000011921 1.0 1.00000011921 0.998754024506 1.03668475151 1.09333109856 1.09338712692 1.0365575552 1.00000011921 1.0 0.999999940395 
1.0 1.00000011921 0.998744487762 1.03679823875 1.0936113596 1.0935857296 1.0367051363 1.00000023842 1.0 1.0 0.999999940395 1.0016784668 1.07826149464 1.18163526058 1.27202403545 1.27199935913 1.18155050278 1.03526031971 1.00165295601 1.0 1.0 1.05964851379 1.16148984432 1.27865362167 1.39733731747 1.39731788635 1.27857279778 1.10907959938 1.05957710743 1.00000011921 1.0 1.09507787228 1.19894766808 1.30775129795 1.41797232628 1.41795301437 1.3076839447 1.14480769634 1.09501421452 1.00000011921 1.0 1.12173604965 1.23234665394 1.34230864048 1.44049620628 1.44048154354 1.34225392342 1.17392754555 1.12167358398 1.00000011921 1.0 1.12172627449 1.2323359251 1.34229063988 1.44067788124 1.44065308571 1.34222650528 1.17392134666 1.12166380882 1.00000011921 1.0 1.09503209591 1.19890832901 1.30765783787 1.41816532612 1.41813135147 1.30758392811 1.14476573467 1.09496831894 1.0 1.0 1.04023897648 1.13263475895 1.23992788792 1.35065209866 1.35065090656 1.23983442783 1.08723652363 1.0401674509 1.00000011921 1.0 1.00165009499 1.07817173004 1.18166422844 1.27216696739 1.27208733559 1.18163752556 1.03518033028 1.00162553787 1.00000011921 1.0 1.00000011921 0.998754024506 1.03668475151 1.09333109856 1.09338712692 1.0365575552 1.00000011921 1.0 0.999999940395 
