0.981849372387 1.00987792015 1.03711271286 1.0816565752 1.14845323563 1.14843404293 1.0816038847 1.03019690514 1.00984680653 0.981905281544 0.972029030323 1.04860675335 1.15088140965 1.289255023 1.40462768078 1.4046087265 1.28919303417 1.0880497694 1.04853737354 0.972096383572 0.968633294106 1.12178647518 1.28238844872 1.42156839371 1.52989935875 1.52987718582 1.42150890827 1.19788694382 1.12169909477 0.968686878681 0.968304693699 1.17274105549 1.3317309618 1.45504236221 1.55119287968 1.55117499828 1.45497500896 1.25002992153 1.17266511917 0.968338608742 0.966912686825 1.21514451504 1.37392604351 1.48603916168 1.56742799282 1.56741440296 1.48597741127 1.2943738699 1.21506822109 0.96694111824 0.966914236546 1.2151350975 1.37391674519 1.48601830006 1.56752181053 1.56750237942 1.48595118523 1.29437172413 1.21505916119 0.966942429543 0.968308269978 1.17269229889 1.33169078827 1.45495271683 1.55129098892 1.5512638092 1.45488071442 1.2499973774 1.1726180315 0.968342065811 0.969366014004 1.088134408 1.23058545589 1.36938238144 1.49347674847 1.49346888065 1.3693138361 1.14752519131 1.08806920052 0.969420552254 0.97203451395 1.04851961136 1.15073883533 1.28928530216 1.40469586849 1.40461993217 1.28926813602 1.08797562122 1.04845261574 0.972101092339 0.981880486012 1.00983583927 1.03710281849 1.08146011829 1.14835655689 1.14847385883 1.08135318756 1.03018510342 1.009806633 0.981933951378 
0.981953859329 1.00700879097 1.03259503841 1.07475316525 1.13969790936 1.13967847824 1.07470548153 1.02582776546 1.00698137283 0.982008934021 0.972177445889 1.04407501221 1.1448611021 1.28226041794 1.39743554592 1.39741635323 1.28219532967 1.08240020275 1.04400980473 0.972244262695 0.968770086765 1.11587119102 1.27537870407 1.41400468349 1.53486430645 1.53484559059 1.41394269466 1.19146490097 1.1157875061 0.968823254108 0.96842956543 1.1661233902 1.3241673708 1.44933068752 1.56167399883 1.56165850163 1.44926595688 1.24330043793 1.16605067253 0.968463182449 0.96701169014 1.20815229416 1.3672772646 1.48579394817 1.58645153046 1.58644032478 1.48573720455 1.28796803951 1.20807886124 0.967039942741 0.967013120651 1.20814299583 1.36726737022 1.4857711792 1.58659482002 1.5865752697 1.48570764065 1.28796613216 1.20806980133 0.967041194439 0.968433141708 1.1660759449 1.32412850857 1.44924092293 1.56182253361 1.56179475784 1.44917118549 1.24326825142 1.16600465775 0.968466758728 0.969508707523 1.082452178 1.2237085104 1.36058020592 1.48794734478 1.48794281483 1.36051130295 1.14114809036 1.08239090443 0.969562649727 0.972182869911 1.04399108887 1.14471673965 1.28230106831 1.39748990536 1.3974134922 1.28228294849 1.08232581615 1.04392850399 0.972248613834 0.981984317303 1.00697052479 1.03259396553 1.07454907894 1.1396228075 1.13974452019 1.07444310188 1.02582323551 1.00694489479 0.982036590576 
0.981955528259 1.00699353218 1.03256893158 1.0747089386 1.13963890076 1.13961958885 1.07466125488 1.02580332756 1.00696611404 0.982010304928 0.972180068493 1.04404711723 1.1448212862 1.28221237659 1.39738440514 1.39736509323 1.28214728832 1.08236408234 1.04398202896 0.97224676609 0.968773245811 1.11583077908 1.27532744408 1.41393947601 1.53479743004 1.53477847576 1.41387760639 1.19141864777 1.11574721336 0.968826293945 0.968433320522 1.1660759449 1.32410871983 1.44925832748 1.56159961224 1.56158435345 1.44919371605 1.24324762821 1.16600298882 0.968466877937 0.96701592207 1.20809984207 1.36721301079 1.48571693897 1.58637285233 1.58636164665 1.48566019535 1.28790998459 1.20802628994 0.967043995857 0.967017292976 1.20809054375 1.36720299721 1.48569405079 1.58651614189 1.58649659157 1.48563051224 1.28790807724 1.20801723003 0.967045426369 0.968436956406 1.16602838039 1.32406973839 1.44916880131 1.5617480278 1.56172060966 1.44909858704 1.24321520329 1.16595721245 0.968470394611 0.969511806965 1.08241415024 1.22366058826 1.36051797867 1.48788142204 1.48787677288 1.36044883728 1.14110445976 1.08235299587 0.969565689564 0.972185313702 1.04396307468 1.14467692375 1.28225302696 1.39743852615 1.39736235142 1.28223478794 1.08228933811 1.04390060902 0.972251415253 0.981985926628 1.006955266 1.03256773949 1.07450473309 1.13956403732 1.13968551159 1.07439863682 1.02579879761 1.00692987442 0.982038378716 
0.98195540905 1.00699448586 1.03257036209 1.07471144199 1.13964259624 1.13962304592 1.07466375828 1.02580499649 1.00696706772 0.982010245323 0.972179889679 1.04404866695 1.14482355118 1.28221511841 1.39738738537 1.39736819267 1.28215003014 1.08236610889 1.04398369789 0.972246527672 0.968773007393 1.11583316326 1.27533066273 1.41394305229 1.53480124474 1.53478240967 1.41388165951 1.19142127037 1.11574935913 0.968826174736 0.968433082104 1.16607868671 1.3241121769 1.44926261902 1.56160414219 1.56158864498 1.44919776917 1.24325060844 1.16600584984 0.968466639519 0.967015624046 1.2081028223 1.36721694469 1.48572134972 1.58637750149 1.5863660574 1.48566460609 1.28791344166 1.20802938938 0.967043757439 0.967017054558 1.20809352398 1.3672066927 1.48569869995 1.58652091026 1.58650135994 1.48563492298 1.28791153431 1.20802032948 0.967045247555 0.968436717987 1.16603112221 1.32407331467 1.44917297363 1.56175255775 1.5617249012 1.44910299778 1.24321818352 1.16595983505 0.968470275402 0.969511628151 1.08241641521 1.22366333008 1.36052167416 1.48788511753 1.48788070679 1.36045229435 1.14110684395 1.08235514164 0.96956551075 0.972185313702 1.04396486282 1.14467918873 1.28225576878 1.3974416256 1.39736533165 1.28223776817 1.08229160309 1.04390215874 0.972251117229 0.981985867023 1.00695633888 1.03256928921 1.07450735569 1.1395676136 1.13968896866 1.07440137863 1.02580010891 1.00693070889 0.982038259506 
0.981955170631 1.00699532032 1.03257203102 1.07471418381 1.13964617252 1.13962674141 1.07466650009 1.02580630779 1.00696790218 0.982010245323 0.97217965126 1.04405045509 1.14482593536 1.28221809864 1.39739060402 1.39737153053 1.28215301037 1.08236825466 1.04398536682 0.972246289253 0.968772888184 1.11583578587 1.27533376217 1.41394710541 1.53480517864 1.53478646278 1.41388547421 1.1914242506 1.11575198174 0.968825876713 0.968432784081 1.16608154774 1.32411575317 1.44926714897 1.56160855293 1.56159317493 1.44920229912 1.2432538271 1.16600871086 0.968466341496 0.967015504837 1.20810604095 1.36722075939 1.48572611809 1.58638226986 1.58637082577 1.48566925526 1.28791689873 1.20803260803 0.967043638229 0.967016816139 1.20809686184 1.36721098423 1.48570334911 1.58652567863 1.58650612831 1.48563969135 1.28791487217 1.20802354813 0.967044770718 0.968436479568 1.16603410244 1.32407677174 1.44917726517 1.56175720692 1.56172943115 1.4491071701 1.24322164059 1.16596293449 0.968469977379 0.969511389732 1.08241868019 1.22366631031 1.36052548885 1.48788917065 1.48788487911 1.36045622826 1.14110970497 1.08235752583 0.969565451145 0.972185134888 1.04396665096 1.14468169212 1.28225874901 1.39744484425 1.39736843109 1.28224074841 1.08229386806 1.04390394688 0.972250938416 0.981985747814 1.00695729256 1.03257095814 1.07451021671 1.13957095146 1.13969266415 1.07440388203 1.02580177784 1.00693166256 0.982038140297 
0.981955111027 1.00699627399 1.03257358074 1.07471680641 1.13964962959 1.13963019848 1.0746691227 1.0258077383 1.00696873665 0.982010006905 0.972179412842 1.04405224323 1.14482843876 1.28222107887 1.39739370346 1.39737439156 1.2821559906 1.08237040043 1.04398703575 0.972246289253 0.96877259016 1.11583817005 1.27533662319 1.41395115852 1.53480935097 1.53479075432 1.41388976574 1.19142687321 1.11575448513 0.968825817108 0.968432545662 1.16608452797 1.32411921024 1.44927144051 1.56161272526 1.56159770489 1.44920647144 1.24325704575 1.16601157188 0.968466222286 0.967015087605 1.20810925961 1.36722433567 1.48573100567 1.58638703823 1.58637583256 1.48567414284 1.28792047501 1.20803570747 0.967043220997 0.967016577721 1.20810031891 1.3672144413 1.48570787907 1.58653020859 1.58651089668 1.48564434052 1.28791856766 1.20802688599 0.967044651508 0.968436181545 1.16603696346 1.32408046722 1.44918191433 1.56176161766 1.56173408031 1.44911181927 1.24322485924 1.16596579552 0.968469798565 0.969511210918 1.08242094517 1.22366917133 1.36052918434 1.48789298534 1.48788869381 1.36045992374 1.14111244678 1.08235967159 0.969565212727 0.972184956074 1.04396820068 1.1446839571 1.28226161003 1.39744782448 1.39737153053 1.28224384785 1.08229613304 1.0439054966 0.972250878811 0.98198568821 1.00695824623 1.03257250786 1.07451272011 1.13957476616 1.13969624043 1.07440662384 1.02580320835 1.00693249702 0.982038021088 
0.981955170631 1.00699734688 1.03257513046 1.07471966743 1.13965320587 1.13963389397 1.07467186451 1.02580940723 1.00696980953 0.982010066509 0.972179353237 1.04405379295 1.14483082294 1.2822239399 1.3973968029 1.397377491 1.28215885162 1.08237278461 1.04398870468 0.972246050835 0.96877259016 1.11584055424 1.27533996105 1.41395509243 1.5348136425 1.53479456902 1.41389334202 1.19142997265 1.11575686932 0.968825638294 0.968432366848 1.16608738899 1.32412278652 1.44927597046 1.56161725521 1.56160235405 1.44921123981 1.24326038361 1.16601455212 0.968466043472 0.967014968395 1.20811235905 1.367228508 1.48573553562 1.58639192581 1.58638036251 1.48567867279 1.28792393208 1.20803892612 0.967043042183 0.967016339302 1.20810329914 1.36721849442 1.48571264744 1.58653509617 1.58651566505 1.4856492281 1.28792202473 1.20803010464 0.967044353485 0.968436002731 1.16603982449 1.32408416271 1.44918620586 1.56176614761 1.56173849106 1.44911623001 1.24322795868 1.16596877575 0.968469560146 0.969511091709 1.08242332935 1.22367203236 1.36053299904 1.48789691925 1.48789286613 1.36046373844 1.14111506939 1.08236205578 0.969565093517 0.97218477726 1.0439697504 1.14468634129 1.28226447105 1.39745104313 1.39737462997 1.28224658966 1.08229839802 1.04390728474 0.972250759602 0.981985509396 1.0069590807 1.03257405758 1.07451546192 1.13957834244 1.1396998167 1.07440948486 1.02580463886 1.0069334507 0.982037901878 
