2.26522231102 3.94308328629 6.91256952286 9.66710758209 11.2495260239 11.2482862473 9.66107749939 6.90501213074 3.93614649773 2.26510477066 2.29129934311 5.15385580063 9.94052124023 14.4433603287 16.9793300629 16.9773597717 14.4336185455 9.92825698853 5.14253282547 2.29097604752 2.3157055378 6.04383897781 12.0162124634 17.5817184448 20.8069000244 20.8044052124 17.5694923401 12.0011167526 6.02944850922 2.31519412994 2.33275461197 6.56395244598 13.1775760651 19.2621498108 22.7807712555 22.7780570984 19.2488460541 13.1609945297 6.54786014557 2.33211278915 2.34177017212 6.82228803635 13.7418889999 20.0525588989 23.6962394714 23.6934452057 20.0387878418 13.7246265411 6.8053855896 2.34106040001 2.34176325798 6.82208156586 13.7414464951 20.0519332886 23.6955356598 23.6927375793 20.0381660461 13.7241897583 6.80518102646 2.34105348587 2.33271789551 6.56290531158 13.1752462387 19.2588005066 22.7768821716 22.7741641998 19.2455196381 13.1586875916 6.54683113098 2.3320775032 2.31565213203 6.04200077057 12.0121097565 17.5756072998 20.7986965179 20.796289444 17.5634346008 11.9970731735 6.02762937546 2.3151409626 2.29122471809 5.15101861954 9.93364429474 14.4333019257 16.9667949677 16.9648628235 14.4236917496 9.92132663727 5.13967466354 2.29090332985 2.26516819 3.93939495087 6.90291500092 9.65114307404 11.229924202 11.229016304 9.6447687149 6.89516782761 3.93241071701 2.26504898071 
2.26548838615 3.84672284126 6.71999168396 9.43514251709 11.00086689 10.999628067 9.42919635773 6.71258354187 3.84010386467 2.26537513733 2.29049873352 5.04349756241 9.73850059509 14.2249946594 16.783662796 16.7816390991 14.2152280807 9.72636890411 5.03249073029 2.2901892662 2.31434226036 5.93822860718 11.8276510239 17.4074687958 20.76014328 20.7574768066 17.3950176239 11.8126783371 5.92411851883 2.31384849548 2.33138942719 6.46744441986 13.0053730011 19.1692657471 22.8876609802 22.8847179413 19.1554527283 12.9888601303 6.45160293579 2.3307659626 2.34053897858 6.73262071609 13.5846176147 20.0147514343 23.883638382 23.8805885315 20.0003547668 13.5673685074 6.71595001221 2.33984565735 2.3405315876 6.73240995407 13.5841598511 20.0140895844 23.8828639984 23.8798179626 19.9996986389 13.5669221878 6.71574354172 2.33983826637 2.33135390282 6.46637916565 13.0030097961 19.1657485962 22.88347435 22.880531311 19.151966095 12.9865198135 6.45055532455 2.33073163033 2.31428956985 5.93635892868 11.8235149384 17.4011135101 20.7515335083 20.7489643097 17.3887023926 11.808599472 5.92226743698 2.3137960434 2.29042649269 5.04060506821 9.73147201538 14.2148170471 16.7705879211 16.768611908 14.2051801682 9.71925544739 5.02956342697 2.29011821747 2.26543712616 3.84307408333 6.71027421951 9.41893672943 10.9813127518 10.980386734 9.41253852844 6.70261526108 3.83638882637 2.26532196999 
2.26550745964 3.83711361885 6.70056676865 9.41163063049 10.9750013351 10.9737644196 9.40569210052 6.69317293167 3.8305273056 2.26539444923 2.2904074192 5.03232955933 9.71779155731 14.2018184662 16.7602729797 16.7582492828 14.1920518875 9.70567321777 5.02135515213 2.29009962082 2.314193964 5.92752981186 11.8083190918 17.3863601685 20.7443904877 20.7417125702 17.3739032745 11.7933578491 5.91344833374 2.31370234489 2.33123397827 6.45780992508 12.9880037308 19.1545829773 22.8961391449 22.8931617737 19.1407413483 12.9715003967 6.44199419022 2.33061218262 2.34041690826 6.72384977341 13.5690078735 20.0072937012 23.9097805023 23.9066886902 19.9928379059 13.5517683029 6.70720243454 2.33972549438 2.34040951729 6.72363948822 13.5685491562 20.0066261292 23.908996582 23.9059009552 19.9921722412 13.551317215 6.70699453354 2.33971834183 2.33119797707 6.45674133301 12.9856348038 19.1510467529 22.8918952942 22.8889160156 19.1372337341 12.9691553116 6.44094371796 2.33057785034 2.31414151192 5.92565774918 11.8041744232 17.3799877167 20.735742569 20.7331562042 17.3675689697 11.7892742157 5.91159439087 2.31365013123 2.29033541679 5.02943134308 9.71074867249 14.1916303635 16.7471656799 16.7451896667 14.1819944382 9.69854164124 5.01842021942 2.29002857208 2.26545667648 3.83347034454 6.69084692001 9.39540863037 10.9554643631 10.9545402527 9.38900756836 6.68319988251 3.82681512833 2.26534175873 
2.26550889015 3.83630847931 6.69893932343 9.40965843201 10.9728279114 10.9715909958 9.40372085571 6.6915473938 3.8297252655 2.26539611816 2.29040002823 5.03139305115 9.71605014801 14.1998529434 16.758266449 16.7562446594 14.1900882721 9.70393276215 5.02042150497 2.29009222984 2.31418132782 5.92663764954 11.8066987991 17.384563446 20.7428455353 20.7401599884 17.3721046448 11.7917394638 5.9125585556 2.31368947029 2.33122158051 6.45701789856 12.9865837097 19.1532878876 22.8965682983 22.8935871124 19.1394443512 12.970082283 6.44120454788 2.33059978485 2.34040546417 6.72314071655 13.5677452087 20.0066051483 23.9126167297 23.9095172882 19.9921417236 13.5505094528 6.70649576187 2.33971405029 2.34039855003 6.72292947769 13.5672893524 20.0059356689 23.9118270874 23.9087295532 19.9914741516 13.5500583649 6.7062869072 2.33970689774 2.33118581772 6.45594978333 12.9842147827 19.1497535706 22.8923206329 22.8893375397 19.1359367371 12.9677391052 6.44015407562 2.33056521416 2.31412863731 5.92476558685 11.8025541306 17.3781890869 20.7341861725 20.7315998077 17.36577034 11.7876548767 5.91070318222 2.3136370182 2.29032754898 5.0284948349 9.70900535583 14.189663887 16.7451591492 16.7431793213 14.1800289154 9.69679832458 5.01748466492 2.29002070427 2.26545786858 3.83266592026 6.68921852112 9.39343643188 10.9532909393 10.9523677826 9.38703536987 6.68157291412 3.82601332664 2.26534318924 
2.26550889015 3.83624434471 6.6988120079 9.40951251984 10.9726686478 10.9714317322 9.40357589722 6.69142198563 3.82966136932 2.26539587975 2.29039955139 5.03132200241 9.71592330933 14.199719429 16.7581310272 16.756105423 14.1899490356 9.70380687714 5.0203499794 2.29009151459 2.31418037415 5.92657423019 11.8065900803 17.3844509125 20.7427463531 20.740070343 17.3719940186 11.7916307449 5.91249465942 2.31368851662 2.33122086525 6.45696878433 12.9865036011 19.1532325745 22.8966579437 22.8936805725 19.1393928528 12.9699993134 6.44115495682 2.33059954643 2.34040498734 6.72310066223 13.5676832199 20.0066165924 23.913022995 23.9099178314 19.9921512604 13.5504493713 6.70645618439 2.33971357346 2.34039783478 6.72288990021 13.5672264099 20.0059452057 23.912229538 23.9091281891 19.9914894104 13.5499925613 6.70624780655 2.3397064209 2.33118534088 6.45590019226 12.9841327667 19.1496982574 22.892414093 22.8894290924 19.1358833313 12.9676542282 6.44010353088 2.33056473732 2.31412768364 5.92470169067 11.802444458 17.3780765533 20.7340984344 20.7315120697 17.3656616211 11.7875471115 5.91064119339 2.31363630295 2.29032707214 5.02842283249 9.70887851715 14.1895284653 16.7450218201 16.7430438995 14.17989254 9.69667243958 5.01741504669 2.29002046585 2.26545810699 3.83260202408 6.68909263611 9.39328861237 10.9531316757 10.9522075653 9.38688850403 6.6814455986 3.82594919205 2.26534318924 
2.26550889015 3.83624744415 6.69882249832 9.40952968597 10.9726915359 10.9714546204 9.40359401703 6.69143152237 3.82966423035 2.26539611816 2.29039955139 5.03132963181 9.71594429016 14.1997480392 16.7581672668 16.7561454773 14.1899795532 9.7038269043 5.02035808563 2.29009175301 2.31418085098 5.9265871048 11.8066196442 17.3844966888 20.742805481 20.7401275635 17.3720397949 11.7916612625 5.9125084877 2.31368947029 2.33122181892 6.45698690414 12.9865427017 19.1532974243 22.8967514038 22.8937683105 19.1394538879 12.9700403214 6.44117307663 2.33060026169 2.34040546417 6.72312259674 13.56772995 20.0066928864 23.9131622314 23.9100589752 19.9922294617 13.5504922867 6.70647621155 2.33971428871 2.34039831161 6.72291040421 13.5672702789 20.0060272217 23.9123687744 23.9092693329 19.991563797 13.5500411987 6.70626735687 2.33970713615 2.33118581772 6.45591688156 12.9841737747 19.1497612 22.8925018311 22.8895187378 19.1359481812 12.9676933289 6.4401216507 2.33056569099 2.31412816048 5.92471504211 11.8024740219 17.3781204224 20.7341518402 20.7315654755 17.3657016754 11.7875747681 5.91065311432 2.31363654137 2.29032754898 5.02843141556 9.70889854431 14.1895599365 16.7450561523 16.7430820465 14.1799230576 9.69669246674 5.01742267609 2.29002070427 2.26545834541 3.83260440826 6.68910264969 9.39330673218 10.9531555176 10.9522314072 9.38690662384 6.68145561218 3.82595252991 2.26534342766 
2.26550865173 3.83625650406 6.69884538651 9.40956497192 10.9727315903 10.971496582 9.4036283493 6.69145345688 3.82967329025 2.26539611816 2.29039978981 5.03134489059 9.71597862244 14.199795723 16.7582187653 16.7561950684 14.190030098 9.70386123657 5.02037334442 2.29009199142 2.3141810894 5.9266076088 11.8066654205 17.3845558167 20.7428741455 20.7401924133 17.3721027374 11.7917051315 5.91252851486 2.31368970871 2.33122253418 6.457010746 12.9865932465 19.1533679962 22.8968410492 22.8938579559 19.1395282745 12.9700908661 6.44119691849 2.33060073853 2.34040665627 6.72314834595 13.5677843094 20.0067768097 23.9132709503 23.9101696014 19.9923114777 13.5505475998 6.70650243759 2.33971476555 2.34039926529 6.72293710709 13.5673284531 20.0061073303 23.9124851227 23.9093837738 19.9916496277 13.5500965118 6.70629453659 2.33970808983 2.33118677139 6.45594120026 12.9842205048 19.1498336792 22.8925933838 22.8896045685 19.1360187531 12.9677467346 6.44014549255 2.33056640625 2.31412863731 5.92473506927 11.8025169373 17.3781814575 20.7342205048 20.73163414 17.3657588959 11.7876186371 5.91067361832 2.31363677979 2.29032754898 5.02844572067 9.70893383026 14.1896066666 16.7451076508 16.7431316376 14.1799697876 9.69672775269 5.01743793488 2.29002094269 2.26545834541 3.83261370659 6.68912363052 9.39334201813 10.9531965256 10.9522724152 9.38694095612 6.68147754669 3.82596135139 2.26534366608 
