1.0 1.00000011921 1.00042378902 1.05480957031 1.09304249287 1.09303104877 1.05472612381 1.00000023842 1.0 1.0 0.999999940395 1.00601530075 1.07964241505 1.11077523232 1.11737763882 1.11737322807 1.1107519865 1.0467107296 1.00595068932 1.0 1.0 1.06456243992 1.10117149353 1.11770772934 1.12201583385 1.12201273441 1.11769485474 1.09270453453 1.0644954443 1.00000011921 1.0 1.08539247513 1.1071344614 1.11924672127 1.12275516987 1.12275326252 1.11923742294 1.10186874866 1.0853446722 1.00000011921 1.0 1.09416508675 1.1100153923 1.12016844749 1.12301409245 1.12301254272 1.12016153336 1.10581815243 1.09412574768 1.00000011921 1.0 1.09416151047 1.11001360416 1.12016749382 1.12301635742 1.12301456928 1.12016022205 1.10581624508 1.0941221714 1.00000011921 1.0 1.08536696434 1.10712516308 1.11923980713 1.12275576591 1.12275362015 1.1192303896 1.10185658932 1.08531939983 1.0 1.0 1.04883790016 1.09960782528 1.11748409271 1.12211179733 1.12210941315 1.11747074127 1.08864319324 1.04876554012 1.00000011921 1.0 1.00595164299 1.07958722115 1.11076653004 1.11738443375 1.11737775803 1.11074590683 1.04663133621 1.00588798523 1.00000011921 1.0 1.00000011921 1.00038528442 1.05471432209 1.09293043613 1.0929441452 1.05461323261 1.00000011921 1.0 0.999999940395 
1.0 1.00000011921 1.00042378902 1.05480957031 1.10666513443 1.10664331913 1.05472612381 1.00000023842 1.0 1.0 0.999999940395 1.00601530075 1.08740460873 1.17978692055 1.21826553345 1.21825289726 1.17971432209 1.0467107296 1.00595068932 1.0 1.0 1.06565964222 1.16265463829 1.2208698988 1.23656010628 1.23655283451 1.22082412243 1.11396372318 1.06559121609 1.00000011921 1.0 1.09871411324 1.18617200851 1.2271784544 1.2391705513 1.23916578293 1.22714567184 1.14697027206 1.09865403175 1.00000011921 1.0 1.12319076061 1.19821715355 1.23084247112 1.24023723602 1.24023425579 1.23081767559 1.17210185528 1.12313461304 1.00000011921 1.0 1.12318253517 1.19821131229 1.23083925247 1.24024415016 1.2402408123 1.23081386089 1.17209589481 1.1231263876 1.00000011921 1.0 1.09867215157 1.18614399433 1.22715461254 1.2391718626 1.2391667366 1.22712111473 1.14693152905 1.09861290455 1.0 1.0 1.04883790016 1.13911306858 1.21651768684 1.23594093323 1.23593688011 1.21646380424 1.09596180916 1.04876554012 1.00000011921 1.0 1.00595164299 1.08732235432 1.17976462841 1.21827816963 1.21825218201 1.17971229553 1.04663133621 1.00588798523 1.00000011921 1.0 1.00000011921 1.00038528442 1.05471432209 1.10644090176 1.10648071766 1.05461323261 1.00000011921 1.0 0.999999940395 
1.0 1.00000011921 1.00042378902 1.05480957031 1.10666513443 1.10664331913 1.05472612381 1.00000023842 1.0 1.0 0.999999940395 1.00601530075 1.08740460873 1.18056750298 1.26014566422 1.26012301445 1.18049275875 1.0467107296 1.00595068932 1.0 1.0 1.06565964222 1.16478443146 1.26998007298 1.32523953915 1.32522308826 1.26990914345 1.11396372318 1.06559121609 1.00000011921 1.0 1.09871411324 1.19934010506 1.29190838337 1.33304917812 1.33303785324 1.29183995724 1.14697027206 1.09865403175 1.00000011921 1.0 1.12319076061 1.22935438156 1.30660748482 1.33684515953 1.33683753014 1.30654752254 1.17264080048 1.12313461304 1.00000011921 1.0 1.12318253517 1.2293459177 1.30659747124 1.33686625957 1.33685684204 1.30653548241 1.17263412476 1.1231263876 1.00000011921 1.0 1.09867215157 1.19930541515 1.29184317589 1.33306014538 1.33304679394 1.29177260399 1.14693152905 1.09861290455 1.0 1.0 1.04883790016 1.13911306858 1.23863124847 1.31770765781 1.31769967079 1.23854589462 1.09596180916 1.04876554012 1.00000011921 1.0 1.00595164299 1.08732235432 1.1805511713 1.26022934914 1.26016402245 1.18050086498 1.04663133621 1.00588798523 1.00000011921 1.0 1.00000011921 1.00038528442 1.05471432209 1.10644090176 1.10648071766 1.05461323261 1.00000011921 1.0 0.999999940395 
1.0 1.00000011921 1.00042378902 1.05480957031 1.10666513443 1.10664331913 1.05472612381 1.00000023842 1.0 1.0 0.999999940395 1.00601530075 1.08740460873 1.18056750298 1.26017022133 1.26014780998 1.18049275875 1.0467107296 1.00595068932 1.0 1.0 1.06565964222 1.16478443146 1.27068626881 1.36784613132 1.36782979965 1.27061700821 1.11396372318 1.06559121609 1.00000011921 1.0 1.09871411324 1.19934010506 1.29830443859 1.38480401039 1.38478565216 1.29824447632 1.14697027206 1.09865403175 1.00000011921 1.0 1.12319076061 1.22935438156 1.32726883888 1.39682745934 1.39681470394 1.32722175121 1.17264080048 1.12313461304 1.00000011921 1.0 1.12318253517 1.2293459177 1.32724940777 1.39688766003 1.39687049389 1.32719683647 1.17263412476 1.1231263876 1.00000011921 1.0 1.09867215157 1.19930541515 1.29822158813 1.38486123085 1.38483560085 1.29815757275 1.14693152905 1.09861290455 1.0 1.0 1.04883790016 1.13911306858 1.23863124847 1.3338855505 1.33387851715 1.23854589462 1.09596180916 1.04876554012 1.00000011921 1.0 1.00595164299 1.08732235432 1.1805511713 1.26025474072 1.2601890564 1.18050086498 1.04663133621 1.00588798523 1.00000011921 1.0 1.00000011921 1.00038528442 1.05471432209 1.10644090176 1.10648071766 1.05461323261 1.00000011921 1.0 0.999999940395 
1.0 1.00000011921 1.00042378902 1.05480957031 1.10666513443 1.10664331913 1.05472612381 1.00000023842 1.0 1.0 0.999999940395 1.00601530075 1.08740460873 1.18056750298 1.26017022133 1.26014780998 1.18049275875 1.0467107296 1.00595068932 1.0 1.0 1.06565964222 1.16478443146 1.27068626881 1.37246847153 1.37245380878 1.27061700821 1.11396372318 1.06559121609 1.00000011921 1.0 1.09871411324 1.19934010506 1.29830443859 1.39484059811 1.39482700825 1.29824447632 1.14697027206 1.09865403175 1.00000011921 1.0 1.12319076061 1.22935438156 1.3276335001 1.4151365757 1.41512560844 1.32758867741 1.17264080048 1.12313461304 1.00000011921 1.0 1.12318253517 1.2293459177 1.32761383057 1.41525185108 1.41523349285 1.32756268978 1.17263412476 1.1231263876 1.00000011921 1.0 1.09867215157 1.19930541515 1.29822158813 1.39496648312 1.39494180679 1.29815757275 1.14693152905 1.09861290455 1.0 1.0 1.04883790016 1.13911306858 1.23863124847 1.3338855505 1.33387851715 1.23854589462 1.09596180916 1.04876554012 1.00000011921 1.0 1.00595164299 1.08732235432 1.1805511713 1.26025474072 1.2601890564 1.18050086498 1.04663133621 1.00588798523 1.00000011921 1.0 1.00000011921 1.00038528442 1.05471432209 1.10644090176 1.10648071766 1.05461323261 1.00000011921 1.0 0.999999940395 
1.0 1.00000011921 1.00042378902 1.05480957031 1.10666513443 1.10664331913 1.05472612381 1.00000023842 1.0 1.0 0.999999940395 1.00601530075 1.08740460873 1.18056750298 1.26017022133 1.26014780998 1.18049275875 1.0467107296 1.00595068932 1.0 1.0 1.06565964222 1.16478443146 1.27068626881 1.37246847153 1.37245380878 1.27061700821 1.11396372318 1.06559121609 1.00000011921 1.0 1.09871411324 1.19934010506 1.29830443859 1.39498949051 1.39497625828 1.29824447632 1.14697027206 1.09865403175 1.00000011921 1.0 1.12319076061 1.22935438156 1.32766354084 1.41683077812 1.41682100296 1.32761847973 1.17264080048 1.12313461304 1.00000011921 1.0 1.12318253517 1.2293459177 1.32764446735 1.4169678688 1.41695022583 1.32759308815 1.17263412476 1.1231263876 1.00000011921 1.0 1.09867215157 1.19930541515 1.29822158813 1.39512515068 1.39510059357 1.29815757275 1.14693152905 1.09861290455 1.0 1.0 1.04883790016 1.13911306858 1.23863124847 1.3338855505 1.33387851715 1.23854589462 1.09596180916 1.04876554012 1.00000011921 1.0 1.00595164299 1.08732235432 1.1805511713 1.26025474072 1.2601890564 1.18050086498 1.04663133621 1.00588798523 1.00000011921 1.0 1.00000011921 1.00038528442 1.05471432209 1.10644090176 1.10648071766 1.05461323261 1.00000011921 1.0 0.999999940395 
1.0 1.00000011921 1.00042378902 1.05480957031 1.10666513443 1.10664331913 1.05472612381 1.00000023842 1.0 1.0 0.999999940395 1.00601530075 1.08740460873 1.18056750298 1.26017022133 1.26014780998 1.18049275875 1.0467107296 1.00595068932 1.0 1.0 1.06565964222 1.16478443146 1.27068626881 1.37246847153 1.37245380878 1.27061700821 1.11396372318 1.06559121609 1.00000011921 1.0 1.09871411324 1.19934010506 1.29830443859 1.39498949051 1.39497625828 1.29824447632 1.14697027206 1.09865403175 1.00000011921 1.0 1.12319076061 1.22935438156 1.32766628265 1.416852355 1.41684281826 1.32762122154 1.17264080048 1.12313461304 1.00000011921 1.0 1.12318253517 1.2293459177 1.32764720917 1.41699063778 1.41697311401 1.32759571075 1.17263412476 1.1231263876 1.00000011921 1.0 1.09867215157 1.19930541515 1.29822158813 1.39512550831 1.39510071278 1.29815757275 1.14693152905 1.09861290455 1.0 1.0 1.04883790016 1.13911306858 1.23863124847 1.3338855505 1.33387851715 1.23854589462 1.09596180916 1.04876554012 1.00000011921 1.0 1.00595164299 1.08732235432 1.1805511713 1.26025474072 1.2601890564 1.18050086498 1.04663133621 1.00588798523 1.00000011921 1.0 1.00000011921 1.00038528442 1.05471432209 1.10644090176 1.10648071766 1.05461323261 1.00000011921 1.0 0.999999940395 
