1.0 1.00000011921 1.00000023842 1.00756072998 1.07938086987 1.07934999466 1.0075006485 1.00000023842 1.0 1.0 0.999999940395 1.00000011921 1.07223415375 1.19643485546 1.27805554867 1.27803111076 1.19633698463 1.01665401459 1.0 1.0 1.0 1.05598855019 1.1709266901 1.27463293076 1.31612968445 1.31611526012 1.27454185486 1.11435973644 1.05592656136 1.00000011921 1.0 1.09884274006 1.21056389809 1.28670084476 1.31917834282 1.31916773319 1.28662192822 1.15707826614 1.09878408909 1.00000011921 1.0 1.13061344624 1.23373758793 1.29454183578 1.32068026066 1.32067418098 1.29447674751 1.18942320347 1.13055479527 1.00000011921 1.0 1.13060176373 1.23372983932 1.2945381403 1.32070732117 1.32069993019 1.2944715023 1.18941569328 1.13054275513 1.00000011921 1.0 1.09878790379 1.21052896976 1.28665661812 1.31920528412 1.31919145584 1.28657710552 1.1570327282 1.09872853756 1.0 1.0 1.02454793453 1.13728737831 1.25663328171 1.31291484833 1.31291306019 1.25652527809 1.08148097992 1.02448475361 1.00000011921 1.0 1.0 1.07212865353 1.19647347927 1.27812993526 1.2780714035 1.19645667076 1.01657223701 1.0 1.00000011921 1.0 1.00000011921 1.00000011921 1.00737667084 1.07908296585 1.07917571068 1.00723576546 1.00000011921 1.0 0.999999940395 
1.0 1.00000011921 1.00000023842 1.00756072998 1.07938086987 1.07934999466 1.0075006485 1.00000023842 1.0 1.0 0.999999940395 1.00000011921 1.07223415375 1.19643485546 1.29445505142 1.29442703724 1.19633698463 1.01665401459 1.0 1.0 1.0 1.05598855019 1.1709266901 1.29485344887 1.41159796715 1.41157341003 1.29476511478 1.11435973644 1.05592656136 1.00000011921 1.0 1.09884274006 1.21161842346 1.32305514812 1.42981338501 1.4297876358 1.32296431065 1.15707826614 1.09878408909 1.00000011921 1.0 1.13061344624 1.24408304691 1.35182380676 1.44976067543 1.44974064827 1.35174763203 1.18942320347 1.13055479527 1.00000011921 1.0 1.13060176373 1.24407207966 1.35180425644 1.44995832443 1.44992756844 1.35172080994 1.18941569328 1.13054275513 1.00000011921 1.0 1.09878790379 1.21157968044 1.32295656204 1.4300185442 1.42997717857 1.32286095619 1.1570327282 1.09872853756 1.0 1.0 1.02454793453 1.13728737831 1.25806581974 1.37052857876 1.37052261829 1.25795578957 1.08148097992 1.02448475361 1.00000011921 1.0 1.0 1.07212865353 1.19647347927 1.29460370541 1.29451358318 1.19645667076 1.01657223701 1.0 1.00000011921 1.0 1.00000011921 1.00000011921 1.00737667084 1.07908296585 1.07917571068 1.00723576546 1.00000011921 1.0 0.999999940395 
1.0 1.00000011921 1.00000023842 1.00756072998 1.07938086987 1.07934999466 1.0075006485 1.00000023842 1.0 1.0 0.999999940395 1.00000011921 1.07223415375 1.19643485546 1.29445505142 1.29442703724 1.19633698463 1.01665401459 1.0 1.0 1.0 1.05598855019 1.1709266901 1.29485344887 1.41159796715 1.41157341003 1.29476511478 1.11435973644 1.05592656136 1.00000011921 1.0 1.09884274006 1.21161842346 1.32305514812 1.42981338501 1.4297876358 1.32296431065 1.15707826614 1.09878408909 1.00000011921 1.0 1.13061344624 1.24408304691 1.35182380676 1.44976067543 1.44974064827 1.35174763203 1.18942320347 1.13055479527 1.00000011921 1.0 1.13060176373 1.24407207966 1.35180425644 1.44995832443 1.44992756844 1.35172080994 1.18941569328 1.13054275513 1.00000011921 1.0 1.09878790379 1.21157968044 1.32295656204 1.4300185442 1.42997717857 1.32286095619 1.1570327282 1.09872853756 1.0 1.0 1.02454793453 1.13728737831 1.25806581974 1.37052857876 1.37052261829 1.25795578957 1.08148097992 1.02448475361 1.00000011921 1.0 1.0 1.07212865353 1.19647347927 1.29460370541 1.29451358318 1.19645667076 1.01657223701 1.0 1.00000011921 1.0 1.00000011921 1.00000011921 1.00737667084 1.07908296585 1.07917571068 1.00723576546 1.00000011921 1.0 0.999999940395 
1.0 1.00000011921 1.00000023842 1.00756072998 1.07938086987 1.07934999466 1.0075006485 1.00000023842 1.0 1.0 0.999999940395 1.00000011921 1.07223415375 1.19643485546 1.29445505142 1.29442703724 1.19633698463 1.01665401459 1.0 1.0 1.0 1.05598855019 1.1709266901 1.29485344887 1.41159796715 1.41157341003 1.29476511478 1.11435973644 1.05592656136 1.00000011921 1.0 1.09884274006 1.21161842346 1.32305514812 1.42981338501 1.4297876358 1.32296431065 1.15707826614 1.09878408909 1.00000011921 1.0 1.13061344624 1.24408304691 1.35182380676 1.44976067543 1.44974064827 1.35174763203 1.18942320347 1.13055479527 1.00000011921 1.0 1.13060176373 1.24407207966 1.35180425644 1.44995832443 1.44992756844 1.35172080994 1.18941569328 1.13054275513 1.00000011921 1.0 1.09878790379 1.21157968044 1.32295656204 1.4300185442 1.42997717857 1.32286095619 1.1570327282 1.09872853756 1.0 1.0 1.02454793453 1.13728737831 1.25806581974 1.37052857876 1.37052261829 1.25795578957 1.08148097992 1.02448475361 1.00000011921 1.0 1.0 1.07212865353 1.19647347927 1.29460370541 1.29451358318 1.19645667076 1.01657223701 1.0 1.00000011921 1.0 1.00000011921 1.00000011921 1.00737667084 1.07908296585 1.07917571068 1.00723576546 1.00000011921 1.0 0.999999940395 
1.0 1.00000011921 1.00000023842 1.00756072998 1.07938086987 1.07934999466 1.0075006485 1.00000023842 1.0 1.0 0.999999940395 1.00000011921 1.07223415375 1.19643485546 1.29445505142 1.29442703724 1.19633698463 1.01665401459 1.0 1.0 1.0 1.05598855019 1.1709266901 1.29485344887 1.41159796715 1.41157341003 1.29476511478 1.11435973644 1.05592656136 1.00000011921 1.0 1.09884274006 1.21161842346 1.32305514812 1.42981338501 1.4297876358 1.32296431065 1.15707826614 1.09878408909 1.00000011921 1.0 1.13061344624 1.24408304691 1.35182380676 1.44976067543 1.44974064827 1.35174763203 1.18942320347 1.13055479527 1.00000011921 1.0 1.13060176373 1.24407207966 1.35180425644 1.44995832443 1.44992756844 1.35172080994 1.18941569328 1.13054275513 1.00000011921 1.0 1.09878790379 1.21157968044 1.32295656204 1.4300185442 1.42997717857 1.32286095619 1.1570327282 1.09872853756 1.0 1.0 1.02454793453 1.13728737831 1.25806581974 1.37052857876 1.37052261829 1.25795578957 1.08148097992 1.02448475361 1.00000011921 1.0 1.0 1.07212865353 1.19647347927 1.29460370541 1.29451358318 1.19645667076 1.01657223701 1.0 1.00000011921 1.0 1.00000011921 1.00000011921 1.00737667084 1.07908296585 1.07917571068 1.00723576546 1.00000011921 1.0 0.999999940395 
1.0 1.00000011921 1.00000023842 1.00756072998 1.07938086987 1.07934999466 1.0075006485 1.00000023842 1.0 1.0 0.999999940395 1.00000011921 1.07223415375 1.19643485546 1.29445505142 1.29442703724 1.19633698463 1.01665401459 1.0 1.0 1.0 1.05598855019 1.1709266901 1.29485344887 1.41159796715 1.41157341003 1.29476511478 1.11435973644 1.05592656136 1.00000011921 1.0 1.09884274006 1.21161842346 1.32305514812 1.42981338501 1.4297876358 1.32296431065 1.15707826614 1.09878408909 1.00000011921 1.0 1.13061344624 1.24408304691 1.35182380676 1.44976067543 1.44974064827 1.35174763203 1.18942320347 1.13055479527 1.00000011921 1.0 1.13060176373 1.24407207966 1.35180425644 1.44995832443 1.44992756844 1.35172080994 1.18941569328 1.13054275513 1.00000011921 1.0 1.09878790379 1.21157968044 1.32295656204 1.4300185442 1.42997717857 1.32286095619 1.1570327282 1.09872853756 1.0 1.0 1.02454793453 1.13728737831 1.25806581974 1.37052857876 1.37052261829 1.25795578957 1.08148097992 1.02448475361 1.00000011921 1.0 1.0 1.07212865353 1.19647347927 1.29460370541 1.29451358318 1.19645667076 1.01657223701 1.0 1.00000011921 1.0 1.00000011921 1.00000011921 1.00737667084 1.07908296585 1.07917571068 1.00723576546 1.00000011921 1.0 0.999999940395 
1.0 1.00000011921 1.00000023842 1.00756072998 1.07938086987 1.07934999466 1.0075006485 1.00000023842 1.0 1.0 0.999999940395 1.00000011921 1.07223415375 1.19643485546 1.29445505142 1.29442703724 1.19633698463 1.01665401459 1.0 1.0 1.0 1.05598855019 1.1709266901 1.29485344887 1.41159796715 1.41157341003 1.29476511478 1.11435973644 1.05592656136 1.00000011921 1.0 1.09884274006 1.21161842346 1.32305514812 1.42981338501 1.4297876358 1.32296431065 1.15707826614 1.09878408909 1.00000011921 1.0 1.13061344624 1.24408304691 1.35182380676 1.44976067543 1.44974064827 1.35174763203 1.18942320347 1.13055479527 1.00000011921 1.0 1.13060176373 1.24407207966 1.35180425644 1.44995832443 1.44992756844 1.35172080994 1.18941569328 1.13054275513 1.00000011921 1.0 1.09878790379 1.21157968044 1.32295656204 1.4300185442 1.42997717857 1.32286095619 1.1570327282 1.09872853756 1.0 1.0 1.02454793453 1.13728737831 1.25806581974 1.37052857876 1.37052261829 1.25795578957 1.08148097992 1.02448475361 1.00000011921 1.0 1.0 1.07212865353 1.19647347927 1.29460370541 1.29451358318 1.19645667076 1.01657223701 1.0 1.00000011921 1.0 1.00000011921 1.00000011921 1.00737667084 1.07908296585 1.07917571068 1.00723576546 1.00000011921 1.0 0.999999940395 
