0.9817456007 1.00845015049 1.03646767139 1.09243738651 1.16865313053 1.16862559319 1.09236526489 1.02682518959 1.00841581821 0.981799006462 0.972531676292 1.04817247391 1.16181015968 1.2850009203 1.38928222656 1.38926136494 1.28492426872 1.09643208981 1.04811108112 0.972593069077 0.969745457172 1.13349437714 1.27043914795 1.40263807774 1.51427054405 1.51425111294 1.4025645256 1.19937264919 1.13341665268 0.969789624214 0.968349575996 1.17839193344 1.31633090973 1.4351619482 1.53577589989 1.53575849533 1.4350965023 1.24497115612 1.17832016945 0.968383014202 0.966803133488 1.21411430836 1.35621917248 1.46726751328 1.55377197266 1.55375909805 1.46721017361 1.28309857845 1.21403861046 0.96683371067 0.96680521965 1.21410393715 1.35620963573 1.46724677086 1.5538765192 1.55385661125 1.46718335152 1.28309643269 1.21402859688 0.966835677624 0.968354046345 1.17834353447 1.31629192829 1.43506968021 1.53587925434 1.53585124016 1.43499970436 1.24493706226 1.17827320099 0.968387305737 0.970356285572 1.10264217854 1.23141479492 1.35478925705 1.47551703453 1.47551226616 1.35471308231 1.16348493099 1.10257732868 0.970401644707 0.972537755966 1.04808855057 1.16168439388 1.28503215313 1.38938820362 1.38931334019 1.28499686718 1.09633731842 1.04802978039 0.972598552704 0.981772899628 1.00840902328 1.03644955158 1.09222126007 1.16844272614 1.16853153706 1.09208476543 1.02681899071 1.00837624073 0.981823861599 
0.981698513031 1.00712835789 1.03460597992 1.08994996548 1.16569471359 1.16566753387 1.089879632 1.02495932579 1.00709605217 0.981751739979 0.972467780113 1.04640483856 1.15971040726 1.28268957138 1.38703107834 1.38701105118 1.28261208534 1.09438180923 1.04634511471 0.972529232502 0.969623029232 1.13149440289 1.26834928989 1.40074801445 1.52477836609 1.52476143837 1.40067338943 1.19742119312 1.13141739368 0.969667196274 0.968171358109 1.17634904385 1.31425440311 1.43523108959 1.54997074604 1.54995465279 1.43516921997 1.24319243431 1.17627716064 0.968204975128 0.966565072536 1.21212339401 1.3548951149 1.47348535061 1.57494711876 1.57493591309 1.47343468666 1.28207504749 1.21204769611 0.966596066952 0.966566979885 1.21211290359 1.35488462448 1.47346401215 1.575101614 1.57508134842 1.47340512276 1.28207373619 1.21203744411 0.966597914696 0.968175888062 1.17630088329 1.31421494484 1.43513727188 1.55012989044 1.55009973049 1.4350694418 1.24315714836 1.17623054981 0.968209505081 0.970243752003 1.1006487608 1.22922253609 1.35195791721 1.47524893284 1.47524631023 1.35188257694 1.16133618355 1.10058450699 0.970289349556 0.972473978996 1.04632163048 1.15958309174 1.28272390366 1.38713097572 1.38705658913 1.2826884985 1.09428608418 1.04626464844 0.97253459692 0.98172557354 1.00708889961 1.03459012508 1.08973121643 1.16548895836 1.16557919979 1.08959519863 1.02495479584 1.00705766678 0.981776475906 
0.981696009636 1.00706028938 1.03450882435 1.08982133865 1.16554105282 1.16551399231 1.08975124359 1.02486157417 1.00702750683 0.981749296188 0.972464501858 1.0463142395 1.15960156918 1.28256607056 1.38690650463 1.38688635826 1.28248882294 1.09427404404 1.04625439644 0.972525954247 0.969616532326 1.13139295578 1.26824915409 1.4006165266 1.52514386177 1.52512729168 1.40054154396 1.19732117653 1.13131606579 0.969660699368 0.968161702156 1.17624652386 1.31414747238 1.43512952328 1.55067157745 1.55065536499 1.43506765366 1.24309778214 1.17617475986 0.968195259571 0.966552019119 1.2120256424 1.35482394695 1.47384738922 1.57645988464 1.57644855976 1.47379684448 1.28202748299 1.2119499445 0.966583192348 0.966553926468 1.21201527119 1.35481381416 1.4738266468 1.57662284374 1.57660257816 1.47376811504 1.28202593327 1.2119396925 0.966584920883 0.968166351318 1.17619824409 1.31410825253 1.43503606319 1.55083930492 1.55080926418 1.43496823311 1.24306261539 1.1761277914 0.968199908733 0.970237314701 1.10054528713 1.22911429405 1.35182750225 1.47513484955 1.47513270378 1.35175192356 1.16123425961 1.10048127174 0.970282912254 0.972470641136 1.04623115063 1.15947473049 1.28260052204 1.38700568676 1.38693141937 1.28256511688 1.09417819977 1.04617404938 0.972531318665 0.981722950935 1.0070207119 1.03449344635 1.08960270882 1.16533565521 1.16542577744 1.0894664526 1.02485668659 1.00698959827 0.981773972511 
0.981695652008 1.00705111027 1.03449642658 1.08980512619 1.16552186012 1.1654946804 1.0897346735 1.02484846115 1.00701868534 0.98174893856 0.972463846207 1.04630255699 1.15958797932 1.28255069256 1.3868906498 1.38687074184 1.28247320652 1.09426009655 1.04624283314 0.972525417805 0.969615459442 1.1313803196 1.26823687553 1.40059971809 1.52517044544 1.52515351772 1.40052473545 1.19730901718 1.13130331039 0.969659805298 0.96816021204 1.17623400688 1.31413507462 1.43511641026 1.55075585842 1.55073976517 1.43505489826 1.24308633804 1.17616212368 0.96819370985 0.966549992561 1.21201443672 1.35481631756 1.47390770912 1.57669615746 1.57668507099 1.47385728359 1.28202271461 1.2119385004 0.966581106186 0.966552019119 1.2120038271 1.35480642319 1.47388768196 1.57686161995 1.57684111595 1.47382926941 1.2820212841 1.21192824841 0.96658295393 0.968164801598 1.17618572712 1.31409585476 1.43502318859 1.55092597008 1.55089569092 1.43495535851 1.24305140972 1.17611515522 0.968198299408 0.970236361027 1.10053229332 1.2291008234 1.351811409 1.47512114048 1.47511911392 1.3517357111 1.16122102737 1.10046851635 0.970281839371 0.97246992588 1.04621934891 1.159460783 1.28258502483 1.38699007034 1.38691580296 1.28254961967 1.09416460991 1.04616236687 0.972530782223 0.981722593307 1.00701165199 1.03448081017 1.08958625793 1.16531634331 1.16540658474 1.08945035934 1.02484381199 1.00698065758 0.981773495674 
0.981695413589 1.00704956055 1.03449416161 1.08980250359 1.16551887989 1.16549158096 1.0897320509 1.02484607697 1.0070168972 0.981748640537 0.972463607788 1.04630053043 1.15958583355 1.28254842758 1.38688850403 1.38686847687 1.28247082233 1.09425795078 1.04624080658 0.972525238991 0.969615221024 1.13137853146 1.26823556423 1.4005972147 1.52517545223 1.52515852451 1.40052247047 1.19730699062 1.13130140305 0.969659328461 0.968159675598 1.17623245716 1.31413400173 1.43511545658 1.55077660084 1.55076014996 1.43505358696 1.24308526516 1.17616045475 0.968193292618 0.96654933691 1.21201312542 1.35481655598 1.47392809391 1.57675802708 1.5767468214 1.4738779068 1.28202366829 1.21193730831 0.96658039093 0.966551363468 1.212002635 1.35480666161 1.47390806675 1.57692408562 1.57690382004 1.4738496542 1.28202223778 1.21192705631 0.966582357883 0.968164265156 1.17618405819 1.31409478188 1.43502211571 1.55094742775 1.55091714859 1.43495452404 1.24305021763 1.1761136055 0.968198001385 0.970236003399 1.10053050518 1.22909879684 1.35180902481 1.47511970997 1.47511732578 1.35173344612 1.16121888161 1.10046637058 0.970281541348 0.972469747066 1.04621744156 1.15945827961 1.28258264065 1.38698756695 1.38691341877 1.28254723549 1.09416234493 1.04616034031 0.9725304842 0.981722533703 1.00700986385 1.03447842598 1.08958363533 1.16531324387 1.16540360451 1.08944749832 1.02484178543 1.00697875023 0.98177331686 
0.981695353985 1.00704920292 1.03449392319 1.08980250359 1.16551911831 1.16549181938 1.08973228931 1.02484571934 1.00701653957 0.981748640537 0.972463488579 1.04630041122 1.15958595276 1.28254842758 1.38688886166 1.3868689537 1.28247082233 1.09425795078 1.04624068737 0.972525119781 0.969614923 1.13137876987 1.26823616028 1.40059769154 1.52518010139 1.52516305447 1.4005228281 1.19730770588 1.13130176067 0.969659209251 0.96815943718 1.17623281479 1.31413495541 1.43511676788 1.55078685284 1.55077064037 1.43505525589 1.24308621883 1.1761610508 0.968193054199 0.966548979282 1.21201372147 1.35481882095 1.47394001484 1.57678329945 1.57677221298 1.4738894701 1.28202557564 1.21193802357 0.966580033302 0.966550886631 1.21200346947 1.35480844975 1.47391986847 1.57694983482 1.57692933083 1.47386157513 1.28202414513 1.21192777157 0.966581940651 0.968164086342 1.17618465424 1.31409573555 1.43502354622 1.55095803738 1.55092763901 1.43495595455 1.24305105209 1.17611408234 0.968197643757 0.970235645771 1.10053038597 1.22909939289 1.35180974007 1.47512090206 1.47511851788 1.35173428059 1.16121935844 1.10046648979 0.970281362534 0.972469687462 1.04621744156 1.15945863724 1.28258287907 1.38698816299 1.38691365719 1.28254759312 1.09416222572 1.0461602211 0.972530305386 0.981722354889 1.00700950623 1.03447794914 1.08958363533 1.1653137207 1.16540384293 1.08944749832 1.0248414278 1.0069783926 0.98177331686 
0.981695234776 1.00704920292 1.0344940424 1.08980309963 1.16552007198 1.16549301147 1.08973288536 1.02484583855 1.00701665878 0.981748580933 0.97246336937 1.04630076885 1.1595864296 1.28254926205 1.38688969612 1.38686954975 1.28247177601 1.09425830841 1.04624092579 0.972524940968 0.969614744186 1.13137936592 1.26823723316 1.40059912205 1.5251853466 1.52516841888 1.40052425861 1.19730865955 1.13130235672 0.969658970833 0.968159198761 1.17623376846 1.31413638592 1.43511903286 1.55079567432 1.55077922344 1.43505740166 1.24308776855 1.17616200447 0.968192696571 0.966548621655 1.21201491356 1.35482108593 1.47394943237 1.57679843903 1.57678759098 1.47389912605 1.28202807903 1.21193921566 0.966579675674 0.966550827026 1.21200466156 1.35481119156 1.47392976284 1.57696533203 1.57694482803 1.47387123108 1.28202664852 1.21192908287 0.966581702232 0.968163728714 1.1761854887 1.31409728527 1.43502569199 1.55096673965 1.55093634129 1.4349578619 1.2430523634 1.17611527443 0.968197345734 0.970235526562 1.10053110123 1.22910046577 1.35181117058 1.47512280941 1.47512042522 1.3517357111 1.16122031212 1.10046696663 0.970280885696 0.972469508648 1.04621767998 1.15945923328 1.28258371353 1.38698911667 1.38691473007 1.28254818916 1.09416270256 1.04616057873 0.972530245781 0.98172223568 1.00700962543 1.03447818756 1.08958435059 1.16531479359 1.1654047966 1.08944821358 1.0248414278 1.0069783926 0.981773138046 
