1.0 1.00000011921 0.997090160847 1.04320526123 1.09403431416 1.09401667118 1.04314982891 1.00000023842 1.0 1.0 0.999999940395 1.00015854836 1.07552421093 1.16633450985 1.24016475677 1.2401535511 1.16627645493 1.02555954456 1.0001553297 1.0 1.0 1.04763555527 1.15781605244 1.25866758823 1.33424472809 1.33423435688 1.25862050056 1.09750688076 1.04755806923 1.00000011921 1.0 1.08235752583 1.19490122795 1.28748643398 1.35376226902 1.35375356674 1.28744411469 1.13246309757 1.08228826523 1.00000011921 1.0 1.10892915726 1.2262134552 1.31024467945 1.36588215828 1.36587738991 1.31020820141 1.16036212444 1.10886228085 1.00000011921 1.0 1.10892057419 1.22620630264 1.31022906303 1.365924716 1.36591720581 1.31018924713 1.1603577137 1.10885381699 1.00000011921 1.0 1.08231687546 1.19486951828 1.28742074966 1.35380041599 1.35378837585 1.28737437725 1.1324300766 1.08224773407 1.0 1.0 1.02664017677 1.13073444366 1.22748911381 1.31097352505 1.31097006798 1.22743558884 1.0746768713 1.02656567097 1.00000011921 1.0 1.00015521049 1.07544994354 1.16629564762 1.24018752575 1.24014687538 1.16625201702 1.02549529076 1.00015199184 1.00000011921 1.0 1.00000011921 0.997108578682 1.0430996418 1.09388577938 1.09391796589 1.04302585125 1.00000011921 1.0 0.999999940395 
1.0 1.00000011921 0.997090160847 1.04320526123 1.09403431416 1.09401667118 1.04314982891 1.00000023842 1.0 1.0 0.999999940395 1.00015854836 1.07552421093 1.16633450985 1.24016475677 1.2401535511 1.16627645493 1.02555954456 1.0001553297 1.0 1.0 1.04763555527 1.15781605244 1.2590136528 1.35121357441 1.35120749474 1.25896608829 1.09750688076 1.04755806923 1.00000011921 1.0 1.08235752583 1.19490122795 1.29127180576 1.3789088726 1.37890267372 1.29123282433 1.13246309757 1.08228826523 1.00000011921 1.0 1.10892915726 1.2270026207 1.32335233688 1.40151143074 1.40150952339 1.32332205772 1.16036212444 1.10886228085 1.00000011921 1.0 1.10892057419 1.2269949913 1.32333397865 1.40159618855 1.40158963203 1.32329845428 1.1603577137 1.10885381699 1.00000011921 1.0 1.08231687546 1.19486951828 1.29120087624 1.37899422646 1.37898147106 1.2911567688 1.1324300766 1.08224773407 1.0 1.0 1.02664017677 1.13073444366 1.22748911381 1.31457817554 1.31457710266 1.22743558884 1.0746768713 1.02656567097 1.00000011921 1.0 1.00015521049 1.07544994354 1.16629564762 1.24018752575 1.24014687538 1.16625201702 1.02549529076 1.00015199184 1.00000011921 1.0 1.00000011921 0.997108578682 1.0430996418 1.09388577938 1.09391796589 1.04302585125 1.00000011921 1.0 0.999999940395 
1.0 1.00000011921 0.997090160847 1.04320526123 1.09403431416 1.09401667118 1.04314982891 1.00000023842 1.0 1.0 0.999999940395 1.00015854836 1.07552421093 1.16633450985 1.24016475677 1.2401535511 1.16627645493 1.02555954456 1.0001553297 1.0 1.0 1.04763555527 1.15781605244 1.2590136528 1.35142624378 1.35141992569 1.25896608829 1.09750688076 1.04755806923 1.00000011921 1.0 1.08235752583 1.19490122795 1.29127180576 1.37984478474 1.37983870506 1.29123282433 1.13246309757 1.08228826523 1.00000011921 1.0 1.10892915726 1.2270026207 1.3240146637 1.40367186069 1.40367007256 1.32398462296 1.16036212444 1.10886228085 1.00000011921 1.0 1.10892057419 1.2269949913 1.32399642467 1.40376341343 1.40375673771 1.32396125793 1.1603577137 1.10885381699 1.00000011921 1.0 1.08231687546 1.19486951828 1.29120087624 1.37993681431 1.3799238205 1.2911567688 1.1324300766 1.08224773407 1.0 1.0 1.02664017677 1.13073444366 1.22748911381 1.31457817554 1.31457710266 1.22743558884 1.0746768713 1.02656567097 1.00000011921 1.0 1.00015521049 1.07544994354 1.16629564762 1.24018752575 1.24014687538 1.16625201702 1.02549529076 1.00015199184 1.00000011921 1.0 1.00000011921 0.997108578682 1.0430996418 1.09388577938 1.09391796589 1.04302585125 1.00000011921 1.0 0.999999940395 
1.0 1.00000011921 0.997090160847 1.04320526123 1.09403431416 1.09401667118 1.04314982891 1.00000023842 1.0 1.0 0.999999940395 1.00015854836 1.07552421093 1.16633450985 1.24016475677 1.2401535511 1.16627645493 1.02555954456 1.0001553297 1.0 1.0 1.04763555527 1.15781605244 1.2590136528 1.35142624378 1.35141992569 1.25896608829 1.09750688076 1.04755806923 1.00000011921 1.0 1.08235752583 1.19490122795 1.29127180576 1.37992823124 1.37992215157 1.29123282433 1.13246309757 1.08228826523 1.00000011921 1.0 1.10892915726 1.2270026207 1.32411122322 1.40395569801 1.4039542675 1.32408154011 1.16036212444 1.10886228085 1.00000011921 1.0 1.10892057419 1.2269949913 1.32409322262 1.40404880047 1.40404212475 1.32405793667 1.1603577137 1.10885381699 1.00000011921 1.0 1.08231687546 1.19486951828 1.29120087624 1.38002192974 1.38000893593 1.2911567688 1.1324300766 1.08224773407 1.0 1.0 1.02664017677 1.13073444366 1.22748911381 1.31457817554 1.31457710266 1.22743558884 1.0746768713 1.02656567097 1.00000011921 1.0 1.00015521049 1.07544994354 1.16629564762 1.24018752575 1.24014687538 1.16625201702 1.02549529076 1.00015199184 1.00000011921 1.0 1.00000011921 0.997108578682 1.0430996418 1.09388577938 1.09391796589 1.04302585125 1.00000011921 1.0 0.999999940395 
1.0 1.00000011921 0.997090160847 1.04320526123 1.09403431416 1.09401667118 1.04314982891 1.00000023842 1.0 1.0 0.999999940395 1.00015854836 1.07552421093 1.16633450985 1.24016475677 1.2401535511 1.16627645493 1.02555954456 1.0001553297 1.0 1.0 1.04763555527 1.15781605244 1.2590136528 1.35142624378 1.35141992569 1.25896608829 1.09750688076 1.04755806923 1.00000011921 1.0 1.08235752583 1.19490122795 1.29127180576 1.37994384766 1.37993764877 1.29123282433 1.13246309757 1.08228826523 1.00000011921 1.0 1.10892915726 1.2270026207 1.32413733006 1.40401864052 1.40401697159 1.32410764694 1.16036212444 1.10886228085 1.00000011921 1.0 1.10892057419 1.2269949913 1.32411944866 1.40411186218 1.40410542488 1.32408416271 1.1603577137 1.10885381699 1.00000011921 1.0 1.08231687546 1.19486951828 1.29120087624 1.38003766537 1.38002490997 1.2911567688 1.1324300766 1.08224773407 1.0 1.0 1.02664017677 1.13073444366 1.22748911381 1.31457817554 1.31457710266 1.22743558884 1.0746768713 1.02656567097 1.00000011921 1.0 1.00015521049 1.07544994354 1.16629564762 1.24018752575 1.24014687538 1.16625201702 1.02549529076 1.00015199184 1.00000011921 1.0 1.00000011921 0.997108578682 1.0430996418 1.09388577938 1.09391796589 1.04302585125 1.00000011921 1.0 0.999999940395 
1.0 1.00000011921 0.997090160847 1.04320526123 1.09403431416 1.09401667118 1.04314982891 1.00000023842 1.0 1.0 0.999999940395 1.00015854836 1.07552421093 1.16633450985 1.24016475677 1.2401535511 1.16627645493 1.02555954456 1.0001553297 1.0 1.0 1.04763555527 1.15781605244 1.2590136528 1.35142624378 1.35141992569 1.25896608829 1.09750688076 1.04755806923 1.00000011921 1.0 1.08235752583 1.19490122795 1.29127180576 1.37995123863 1.37994515896 1.29123282433 1.13246309757 1.08228826523 1.00000011921 1.0 1.10892915726 1.2270026207 1.32414984703 1.40404117107 1.40403962135 1.32412004471 1.16036212444 1.10886228085 1.00000011921 1.0 1.10892057419 1.2269949913 1.32413208485 1.40413475037 1.40412795544 1.32409691811 1.1603577137 1.10885381699 1.00000011921 1.0 1.08231687546 1.19486951828 1.29120087624 1.38004529476 1.38003253937 1.2911567688 1.1324300766 1.08224773407 1.0 1.0 1.02664017677 1.13073444366 1.22748911381 1.31457817554 1.31457710266 1.22743558884 1.0746768713 1.02656567097 1.00000011921 1.0 1.00015521049 1.07544994354 1.16629564762 1.24018752575 1.24014687538 1.16625201702 1.02549529076 1.00015199184 1.00000011921 1.0 1.00000011921 0.997108578682 1.0430996418 1.09388577938 1.09391796589 1.04302585125 1.00000011921 1.0 0.999999940395 
1.0 1.00000011921 0.997090160847 1.04320526123 1.09403431416 1.09401667118 1.04314982891 1.00000023842 1.0 1.0 0.999999940395 1.00015854836 1.07552421093 1.16633450985 1.24016475677 1.2401535511 1.16627645493 1.02555954456 1.0001553297 1.0 1.0 1.04763555527 1.15781605244 1.2590136528 1.35142624378 1.35141992569 1.25896608829 1.09750688076 1.04755806923 1.00000011921 1.0 1.08235752583 1.19490122795 1.29127180576 1.37995815277 1.3799520731 1.29123282433 1.13246309757 1.08228826523 1.00000011921 1.0 1.10892915726 1.2270026207 1.32415890694 1.40405452251 1.40405273438 1.32412934303 1.16036212444 1.10886228085 1.00000011921 1.0 1.10892057419 1.2269949913 1.32414114475 1.40414810181 1.40414118767 1.3241058588 1.1603577137 1.10885381699 1.00000011921 1.0 1.08231687546 1.19486951828 1.29120087624 1.38005244732 1.3800393343 1.2911567688 1.1324300766 1.08224773407 1.0 1.0 1.02664017677 1.13073444366 1.22748911381 1.31457817554 1.31457710266 1.22743558884 1.0746768713 1.02656567097 1.00000011921 1.0 1.00015521049 1.07544994354 1.16629564762 1.24018752575 1.24014687538 1.16625201702 1.02549529076 1.00015199184 1.00000011921 1.0 1.00000011921 0.997108578682 1.0430996418 1.09388577938 1.09391796589 1.04302585125 1.00000011921 1.0 0.999999940395 
