13.9387130737 21.7284183502 29.3525485992 37.198299408 45.6375808716 54.3842849731 62.8219337463 70.666557312 78.290802002 86.0810089111 13.9014053345 21.5092277527 28.6185703278 36.2880554199 45.2480659485 54.7757492065 63.7325515747 71.3993835449 78.5088195801 86.1181564331 13.8803043365 21.3448448181 28.1765708923 35.7717170715 45.0145111084 55.0104866028 64.2490463257 71.8408660889 78.6724395752 86.1391983032 13.8629045486 21.2529716492 27.9613857269 35.5626678467 44.9283599854 55.0970611572 64.4582672119 72.0558853149 78.7639541626 86.1564941406 13.850435257 21.2109050751 27.8629264832 35.476978302 44.8940315247 55.1315574646 64.5440368652 72.1542816162 78.8058395386 86.1689071655 13.8504428864 21.2109279633 27.8629932404 35.4770317078 44.8940696716 55.1315345764 64.5439910889 72.1542205811 78.8058319092 86.1689147949 13.8629426956 21.2531299591 27.9617538452 35.563041687 44.9285125732 55.0969390869 64.4579315186 72.0555343628 78.7638092041 86.1564559937 13.8803491592 21.3451728821 28.1773433685 35.7725219727 45.01512146 55.0099334717 64.2483062744 71.8401641846 78.6721343994 86.1391372681 13.9014759064 21.5097751617 28.6202487946 36.2896118164 45.2489509583 54.7748641968 63.7311668396 71.3976593018 78.5082702637 86.1180877686 13.9388608932 21.7291412354 29.3546733856 37.2013931274 45.6390380859 54.382938385 62.8187828064 70.6643295288 78.2900390625 86.0808410645 
13.9371566772 21.7234764099 29.342912674 37.1860618591 45.6321144104 54.3897781372 62.834186554 70.6761779785 78.2957458496 86.0825500488 13.8992023468 21.5022373199 28.595867157 36.2451095581 45.2200622559 54.803894043 63.7754745483 71.4220352173 78.5158081055 86.1203613281 13.8773183823 21.3322982788 28.1335163116 35.6740722656 44.9422187805 55.0831222534 64.3465270996 71.8838272095 78.6849365234 86.1421585083 13.8591575623 21.2333755493 27.8945732117 35.4009971619 44.8238983154 55.2020530701 64.6197280884 72.1224975586 78.783493042 86.1602401733 13.846121788 21.1856918335 27.7768535614 35.2779884338 44.7755355835 55.2506523132 64.7428283691 72.2400894165 78.8309555054 86.173210144 13.8461284637 21.1857204437 27.7769374847 35.278049469 44.7755889893 55.2505989075 64.742767334 72.240020752 78.8309326172 86.1732025146 13.8591976166 21.233549118 27.894985199 35.4014892578 44.8240966797 55.2018814087 64.6192779541 72.1221237183 78.7833251953 86.160194397 13.877363205 21.3326473236 28.1343402863 35.6750526428 44.9430084229 55.082408905 64.3456268311 71.8830566406 78.6846160889 86.1421127319 13.8992776871 21.5028095245 28.5976295471 36.2467346191 45.221031189 54.8029174805 63.7740249634 71.4202346802 78.5152206421 86.1202850342 13.9373092651 21.7242069244 29.3450775146 37.1892204285 45.6335487366 54.388458252 62.8309440613 70.6738967896 78.2949752808 86.0823974609 
13.9371452332 21.7234477997 29.3428668976 37.1860160828 45.6321029663 54.389793396 62.8342208862 70.6762313843 78.2957611084 86.0825653076 13.8991889954 21.5022068024 28.5957584381 36.2449073792 45.2199554443 54.8039970398 63.7756729126 71.4221496582 78.515838623 86.1203765869 13.8772964478 21.3322257996 28.1332492828 35.6735839844 44.9418869019 55.0834655762 64.3470153809 71.8840866089 78.6850128174 86.1421585083 13.8591299057 21.2332324982 27.8940544128 35.3996925354 44.8225326538 55.2034187317 64.6210174561 72.1229934692 78.7836151123 86.1602630615 13.8460903168 21.1854972839 27.7761268616 35.2757072449 44.7730102539 55.2531967163 64.7450942993 72.2408294678 78.8311538696 86.173248291 13.8460960388 21.1855182648 27.7762145996 35.2757797241 44.7730712891 55.2531394958 64.7450408936 72.2407531738 78.8311233521 86.173248291 13.85916996 21.2334041595 27.8944683075 35.4001922607 44.8227310181 55.2032394409 64.6205596924 72.1226196289 78.7834701538 86.1602325439 13.8773450851 21.332572937 28.1340827942 35.674571991 44.9426803589 55.082736969 64.3460998535 71.88331604 78.6846923828 86.1421279907 13.899263382 21.5027809143 28.5975189209 36.2465324402 45.2209243774 54.803024292 63.7742271423 71.4203491211 78.5152511597 86.120300293 13.9372987747 21.7241783142 29.3450374603 37.1891708374 45.6335296631 54.3884811401 62.8309936523 70.6739349365 78.2950057983 86.0824050903 
13.9371471405 21.7234458923 29.3428688049 37.1860084534 45.6320953369 54.389793396 62.8342323303 70.6762237549 78.2957611084 86.0825653076 13.899187088 21.5022029877 28.595746994 36.2448959351 45.2199554443 54.8040046692 63.7756843567 71.4221496582 78.515838623 86.1203765869 13.8772964478 21.3322200775 28.1332359314 35.6735687256 44.9418716431 55.0834732056 64.347038269 71.8840866089 78.6850204468 86.1421585083 13.8591279984 21.2332229614 27.8940353394 35.3996620178 44.8225250244 55.2034416199 64.621055603 72.1230163574 78.7836303711 86.1602630615 13.8460884094 21.1854839325 27.7760982513 35.2756690979 44.7729949951 55.2532157898 64.7451477051 72.240852356 78.8311691284 86.173248291 13.8460960388 21.1855106354 27.776184082 35.2757377625 44.7730560303 55.2531585693 64.7450790405 72.240776062 78.8311386108 86.173248291 13.8591690063 21.2333946228 27.8944511414 35.4001655579 44.8227233887 55.2032546997 64.62059021 72.1226501465 78.7834777832 86.1602325439 13.8773431778 21.3325653076 28.1340675354 35.6745529175 44.9426765442 55.0827331543 64.3461380005 71.8833312988 78.6846923828 86.1421279907 13.899263382 21.5027751923 28.5975093842 36.2465209961 45.2209205627 54.8030357361 63.7742424011 71.4203643799 78.5152587891 86.120300293 13.937297821 21.7241783142 29.3450279236 37.1891670227 45.6335334778 54.3884849548 62.830997467 70.6739349365 78.2950057983 86.0824050903 
13.9371471405 21.7234458923 29.3428649902 37.1860046387 45.6320953369 54.3898010254 62.8342285156 70.6762237549 78.2957611084 86.0825653076 13.899187088 21.5021972656 28.595741272 36.244884491 45.2199440002 54.8040084839 63.7756919861 71.422164917 78.515838623 86.1203765869 13.8772964478 21.3322124481 28.1332187653 35.6735534668 44.9418678284 55.0834770203 64.3470611572 71.8841094971 78.6850280762 86.1421737671 13.8591270447 21.233215332 27.8940105438 35.3996353149 44.8225059509 55.203453064 64.6210861206 72.1230316162 78.7836380005 86.1602630615 13.8460884094 21.1854724884 27.7760677338 35.2756271362 44.7729721069 55.2532272339 64.7451782227 72.2408676147 78.8311767578 86.173248291 13.8460960388 21.185503006 27.7761573792 35.2756958008 44.7730331421 55.2531738281 64.7451248169 72.2408065796 78.8311462402 86.173248291 13.859167099 21.2333889008 27.8944244385 35.4001312256 44.8227081299 55.2032699585 64.6206207275 72.1226730347 78.7834854126 86.1602325439 13.8773431778 21.3325614929 28.1340484619 35.674533844 44.9426612854 55.0827560425 64.3461380005 71.8833465576 78.6846923828 86.1421279907 13.899263382 21.5027694702 28.5974998474 36.246509552 45.2209205627 54.8030357361 63.7742462158 71.4203643799 78.5152587891 86.120300293 13.937297821 21.7241783142 29.3450241089 37.1891670227 45.6335296631 54.3884925842 62.8310050964 70.6739501953 78.2950134277 86.0824050903 
13.9371452332 21.723443985 29.3428573608 37.1859970093 45.6320877075 54.3898086548 62.834236145 70.6762237549 78.2957611084 86.0825653076 13.8991880417 21.5021953583 28.5957260132 36.2448806763 45.2199401855 54.8040122986 63.7757148743 71.4221725464 78.515838623 86.1203765869 13.8772954941 21.3322067261 28.1331996918 35.6735305786 44.9418640137 55.0834922791 64.3470687866 71.8841247559 78.6850204468 86.1421737671 13.8591270447 21.2332057953 27.893989563 35.3996086121 44.8224906921 55.2034759521 64.6211166382 72.1230621338 78.7836456299 86.1602630615 13.8460845947 21.1854610443 27.7760467529 35.275592804 44.7729568481 55.2532348633 64.745223999 72.2408905029 78.8311843872 86.173248291 13.8460922241 21.1854877472 27.7761306763 35.2756576538 44.7730140686 55.2531967163 64.7451705933 72.2408218384 78.8311538696 86.1732559204 13.8591680527 21.2333774567 27.8943996429 35.4001045227 44.8226928711 55.2032852173 64.6206512451 72.1227111816 78.783493042 86.1602325439 13.8773431778 21.3325538635 28.1340312958 35.6745185852 44.942653656 55.082775116 64.3461608887 71.8833618164 78.6847000122 86.1421432495 13.899263382 21.5027675629 28.597486496 36.2464981079 45.2209129333 54.8030471802 63.7742576599 71.4203872681 78.5152587891 86.120300293 13.9372968674 21.7241764069 29.3450202942 37.1891555786 45.6335258484 54.3884887695 62.8310050964 70.6739501953 78.2950134277 86.0824050903 
13.9371452332 21.7234420776 29.3428535461 37.1859893799 45.6320877075 54.3898010254 62.8342475891 70.6762313843 78.2957611084 86.0825653076 13.8991889954 21.5021915436 28.5957183838 36.2448654175 45.2199401855 54.804019928 63.7757225037 71.4221801758 78.5158538818 86.1203765869 13.8772954941 21.332201004 28.133184433 35.6735153198 44.9418487549 55.0834960938 64.3470916748 71.884147644 78.6850357056 86.1421737671 13.8591279984 21.2332000732 27.8939666748 35.3995780945 44.8224754333 55.2034759521 64.6211471558 72.123085022 78.7836608887 86.1602706909 13.8460845947 21.1854534149 27.7760162354 35.2755470276 44.7729377747 55.2532730103 64.745262146 72.2409286499 78.8311843872 86.173248291 13.8460922241 21.1854801178 27.7761077881 35.2756156921 44.7729988098 55.2532157898 64.7452087402 72.240852356 78.8311767578 86.173248291 13.859167099 21.2333717346 27.8943729401 35.4000778198 44.8226699829 55.2033004761 64.6206741333 72.122718811 78.7835006714 86.1602401733 13.8773412704 21.3325462341 28.134016037 35.6744995117 44.9426498413 55.082775116 64.3461837769 71.8833770752 78.684715271 86.1421432495 13.899263382 21.5027637482 28.5974788666 36.2464904785 45.2209091187 54.8030471802 63.7742729187 71.4203948975 78.5152740479 86.120300293 13.9372968674 21.7241744995 29.3450202942 37.1891517639 45.6335220337 54.3885002136 62.8310241699 70.6739578247 78.2950057983 86.0824050903 
