2.26291584969 3.8442902565 6.71286821365 9.39606952667 10.9753904343 10.9741067886 9.39018630981 6.70551156998 3.83768367767 2.26281714439 2.28895759583 5.0575504303 9.71642208099 14.2919816971 16.9746551514 16.9725589752 14.2817573547 9.7043094635 5.04658031464 2.28865480423 2.31668996811 5.95055341721 11.84678936 17.5781707764 21.0925388336 21.0898132324 17.5650806427 11.8316650391 5.93652963638 2.31617450714 2.33292818069 6.49243688583 13.0741004944 19.3976211548 23.2457103729 23.2427330017 19.3832244873 13.0573673248 6.47655200958 2.33229112625 2.34235048294 6.76871824265 13.6842365265 20.2659072876 24.2457637787 24.2427024841 20.250995636 13.6667432785 6.75194215775 2.3416428566 2.34234261513 6.76848936081 13.6837406158 20.26521492 24.2449836731 24.2419204712 20.2503051758 13.6662483215 6.7517156601 2.3416352272 2.33288955688 6.49129056931 13.0715579987 19.3939437866 23.2414264679 23.2384490967 19.3795776367 13.0548505783 6.47542190552 2.3322532177 2.31663131714 5.94856309891 11.8422346115 17.5714874268 21.0834445953 21.0808410645 17.5584316254 11.8271446228 5.9345459938 2.31611561775 2.28886723518 5.05449104309 9.7090139389 14.2811527252 16.9607315063 16.9587287903 14.2710819244 9.69675064087 5.04345846176 2.28856492043 2.26286911964 3.84053659439 6.70292568207 9.37944507599 10.9551305771 10.954240799 9.37296962738 6.69523239136 3.83383321762 2.26276779175 
2.26298689842 3.7946062088 6.6099562645 9.26785755157 10.8290319443 10.8277587891 9.26202869415 6.60268735886 3.78816795349 2.26289057732 2.28837132454 4.99549484253 9.59815120697 14.1518831253 16.8233470917 16.8212623596 14.1416873932 9.58612823486 4.98470830917 2.28807616234 2.31557202339 5.88363456726 11.7201948166 17.422908783 20.9524440765 20.9496555328 17.4098529816 11.7051811218 5.86979579926 2.31506800652 2.33149027824 6.42232322693 12.9391679764 19.2443847656 23.1614780426 23.1583900452 19.229932785 12.9225606918 6.40663051605 2.33086752892 2.34082174301 6.69695901871 13.5446863174 20.1201152802 24.1968154907 24.193611145 20.10505867 13.5273227692 6.68037939072 2.3401286602 2.34081411362 6.69673252106 13.5441913605 20.1194171906 24.1959972382 24.1927967072 20.1043624878 13.5268344879 6.68015623093 2.34012150764 2.33145236969 6.42118549347 12.9366493225 19.2406978607 23.157087326 23.1539916992 19.2262763977 12.9200668335 6.40550899506 2.33083057404 2.3155143261 5.88164710999 11.7156591415 17.416217804 20.94323349 20.9405708313 17.4031906128 11.7006864548 5.86781406403 2.31501030922 2.28828239441 4.99242305756 9.59069538116 14.1410474777 16.8093280792 16.8073387146 14.1310062408 9.57850646973 4.98156785965 2.28798723221 2.26294159889 3.79088234901 6.59999990463 9.25113868713 10.8089818954 10.8081102371 9.24465751648 6.59236288071 3.78433728218 2.26284170151 
2.26298689842 3.79458141327 6.60989952087 9.26778030396 10.8289394379 10.8276672363 9.26195049286 6.60263156891 3.78814387321 2.26289057732 2.28837060928 4.99545860291 9.59807491302 14.1517848969 16.8232383728 16.8211517334 14.1415929794 9.58605289459 4.98467254639 2.28807616234 2.3155708313 5.88359069824 11.7201042175 17.4227867126 20.9523105621 20.9495201111 17.4097290039 11.7050914764 5.86975193024 2.31506729126 2.33148932457 6.42227363586 12.9390668869 19.2442474365 23.1613254547 23.1582393646 19.2297954559 12.922457695 6.40658140182 2.3308660984 2.34082055092 6.69690608978 13.5445747375 20.1199703217 24.1966514587 24.1934509277 20.1049098969 13.5272130966 6.68032646179 2.34012746811 2.34081292152 6.6966791153 13.5440826416 20.1192703247 24.1958351135 24.1926364899 20.1042137146 13.5267248154 6.680103302 2.34012007713 2.33145141602 6.4211359024 12.9365463257 19.2405586243 23.1569347382 23.1538448334 19.2261371613 12.9199638367 6.40545988083 2.33082985878 2.31551337242 5.8816037178 11.7155694962 17.4160995483 20.9430961609 20.9404373169 17.4030704498 11.7006006241 5.86777019501 2.31500983238 2.28828167915 4.99238634109 9.59062004089 14.1409473419 16.8092193604 16.8072280884 14.1309051514 9.57843017578 4.98153162003 2.28798699379 2.26294183731 3.79085850716 6.59994459152 9.25105953217 10.8088932037 10.8080177307 9.24458026886 6.59230613708 3.78431272507 2.26284193993 
2.26298689842 3.79460382462 6.60995054245 9.26785087585 10.8290252686 10.827750206 9.26202297211 6.60268163681 3.78816556931 2.26289057732 2.28837132454 4.99549102783 9.59814357758 14.1518726349 16.8233394623 16.8212528229 14.1416788101 9.58611965179 4.98470497131 2.28807640076 2.31557178497 5.88362932205 11.7201862335 17.4228973389 20.9524307251 20.9496421814 17.4098415375 11.7051706314 5.86979103088 2.31506800652 2.33149027824 6.42231988907 12.9391584396 19.2443733215 23.1614646912 23.158372879 19.2299213409 12.9225502014 6.40662670135 2.3308672905 2.34082198143 6.6969537735 13.5446777344 20.1201038361 24.1967983246 24.1935958862 20.1050453186 13.5273132324 6.68037414551 2.3401286602 2.3408138752 6.69672727585 13.5441818237 20.1194076538 24.1959838867 24.1927814484 20.1043491364 13.5268259048 6.68015146255 2.34012126923 2.33145260811 6.4211807251 12.9366416931 19.240688324 23.1570682526 23.1539802551 19.226266861 12.9200582504 6.40550470352 2.33083057404 2.3155143261 5.88164329529 11.7156486511 17.4162082672 20.9432201385 20.9405555725 17.4031791687 11.7006788254 5.86780977249 2.31501078606 2.28828239441 4.9924197197 9.59068775177 14.141037941 16.8093166351 16.8073291779 14.1309967041 9.57849884033 4.98156309128 2.28798723221 2.26294159889 3.79088044167 6.59999608994 9.25113201141 10.8089733124 10.8081016541 9.24464988708 6.5923576355 3.78433513641 2.26284170151 
2.26298713684 3.79462623596 6.61000061035 9.26792240143 10.8291072845 10.8278331757 9.26209354401 6.60273265839 3.78818774223 2.26289081573 2.28837203979 4.99552345276 9.59821224213 14.1519613266 16.8234367371 16.821352005 14.1417703629 9.58619117737 4.98473739624 2.28807663918 2.31557250023 5.88367128372 11.7202672958 17.4230060577 20.9525527954 20.9497623444 17.409948349 11.7052555084 5.86983060837 2.31506848335 2.33149147034 6.42236328125 12.9392528534 19.2444992065 23.1615943909 23.1585083008 19.2300453186 12.9226436615 6.40667200089 2.33086848259 2.3408229351 6.69700193405 13.5447740555 20.1202354431 24.1969451904 24.1937427521 20.1051807404 13.5274133682 6.68042325974 2.34012985229 2.34081506729 6.69677591324 13.5442810059 20.1195411682 24.1961269379 24.1929244995 20.1044845581 13.5269269943 6.68020057678 2.34012246132 2.33145356178 6.42122650146 12.9367322922 19.2408123016 23.1572055817 23.1541118622 19.2263908386 12.9201498032 6.40555047989 2.33083200455 2.31551504135 5.88168334961 11.7157325745 17.4163208008 20.9433422089 20.9406776428 17.4032897949 11.7007608414 5.86784982681 2.31501126289 2.28828239441 4.99245214462 9.59075546265 14.14112854 16.8094177246 16.80742836 14.1310863495 9.57856845856 4.98159599304 2.28798770905 2.26294159889 3.79090285301 6.60004711151 9.25120067596 10.8090572357 10.8081855774 9.24472141266 6.59240865707 3.78435707092 2.26284217834 
2.26298761368 3.79464769363 6.61005353928 9.26799201965 10.8291912079 10.8279161453 9.26216220856 6.60278320312 3.78821015358 2.26289081573 2.28837227821 4.99555587769 9.59828090668 14.1520519257 16.8235378265 16.8214511871 14.1418571472 9.58625888824 4.984770298 2.28807735443 2.3155734539 5.88370943069 11.7203483582 17.4231185913 20.9526748657 20.9498825073 17.4100627899 11.7053365707 5.86987066269 2.31506943703 2.33149242401 6.42240953445 12.9393453598 19.2446231842 23.1617336273 23.1586456299 19.230173111 12.9227361679 6.40671730042 2.33086967468 2.34082436562 6.69705104828 13.5448741913 20.1203727722 24.1970920563 24.1938838959 20.1053123474 13.527513504 6.68047189713 2.34013128281 2.3408164978 6.69682359695 13.5443820953 20.1196727753 24.1962738037 24.1930732727 20.1046180725 13.5270252228 6.68024873734 2.34012389183 2.33145475388 6.42127132416 12.9368276596 19.2409381866 23.1573429108 23.1542491913 19.2265167236 12.9202423096 6.40559577942 2.33083319664 2.31551599503 5.88172340393 11.7158155441 17.4164295197 20.9434661865 20.9407997131 17.4034023285 11.7008428574 5.86788988113 2.31501197815 2.28828287125 4.99248504639 9.59082698822 14.1412181854 16.8095169067 16.8075275421 14.1311759949 9.57863712311 4.98162841797 2.28798818588 2.26294183731 3.79092478752 6.60009813309 9.25127220154 10.8091430664 10.8082675934 9.24479293823 6.59245824814 3.78437924385 2.26284241676 
2.26298761368 3.7946703434 6.6101026535 9.26806259155 10.8292722702 10.8280010223 9.26223468781 6.60283470154 3.78823208809 2.26289081573 2.28837251663 4.99558925629 9.59834957123 14.152141571 16.8236370087 16.8215503693 14.1419496536 9.5863275528 4.98480224609 2.28807735443 2.31557369232 5.88375043869 11.7204303741 17.4232292175 20.9527950287 20.9500007629 17.4101715088 11.7054185867 5.86991071701 2.31507015228 2.33149337769 6.42245531082 12.9394388199 19.2447471619 23.1618709564 23.1587810516 19.2302970886 12.9228277206 6.40676212311 2.33087062836 2.34082531929 6.69709968567 13.5449752808 20.1205043793 24.1972332001 24.1940326691 20.1054496765 13.5276117325 6.68052005768 2.34013199806 2.34081792831 6.69687318802 13.5444812775 20.119808197 24.1964187622 24.1932182312 20.1047515869 13.5271244049 6.68029689789 2.34012508392 2.33145570755 6.42131710052 12.936920166 19.2410621643 23.1574783325 23.1543865204 19.226644516 12.9203367233 6.40564107895 2.3308339119 2.31551671028 5.88176345825 11.7158956528 17.4165401459 20.9435825348 20.9409141541 17.4035110474 11.7009248734 5.86793041229 2.31501269341 2.28828334808 4.99251699448 9.59089374542 14.1413059235 16.8096179962 16.8076267242 14.1312646866 9.57870483398 4.98166131973 2.2879884243 2.26294183731 3.79094672203 6.60014867783 9.25134372711 10.8092250824 10.8083515167 9.24486351013 6.59250926971 3.78440141678 2.26284241676 
