14.008307457 13.8258972168 13.0927858353 11.934513092 11.2025470734 11.2031154633 11.9373340607 13.0953493118 13.8271427155 14.0082941055 21.9967460632 21.6628456116 20.6459178925 19.2012825012 18.323720932 18.3244037628 19.2046260834 20.6492996216 21.6646366119 21.9968109131 29.986946106 29.5753517151 28.7007827759 27.5846672058 26.869052887 26.8696250916 27.5872974396 28.7034358978 29.5771408081 29.9870643616 37.9871673584 37.6912269592 37.1425437927 36.4718170166 36.0378952026 36.0382423401 36.4733963013 37.1441612244 37.692401886 37.987285614 46.000541687 45.8942947388 45.7083015442 45.4860343933 45.3425254822 45.3426437378 45.4865570068 45.7088394165 45.8946990967 46.0005912781 54.0195007324 54.1263275146 54.3133544922 54.5368385315 54.6812133789 54.6810836792 54.5363044739 54.3128089905 54.1259231567 54.0194549561 62.0328521729 62.3292198181 62.8788604736 63.5507888794 63.9855384827 63.9851989746 63.5492134094 62.8772392273 62.3280487061 62.0327301025 70.0330429077 70.4447250366 71.3199996948 72.4374847412 73.1533432007 73.1527938843 72.4349060059 71.3173522949 70.4429244995 70.0329208374 78.0232162476 78.3567199707 79.3736495972 80.8191833496 81.6971130371 81.6964035034 80.8159637451 79.3702774048 78.354927063 78.0231552124 86.0116882324 86.193687439 86.9251785278 88.0803070068 88.809753418 88.8096084595 88.0773544312 86.9225387573 86.1924285889 86.0116958618 
14.0016260147 13.786113739 13.0412635803 11.85820961 11.0942811966 11.0949211121 11.8610858917 13.0438699722 13.7873954773 14.0016460419 21.9891319275 21.6035404205 20.5232963562 18.9357719421 17.9112796783 17.9121131897 18.9395675659 20.5269126892 21.605463028 21.9892349243 29.9796276093 29.5049953461 28.528175354 27.2277069092 26.3529167175 26.3536300659 27.2308559418 28.5311908722 29.5069847107 29.9797840118 37.9812011719 37.6306381226 36.9920730591 36.2004356384 35.6752319336 35.6756591797 36.202331543 36.9939613342 37.6319885254 37.9813499451 45.9981155396 45.8690834045 45.6479530334 45.3860816956 45.2139854431 45.2141265869 45.3866996765 45.6485824585 45.8695602417 45.9981803894 54.0219421387 54.1516799927 54.3740653992 54.637348175 54.810585022 54.8104286194 54.6367149353 54.3734054565 54.1511955261 54.0218811035 62.03881073 62.3898582458 63.029510498 63.8225364685 64.3487701416 64.3483428955 63.8206443787 63.0276222229 62.3884963989 62.0386619568 70.0403518677 70.5150527954 71.4925384521 72.7946395874 73.6695404053 73.6688842773 72.791557312 71.4895553589 70.5130462646 70.0401916504 78.0308227539 78.4159393311 79.4960098267 81.0844192505 82.1090011597 82.1081695557 81.0807952881 79.4923629761 78.4140090942 78.0307235718 86.0183563232 86.2333831787 86.9764633179 88.1559295654 88.9173355103 88.9171295166 88.1528320312 86.9737548828 86.2320785522 86.0183486938 
14.0012874603 13.7844524384 13.0406007767 11.8587665558 11.0962057114 11.0968418121 11.8616409302 13.0432033539 13.7857322693 14.0013074875 21.9887657166 21.6011428833 20.5194778442 18.9276428223 17.8982982635 17.8991413116 18.9314556122 20.5231018066 21.6030673981 21.9888648987 29.9793052673 29.5022106171 28.521780014 27.2121658325 26.3212985992 26.3220329285 27.2153491974 28.5247993469 29.5042037964 29.9794616699 37.9809837341 37.6283569336 36.9859313965 36.1824531555 35.6395606995 35.6400146484 36.1843948364 36.9878234863 37.6297225952 37.9811286926 45.9980278015 45.8681640625 45.6453704834 45.3779563904 45.1996688843 45.1998062134 45.3785972595 45.6460113525 45.8686408997 45.9980926514 54.0220298767 54.1526031494 54.3766441345 54.6455345154 54.8250579834 54.8248901367 54.6448745728 54.375995636 54.1521224976 54.0219688416 62.0390357971 62.3921546936 63.0356559753 63.8405380249 64.3844299316 64.3839874268 63.8386039734 63.0337600708 62.3907775879 62.0388755798 70.0406799316 70.517829895 71.4989395142 72.8101654053 73.7010879517 73.7004165649 72.8070526123 71.4959335327 70.5158309937 70.040512085 78.0311965942 78.4183502197 79.4998092651 81.0925369263 82.1219177246 82.1210784912 81.0888900757 79.4961624146 78.4164047241 78.0310821533 86.018699646 86.2350387573 86.9771194458 88.1553421021 88.9154129028 88.9152145386 88.1522293091 86.974395752 86.233757019 86.0186767578 
14.0012788773 13.7844028473 13.0405759811 11.8587779999 11.0962572098 11.0968952179 11.8616533279 13.0431776047 13.7856826782 14.0013008118 21.9887523651 21.6010704041 20.5193557739 18.9274120331 17.8979606628 17.8987998962 18.9312229156 20.5229816437 21.6029968262 21.9888534546 29.9792976379 29.502122879 28.521566391 27.2116909027 26.3205127716 26.3212509155 27.2148780823 28.5245914459 29.5041179657 29.9794540405 37.9809761047 37.6282844543 36.9857177734 36.1818199158 35.6380653381 35.6385116577 36.183757782 36.9876174927 37.629650116 37.9811210632 45.9980239868 45.8681373596 45.6452903748 45.3776245117 45.1989784241 45.1991119385 45.3782577515 45.6459236145 45.8686256409 45.9980888367 54.0220336914 54.1526260376 54.3767356873 54.6458702087 54.8257637024 54.8256111145 54.6452140808 54.3760871887 54.1521377563 54.0219688416 62.0390472412 62.3922233582 63.0358695984 63.8411750793 64.385925293 64.3854827881 63.8392333984 63.0339698792 62.3908462524 62.0388946533 70.0406799316 70.5179290771 71.4991836548 72.8106384277 73.7018737793 73.7012023926 72.8075332642 71.4961395264 70.515914917 70.0405273438 78.031211853 78.4184112549 79.4999313354 81.0927581787 82.1222610474 82.1214294434 81.0891342163 79.4962921143 78.4164733887 78.0311126709 86.0187225342 86.2350921631 86.9771347046 88.1553268433 88.9153442383 88.9151611328 88.1522216797 86.9744186401 86.233795166 86.018699646 
14.0012779236 13.7843990326 13.0405626297 11.858751297 11.0962219238 11.0968589783 11.8616266251 13.0431661606 13.7856779099 14.0012998581 21.9887523651 21.601064682 20.519329071 18.9273662567 17.897901535 17.8987426758 18.931180954 20.5229568481 21.6029891968 21.9888534546 29.9792976379 29.5021133423 28.5215396881 27.2116317749 26.3204212189 26.3211631775 27.2148227692 28.5245628357 29.5041103363 29.9794540405 37.9809761047 37.6282730103 36.9856910706 36.1817512512 35.6379356384 35.638381958 36.1836967468 36.9875946045 37.6296310425 37.9811248779 45.9980239868 45.868144989 45.6452827454 45.3775901794 45.1989097595 45.199054718 45.3782310486 45.6459121704 45.8686141968 45.9980888367 54.0220336914 54.152633667 54.3767433167 54.6459007263 54.8258361816 54.8256721497 54.6452484131 54.3760948181 54.152141571 54.0219688416 62.0390472412 62.3922233582 63.0358924866 63.8412322998 64.3860473633 64.3856048584 63.8392982483 63.033996582 62.3908615112 62.038898468 70.0406799316 70.5179290771 71.4991989136 72.8106994629 73.701965332 73.7012786865 72.8075866699 71.4961700439 70.5159301758 70.0405273438 78.031211853 78.4184265137 79.499961853 81.0928039551 82.1223220825 82.1214904785 81.0891647339 79.4963150024 78.4164810181 78.0311126709 86.0187225342 86.2350921631 86.9771499634 88.1553497314 88.9153823853 88.9151916504 88.1522521973 86.9744262695 86.2338027954 86.018699646 
14.0012779236 13.7843990326 13.0405511856 11.8587255478 11.0961856842 11.0968227386 11.8615999222 13.0431556702 13.7856788635 14.0012998581 21.9887523651 21.6010608673 20.519317627 18.9273338318 17.8978595734 17.8987007141 18.9311485291 20.522939682 21.6029853821 21.9888534546 29.9792976379 29.5021038055 28.5215244293 27.2115936279 26.3203754425 26.3211154938 27.2147827148 28.5245418549 29.5041007996 29.9794540405 37.9809799194 37.6282730103 36.9856834412 36.1817131042 35.637878418 35.6383247375 36.1836585999 36.9875717163 37.6296310425 37.9811210632 45.9980239868 45.8681297302 45.645275116 45.3775787354 45.198890686 45.1990280151 45.3782157898 45.6459083557 45.8686141968 45.9980888367 54.0220336914 54.152633667 54.376750946 54.6459197998 54.8258628845 54.8256912231 54.6452636719 54.3760986328 54.152141571 54.0219650269 62.0390510559 62.3922271729 63.0359115601 63.8412780762 64.3861083984 64.3856658936 63.8393287659 63.0340080261 62.3908615112 62.038898468 70.0406799316 70.5179290771 71.4991989136 72.8107376099 73.7019958496 73.7013397217 72.8076324463 71.4961929321 70.5159301758 70.0405273438 78.031211853 78.4184265137 79.499961853 81.0928344727 82.1223754883 82.1215286255 81.0892028809 79.4963226318 78.4164810181 78.0311126709 86.0187225342 86.2350997925 86.9771652222 88.1553878784 88.9154129028 88.9152374268 88.1522674561 86.9744415283 86.2338027954 86.018699646 
14.0012788773 13.7843952179 13.0405397415 11.8586997986 11.0961494446 11.096786499 11.8615751266 13.0431432724 13.7856760025 14.0012998581 21.9887523651 21.6010551453 20.5193004608 18.9273014069 17.8978157043 17.8986587524 18.9311141968 20.5229244232 21.60297966 21.9888534546 29.9792957306 29.5021038055 28.5215015411 27.2115592957 26.3203201294 26.3210639954 27.2147464752 28.5245304108 29.5040950775 29.9794502258 37.98097229 37.6282615662 36.985660553 36.181678772 35.6378173828 35.6382675171 36.1836242676 36.9875564575 37.6296310425 37.9811210632 45.9980239868 45.8681335449 45.645275116 45.3775672913 45.1988792419 45.1990127563 45.3782043457 45.6459007263 45.8686141968 45.9980888367 54.0220336914 54.152633667 54.3767585754 54.6459236145 54.8258743286 54.8257141113 54.6452789307 54.3761024475 54.1521453857 54.0219650269 62.0390510559 62.3922386169 63.0359230042 63.8413047791 64.3861541748 64.3857192993 63.8393669128 63.0340194702 62.3908729553 62.038898468 70.0406799316 70.5179290771 71.4992141724 72.8107681274 73.7020645142 73.701385498 72.8076629639 71.4962158203 70.5159378052 70.0405273438 78.031211853 78.4184188843 79.4999847412 81.0928649902 82.1223983765 82.1215744019 81.0892333984 79.49634552 78.4164810181 78.0311126709 86.0187225342 86.2350997925 86.977180481 88.1554031372 88.915435791 88.9152755737 88.1522903442 86.9744415283 86.2338104248 86.018699646 
