0.982651591301 1.02911221981 1.07400465012 1.14903855324 1.21754479408 1.21751856804 1.1489585638 1.05679619312 1.02905130386 0.98270457983 0.974621415138 1.07848262787 1.192314744 1.28471493721 1.33088004589 1.33085799217 1.28462672234 1.13364362717 1.07839775085 0.974678754807 0.973001539707 1.16311335564 1.25726401806 1.33966815472 1.3769210577 1.37690317631 1.33960032463 1.21858203411 1.1630307436 0.973042786121 0.972291648388 1.20162439346 1.28289711475 1.35493040085 1.38707852364 1.38706791401 1.35487544537 1.25045764446 1.20154476166 0.972327411175 0.971340835094 1.22639703751 1.29839408398 1.3645375967 1.39153659344 1.39153122902 1.36449539661 1.2702562809 1.22631585598 0.971377372742 0.971342325211 1.2263879776 1.29838585854 1.36452627182 1.39155507088 1.39154863358 1.36448228359 1.27024841309 1.22630667686 0.971378803253 0.972294330597 1.2015761137 1.28285884857 1.35486984253 1.38707101345 1.3870588541 1.3548129797 1.25041520596 1.20149707794 0.972330033779 0.973517656326 1.13697838783 1.24503910542 1.33297169209 1.37483251095 1.37482213974 1.33290338516 1.1983577013 1.13690149784 0.973559379578 0.97462618351 1.07839202881 1.19223165512 1.28464472294 1.33090305328 1.33086025715 1.28456795216 1.1335631609 1.07830810547 0.974683463573 0.982679069042 1.02905440331 1.07393729687 1.14891469479 1.21731078625 1.21734535694 1.14880931377 1.05676078796 1.02899420261 0.982731342316 
0.981505811214 1.01451301575 1.0528203249 1.1205714941 1.19162595272 1.19160747528 1.12049949169 1.03621733189 1.01446843147 0.981559455395 0.972620725632 1.05979430676 1.17644906044 1.28771436214 1.3661762476 1.36615765095 1.28764486313 1.11270833015 1.05972385406 0.972681462765 0.970302283764 1.1434738636 1.27670812607 1.37860739231 1.43809223175 1.43807423115 1.37853264809 1.20611333847 1.14339101315 0.970344483852 0.969174265862 1.18589365482 1.31304323673 1.4004843235 1.45222640038 1.45221078396 1.40041458607 1.24685931206 1.18582117558 0.969206571579 0.968122541904 1.21897530556 1.33811223507 1.41641104221 1.45976305008 1.45975315571 1.41635096073 1.2803311348 1.21890747547 0.968151330948 0.968124330044 1.21896636486 1.33810436726 1.41639828682 1.45979487896 1.45978271961 1.41633546352 1.28032541275 1.21889865398 0.968153119087 0.969177186489 1.1858484745 1.31300747395 1.4004150629 1.45224106312 1.45222258568 1.40034270287 1.2468200922 1.18577694893 0.969209551811 0.970826327801 1.11623990536 1.24343311787 1.35544526577 1.42715263367 1.42714333534 1.35536384583 1.17496955395 1.11616671085 0.970869898796 0.972627222538 1.05970907211 1.17634856701 1.28769600391 1.36620259285 1.36615157127 1.28765046597 1.11262261868 1.05964016914 0.972687423229 0.98153334856 1.01446735859 1.05277311802 1.1204059124 1.19144666195 1.19150710106 1.1202968359 1.03619468212 1.01442372799 0.981585860252 
0.981277823448 1.00922548771 1.04505765438 1.10992097855 1.1811041832 1.18108379841 1.10985374451 1.02856707573 1.00918710232 0.981331348419 0.972249627113 1.05285465717 1.16809058189 1.27844309807 1.37190628052 1.37189030647 1.27837586403 1.10448586941 1.05278897285 0.972310364246 0.969586133957 1.13591837883 1.27037155628 1.38960301876 1.47701084614 1.47699356079 1.38954114914 1.19903504848 1.13583898544 0.969629466534 0.968159735203 1.17828583717 1.31380915642 1.42021560669 1.49691617489 1.49690270424 1.42015993595 1.24108314514 1.17821323872 0.968193769455 0.96694278717 1.21180725098 1.35007536411 1.44537901878 1.50959467888 1.50958490372 1.44532847404 1.27571177483 1.21173274517 0.96697306633 0.966944634914 1.21179831028 1.35006678104 1.44536089897 1.50964772701 1.50963449478 1.44530630112 1.27570879459 1.21172404289 0.966974794865 0.968162834644 1.17824041843 1.31377005577 1.4201362133 1.49696063995 1.4969419241 1.42007613182 1.24105012417 1.17816865444 0.968196868896 0.970119774342 1.10848450661 1.23527252674 1.34964191914 1.45151686668 1.45151019096 1.34957623482 1.16788697243 1.10841584206 0.970164597034 0.972256183624 1.05277144909 1.16798627377 1.27844679356 1.37196683884 1.37191009521 1.27840662003 1.10439908504 1.05270767212 0.972316622734 0.981305122375 1.0091843605 1.04501962662 1.10974264145 1.18093729019 1.18099975586 1.10963463783 1.02855181694 1.00914728642 0.981356978416 
0.981225788593 1.00752961636 1.04256606102 1.10650682449 1.17733466625 1.17731499672 1.10644102097 1.02612888813 1.00749361515 0.981279075146 0.972162365913 1.05059599876 1.16538047791 1.2754573822 1.3691624403 1.36914801598 1.27538955212 1.10185337067 1.050532341 0.972223162651 0.969398379326 1.13344943523 1.26772201061 1.3882175684 1.49238538742 1.49237453938 1.38815355301 1.19660127163 1.13337063789 0.969441890717 0.967865109444 1.17584824562 1.31155705452 1.42289292812 1.51697599888 1.51696419716 1.42284357548 1.23920226097 1.17577588558 0.967899620533 0.966550290585 1.20952224731 1.34948396683 1.45518088341 1.53569746017 1.5356900692 1.4551397562 1.27491772175 1.20944750309 0.966581225395 0.966552078724 1.20951330662 1.34947454929 1.45515954494 1.53577673435 1.5357644558 1.45511293411 1.27491533756 1.20943856239 0.96658295393 0.967868566513 1.1758030653 1.31151688099 1.42280769348 1.51705384254 1.51703453064 1.42275309563 1.23916661739 1.17573142052 0.967903017998 0.969952881336 1.10601246357 1.23244273663 1.34603488445 1.45421910286 1.45421648026 1.34597039223 1.1651109457 1.10594463348 0.969997942448 0.972169101238 1.05051374435 1.16527438164 1.27546596527 1.36921775341 1.36916255951 1.27542603016 1.10176503658 1.05045175552 0.972229421139 0.981252789497 1.00749015808 1.04253089428 1.10632455349 1.17717182636 1.1772364378 1.10621631145 1.02611601353 1.00745522976 0.98130440712 
0.981215119362 1.00705969334 1.04186439514 1.10553646088 1.17625892162 1.17623913288 1.10547101498 1.02543735504 1.00702440739 0.981268167496 0.972143828869 1.04996585846 1.16460978985 1.27457153797 1.36828160286 1.36826694012 1.27450370789 1.10109341145 1.04990267754 0.972204744816 0.969350457191 1.13275706768 1.26700925827 1.38735496998 1.49584293365 1.49583303928 1.38729083538 1.19591915607 1.13267886639 0.969394028187 0.967788755894 1.17516791821 1.31083869934 1.42240059376 1.52311182022 1.52310144901 1.42235195637 1.23860406876 1.17509531975 0.967823505402 0.966442108154 1.20889365673 1.34911978245 1.45773458481 1.54591464996 1.54590892792 1.45769572258 1.27470469475 1.20881867409 0.966473281384 0.966443896294 1.20888483524 1.34911036491 1.45771253109 1.54601490498 1.54600322247 1.45766735077 1.27470231056 1.20880973339 0.966475069523 0.967792272568 1.17512285709 1.3107984066 1.42231583595 1.52321410179 1.52319502831 1.42226111889 1.23856854439 1.1750510931 0.967826902866 0.96990686655 1.10530686378 1.23167610168 1.34507083893 1.45344805717 1.45344734192 1.34500610828 1.16440367699 1.10523962975 0.969951927662 0.972150683403 1.04988372326 1.16450321674 1.27458131313 1.36833441257 1.36827898026 1.27454161644 1.10100495815 1.04982233047 0.972211003304 0.981241941452 1.00702095032 1.04183042049 1.10535311699 1.17609727383 1.17616200447 1.10524499416 1.02542507648 1.00698649883 0.981293559074 
0.981212615967 1.00694096088 1.04168665409 1.10528934002 1.1759814024 1.17596161366 1.10522425175 1.02526199818 1.00690579414 0.981265842915 0.972139716148 1.04980576038 1.16441237926 1.27434313297 1.36805081367 1.36803615093 1.27427518368 1.10089898109 1.04974269867 0.972200512886 0.969339132309 1.13258159161 1.26682710648 1.38711166382 1.4961745739 1.49616408348 1.38704788685 1.19573950768 1.13250339031 0.96938252449 0.967769622803 1.17499709129 1.31066536903 1.42223441601 1.52453148365 1.52452170849 1.42218589783 1.23844993114 1.17492449284 0.967804431915 0.966415405273 1.20873880386 1.34901571274 1.45835185051 1.54920935631 1.54920434952 1.45831358433 1.2746373415 1.20866370201 0.966446697712 0.966417193413 1.20872974396 1.34900617599 1.45833051205 1.54932129383 1.54930973053 1.45828557014 1.2746348381 1.20865488052 0.966448426247 0.967773139477 1.17495191097 1.31062531471 1.42215013504 1.52464556694 1.52462673187 1.42209529877 1.23841452599 1.17488014698 0.967807769775 0.969896137714 1.10512793064 1.23147785664 1.34482908249 1.45326089859 1.45326066017 1.34476423264 1.16421580315 1.10506081581 0.96994125843 0.972146511078 1.0497238636 1.16430592537 1.27435314655 1.36810350418 1.36804807186 1.27431368828 1.1008105278 1.04966259003 0.972206950188 0.981239497662 1.00690221786 1.04165279865 1.10510587692 1.17581987381 1.17588472366 1.10499763489 1.02524971962 1.00686812401 0.981291055679 
0.98121213913 1.00691282749 1.04164469242 1.1052312851 1.1759159565 1.17589628696 1.10516643524 1.02522099018 1.00687777996 0.981265246868 0.972138762474 1.04976773262 1.16436588764 1.27428984642 1.36799681187 1.36798202991 1.27422177792 1.10085356236 1.04970479012 0.972199618816 0.969336330891 1.13254034519 1.26678144932 1.38705348969 1.49611616135 1.49610590935 1.38698923588 1.19569551945 1.13246202469 0.969379901886 0.967764914036 1.17495763302 1.31062793732 1.42218863964 1.52478539944 1.5247759819 1.42214000225 1.23841369152 1.17488491535 0.967799663544 0.966409087181 1.20870375633 1.34899008274 1.45850527287 1.55016553402 1.55016040802 1.45846700668 1.27461957932 1.20862877369 0.96644026041 0.966410815716 1.20869493484 1.34898066521 1.45848453045 1.55028307438 1.55027115345 1.45843935013 1.27461719513 1.2086199522 0.966441988945 0.967768609524 1.17491257191 1.31058776379 1.42210412025 1.52490472794 1.52488589287 1.4220495224 1.23837828636 1.17484068871 0.967803359032 0.969893693924 1.1050863266 1.23142850399 1.3447650671 1.45320379734 1.45320355892 1.34470021725 1.16416656971 1.10501921177 0.969939053059 0.972145557404 1.04968571663 1.16425919533 1.27430009842 1.36804938316 1.36799383163 1.27426052094 1.10076510906 1.04962468147 0.972205936909 0.981238901615 1.00687408447 1.04161083698 1.105047822 1.17575454712 1.17581939697 1.10493957996 1.02520871162 1.00684010983 0.981290400028 
