2.26516795158 3.86904096603 6.7631893158 9.48609447479 11.0606517792 11.0594072342 9.48012447357 6.75575399399 3.86235117912 2.2650551796 2.29086375237 5.0711479187 9.784491539 14.284579277 16.8508090973 16.8487873077 14.2747812271 9.77232265472 5.06007242203 2.29054927826 2.31492471695 5.96432876587 11.877122879 17.468744278 20.8070392609 20.8044204712 17.4562759399 11.8621034622 5.95015096664 2.31442451477 2.33188271523 6.4931678772 13.0545482635 19.2159957886 22.8882656097 22.885389328 19.2022533417 13.0379905701 6.47725486755 2.33125400543 2.34096932411 6.75763368607 13.6319999695 20.0481376648 23.8573207855 23.8543491364 20.033870697 13.6147165298 6.74089241028 2.34027099609 2.34096193314 6.75742197037 13.6315441132 20.0474853516 23.8565654755 23.8535995483 20.0332221985 13.6142663956 6.74068450928 2.34026384354 2.33184719086 6.49209976196 13.0521802902 19.2125091553 22.8841629028 22.8812866211 19.1987934113 13.0356502533 6.47620391846 2.33121967316 2.31487202644 5.96246147156 11.8729724884 17.4624080658 20.7985019684 20.7959747314 17.4499797821 11.8580112457 5.94830083847 2.31437253952 2.29078888893 5.06826353073 9.77746677399 14.2743797302 16.8377666473 16.8357906342 14.2647123337 9.76522159576 5.05715465546 2.29047608376 2.26511669159 3.86537194252 6.75346803665 9.4698972702 11.0409955978 11.0400743484 9.4634885788 6.74579143524 3.85861706734 2.26500225067 
2.26523900032 3.8344783783 6.69327878952 9.40125274658 10.9674873352 10.9662475586 9.39531517029 6.68589878082 3.82790374756 2.2651283741 2.2905356884 5.03080654144 9.70962524414 14.200920105 16.7671222687 16.7650947571 14.1911201477 9.69750976562 5.01984834671 2.2902264595 2.31436395645 5.92521047592 11.8059825897 17.3919467926 20.759393692 20.7567081451 17.3794574738 11.7910137177 5.91113853455 2.31387066841 2.33131480217 6.45718383789 12.9891490936 19.1629734039 22.9142246246 22.9112377167 19.1491012573 12.9726352692 6.44136619568 2.33069300652 2.34048771858 6.72426748276 13.5717868805 20.0168113708 23.928943634 23.9258422852 20.0023212433 13.5545406342 6.70761156082 2.33979606628 2.34048032761 6.72405338287 13.5713253021 20.0161437988 23.9281539917 23.9250564575 20.0016536713 13.5540876389 6.70740222931 2.33978891373 2.3312792778 6.45610952377 12.9867687225 19.1594295502 22.9099693298 22.9069843292 19.1455821991 12.9702806473 6.44031047821 2.33065843582 2.31431221962 5.92333269119 11.801817894 17.3855552673 20.7507095337 20.7481212616 17.3731040955 11.786907196 5.90927696228 2.31381893158 2.29046177864 5.02790307999 9.70254802704 14.1906871796 16.7539520264 16.7519721985 14.181019783 9.69034099579 5.01690530777 2.29015421867 2.26518917084 3.8308262825 6.68354558945 9.38498878479 10.9478797913 10.9469556808 9.37857532501 6.6759018898 3.82418012619 2.26507592201 
2.26524090767 3.83350205421 6.69130277634 9.3988571167 10.9648399353 10.9636001587 9.39292144775 6.68392324448 3.82693004608 2.26512956619 2.29052639008 5.02966594696 9.70750331879 14.1985225677 16.764667511 16.7626399994 14.1887235641 9.69539070129 5.01871061325 2.2902173996 2.31434845924 5.92411279678 11.8039884567 17.3897266388 20.7574729919 20.7547855377 17.3772373199 11.7890224457 5.9100446701 2.31385540962 2.33129858971 6.45619344711 12.9873590469 19.1613082886 22.9146518707 22.9116630554 19.1474342346 12.9708528519 6.44037818909 2.33067703247 2.34047245979 6.72336244583 13.5701627731 20.015838623 23.9320144653 23.9289093018 20.0013484955 13.5529203415 6.70671129227 2.3397808075 2.34046554565 6.72314977646 13.5697059631 20.0151691437 23.9312229156 23.9281215668 20.0006752014 13.5524654388 6.70650100708 2.33977413177 2.33126330376 6.45511865616 12.9849786758 19.1577587128 22.9103927612 22.9074039459 19.143913269 12.968495369 6.43932151794 2.3306427002 2.31429576874 5.92223453522 11.7998247147 17.3833332062 20.7487831116 20.7461929321 17.370880127 11.7849178314 5.90818214417 2.31380271912 2.2904522419 5.02676200867 9.70042419434 14.1882886887 16.7514953613 16.7495117188 14.1786203384 9.68821907043 5.01576805115 2.29014468193 2.26519107819 3.82985067368 6.68156862259 9.38259220123 10.945233345 10.9443101883 9.37617778778 6.67392635345 3.82320785522 2.26507806778 
2.26524114609 3.83345603943 6.69121265411 9.39875411987 10.9647293091 10.9634885788 9.39281749725 6.68383312225 3.82688426971 2.26513028145 2.29052567482 5.02961540222 9.70741653442 14.198431015 16.7645759583 16.7625484467 14.1886291504 9.69530200958 5.01866054535 2.2902173996 2.31434750557 5.92406988144 11.8039159775 17.3896560669 20.7574253082 20.7547359467 17.3771648407 11.7889499664 5.91000175476 2.31385469437 2.33129882812 6.45616102219 12.9873085022 19.1612815857 22.9147491455 22.9117546082 19.1474056244 12.9708003998 6.44034528732 2.33067655563 2.34047245979 6.7233376503 13.5701255798 20.0158615112 23.9323348999 23.9292297363 20.0013694763 13.5528831482 6.70668554306 2.33978056908 2.34046530724 6.72312450409 13.5696659088 20.0151939392 23.9315471649 23.9284381866 20.0007019043 13.5524301529 6.70647668839 2.33977365494 2.33126306534 6.45508575439 12.9849271774 19.1577339172 22.9104862213 22.9074954987 19.1438884735 12.9684429169 6.43928909302 2.33064198494 2.3142952919 5.92219114304 11.7997512817 17.3832626343 20.7487316132 20.7461395264 17.3708095551 11.7848443985 5.90813827515 2.3138024807 2.29045200348 5.02671194077 9.7003364563 14.1881961823 16.7514038086 16.7494239807 14.178527832 9.68812942505 5.01571702957 2.29014444351 2.2651913166 3.82980394363 6.68147850037 9.38248920441 10.9451217651 10.9442005157 9.37607383728 6.67383718491 3.82316112518 2.2650783062 
2.26524138451 3.83345985413 6.69122552872 9.39877700806 10.964756012 10.9635162354 9.39283943176 6.68384647369 3.82688856125 2.26513028145 2.29052615166 5.02962493896 9.70743942261 14.1984672546 16.7646179199 16.7625904083 14.1886663437 9.69532585144 5.01867008209 2.2902173996 2.31434822083 5.92408418655 11.8039484024 17.389705658 20.7574825287 20.7547969818 17.3772163391 11.7889823914 5.91001558304 2.31385540962 2.33129906654 6.45618009567 12.9873504639 19.1613464355 22.9148387909 22.9118499756 19.1474723816 12.9708433151 6.44036483765 2.33067750931 2.34047293663 6.72335958481 13.5701723099 20.0159416199 23.9324684143 23.929359436 20.001449585 13.5529289246 6.70670843124 2.33978128433 2.34046578407 6.72314596176 13.5697154999 20.0152740479 23.9316730499 23.9285697937 20.0007820129 13.5524778366 6.70649862289 2.33977437019 2.33126330376 6.45510578156 12.9849710464 19.1577987671 22.910577774 22.9075870514 19.1439552307 12.9684877396 6.43930768967 2.3306427002 2.31429553032 5.92220592499 11.799782753 17.383310318 20.748790741 20.7462005615 17.3708591461 11.7848787308 5.90815353394 2.31380295753 2.29045200348 5.02672243118 9.70036029816 14.1882333755 16.7514457703 16.749464035 14.1785640717 9.68815612793 5.01572751999 2.29014468193 2.26519155502 3.82980847359 6.68149232864 9.38251209259 10.9451532364 10.9442281723 9.37609767914 6.67384910583 3.82316565514 2.2650783062 
2.26524138451 3.83346939087 6.69124746323 9.39881038666 10.96479702 10.9635562897 9.39287567139 6.6838684082 3.82689762115 2.26513051987 2.29052615166 5.02964067459 9.70747184753 14.198513031 16.7646694183 16.7626419067 14.1887130737 9.69536018372 5.01868581772 2.2902173996 2.31434845924 5.92410469055 11.8039932251 17.3897666931 20.7575492859 20.7548656464 17.3772773743 11.7890272141 5.91003656387 2.3138551712 2.3312997818 6.45620441437 12.9874048233 19.1614189148 22.914932251 22.9119434357 19.1475467682 12.9708948135 6.44038915634 2.33067798615 2.3404738903 6.72338628769 13.570230484 20.0160293579 23.9325847626 23.929473877 20.001531601 13.5529880524 6.70673465729 2.33978223801 2.34046649933 6.72317266464 13.569770813 20.0153560638 23.9317913055 23.928686142 20.0008640289 13.5525341034 6.70652484894 2.33977556229 2.33126401901 6.45512914658 12.9850206375 19.1578731537 22.9106731415 22.9076805115 19.1440238953 12.968539238 6.43933200836 2.33064317703 2.31429600716 5.92222642899 11.7998275757 17.3833713531 20.7488555908 20.7462692261 17.3709220886 11.7849225998 5.90817451477 2.31380343437 2.29045248032 5.0267367363 9.70039463043 14.1882801056 16.7514972687 16.7495155334 14.178609848 9.68818950653 5.01574277878 2.29014468193 2.2651913166 3.82981777191 6.68151521683 9.38254642487 10.9451913834 10.9442672729 9.37613201141 6.67387151718 3.82317495346 2.26507854462 
2.26524138451 3.83347845078 6.69127130508 9.39884471893 10.9648370743 10.9635982513 9.39290904999 6.6838927269 3.8269071579 2.26513051987 2.29052662849 5.02965593338 9.70750808716 14.198559761 16.7647209167 16.7626934052 14.1887588501 9.69539546967 5.01870107651 2.29021787643 2.31434869766 5.92412519455 11.8040370941 17.3898258209 20.7576217651 20.7549324036 17.3773403168 11.7890691757 5.9100561142 2.31385588646 2.33130025864 6.45622825623 12.9874505997 19.1614952087 22.9150276184 22.9120330811 19.1476173401 12.9709453583 6.44041252136 2.3306787014 2.34047484398 6.72341156006 13.5702867508 20.0161113739 23.9326915741 23.9295825958 20.0016136169 13.5530414581 6.70676040649 2.33978319168 2.340467453 6.72319936752 13.5698261261 20.0154438019 23.9319000244 23.9287948608 20.0009479523 13.5525894165 6.70655012131 2.33977651596 2.33126473427 6.45515394211 12.9850711823 19.1579456329 22.9107646942 22.9077720642 19.1440982819 12.9685869217 6.43935632706 2.33064389229 2.31429672241 5.92224740982 11.7998733521 17.3834323883 20.7489299774 20.7463359833 17.3709793091 11.7849655151 5.90819501877 2.31380391121 2.29045271873 5.02675151825 9.70042896271 14.188325882 16.7515487671 16.7495689392 14.1786584854 9.68822479248 5.01575756073 2.29014515877 2.26519155502 3.82982730865 6.68153619766 9.38257980347 10.9452314377 10.9443082809 9.37616634369 6.6738948822 3.82318425179 2.26507854462 
