2.26535987854 3.8348069191 6.69213342667 9.40074157715 10.9827804565 10.9815235138 9.39478778839 6.68475627899 3.82823419571 2.26524853706 2.29134702682 5.03199052811 9.71435928345 14.2384395599 16.8398246765 16.8377799988 14.2285003662 9.70221138 5.02102899551 2.29103279114 2.31476736069 5.92778110504 11.8253097534 17.4487266541 20.856842041 20.854139328 17.4360847473 11.8102865219 5.91367053986 2.31427240372 2.3316628933 6.46339607239 13.0137796402 19.2205677032 23.0048313141 23.0018444061 19.2065601349 12.997220993 6.44752454758 2.33103990555 2.34083080292 6.73219966888 13.5977277756 20.0711688995 24.0097064972 24.0066127777 20.0565567017 13.5804433823 6.71549034119 2.34013724327 2.34082365036 6.731985569 13.5972671509 20.0704994202 24.0089225769 24.0058269501 20.0558872223 13.5799837112 6.71527814865 2.34013009071 2.33162689209 6.46228885651 13.0113706589 19.217010498 23.0005893707 22.9975967407 19.2030277252 12.9948320389 6.44643068314 2.3310046196 2.31471323967 5.92580986023 11.8209295273 17.4422645569 20.8480377197 20.8454399109 17.4296512604 11.8059425354 5.91170597076 2.3142182827 2.29127073288 5.02901029587 9.70702457428 14.2279882431 16.8264751434 16.8244781494 14.2181758881 9.69474029541 5.017993927 2.29095673561 2.26530766487 3.83112239838 6.6823759079 9.38429546356 10.9627761841 10.9618625641 9.37780952454 6.67470741272 3.82446479797 2.26519346237 
2.26536822319 3.82985472679 6.68199682236 9.3883228302 10.9689035416 10.9676494598 9.38237571716 6.67462921143 3.82329916954 2.26525712013 2.29129505157 5.02607631683 9.70327377319 14.225605011 16.8263301849 16.8242893219 14.2156686783 9.69113636017 5.01513195038 2.29098129272 2.31467700005 5.92184686661 11.8143453598 17.4358787537 20.8450050354 20.842294693 17.423242569 11.799331665 5.90775299072 2.31418299675 2.33156204224 6.4576883316 13.0031394958 19.2092189789 23.0025558472 22.999546051 19.1952018738 12.9865875244 6.44183158875 2.33093953133 2.34072566032 6.72671413422 13.5874624252 20.0617847443 24.0177307129 24.0146045685 20.0471611023 13.5701818466 6.71001911163 2.34003353119 2.34071874619 6.7264995575 13.5869998932 20.0611133575 24.0169391632 24.0138149261 20.0464897156 13.5697240829 6.70980739594 2.34002590179 2.33152580261 6.45657968521 13.0007266998 19.205657959 22.9982852936 22.9952697754 19.1916694641 12.9841957092 6.44073677063 2.3309044838 2.31462287903 5.9198756218 11.8099632263 17.4294128418 20.8361797333 20.8335762024 17.4167995453 11.7949886322 5.90578651428 2.31412863731 2.29121899605 5.02309322357 9.69593334198 14.2151498795 16.8129692078 16.8109760284 14.2053394318 9.68365478516 5.01209354401 2.29090595245 2.26531624794 3.82617259026 6.67223882675 9.37187004089 10.9489154816 10.9479990005 9.36538314819 6.66457748413 3.81953167915 2.26520228386 
2.26536846161 3.82986211777 6.68201637268 9.3883523941 10.9689416885 10.9676856995 9.38240528107 6.67464923859 3.82330679893 2.26525712013 2.29129528999 5.0260887146 9.70330524445 14.2256479263 16.826379776 16.8243370056 14.2157115936 9.6911649704 5.01514482498 2.29098176956 2.31467747688 5.92186403275 11.8143825531 17.4359359741 20.8450660706 20.8423595428 17.4232959747 11.7993707657 5.90777111053 2.31418347359 2.33156251907 6.45771026611 13.0031843185 19.2092876434 23.0026416779 22.9996337891 19.195274353 12.9866352081 6.44185352325 2.33094024658 2.34072613716 6.72673797607 13.5875120163 20.0618629456 24.0178489685 24.0147228241 20.0472393036 13.5702352524 6.71004390717 2.34003424644 2.34071922302 6.72652435303 13.5870504379 20.0611934662 24.0170593262 24.0139312744 20.0465679169 13.5697746277 6.70983123779 2.34002685547 2.33152627945 6.45660161972 13.0007743835 19.2057228088 22.9983711243 22.9953536987 19.1917381287 12.9842443466 6.44075918198 2.33090496063 2.31462311745 5.91989326477 11.8100013733 17.4294662476 20.8362464905 20.8336410522 17.416852951 11.7950248718 5.90580368042 2.31412911415 2.29121923447 5.02310657501 9.69596290588 14.2151927948 16.8130149841 16.8110198975 14.2053823471 9.68368530273 5.01210641861 2.29090595245 2.26531624794 3.82618045807 6.67225837708 9.37190055847 10.9489498138 10.9480342865 9.3654127121 6.66459512711 3.81953859329 2.26520228386 
2.26536846161 3.82987332344 6.68204259872 9.38839149475 10.9689884186 10.9677305222 9.38244438171 6.67467498779 3.82331752777 2.26525712013 2.29129576683 5.02610635757 9.7033405304 14.2256984711 16.8264369965 16.8243961334 14.215763092 9.69120311737 5.01516103745 2.29098176956 2.3146777153 5.92188644409 11.8144311905 17.4359989166 20.8451385498 20.8424320221 17.4233627319 11.7994203568 5.90779399872 2.31418395042 2.33156347275 6.45773649216 13.0032396317 19.2093639374 23.0027351379 22.9997234344 19.1953468323 12.9866905212 6.44187927246 2.33094120026 2.34072732925 6.72676706314 13.5875701904 20.0619468689 24.0179576874 24.0148296356 20.0473213196 13.5702962875 6.71007061005 2.34003472328 2.3407201767 6.72655200958 13.5871095657 20.0612754822 24.0171661377 24.0140380859 20.0466499329 13.5698356628 6.70985937119 2.34002757072 2.33152699471 6.4566283226 13.0008296967 19.2057991028 22.9984607697 22.9954452515 19.1918125153 12.9842996597 6.44078493118 2.33090591431 2.31462407112 5.91991472244 11.8100500107 17.4295310974 20.8363132477 20.8337135315 17.4169197083 11.7950735092 5.90582609177 2.31412982941 2.29121899605 5.02312374115 9.69600200653 14.2152433395 16.8130722046 16.8110771179 14.2054347992 9.68372249603 5.01212406158 2.29090666771 2.26531624794 3.8261911869 6.67228460312 9.37193870544 10.9489955902 10.9480810165 9.36545276642 6.66462278366 3.81955003738 2.26520228386 
2.26536893845 3.82988452911 6.68206834793 9.38842964172 10.9690341949 10.9677762985 9.38248252869 6.67469978333 3.82332777977 2.26525735855 2.29129576683 5.02612304688 9.70338058472 14.2257480621 16.8264942169 16.8244495392 14.2158136368 9.69123935699 5.01517915726 2.29098200798 2.31467843056 5.92190790176 11.8144760132 17.4360637665 20.8452129364 20.842502594 17.4234275818 11.7994651794 5.90781497955 2.31418466568 2.33156394958 6.45776128769 13.0032930374 19.209438324 23.0028247833 22.9998111725 19.1954231262 12.9867448807 6.4419054985 2.33094191551 2.34072780609 6.7267947197 13.5876293182 20.0620307922 24.0180664062 24.0149345398 20.0474052429 13.5703516006 6.71009874344 2.34003567696 2.34072089195 6.72657966614 13.5871677399 20.0613594055 24.0172767639 24.0141487122 20.0467319489 13.5698928833 6.70988750458 2.3400285244 2.33152794838 6.45665311813 13.0008850098 19.2058753967 22.9985523224 22.9955368042 19.1918869019 12.9843530655 6.44081115723 2.33090686798 2.31462407112 5.91993713379 11.8100967407 17.4295921326 20.8363857269 20.8337802887 17.4169826508 11.7951183319 5.90584802628 2.31413054466 2.29121923447 5.02314043045 9.69603824615 14.2152957916 16.8131275177 16.8111343384 14.2054834366 9.68376064301 5.01214075089 2.29090666771 2.26531648636 3.82620191574 6.672311306 9.37197589874 10.9490423203 10.9481267929 9.36548900604 6.66464710236 3.8195605278 2.26520228386 
2.26536870003 3.82989501953 6.68209409714 9.3884677887 10.9690799713 10.9678211212 9.38251972198 6.67472553253 3.82333850861 2.26525759697 2.29129600525 5.02614021301 9.70341682434 14.2257986069 16.82654953 16.8245067596 14.2158641815 9.69127845764 5.01519584656 2.29098248482 2.31467890739 5.92193031311 11.8145246506 17.436126709 20.8452854156 20.8425769806 17.4234924316 11.7995109558 5.90783691406 2.31418466568 2.33156442642 6.45778799057 13.0033445358 19.2095127106 23.0029144287 22.9999046326 19.1955013275 12.9867992401 6.44193077087 2.33094263077 2.34072875977 6.72682285309 13.5876913071 20.0621147156 24.0181732178 24.0150470734 20.0474853516 13.5704097748 6.71012735367 2.34003639221 2.34072160721 6.7266087532 13.5872268677 20.0614395142 24.0173797607 24.014257431 20.0468158722 13.5699481964 6.7099146843 2.34002923965 2.33152842522 6.45667982101 13.0009374619 19.2059516907 22.9986400604 22.9956245422 19.1919631958 12.9844074249 6.4408364296 2.3309071064 2.31462478638 5.91995859146 11.8101425171 17.4296569824 20.8364601135 20.8338508606 17.4170436859 11.7951660156 5.90586853027 2.31413078308 2.29121994972 5.02315759659 9.69607639313 14.215344429 16.8131847382 16.8111915588 14.2055358887 9.68379688263 5.01215744019 2.29090738297 2.26531672478 3.826212883 6.67233657837 9.37201499939 10.9490880966 10.9481716156 9.36552715302 6.6646733284 3.81957173347 2.26520228386 
2.26536893845 3.82990527153 6.68211984634 9.38850593567 10.9691238403 10.9678668976 9.38255882263 6.67475128174 3.82334899902 2.26525759697 2.29129624367 5.02615642548 9.70345497131 14.225851059 16.8266067505 16.8245601654 14.2159137726 9.69131278992 5.01521253586 2.29098272324 2.31467914581 5.92195177078 11.8145704269 17.4361896515 20.8453540802 20.8426475525 17.4235534668 11.7995567322 5.9078578949 2.31418514252 2.3315653801 6.45781373978 13.00340271 19.2095909119 23.0030059814 22.999994278 19.1955738068 12.9868507385 6.44195652008 2.33094286919 2.34072947502 6.72685003281 13.5877485275 20.0621967316 24.018283844 24.0151538849 20.0475673676 13.5704698563 6.71015501022 2.34003734589 2.34072208405 6.72663593292 13.5872831345 20.0615234375 24.0174884796 24.0143642426 20.0468978882 13.5700082779 6.70994329453 2.34002995491 2.33152914047 6.45670509338 13.0009937286 19.2060279846 22.9987297058 22.995716095 19.1920375824 12.9844608307 6.44086170197 2.33090758324 2.31462526321 5.91998004913 11.8101882935 17.4297218323 20.8365287781 20.8339233398 17.4171085358 11.7952098846 5.90589094162 2.3141310215 2.29122018814 5.02317380905 9.69611263275 14.2153968811 16.8132400513 16.8112487793 14.2055835724 9.68383312225 5.01217365265 2.29090762138 2.26531672478 3.82622313499 6.6723613739 9.37205219269 10.9491319656 10.9482164383 9.36556625366 6.66469907761 3.81958222389 2.26520252228 
