1.0 1.00000011921 0.996337413788 1.05124437809 1.10514247417 1.10512030125 1.05116057396 1.00000023842 1.0 1.0 0.999999940395 1.00325727463 1.08684360981 1.18168616295 1.23968267441 1.23966515064 1.18161058426 1.04324376583 1.00321400166 1.0 1.0 1.06446838379 1.16551911831 1.24356806278 1.26917636395 1.2691655159 1.24350607395 1.11346101761 1.06439900398 1.00000011921 1.0 1.09830760956 1.19623506069 1.25338923931 1.27309060097 1.27308320999 1.25334143639 1.14714479446 1.09824669361 1.00000011921 1.0 1.12324821949 1.21352183819 1.25945997238 1.27483212948 1.27482712269 1.25942254066 1.1732738018 1.12319016457 1.00000011921 1.0 1.12323951721 1.21351516247 1.25945532322 1.2748439312 1.27483808994 1.25941681862 1.17326760292 1.12318170071 1.00000011921 1.0 1.09826517105 1.19620299339 1.25335431099 1.27309584618 1.27308726311 1.25330555439 1.14710628986 1.09820508957 1.0 1.0 1.04633724689 1.13933682442 1.23326408863 1.26728379726 1.26727807522 1.23318839073 1.0944890976 1.04626429081 1.00000011921 1.0 1.0032145977 1.08675980568 1.18166995049 1.23970615864 1.23966765404 1.18161892891 1.04316413403 1.00317239761 1.00000011921 1.0 1.00000011921 0.996346473694 1.05113887787 1.10491633415 1.10495841503 1.05103302002 1.00000011921 1.0 0.999999940395 
1.0 1.00000011921 0.996337413788 1.05124437809 1.10514247417 1.10512030125 1.05116057396 1.00000023842 1.0 1.0 0.999999940395 1.00325727463 1.08684360981 1.18168616295 1.26167976856 1.2616571188 1.18161058426 1.04324376583 1.00321400166 1.0 1.0 1.06446838379 1.16551911831 1.27198827267 1.37395811081 1.37394344807 1.2719181776 1.11346101761 1.06439900398 1.00000011921 1.0 1.09830760956 1.2002774477 1.29963469505 1.39504647255 1.39503073692 1.29957449436 1.14714479446 1.09824669361 1.00000011921 1.0 1.12324821949 1.23037946224 1.32884204388 1.4128497839 1.41283750534 1.32879602909 1.1732738018 1.12319016457 1.00000011921 1.0 1.12323951721 1.2303712368 1.32882237434 1.41294634342 1.41292762756 1.32877063751 1.17326760292 1.12318170071 1.00000011921 1.0 1.09826517105 1.20024287701 1.29955267906 1.39515292645 1.39512717724 1.29948854446 1.14710628986 1.09820508957 1.0 1.0 1.04633724689 1.13933682442 1.23963522911 1.3354575634 1.33545088768 1.23954999447 1.0944890976 1.04626429081 1.00000011921 1.0 1.0032145977 1.08675980568 1.18166995049 1.26176476479 1.26169872284 1.18161892891 1.04316413403 1.00317239761 1.00000011921 1.0 1.00000011921 0.996346473694 1.05113887787 1.10491633415 1.10495841503 1.05103302002 1.00000011921 1.0 0.999999940395 
1.0 1.00000011921 0.996337413788 1.05124437809 1.10514247417 1.10512030125 1.05116057396 1.00000023842 1.0 1.0 0.999999940395 1.00325727463 1.08684360981 1.18168616295 1.26167976856 1.2616571188 1.18161058426 1.04324376583 1.00321400166 1.0 1.0 1.06446838379 1.16551911831 1.27198827267 1.37400376797 1.37398886681 1.2719181776 1.11346101761 1.06439900398 1.00000011921 1.0 1.09830760956 1.2002774477 1.29963469505 1.39639437199 1.39638054371 1.29957449436 1.14714479446 1.09824669361 1.00000011921 1.0 1.12324821949 1.23037946224 1.32884204388 1.41821908951 1.41820907593 1.32879602909 1.1732738018 1.12319016457 1.00000011921 1.0 1.12323951721 1.2303712368 1.32882237434 1.41835832596 1.41834068298 1.32877063751 1.17326760292 1.12318170071 1.00000011921 1.0 1.09826517105 1.20024287701 1.29955267906 1.39653038979 1.39650535583 1.29948854446 1.14710628986 1.09820508957 1.0 1.0 1.04633724689 1.13933682442 1.23963522911 1.3354575634 1.33545088768 1.23954999447 1.0944890976 1.04626429081 1.00000011921 1.0 1.0032145977 1.08675980568 1.18166995049 1.26176476479 1.26169872284 1.18161892891 1.04316413403 1.00317239761 1.00000011921 1.0 1.00000011921 0.996346473694 1.05113887787 1.10491633415 1.10495841503 1.05103302002 1.00000011921 1.0 0.999999940395 
1.0 1.00000011921 0.996337413788 1.05124437809 1.10514247417 1.10512030125 1.05116057396 1.00000023842 1.0 1.0 0.999999940395 1.00325727463 1.08684360981 1.18168616295 1.26167976856 1.2616571188 1.18161058426 1.04324376583 1.00321400166 1.0 1.0 1.06446838379 1.16551911831 1.27198827267 1.37400376797 1.37398886681 1.2719181776 1.11346101761 1.06439900398 1.00000011921 1.0 1.09830760956 1.2002774477 1.29963469505 1.39639437199 1.39638054371 1.29957449436 1.14714479446 1.09824669361 1.00000011921 1.0 1.12324821949 1.23037946224 1.32884204388 1.41822719574 1.41821777821 1.32879602909 1.1732738018 1.12319016457 1.00000011921 1.0 1.12323951721 1.2303712368 1.32882237434 1.41836702824 1.41834938526 1.32877063751 1.17326760292 1.12318170071 1.00000011921 1.0 1.09826517105 1.20024287701 1.29955267906 1.39653038979 1.39650535583 1.29948854446 1.14710628986 1.09820508957 1.0 1.0 1.04633724689 1.13933682442 1.23963522911 1.3354575634 1.33545088768 1.23954999447 1.0944890976 1.04626429081 1.00000011921 1.0 1.0032145977 1.08675980568 1.18166995049 1.26176476479 1.26169872284 1.18161892891 1.04316413403 1.00317239761 1.00000011921 1.0 1.00000011921 0.996346473694 1.05113887787 1.10491633415 1.10495841503 1.05103302002 1.00000011921 1.0 0.999999940395 
1.0 1.00000011921 0.996337413788 1.05124437809 1.10514247417 1.10512030125 1.05116057396 1.00000023842 1.0 1.0 0.999999940395 1.00325727463 1.08684360981 1.18168616295 1.26167976856 1.2616571188 1.18161058426 1.04324376583 1.00321400166 1.0 1.0 1.06446838379 1.16551911831 1.27198827267 1.37400376797 1.37398886681 1.2719181776 1.11346101761 1.06439900398 1.00000011921 1.0 1.09830760956 1.2002774477 1.29963469505 1.39639437199 1.39638054371 1.29957449436 1.14714479446 1.09824669361 1.00000011921 1.0 1.12324821949 1.23037946224 1.32884204388 1.41823637486 1.41822648048 1.32879602909 1.1732738018 1.12319016457 1.00000011921 1.0 1.12323951721 1.2303712368 1.32882237434 1.41837596893 1.41835820675 1.32877063751 1.17326760292 1.12318170071 1.00000011921 1.0 1.09826517105 1.20024287701 1.29955267906 1.39653038979 1.39650535583 1.29948854446 1.14710628986 1.09820508957 1.0 1.0 1.04633724689 1.13933682442 1.23963522911 1.3354575634 1.33545088768 1.23954999447 1.0944890976 1.04626429081 1.00000011921 1.0 1.0032145977 1.08675980568 1.18166995049 1.26176476479 1.26169872284 1.18161892891 1.04316413403 1.00317239761 1.00000011921 1.0 1.00000011921 0.996346473694 1.05113887787 1.10491633415 1.10495841503 1.05103302002 1.00000011921 1.0 0.999999940395 
1.0 1.00000011921 0.996337413788 1.05124437809 1.10514247417 1.10512030125 1.05116057396 1.00000023842 1.0 1.0 0.999999940395 1.00325727463 1.08684360981 1.18168616295 1.26167976856 1.2616571188 1.18161058426 1.04324376583 1.00321400166 1.0 1.0 1.06446838379 1.16551911831 1.27198827267 1.37400376797 1.37398886681 1.2719181776 1.11346101761 1.06439900398 1.00000011921 1.0 1.09830760956 1.2002774477 1.29963469505 1.39639437199 1.39638054371 1.29957449436 1.14714479446 1.09824669361 1.00000011921 1.0 1.12324821949 1.23037946224 1.32884204388 1.41824483871 1.41823494434 1.32879602909 1.1732738018 1.12319016457 1.00000011921 1.0 1.12323951721 1.2303712368 1.32882237434 1.41838467121 1.41836702824 1.32877063751 1.17326760292 1.12318170071 1.00000011921 1.0 1.09826517105 1.20024287701 1.29955267906 1.39653074741 1.39650583267 1.29948854446 1.14710628986 1.09820508957 1.0 1.0 1.04633724689 1.13933682442 1.23963522911 1.3354575634 1.33545088768 1.23954999447 1.0944890976 1.04626429081 1.00000011921 1.0 1.0032145977 1.08675980568 1.18166995049 1.26176476479 1.26169872284 1.18161892891 1.04316413403 1.00317239761 1.00000011921 1.0 1.00000011921 0.996346473694 1.05113887787 1.10491633415 1.10495841503 1.05103302002 1.00000011921 1.0 0.999999940395 
1.0 1.00000011921 0.996337413788 1.05124437809 1.10514247417 1.10512030125 1.05116057396 1.00000023842 1.0 1.0 0.999999940395 1.00325727463 1.08684360981 1.18168616295 1.26167976856 1.2616571188 1.18161058426 1.04324376583 1.00321400166 1.0 1.0 1.06446838379 1.16551911831 1.27198827267 1.37400376797 1.37398886681 1.2719181776 1.11346101761 1.06439900398 1.00000011921 1.0 1.09830760956 1.2002774477 1.29963469505 1.39639496803 1.39638137817 1.29957449436 1.14714479446 1.09824669361 1.00000011921 1.0 1.12324821949 1.23037946224 1.32884204388 1.41825330257 1.41824364662 1.32879602909 1.1732738018 1.12319016457 1.00000011921 1.0 1.12323951721 1.2303712368 1.32882237434 1.41839361191 1.41837537289 1.32877063751 1.17326760292 1.12318170071 1.00000011921 1.0 1.09826517105 1.20024287701 1.29955267906 1.39653253555 1.3965075016 1.29948854446 1.14710628986 1.09820508957 1.0 1.0 1.04633724689 1.13933682442 1.23963522911 1.3354575634 1.33545088768 1.23954999447 1.0944890976 1.04626429081 1.00000011921 1.0 1.0032145977 1.08675980568 1.18166995049 1.26176476479 1.26169872284 1.18161892891 1.04316413403 1.00317239761 1.00000011921 1.0 1.00000011921 0.996346473694 1.05113887787 1.10491633415 1.10495841503 1.05103302002 1.00000011921 1.0 0.999999940395 
