13.9352769852 21.707660675 29.3037109375 37.1705436707 45.635017395 54.3868560791 62.8498497009 70.7153320312 78.3115005493 86.0844192505 13.8966054916 21.4765300751 28.5263957977 36.3030090332 45.2701950073 54.7535018921 63.7179679871 71.491569519 78.5414199829 86.1229476929 13.8740234375 21.297504425 28.0270576477 35.743522644 45.0169410706 55.008026123 64.277671814 71.9903793335 78.7195129395 86.1454315186 13.8557300568 21.1819152832 27.770740509 35.4670448303 44.8989334106 55.1266326904 64.5542984009 72.246421814 78.8347167969 86.1636505127 13.8434514999 21.1252574921 27.6458950043 35.3399658203 44.8487052917 55.1770973206 64.6814804077 72.3711395264 78.8911895752 86.1758728027 13.843462944 21.1252937317 27.6459903717 35.3400497437 44.8487625122 55.1770362854 64.6813964844 72.3710708618 78.8911437988 86.1758499146 13.8557729721 21.1821289062 27.7712078094 35.4675674438 44.8991317749 55.126411438 64.5537719727 72.2459487915 78.8345108032 86.1636047363 13.8740692139 21.2978668213 28.0279197693 35.7445297241 45.0175476074 55.0074195862 64.2766647339 71.9895324707 78.7191467285 86.145401001 13.8966751099 21.4770202637 28.5280532837 36.3046417236 45.2710647583 54.7525978088 63.7163658142 71.4899215698 78.5409469604 86.1228866577 13.9354114532 21.7083110809 29.3055648804 37.1732978821 45.6361732483 54.385761261 62.847076416 70.7135925293 78.3108901978 86.0842895508 
13.9352769852 21.7077350616 29.3039932251 37.1708374023 45.6351165771 54.386756897 62.8495483398 70.7150497437 78.3114242554 86.0844268799 13.8965997696 21.4766902924 28.5268173218 36.3031959534 45.2701873779 54.7535018921 63.7177696228 71.4911499023 78.5412521362 86.1229476929 13.8740081787 21.2976398468 28.0273170471 35.7432518005 45.0166168213 55.0083618164 64.2779312134 71.9901046753 78.7193832397 86.1454467773 13.8556976318 21.1819057465 27.7704429626 35.4650382996 44.896484375 55.1290855408 64.5563049316 72.246711731 78.8347396851 86.1636962891 13.8434028625 21.1251010895 27.6450061798 35.3355026245 44.8441085815 55.181728363 64.6859283447 72.3720474243 78.8913269043 86.1759262085 13.843413353 21.1251373291 27.6450977325 35.3355865479 44.8441619873 55.1816711426 64.6858520508 72.3719482422 78.8912963867 86.1759262085 13.8557386398 21.1821212769 27.7709159851 35.4655647278 44.8966903687 55.1288604736 64.5557785034 72.2462463379 78.8345184326 86.1636352539 13.8740520477 21.298002243 28.0281791687 35.74426651 45.0172271729 55.0077323914 64.2769317627 71.9892807007 78.7190170288 86.1454086304 13.8966703415 21.4771842957 28.5284805298 36.3048286438 45.2710609436 54.7526016235 63.7161865234 71.4895019531 78.5407943726 86.1228866577 13.9354124069 21.7083873749 29.3058509827 37.1735916138 45.6362800598 54.3856658936 62.846786499 70.7133255005 78.3108139038 86.0842971802 
13.9352779388 21.7077331543 29.3039913177 37.1708335876 45.6351165771 54.386756897 62.8495483398 70.715057373 78.3114395142 86.0844268799 13.8965997696 21.4766864777 28.526807785 36.303188324 45.2701835632 54.7535171509 63.7177810669 71.4911575317 78.5412597656 86.1229476929 13.8740062714 21.2976360321 28.0272979736 35.7432327271 45.0166091919 55.0083618164 64.2779464722 71.9901351929 78.7193756104 86.1454467773 13.8556957245 21.1818962097 27.7704219818 35.4650115967 44.8964729309 55.1290969849 64.5563354492 72.2467346191 78.8347473145 86.1636962891 13.8434028625 21.1250896454 27.6449775696 35.3354606628 44.8440856934 55.1817436218 64.6859741211 72.3720779419 78.8913421631 86.1759262085 13.8434143066 21.1251296997 27.645067215 35.3355522156 44.8441390991 55.1816711426 64.6858901978 72.3719863892 78.8913116455 86.1759262085 13.8557386398 21.1821098328 27.7708950043 35.4655418396 44.8966941833 55.1288719177 64.5557937622 72.2462692261 78.834526062 86.1636428833 13.8740539551 21.298002243 28.0281600952 35.7442512512 45.0172233582 55.0077476501 64.2769393921 71.9893035889 78.7190170288 86.1454086304 13.8966703415 21.477180481 28.528470993 36.3048171997 45.2710494995 54.7526016235 63.7161941528 71.4895172119 78.5407943726 86.1228866577 13.9354124069 21.7083835602 29.3058452606 37.1735839844 45.6362800598 54.3856658936 62.8467903137 70.7133331299 78.3108139038 86.0842971802 
13.9352769852 21.7077331543 29.303981781 37.1708297729 45.6351089478 54.386756897 62.8495597839 70.7150726318 78.3114395142 86.0844268799 13.8965988159 21.4766807556 28.5267982483 36.3031806946 45.2701797485 54.7535247803 63.7177886963 71.4911651611 78.541267395 86.1229476929 13.8740081787 21.2976303101 28.0272827148 35.7432174683 45.0166015625 55.0083618164 64.277961731 71.9901504517 78.7193984985 86.1454467773 13.8556947708 21.1818904877 27.7704029083 35.4649848938 44.8964614868 55.1291046143 64.5563583374 72.2467651367 78.8347396851 86.1636810303 13.8434019089 21.125082016 27.644952774 35.3354263306 44.8440704346 55.1817550659 64.6860122681 72.3720932007 78.8913574219 86.1759262085 13.8434123993 21.125120163 27.6450443268 35.3355178833 44.8441238403 55.1817016602 64.6859207153 72.3720092773 78.8913192749 86.1759262085 13.8557376862 21.1821022034 27.7708721161 35.4655151367 44.8966751099 55.1288871765 64.5558242798 72.2462921143 78.8345413208 86.1636428833 13.8740520477 21.297990799 28.0281467438 35.7442359924 45.0172195435 55.0077476501 64.2769470215 71.9893188477 78.7190322876 86.1454086304 13.8966693878 21.4771747589 28.5284576416 36.3048095703 45.2710533142 54.7526092529 63.7162055969 71.4895172119 78.5407943726 86.1228790283 13.9354114532 21.7083797455 29.3058433533 37.1735839844 45.6362800598 54.3856658936 62.8468055725 70.7133331299 78.3108139038 86.0842971802 
13.9352769852 21.7077331543 29.3039779663 37.1708221436 45.6351089478 54.386756897 62.8495674133 70.7150726318 78.3114395142 86.0844268799 13.8965997696 21.4766807556 28.5267868042 36.3031730652 45.2701797485 54.7535209656 63.7178001404 71.4911804199 78.5412750244 86.1229476929 13.8740062714 21.2976207733 28.0272674561 35.7432022095 45.0166015625 55.0083656311 64.2779846191 71.9901657104 78.7193984985 86.1454620361 13.8556928635 21.1818809509 27.7703781128 35.4649543762 44.8964538574 55.129119873 64.5563812256 72.2467956543 78.8347625732 86.1636810303 13.8434009552 21.1250705719 27.6449241638 35.3353843689 44.8440551758 55.1817703247 64.6860580444 72.3721237183 78.8913650513 86.1759262085 13.8434123993 21.1251068115 27.6450214386 35.3354759216 44.8441085815 55.1817169189 64.6859588623 72.3720321655 78.8913192749 86.1759262085 13.8557376862 21.182094574 27.7708511353 35.4654884338 44.8966636658 55.1288909912 64.555847168 72.2463150024 78.8345413208 86.1636428833 13.8740530014 21.2979869843 28.0281276703 35.7442207336 45.0172119141 55.0077552795 64.2769699097 71.9893341064 78.719039917 86.1454086304 13.8966693878 21.4771728516 28.5284538269 36.3048019409 45.2710456848 54.7526130676 63.7162094116 71.4895324707 78.5407943726 86.1228790283 13.9354114532 21.7083797455 29.3058357239 37.1735725403 45.6362724304 54.3856620789 62.8468055725 70.7133483887 78.3108139038 86.0842971802 
13.9352769852 21.7077293396 29.3039722443 37.1708183289 45.6351089478 54.3867645264 62.8495674133 70.7150726318 78.3114395142 86.0844345093 13.8965988159 21.4766769409 28.5267810822 36.3031578064 45.2701721191 54.7535247803 63.7178115845 71.4911880493 78.541267395 86.1229476929 13.8740062714 21.2976131439 28.0272521973 35.7431907654 45.0165939331 55.0083732605 64.2779998779 71.9901809692 78.7194061279 86.1454620361 13.8556947708 21.1818695068 27.7703552246 35.4649276733 44.8964385986 55.1291275024 64.5564041138 72.2468109131 78.8347702026 86.1636810303 13.8433990479 21.1250610352 27.6448974609 35.3353462219 44.8440361023 55.1817932129 64.6860961914 72.3721466064 78.8913726807 86.1759262085 13.8434104919 21.1250972748 27.644990921 35.33543396 44.8440856934 55.1817321777 64.6859970093 72.3720703125 78.8913421631 86.1759262085 13.8557357788 21.1820869446 27.7708282471 35.465461731 44.8966445923 55.12890625 64.5558776855 72.2463302612 78.8345489502 86.1636428833 13.8740501404 21.2979812622 28.0281143188 35.7442092896 45.0172042847 55.0077629089 64.2769851685 71.9893341064 78.719039917 86.1454086304 13.8966703415 21.4771709442 28.5284385681 36.3047866821 45.2710342407 54.7526168823 63.716217041 71.4895477295 78.5407943726 86.1228790283 13.9354114532 21.7083797455 29.3058319092 37.1735687256 45.636264801 54.3856658936 62.8468093872 70.7133560181 78.3108215332 86.0842971802 
13.9352769852 21.7077255249 29.3039665222 37.1708068848 45.6351013184 54.3867721558 62.849571228 70.7150726318 78.3114471436 86.0844345093 13.8965978622 21.4766712189 28.5267696381 36.303150177 45.2701721191 54.7535247803 63.7178192139 71.4911956787 78.5412750244 86.1229553223 13.8740062714 21.2976112366 28.0272369385 35.7431755066 45.0165901184 55.0083847046 64.2780227661 71.9901885986 78.7193984985 86.1454620361 13.8556938171 21.1818618774 27.7703342438 35.4649009705 44.8964309692 55.1291465759 64.5564346313 72.2468185425 78.834777832 86.1636810303 13.8433990479 21.1250495911 27.6448688507 35.335308075 44.8440208435 55.181804657 64.6861190796 72.372177124 78.8913879395 86.1759262085 13.8434104919 21.1250896454 27.6449642181 35.335395813 44.8440666199 55.1817474365 64.6860427856 72.3720932007 78.8913421631 86.1759262085 13.8557357788 21.1820774078 27.7708053589 35.4654273987 44.8966331482 55.1289253235 64.5559005737 72.2463607788 78.834564209 86.1636428833 13.874048233 21.2979736328 28.0280971527 35.7441864014 45.0171928406 55.007774353 64.2770004272 71.9893493652 78.719039917 86.145401001 13.8966693878 21.4771671295 28.528427124 36.3047790527 45.2710342407 54.752620697 63.7162322998 71.4895477295 78.540802002 86.1228790283 13.9354114532 21.7083778381 29.3058242798 37.1735610962 45.6362724304 54.3856735229 62.846824646 70.7133636475 78.3108291626 86.0842971802 
