13.9576301575 21.7897529602 29.4680900574 37.3594436646 45.7259674072 54.2954559326 62.6608123779 70.5511779785 78.2295608521 86.0621566772 13.9292392731 21.5873317719 28.8394432068 36.6420555115 45.4263954163 54.5965309143 63.3786697388 71.1789398193 78.4309692383 86.0904083252 13.9211120605 21.4534950256 28.4935455322 36.2198448181 45.2361679077 54.7877044678 63.8010215759 71.5244064331 78.564239502 86.0985031128 13.9177360535 21.3911495209 28.3283290863 36.0284461975 45.1514816284 54.8728256226 63.9925270081 71.6894302368 78.6263122559 86.101852417 13.9151992798 21.3643474579 28.2507858276 35.9394454956 45.1131401062 54.9113540649 64.0815658569 71.7668685913 78.6529846191 86.1043777466 13.9151973724 21.364364624 28.2508506775 35.9395256042 45.1131591797 54.9113388062 64.0814971924 71.7668075562 78.6529693604 86.104385376 13.9177398682 21.3912467957 28.3286190033 36.0288543701 45.1516494751 54.8726654053 63.9921264648 71.6891479492 78.6262283325 86.1018447876 13.9211168289 21.4537029266 28.4941082001 36.220500946 45.2367286682 54.7871742249 63.8004150391 71.5238723755 78.5640411377 86.0985107422 13.9292697906 21.5877361298 28.8405761719 36.6433258057 45.4268989563 54.5960235596 63.3774719238 71.1778411865 78.4305725098 86.090385437 13.9577522278 21.790391922 29.469909668 37.3617668152 45.7272567749 54.2942352295 62.658493042 70.5493240356 78.2289047241 86.0620193481 
13.9481897354 21.7594184875 29.4138889313 37.2845573425 45.6876144409 54.3339996338 62.7356948853 70.6053161621 78.2598419189 86.0715637207 13.9153184891 21.5522918701 28.7423267365 36.5237121582 45.3736457825 54.6495437622 63.4970436096 71.275932312 78.4658889771 86.1042938232 13.8998289108 21.4124240875 28.382276535 36.1038284302 45.1824150085 54.8417396545 63.9170455933 71.6355743408 78.6051025391 86.119720459 13.8903179169 21.3446083069 28.2286224365 35.9250679016 45.1033630371 54.9211883545 64.0959014893 71.7890548706 78.6727142334 86.1291809082 13.8835325241 21.3177909851 28.161447525 35.8460540771 45.0689964294 54.9557151794 64.1749572754 71.8561630249 78.6994171143 86.1359329224 13.8835353851 21.3178062439 28.1614952087 35.8461227417 45.0690193176 54.955696106 64.1748809814 71.8561096191 78.6994018555 86.1359329224 13.8903369904 21.3447113037 28.2288780212 35.9254417419 45.103515625 54.9210472107 64.0955505371 71.7888031006 78.6726226807 86.1291809082 13.8998508453 21.4126529694 28.3828105927 36.1044578552 45.1829910278 54.8411979675 63.9164772034 71.6351013184 78.604888916 86.1196746826 13.9153699875 21.5527191162 28.7436275482 36.5250091553 45.3742141724 54.648979187 63.4958610535 71.2746429443 78.4654693604 86.1042556763 13.9483242035 21.7600975037 29.4158382416 37.2871627808 45.6889610291 54.332736969 62.7330703735 70.6032943726 78.259147644 86.0714111328 
13.9435129166 21.7440376282 29.3838481903 37.2438926697 45.665058136 54.3566741943 62.7763404846 70.6353149414 78.2752075195 86.0762252808 13.9084358215 21.5296077728 28.684595108 36.4241218567 45.3255691528 54.6978530884 63.5966262817 71.3335342407 78.4885101318 86.1111602783 13.889673233 21.3812503815 28.2835330963 35.9814796448 45.1249046326 54.8995285034 64.0393981934 71.7341766357 78.6361465454 86.1298446655 13.8758563995 21.305973053 28.1189861298 35.8018989563 45.0462646484 54.9785690308 64.219078064 71.8985748291 78.711151123 86.1436004639 13.8662347794 21.2751216888 28.0510005951 35.7257461548 45.0134849548 55.011505127 64.2952804565 71.9664916992 78.7418899536 86.1531829834 13.8662395477 21.2751369476 28.0510444641 35.7258110046 45.0135231018 55.0114822388 64.2952270508 71.9664459229 78.7418899536 86.1531677246 13.8758859634 21.3060894012 28.1192531586 35.8022651672 45.0464096069 54.9784317017 64.2187423706 71.8983230591 78.7110443115 86.1435546875 13.8897094727 21.3814926147 28.284122467 35.9821434021 45.1254730225 54.8990020752 64.0387878418 71.7336425781 78.6359176636 86.1298065186 13.9084949493 21.5300693512 28.6860179901 36.4254989624 45.3262443542 54.6971931458 63.5953712463 71.3321151733 78.4880599976 86.1110992432 13.9436540604 21.7447414398 29.3858947754 37.2467193604 45.6664390564 54.3553848267 62.7734947205 70.6331787109 78.2744750977 86.0760726929 
13.9409160614 21.7351856232 29.3657035828 37.2206764221 45.650604248 54.3711967468 62.7995605469 70.653427124 78.2840423584 86.0788040161 13.9047441483 21.516576767 28.6486778259 36.3530883789 45.2868232727 54.7368011475 63.6676025391 71.3693466187 78.5015258789 86.1148376465 13.8846950531 21.3596439362 28.2191162109 35.8735237122 45.0708007812 54.9539108276 64.1473312378 71.7984466553 78.6576843262 86.1348114014 13.8689928055 21.274646759 28.0256690979 35.6809120178 44.9886932373 55.0364265442 64.3400878906 71.9917526245 78.7423553467 86.1504364014 13.8578481674 21.2376842499 27.9452381134 35.6003646851 44.9551200867 55.0701599121 64.4206848145 72.0721282959 78.7791519165 86.161529541 13.8578548431 21.2377071381 27.9452934265 35.6004180908 44.9551544189 55.0701370239 64.4206390381 72.0720748901 78.7791442871 86.161529541 13.8690299988 21.2747821808 28.0259780884 35.6812820435 44.9888381958 55.0363006592 64.3397293091 71.9914703369 78.7422180176 86.1504058838 13.8847293854 21.3599052429 28.2197799683 35.8742675781 45.071395874 54.9533576965 64.1466598511 71.7978744507 78.6574478149 86.1347732544 13.9048042297 21.5170574188 28.6501560211 36.3545570374 45.287612915 54.7360229492 63.6662750244 71.3678894043 78.5010375977 86.1147689819 13.9410600662 21.7358989716 29.367811203 37.2236366272 45.6520423889 54.3698539734 62.7965583801 70.6512374878 78.2833023071 86.0786590576 
13.9394416809 21.730091095 29.3552150726 37.2076835632 45.643409729 54.3784255981 62.8125572205 70.6639022827 78.2891311646 86.080291748 13.9026679993 21.5092601776 28.6266212463 36.308971405 45.2602310181 54.7635269165 63.711681366 71.3913650513 78.5088195801 86.1169052124 13.8818130493 21.3471164703 28.1809844971 35.7944793701 45.0272483826 54.9976768494 64.2263336182 71.8364715576 78.6701660156 86.1376647949 13.865436554 21.2549686432 27.9640789032 35.5825080872 44.939037323 55.0863342285 64.4384536743 72.0532150269 78.7619476318 86.1539611816 13.8536252975 21.2120170593 27.8684329987 35.4939613342 44.9033699036 55.122177124 64.5270843506 72.1487884521 78.8047332764 86.1657485962 13.8536319733 21.2120437622 27.8685054779 35.4940185547 44.9034118652 55.1221389771 64.5270309448 72.1487350464 78.8046951294 86.1657333374 13.8654727936 21.2551250458 27.9644527435 35.582901001 44.9391937256 55.0861968994 64.4380950928 72.0528488159 78.7618179321 86.1539535522 13.8818502426 21.3473930359 28.1816883087 35.7953033447 45.0278587341 54.9971199036 64.2255783081 71.8358535767 78.6699142456 86.1376342773 13.9027318954 21.5097541809 28.6281433105 36.3104896545 45.2610855103 54.7626724243 63.7103118896 71.3898391724 78.50831604 86.1168441772 13.9395875931 21.7308120728 29.3573665619 37.2107162476 45.6448631287 54.3770713806 62.8094711304 70.6616592407 78.2883758545 86.0801239014 
13.9385929108 21.7272052765 29.3493385315 37.2001075745 45.6397705078 54.3820724487 62.8201370239 70.6697769165 78.2919998169 86.0811233521 13.9014463425 21.505033493 28.6135368347 36.2833404541 45.2432785034 54.7805633545 63.7372817993 71.4044036865 78.5130310059 86.1181335449 13.8801651001 21.3398227692 28.1574687958 35.7431602478 44.995880127 55.0292053223 64.2775878906 71.8599243164 78.677444458 86.1393280029 13.8633298874 21.2435493469 27.9277820587 35.5118408203 44.9005355835 55.1250228882 64.5090866089 72.0893936157 78.7733230591 86.1560668945 13.8512420654 21.1972484589 27.8203315735 35.4144821167 44.8622398376 55.1635169983 64.6065368652 72.1967926025 78.8194351196 86.1681213379 13.8512496948 21.1972789764 27.8204059601 35.4145431519 44.8622817993 55.163482666 64.6064910889 72.1967391968 78.8194122314 86.1681137085 13.8633670807 21.2437210083 27.9281845093 35.5122566223 44.9007034302 55.1248817444 64.5086975098 72.0890350342 78.7731704712 86.156036377 13.8802080154 21.3401546478 28.158285141 35.7440452576 44.9965248108 55.0286216736 64.2767791748 71.8591842651 78.6771240234 86.1392669678 13.901517868 21.5055885315 28.615240097 36.2849349976 45.244178772 54.7796440125 63.7358474731 71.4026870728 78.5124740601 86.118057251 13.9387407303 21.7279338837 29.3514575958 37.2031784058 45.6412162781 54.3807411194 62.8170089722 70.6675491333 78.2912445068 86.0809631348 
13.9381103516 21.7256164551 29.3461532593 37.1959571838 45.6378707886 54.3839797974 62.8242835999 70.6729660034 78.2935943604 86.0816040039 13.9007415771 21.5026721954 28.6061000824 36.2691764832 45.2336273193 54.7902679443 63.7514343262 71.4118270874 78.5153884888 86.1188354492 13.8792066574 21.3355903625 28.1433296204 35.7121200562 44.9750747681 55.0501174927 64.3085861206 71.8740463257 78.6816635132 86.1402893066 13.8620948792 21.2368927002 27.9062156677 35.4649543762 44.8730239868 55.1526794434 64.5559387207 72.1109161377 78.7799682617 86.1573028564 13.8498277664 21.1886539459 27.792093277 35.3595657349 44.8320198059 55.1938858032 64.6614227295 72.2249603271 78.8279953003 86.1695327759 13.8498353958 21.1886806488 27.7921733856 35.3596191406 44.8320655823 55.1938400269 64.6613769531 72.2248840332 78.8279724121 86.1695098877 13.8621320724 21.2370662689 27.9066238403 35.465385437 44.8731880188 55.1525306702 64.5555267334 72.1105422974 78.779800415 86.1572723389 13.8792514801 21.3359260559 28.1441631317 35.7130432129 44.9757385254 55.0495071411 64.307723999 71.8732757568 78.6813430786 86.1402359009 13.9008140564 21.5032310486 28.6078224182 36.2707824707 45.2345581055 54.7893218994 63.7499771118 71.4100952148 78.5148162842 86.1187591553 13.9382591248 21.7263431549 29.3482780457 37.199054718 45.6393127441 54.3826560974 62.8211326599 70.6707229614 78.2928314209 86.0814437866 
