13.944190979 21.7364864349 29.347278595 37.2531433105 45.6915435791 54.3300476074 62.7673034668 70.6718597412 78.2826919556 86.0755462646 13.9112939835 21.5244197845 28.6789035797 36.5667953491 45.4148330688 54.6081352234 63.4542579651 71.3394470215 78.4936294556 86.1083068848 13.897895813 21.3831939697 28.3435897827 36.1736755371 45.2419471741 54.7819061279 63.8475646973 71.6743621826 78.6342773438 86.1216659546 13.8909664154 21.3178424835 28.1979255676 36.0042266846 45.167098999 54.8571243286 64.0170974731 71.8198547363 78.6994552612 86.1285400391 13.8865585327 21.2919750214 28.1299724579 35.9264602661 45.1337051392 54.8906860352 64.094909668 71.8877182007 78.7252197266 86.1329269409 13.8865642548 21.2919921875 28.1300258636 35.9265289307 45.1337280273 54.8906555176 64.0948486328 71.8876724243 78.7251968384 86.1329193115 13.8909788132 21.317943573 28.198179245 36.0045814514 45.1672401428 54.8569869995 64.0167541504 71.8196029663 78.6993560791 86.1285247803 13.8979139328 21.383430481 28.3441047668 36.1742744446 45.2424049377 54.7814369202 63.846988678 71.6738739014 78.6340560913 86.121635437 13.9113445282 21.5248508453 28.6800823212 36.56798172 45.4153289795 54.6076278687 63.4530982971 71.3382568359 78.4932098389 86.1082458496 13.9443235397 21.7371692657 29.3492469788 37.25548172 45.6926841736 54.3289451599 62.7649765015 70.6699523926 78.2820281982 86.0754165649 
13.9370098114 21.71641922 29.3153190613 37.1898498535 45.6481704712 54.3736381531 62.8305130005 70.7037734985 78.302734375 86.0827026367 13.899851799 21.4891986847 28.585313797 36.3899917603 45.3258895874 54.6975326538 63.6310043335 71.4327850342 78.5287857056 86.1196975708 13.8798379898 21.3270969391 28.1599769592 35.9508132935 45.1379890442 54.8863754272 64.0704574585 71.8577194214 78.6901473999 86.1396408081 13.8650865555 21.2451248169 27.9849472046 35.7819252014 45.0652542114 54.9594764709 64.2394485474 72.0326309204 78.771812439 86.1543273926 13.8554172516 21.2117710114 27.9220561981 35.7124786377 45.035282135 54.9895935059 64.3089141846 72.0954818726 78.8050384521 86.1639480591 13.855427742 21.2117881775 27.9221019745 35.7125320435 45.0353088379 54.9895591736 64.3088684082 72.0954284668 78.805015564 86.1639480591 13.8651180267 21.245262146 27.9852085114 35.782245636 45.0653762817 54.9593429565 64.2391204834 72.032371521 78.7716827393 86.154296875 13.8798751831 21.327381134 28.1606578827 35.9514770508 45.138458252 54.8858985901 64.0698013306 71.8570632935 78.6898574829 86.1395950317 13.8999137878 21.4896850586 28.5867595673 36.3913955688 45.3265571594 54.6968231201 63.6296463013 71.4313354492 78.5283126831 86.1196594238 13.9371471405 21.7170906067 29.3172492981 37.1925125122 45.649433136 54.3724365234 62.8278541565 70.7019577026 78.3021011353 86.0825653076 
13.93491745 21.7106513977 29.3058185577 37.1734313965 45.637752533 54.3841056824 62.846912384 70.7132415771 78.3085021973 86.0847854614 13.8965759277 21.4797801971 28.5548934937 36.3143043518 45.2722015381 54.7514953613 63.7065734863 71.4631271362 78.5381851196 86.1229705811 13.8748416901 21.3063678741 28.0940895081 35.7903213501 45.0472221375 54.9775924683 64.2307739258 71.9233932495 78.7108001709 86.1446151733 13.858288765 21.2078380585 27.8632545471 35.5705986023 44.9605712891 55.0646820068 64.4507446289 72.1540145874 78.8089675903 86.1611022949 13.8473405838 21.1612110138 27.7571487427 35.4812049866 44.9259376526 55.09948349 64.5402297974 72.2600631714 78.8554000854 86.1720046997 13.8473501205 21.161239624 27.7572250366 35.481262207 44.9259681702 55.0994491577 64.5401611328 72.2599945068 78.8553771973 86.1719894409 13.8583240509 21.2080154419 27.8636703491 35.5709877014 44.9607086182 55.0645294189 64.4503479004 72.1536102295 78.8087921143 86.1610641479 13.8748846054 21.306684494 28.0948696136 35.7912063599 45.0477180481 54.9770965576 64.2299041748 71.9226379395 78.7104873657 86.1445617676 13.8966388702 21.4802780151 28.5564136505 36.3158569336 45.2730102539 54.750629425 63.7050552368 71.4616012573 78.5377044678 86.1229171753 13.9350509644 21.7112846375 29.3076782227 37.1762008667 45.6390228271 54.3829154968 62.8441429138 70.711555481 78.3079223633 86.0846557617 
13.934343338 21.7093315125 29.3040981293 37.1706886292 45.6357154846 54.3861465454 62.8496513367 70.7149658203 78.3098297119 86.0853652954 13.8956804276 21.4779644012 28.548324585 36.2964820862 45.2593841553 54.7643737793 63.7243728638 71.4696655273 78.5399932861 86.123878479 13.8734035492 21.3010730743 28.0754528046 35.7403717041 45.0040893555 55.0209312439 64.280632019 71.9419937134 78.7160949707 86.1460494995 13.8562192917 21.1968288422 27.8258743286 35.4739646912 44.8958053589 55.1297683716 64.547203064 72.1913070679 78.8199310303 86.1631622314 13.8447217941 21.145362854 27.7044467926 35.3570251465 44.8523826599 55.1734085083 64.664276123 72.3126144409 78.8711929321 86.1746063232 13.8447332382 21.1453952789 27.704536438 35.357093811 44.8524169922 55.1733589172 64.6641998291 72.3125228882 78.8711547852 86.1745986938 13.8562574387 21.1970157623 27.8263244629 35.4744491577 44.8959732056 55.129573822 64.5467224121 72.1908569336 78.819732666 86.1631317139 13.8734493256 21.301399231 28.0762672424 35.7413635254 45.0046806335 55.0203361511 64.2796401978 71.941192627 78.7157669067 86.1459960938 13.8957443237 21.4784603119 28.54986763 36.298084259 45.2602500916 54.7634544373 63.7228164673 71.4681167603 78.5395278931 86.1238098145 13.9344749451 21.7099514008 29.3059310913 37.1734771729 45.6369819641 54.3849639893 62.8468551636 70.7133102417 78.3092575073 86.0852203369 
13.9342575073 21.7091770172 29.3039989471 37.170501709 45.6355819702 54.3862915039 62.8498420715 70.7150650024 78.3099746704 86.0854415894 13.8955478668 21.4778175354 28.5476741791 36.2942352295 45.2579727173 54.765789032 63.7266159058 71.4703140259 78.540145874 86.1239929199 13.8731746674 21.300321579 28.0726852417 35.7336730957 44.997959137 55.0270996094 64.2873077393 71.9447250366 78.716835022 86.1462783813 13.8558664322 21.1949958801 27.8195133209 35.4562988281 44.878528595 55.1471328735 64.5648498535 72.1976318359 78.8217468262 86.163520813 13.8442821503 21.1426391602 27.6948661804 35.3280563354 44.8279571533 55.1979522705 64.6931762695 72.3221664429 78.8738937378 86.1750411987 13.8442955017 21.1426753998 27.6949634552 35.3281364441 44.8280105591 55.1978912354 64.6930999756 72.3220672607 78.8738708496 86.1750411987 13.8559045792 21.1951904297 27.8199748993 35.456817627 44.8787269592 55.1469116211 64.5643157959 72.1971740723 78.8215637207 86.1634750366 13.8732204437 21.3006496429 28.0735054016 35.7346954346 44.9986152649 55.0264396667 64.2863006592 71.9439468384 78.7165222168 86.1462478638 13.8956108093 21.478313446 28.5492267609 36.2958526611 45.2588424683 54.7648620605 63.7250480652 71.4687576294 78.5396728516 86.1239395142 13.9343891144 21.7098007202 29.3058223724 37.1733016968 45.6368331909 54.3851127625 62.8470420837 70.7134094238 78.3094024658 86.0853118896 
13.934252739 21.7091789246 29.3040065765 37.1705055237 45.6355781555 54.3862915039 62.8498458862 70.715057373 78.3099899292 86.0854568481 13.8955402374 21.4778137207 28.5476608276 36.2941513062 45.2579193115 54.7658500671 63.7266960144 71.4703140259 78.540145874 86.1240005493 13.8731622696 21.300283432 28.0725517273 35.7333908081 44.9977760315 55.0272865295 64.2875976562 71.9448471069 78.7168655396 86.1462936401 13.8558473587 21.1948890686 27.8191452026 35.4553337097 44.8775558472 55.148109436 64.5657958984 72.1980056763 78.8218688965 86.1635360718 13.8442554474 21.1424655914 27.6942806244 35.3262367249 44.8257026672 55.2002105713 64.6949920654 72.3227462769 78.8740768433 86.1750717163 13.8442659378 21.1425037384 27.6943721771 35.3263168335 44.8257598877 55.2001495361 64.6949157715 72.3226470947 78.8740386963 86.1750564575 13.8558835983 21.1950817108 27.8196086884 35.4558677673 44.8777656555 55.1478805542 64.5652618408 72.1975402832 78.8216705322 86.1634979248 13.8732051849 21.300611496 28.0733718872 35.7344093323 44.9984283447 55.0266265869 64.2865829468 71.9440841675 78.7165527344 86.1462478638 13.8956012726 21.4783115387 28.5492134094 36.2957649231 45.2587928772 54.764919281 63.7251358032 71.4687805176 78.5396728516 86.1239547729 13.9343852997 21.7097988129 29.3058300018 37.1733055115 45.6368331909 54.3851127625 62.8470344543 70.7134094238 78.3094100952 86.0853271484 
13.934252739 21.7091732025 29.3039989471 37.1704940796 45.6355743408 54.3862915039 62.8498535156 70.7150726318 78.3099899292 86.0854568481 13.8955383301 21.477809906 28.5476493835 36.2941436768 45.2579078674 54.7658462524 63.7267112732 71.4703216553 78.540145874 86.1240158081 13.8731603622 21.3002796173 28.0725345612 35.7333717346 44.9977722168 55.0273017883 64.287612915 71.9448776245 78.7168807983 86.1462936401 13.855846405 21.1948776245 27.8191242218 35.4553070068 44.8775405884 55.1481246948 64.565826416 72.1980361938 78.8218688965 86.1635360718 13.84425354 21.1424560547 27.6942481995 35.3261909485 44.8256721497 55.2002410889 64.6950378418 72.3227844238 78.8740844727 86.1750717163 13.8442649841 21.1424942017 27.6943473816 35.3262710571 44.8257255554 55.2001876831 64.6949539185 72.3226852417 78.8740539551 86.1750564575 13.8558835983 21.1950721741 27.8195858002 35.4558372498 44.877746582 55.1479034424 64.5652923584 72.1975631714 78.8216781616 86.1634979248 13.8732051849 21.3006076813 28.0733585358 35.7343902588 44.9984130859 55.0266342163 64.286605835 71.9440917969 78.7165527344 86.1462478638 13.8956031799 21.4783096313 28.5492038727 36.2957611084 45.2587928772 54.7649230957 63.7251434326 71.468788147 78.5396652222 86.1239547729 13.9343852997 21.7097969055 29.3058204651 37.1732940674 45.6368293762 54.3851165771 62.847038269 70.7134017944 78.3094177246 86.0853271484 
