1.0 1.00000011921 0.999244987965 1.02822232246 1.08831596375 1.08829140663 1.02814936638 1.00000023842 1.0 1.0 0.999999940395 1.00354194641 1.07277393341 1.18855822086 1.2954723835 1.29544210434 1.18843197823 1.03749215603 1.00350093842 1.0 1.0 1.06648480892 1.16137576103 1.28908360004 1.40804934502 1.4080196619 1.28896450996 1.11515665054 1.06641840935 1.00000011921 1.0 1.10321819782 1.20158135891 1.32085943222 1.42130887508 1.42127788067 1.32076466084 1.15379726887 1.10315811634 1.00000011921 1.0 1.13094162941 1.23580086231 1.35052084923 1.4330726862 1.43304789066 1.35043144226 1.18469786644 1.13088130951 1.00000011921 1.0 1.13093054295 1.23578631878 1.3505012989 1.43319356441 1.43316221237 1.35040426254 1.18468952179 1.13086986542 1.00000011921 1.0 1.10316717625 1.20153748989 1.32074165344 1.42143261433 1.4213886261 1.32064378262 1.15375161171 1.10310673714 1.0 1.0 1.04685521126 1.13201475143 1.2500269413 1.37461304665 1.374604702 1.24990344048 1.09229755402 1.04678618908 1.00000011921 1.0 1.00348961353 1.0726634264 1.18859565258 1.29571807384 1.29560172558 1.18854820728 1.03739857674 1.0034481287 1.00000011921 1.0 1.00000011921 0.999257266521 1.02810919285 1.08792805672 1.08802056313 1.02797794342 1.00000011921 1.0 0.999999940395 
1.0 1.00000011921 0.999244987965 1.02822232246 1.08831596375 1.08829140663 1.02814936638 1.00000023842 1.0 1.0 0.999999940395 1.00354194641 1.07277393341 1.18855822086 1.2954723835 1.29544210434 1.18843197823 1.03749215603 1.00350093842 1.0 1.0 1.06648480892 1.16137576103 1.28908360004 1.42606437206 1.42603683472 1.28896450996 1.11515665054 1.06641840935 1.00000011921 1.0 1.10321819782 1.20158135891 1.32092535496 1.44195413589 1.44192194939 1.32083201408 1.15379726887 1.10315811634 1.00000011921 1.0 1.13094162941 1.23580086231 1.35344648361 1.46182310581 1.46179580688 1.35336732864 1.18469786644 1.13088130951 1.00000011921 1.0 1.13093054295 1.23578631878 1.35342550278 1.46208071709 1.46204090118 1.35333621502 1.18468952179 1.13086986542 1.00000011921 1.0 1.10316717625 1.20153748989 1.32080662251 1.44222688675 1.44217586517 1.32071006298 1.15375161171 1.10310673714 1.0 1.0 1.04685521126 1.13201475143 1.2500269413 1.37624263763 1.37623524666 1.24990344048 1.09229755402 1.04678618908 1.00000011921 1.0 1.00348961353 1.0726634264 1.18859565258 1.29571807384 1.29560172558 1.18854820728 1.03739857674 1.0034481287 1.00000011921 1.0 1.00000011921 0.999257266521 1.02810919285 1.08792805672 1.08802056313 1.02797794342 1.00000011921 1.0 0.999999940395 
1.0 1.00000011921 0.999244987965 1.02822232246 1.08831596375 1.08829140663 1.02814936638 1.00000023842 1.0 1.0 0.999999940395 1.00354194641 1.07277393341 1.18855822086 1.2954723835 1.29544210434 1.18843197823 1.03749215603 1.00350093842 1.0 1.0 1.06648480892 1.16137576103 1.28908360004 1.42613768578 1.42611002922 1.28896450996 1.11515665054 1.06641840935 1.00000011921 1.0 1.10321819782 1.20158135891 1.32092535496 1.4420081377 1.44197630882 1.32083201408 1.15379726887 1.10315811634 1.00000011921 1.0 1.13094162941 1.23580086231 1.35344648361 1.46204566956 1.46201860905 1.35336732864 1.18469786644 1.13088130951 1.00000011921 1.0 1.13093054295 1.23578631878 1.35342550278 1.46231341362 1.46227347851 1.35333621502 1.18468952179 1.13086986542 1.00000011921 1.0 1.10316717625 1.20153748989 1.32080662251 1.44228839874 1.44223737717 1.32071006298 1.15375161171 1.10310673714 1.0 1.0 1.04685521126 1.13201475143 1.2500269413 1.37624263763 1.37623524666 1.24990344048 1.09229755402 1.04678618908 1.00000011921 1.0 1.00348961353 1.0726634264 1.18859565258 1.29571807384 1.29560172558 1.18854820728 1.03739857674 1.0034481287 1.00000011921 1.0 1.00000011921 0.999257266521 1.02810919285 1.08792805672 1.08802056313 1.02797794342 1.00000011921 1.0 0.999999940395 
1.0 1.00000011921 0.999244987965 1.02822232246 1.08831596375 1.08829140663 1.02814936638 1.00000023842 1.0 1.0 0.999999940395 1.00354194641 1.07277393341 1.18855822086 1.2954723835 1.29544210434 1.18843197823 1.03749215603 1.00350093842 1.0 1.0 1.06648480892 1.16137576103 1.28908360004 1.42614674568 1.4261187315 1.28896450996 1.11515665054 1.06641840935 1.00000011921 1.0 1.10321819782 1.20158135891 1.32092535496 1.44201362133 1.44198203087 1.32083201408 1.15379726887 1.10315811634 1.00000011921 1.0 1.13094162941 1.23580086231 1.35344648361 1.46205615997 1.46202898026 1.35336732864 1.18469786644 1.13088130951 1.00000011921 1.0 1.13093054295 1.23578631878 1.35342550278 1.46232438087 1.46228444576 1.35333621502 1.18468952179 1.13086986542 1.00000011921 1.0 1.10316717625 1.20153748989 1.32080662251 1.44229507446 1.44224393368 1.32071006298 1.15375161171 1.10310673714 1.0 1.0 1.04685521126 1.13201475143 1.2500269413 1.37624263763 1.37623524666 1.24990344048 1.09229755402 1.04678618908 1.00000011921 1.0 1.00348961353 1.0726634264 1.18859565258 1.29571807384 1.29560172558 1.18854820728 1.03739857674 1.0034481287 1.00000011921 1.0 1.00000011921 0.999257266521 1.02810919285 1.08792805672 1.08802056313 1.02797794342 1.00000011921 1.0 0.999999940395 
1.0 1.00000011921 0.999244987965 1.02822232246 1.08831596375 1.08829140663 1.02814936638 1.00000023842 1.0 1.0 0.999999940395 1.00354194641 1.07277393341 1.18855822086 1.2954723835 1.29544210434 1.18843197823 1.03749215603 1.00350093842 1.0 1.0 1.06648480892 1.16137576103 1.28908360004 1.42615437508 1.42612683773 1.28896450996 1.11515665054 1.06641840935 1.00000011921 1.0 1.10321819782 1.20158135891 1.32092535496 1.44202148914 1.44198989868 1.32083201408 1.15379726887 1.10315811634 1.00000011921 1.0 1.13094162941 1.23580086231 1.35344648361 1.46206486225 1.46203756332 1.35336732864 1.18469786644 1.13088130951 1.00000011921 1.0 1.13093054295 1.23578631878 1.35342550278 1.46233344078 1.46229314804 1.35333621502 1.18468952179 1.13086986542 1.00000011921 1.0 1.10316717625 1.20153748989 1.32080662251 1.44230282307 1.44225168228 1.32071006298 1.15375161171 1.10310673714 1.0 1.0 1.04685521126 1.13201475143 1.2500269413 1.37624263763 1.37623524666 1.24990344048 1.09229755402 1.04678618908 1.00000011921 1.0 1.00348961353 1.0726634264 1.18859565258 1.29571807384 1.29560172558 1.18854820728 1.03739857674 1.0034481287 1.00000011921 1.0 1.00000011921 0.999257266521 1.02810919285 1.08792805672 1.08802056313 1.02797794342 1.00000011921 1.0 0.999999940395 
1.0 1.00000011921 0.999244987965 1.02822232246 1.08831596375 1.08829140663 1.02814936638 1.00000023842 1.0 1.0 0.999999940395 1.00354194641 1.07277393341 1.18855822086 1.2954723835 1.29544210434 1.18843197823 1.03749215603 1.00350093842 1.0 1.0 1.06648480892 1.16137576103 1.28908360004 1.4261623621 1.42613446712 1.28896450996 1.11515665054 1.06641840935 1.00000011921 1.0 1.10321819782 1.20158135891 1.32092535496 1.44202923775 1.44199752808 1.32083201408 1.15379726887 1.10315811634 1.00000011921 1.0 1.13094162941 1.23580086231 1.35344648361 1.46207356453 1.46204650402 1.35336732864 1.18469786644 1.13088130951 1.00000011921 1.0 1.13093054295 1.23578631878 1.35342550278 1.46234190464 1.46230196953 1.35333621502 1.18468952179 1.13086986542 1.00000011921 1.0 1.10316717625 1.20153748989 1.32080662251 1.44231081009 1.44225955009 1.32071006298 1.15375161171 1.10310673714 1.0 1.0 1.04685521126 1.13201475143 1.2500269413 1.37624263763 1.37623524666 1.24990344048 1.09229755402 1.04678618908 1.00000011921 1.0 1.00348961353 1.0726634264 1.18859565258 1.29571807384 1.29560172558 1.18854820728 1.03739857674 1.0034481287 1.00000011921 1.0 1.00000011921 0.999257266521 1.02810919285 1.08792805672 1.08802056313 1.02797794342 1.00000011921 1.0 0.999999940395 
1.0 1.00000011921 0.999244987965 1.02822232246 1.08831596375 1.08829140663 1.02814936638 1.00000023842 1.0 1.0 0.999999940395 1.00354194641 1.07277393341 1.18855822086 1.2954723835 1.29544210434 1.18843197823 1.03749215603 1.00350093842 1.0 1.0 1.06648480892 1.16137576103 1.28908360004 1.42617022991 1.42614233494 1.28896450996 1.11515665054 1.06641840935 1.00000011921 1.0 1.10321819782 1.20158135891 1.32092535496 1.44203710556 1.44200539589 1.32083201408 1.15379726887 1.10315811634 1.00000011921 1.0 1.13094162941 1.23580086231 1.35344648361 1.4620821476 1.46205496788 1.35336732864 1.18469786644 1.13088130951 1.00000011921 1.0 1.13093054295 1.23578631878 1.35342550278 1.46235048771 1.4623105526 1.35333621502 1.18468952179 1.13086986542 1.00000011921 1.0 1.10316717625 1.20153748989 1.32080662251 1.4423186779 1.44226741791 1.32071006298 1.15375161171 1.10310673714 1.0 1.0 1.04685521126 1.13201475143 1.2500269413 1.37624263763 1.37623524666 1.24990344048 1.09229755402 1.04678618908 1.00000011921 1.0 1.00348961353 1.0726634264 1.18859565258 1.29571807384 1.29560172558 1.18854820728 1.03739857674 1.0034481287 1.00000011921 1.0 1.00000011921 0.999257266521 1.02810919285 1.08792805672 1.08802056313 1.02797794342 1.00000011921 1.0 0.999999940395 
