0.983118653297 1.03217697144 1.07561683655 1.15197205544 1.22468328476 1.22465121746 1.15186750889 1.05904245377 1.03211426735 0.983170449734 0.975481629372 1.08560299873 1.19714486599 1.28985822201 1.3343514204 1.33432674408 1.28974664211 1.1437318325 1.08551931381 0.975535511971 0.973915338516 1.17390429974 1.25520479679 1.33904480934 1.37655413151 1.37653529644 1.33895719051 1.22733366489 1.17382466793 0.973954379559 0.972894132137 1.21062839031 1.27991366386 1.35287559032 1.38516783714 1.38515615463 1.35280239582 1.25671935081 1.21054625511 0.972932100296 0.971707046032 1.23249065876 1.29389107227 1.36172604561 1.38898515701 1.38897955418 1.36166620255 1.2737493515 1.23240494728 0.97174936533 0.971708714962 1.23248112202 1.29388213158 1.36171555519 1.38900947571 1.38900184631 1.36165392399 1.27374124527 1.23239529133 0.971750974655 0.972897768021 1.21057772636 1.27987420559 1.35281312466 1.38515973091 1.38514602184 1.35273826122 1.25667476654 1.21049618721 0.972935676575 0.974478423595 1.14866864681 1.24710428715 1.33429133892 1.37584972382 1.37584125996 1.33420324326 1.21196269989 1.14859259129 0.974517405033 0.97548609972 1.08550655842 1.19705295563 1.28979229927 1.33440756798 1.33435893059 1.28969562054 1.14363622665 1.08542454243 0.975539684296 0.983145356178 1.03211581707 1.07555043697 1.15184223652 1.22439444065 1.2244335413 1.15170693398 1.05901050568 1.03205382824 0.983196377754 
0.981618046761 1.01573193073 1.05248486996 1.12073135376 1.19695615768 1.19693362713 1.12064397335 1.03658187389 1.0156878233 0.981671214104 0.972968757153 1.06466507912 1.1834218502 1.29978489876 1.37280786037 1.37278282642 1.29970026016 1.12045264244 1.0645968914 0.973026990891 0.970774710178 1.15283846855 1.28185796738 1.38062119484 1.43432605267 1.43430304527 1.38051390648 1.21605598927 1.15275835991 0.970813214779 0.969369828701 1.19610309601 1.31538057327 1.39920020103 1.44550859928 1.44548869133 1.39910161495 1.25729882717 1.19603669643 0.96940112114 0.968110501766 1.22910225391 1.33655679226 1.41227602959 1.45100259781 1.45098984241 1.41219079494 1.29096496105 1.22904276848 0.968140304089 0.968112230301 1.22909283638 1.33654797077 1.41226601601 1.45103526115 1.45102024078 1.41217851639 1.29095721245 1.22903347015 0.9681417346 0.969373464584 1.19605672359 1.31534218788 1.39912927151 1.44551968575 1.44549679756 1.39902842045 1.25725317001 1.19599127769 0.969404637814 0.971278071404 1.12514841557 1.24935567379 1.363270998 1.42803001404 1.42801916599 1.36315655708 1.1847782135 1.12507724762 0.971318244934 0.972974777222 1.06457471848 1.18331122398 1.29976809025 1.37283217907 1.37277066708 1.29971265793 1.12035739422 1.06450879574 0.973032593727 0.981645166874 1.01568424702 1.0524418354 1.12055885792 1.19672596455 1.19679999352 1.12042605877 1.03656375408 1.01564133167 0.981696844101 
0.981241285801 1.00871026516 1.04261124134 1.10748314857 1.18412005901 1.18409514427 1.10740244389 1.02673721313 1.00867486 0.98129427433 0.972435772419 1.05555582047 1.17261481285 1.28805053234 1.38612627983 1.38610208035 1.28797388077 1.10982596874 1.05549323559 0.97249430418 0.969806730747 1.14289796352 1.27446949482 1.39821100235 1.48215985298 1.4821305275 1.39813435078 1.20722055435 1.14282369614 0.969847083092 0.968084454536 1.18594479561 1.3171479702 1.42677247524 1.49848115444 1.4984600544 1.42669677734 1.24934446812 1.18587827682 0.968118011951 0.966683208942 1.21937215328 1.35249710083 1.4495613575 1.50791585445 1.5078997612 1.44948780537 1.28322136402 1.2193031311 0.966714560986 0.966684877872 1.21936285496 1.35248827934 1.44954562187 1.50796604156 1.50794649124 1.44946837425 1.283218503 1.21929395199 0.966716170311 0.968087911606 1.18589794636 1.31710851192 1.42668700218 1.49851369858 1.49848723412 1.4266076088 1.24931061268 1.18583273888 0.968121349812 0.970305085182 1.11492073536 1.23921751976 1.35706138611 1.46333122253 1.46331751347 1.35698068142 1.17614471912 1.1148570776 0.970347344875 0.972441911697 1.05546808243 1.17249882221 1.28806984425 1.38623034954 1.38615679741 1.28802835941 1.10972869396 1.05540800095 0.972499907017 0.981267809868 1.00866878033 1.04258048534 1.10729062557 1.1839081049 1.1839851141 1.10715925694 1.02672827244 1.00863420963 0.981318771839 
0.98114579916 1.00627601147 1.0391805172 1.10289609432 1.17888581753 1.17886209488 1.10281801224 1.0233271122 1.00624346733 0.981198489666 0.972299933434 1.05234789848 1.16888046265 1.28399062157 1.38220274448 1.38218164444 1.28391313553 1.10617637634 1.052287817 0.972358465195 0.969543814659 1.13937032223 1.27070450783 1.39518070221 1.50744020939 1.50742352009 1.39510154724 1.20382463932 1.13929736614 0.969584465027 0.96771299839 1.18243658543 1.31342375278 1.42683875561 1.52823650837 1.52821624279 1.42677736282 1.24624204636 1.18236958981 0.967747151852 0.966186523438 1.21602332592 1.35029518604 1.46026396751 1.54484629631 1.54483127594 1.4602137804 1.28168129921 1.2159538269 0.966218829155 0.966188192368 1.21601390839 1.35028553009 1.46024239063 1.54493224621 1.54491126537 1.46018576622 1.28167879581 1.21594452858 0.966220378876 0.967716932297 1.18238997459 1.31338298321 1.42674708366 1.52832090855 1.52829122543 1.42668068409 1.24620509148 1.18232429028 0.967750966549 0.970068216324 1.11140060425 1.2352938652 1.35181152821 1.46653282642 1.46652972698 1.35173308849 1.17227625847 1.11133790016 0.970110356808 0.972306191921 1.05226135254 1.16876149178 1.28401720524 1.3822991848 1.38222849369 1.28397631645 1.10607731342 1.05220389366 0.972363948822 0.981171786785 1.00623631477 1.03915405273 1.10269773006 1.17868053913 1.17876052856 1.10256659985 1.02332174778 1.00620520115 0.981222510338 
0.981133162975 1.0058375597 1.03855121136 1.10203897953 1.17789614201 1.17787230015 1.1019616127 1.02269637585 1.00580573082 0.981185913086 0.972282230854 1.0517616272 1.16817963123 1.28318762779 1.38137769699 1.38135659695 1.28311002254 1.10548257828 1.05170202255 0.97234082222 0.969503581524 1.13872563839 1.27005195618 1.39434194565 1.50961387157 1.5095975399 1.3942630291 1.2031763792 1.1386526823 0.969544529915 0.967650055885 1.18179893494 1.3128015995 1.42619919777 1.53441786766 1.53440272808 1.42613732815 1.245683074 1.18173193932 0.967684149742 0.96610981226 1.21543002129 1.34966433048 1.46038389206 1.55730128288 1.55728983879 1.46033453941 1.2812063694 1.21535992622 0.966142296791 0.966111779213 1.21542060375 1.34965407848 1.46036267281 1.55743420124 1.55741453171 1.4603061676 1.2812037468 1.2153506279 0.966143965721 0.967653989792 1.18175244331 1.31276142597 1.42610895634 1.53456008434 1.53453290462 1.42604160309 1.24564659595 1.18168663979 0.967688083649 0.970030725002 1.1107468605 1.23457479477 1.35095047951 1.46581816673 1.46581637859 1.35087227821 1.17158210278 1.11068475246 0.970073103905 0.97228872776 1.05167543888 1.16806018353 1.28321552277 1.38147258759 1.38140189648 1.28317463398 1.10538327694 1.05161845684 0.972346544266 0.98115926981 1.00579869747 1.03852558136 1.10183978081 1.17769193649 1.17777216434 1.10170865059 1.02269160748 1.00576794147 0.981209754944 
0.981132745743 1.00581240654 1.03851473331 1.10198962688 1.17783796787 1.17781436443 1.10191190243 1.02266025543 1.00578057766 0.981185436249 0.972281455994 1.05172753334 1.16813838482 1.2831401825 1.38132858276 1.38130784035 1.28306269646 1.10544168949 1.05166816711 0.972339987755 0.969501495361 1.13868784904 1.27001285553 1.39429032803 1.50953710079 1.50952112675 1.3942117691 1.20313799381 1.13861477375 0.969542324543 0.967646360397 1.18176162243 1.31276571751 1.42616188526 1.53448474407 1.53446996212 1.42610013485 1.24565207958 1.1816945076 0.967680513859 0.966104865074 1.21539545059 1.34963989258 1.4604190588 1.55851900578 1.55850851536 1.46036922932 1.28119087219 1.21532559395 0.966137051582 0.966106653214 1.21538615227 1.34962964058 1.46039843559 1.55867016315 1.55865097046 1.46034133434 1.28118813038 1.21531617641 0.966138958931 0.967650294304 1.18171513081 1.31272578239 1.42607164383 1.5346339941 1.53460741043 1.426004529 1.24561595917 1.18164908886 0.967684388161 0.970028698444 1.11070883274 1.2345328331 1.350897789 1.4657626152 1.46576058865 1.35081923008 1.17154097557 1.11064660549 0.970071136951 0.972287774086 1.05164134502 1.16801941395 1.28316831589 1.38142371178 1.38135290146 1.2831274271 1.10534250736 1.05158448219 0.972345709801 0.981158554554 1.0057734251 1.03848922253 1.10179018974 1.17763400078 1.17771434784 1.10165905952 1.02265560627 1.00574290752 0.981209158897 
0.981132566929 1.00581264496 1.03851532936 1.10199058056 1.17783951759 1.17781591415 1.10191309452 1.02266061306 1.00578081608 0.981185257435 0.972281396389 1.0517282486 1.1681394577 1.28314137459 1.38133013248 1.38130903244 1.28306388855 1.10544264317 1.05166876316 0.972339868546 0.969501316547 1.13868892193 1.27001428604 1.39429211617 1.50953829288 1.50952243805 1.39421367645 1.20313930511 1.13861584663 0.969542205334 0.967646181583 1.18176293373 1.31276738644 1.42616391182 1.53448665142 1.53447210789 1.4261020422 1.24565374851 1.1816958189 0.967680156231 0.966104745865 1.21539700031 1.34964203835 1.46042335033 1.55853796005 1.55852723122 1.46037340164 1.28119325638 1.21532714367 0.966136932373 0.966106235981 1.21538758278 1.34963178635 1.46040272713 1.5586899519 1.5586707592 1.4603458643 1.28119003773 1.21531760693 0.966138660908 0.967650055885 1.1817163229 1.31272757053 1.4260737896 1.53463685513 1.5346095562 1.42600667477 1.24561750889 1.18165040016 0.967684090137 0.970028579235 1.11070966721 1.23453390598 1.35089945793 1.46576404572 1.46576225758 1.35082089901 1.17154192924 1.11064743996 0.970071136951 0.972287833691 1.05164217949 1.16802048683 1.28316950798 1.38142514229 1.38135421276 1.2831287384 1.10534346104 1.05158519745 0.972345530987 0.981158554554 1.00577378273 1.03848993778 1.10179126263 1.17763531208 1.17771565914 1.10166013241 1.0226559639 1.00574314594 0.981209158897 
