1.0 1.00000011921 0.997939944267 1.03315234184 1.08982563019 1.0898026228 1.03307807446 1.00000023842 1.0 1.0 0.999999940395 1.0064766407 1.07342135906 1.17339515686 1.21564280987 1.21562957764 1.17327833176 1.04033148289 1.0064188242 1.0 1.0 1.06623494625 1.14780521393 1.21183216572 1.23623037338 1.2362215519 1.21174967289 1.113935709 1.06616795063 1.00000011921 1.0 1.10194373131 1.17165803909 1.22085440159 1.23959040642 1.23958516121 1.22079229355 1.14793241024 1.10188293457 1.00000011921 1.0 1.12849986553 1.1847884655 1.2257463932 1.24094963074 1.24094665051 1.22569346428 1.16752541065 1.12843775749 1.00000011921 1.0 1.1284891367 1.18478107452 1.22574293613 1.24096679688 1.24096298218 1.22568941116 1.16751861572 1.12842726707 1.00000011921 1.0 1.10189342499 1.17162561417 1.22082149982 1.23959755898 1.239590168 1.22075927258 1.14789164066 1.10183227062 1.0 1.0 1.04834330082 1.12987172604 1.20625770092 1.2351051569 1.23510670662 1.20616698265 1.0921100378 1.0482749939 1.00000011921 1.0 1.00640845299 1.07331800461 1.17337870598 1.21571338177 1.2156765461 1.17331218719 1.04023969173 1.00634992123 1.00000011921 1.0 1.00000011921 0.997946679592 1.03305029869 1.08944070339 1.08953166008 1.03292262554 1.00000011921 1.0 0.999999940395 
1.0 1.00000011921 0.997939944267 1.03315234184 1.08982563019 1.0898026228 1.03307807446 1.00000023842 1.0 1.0 0.999999940395 1.0064766407 1.07342135906 1.18637979031 1.29158496857 1.2915545702 1.18625664711 1.04033148289 1.0064188242 1.0 1.0 1.06623494625 1.16017413139 1.28626322746 1.38012135029 1.38009524345 1.28614377975 1.113935709 1.06616795063 1.00000011921 1.0 1.10194373131 1.20024549961 1.31429338455 1.39122498035 1.39120042324 1.31418824196 1.15184938908 1.10188293457 1.00000011921 1.0 1.12920868397 1.23480713367 1.3374080658 1.39922583103 1.3992074728 1.33730912209 1.18272566795 1.1291475296 1.00000011921 1.0 1.12919771671 1.23479270935 1.33739387989 1.39930427074 1.39928126335 1.33728969097 1.18271768093 1.12913632393 1.00000011921 1.0 1.10189342499 1.20020091534 1.31419122219 1.39129507542 1.39126121998 1.31408309937 1.15180397034 1.10183227062 1.0 1.0 1.04834330082 1.13102126122 1.24792730808 1.36029136181 1.36029005051 1.24779844284 1.0921100378 1.0482749939 1.00000011921 1.0 1.00640845299 1.07331800461 1.18641781807 1.2918202877 1.29171597958 1.18638706207 1.04023969173 1.00634992123 1.00000011921 1.0 1.00000011921 0.997946679592 1.03305029869 1.08944070339 1.08953166008 1.03292262554 1.00000011921 1.0 0.999999940395 
1.0 1.00000011921 0.997939944267 1.03315234184 1.08982563019 1.0898026228 1.03307807446 1.00000023842 1.0 1.0 0.999999940395 1.0064766407 1.07342135906 1.18637979031 1.29279947281 1.29276955128 1.18625664711 1.04033148289 1.0064188242 1.0 1.0 1.06623494625 1.16017413139 1.28765714169 1.41786134243 1.4178340435 1.28754067421 1.113935709 1.06616795063 1.00000011921 1.0 1.10194373131 1.20024549961 1.31934797764 1.43316626549 1.43313360214 1.31925749779 1.15184938908 1.10188293457 1.00000011921 1.0 1.12920868397 1.23480725288 1.35203003883 1.44946610928 1.44943916798 1.35195016861 1.18272566795 1.1291475296 1.00000011921 1.0 1.12919771671 1.23479282856 1.35200881958 1.44963943958 1.4496024847 1.35191965103 1.18271768093 1.12913632393 1.00000011921 1.0 1.10189342499 1.20020091534 1.31922984123 1.43335449696 1.43330466747 1.31913328171 1.15180397034 1.10183227062 1.0 1.0 1.04834330082 1.13102126122 1.24792730808 1.37403523922 1.3740298748 1.24779844284 1.0921100378 1.0482749939 1.00000011921 1.0 1.00640845299 1.07331800461 1.18641781807 1.29305124283 1.29294312 1.18638706207 1.04023969173 1.00634992123 1.00000011921 1.0 1.00000011921 0.997946679592 1.03305029869 1.08944070339 1.08953166008 1.03292262554 1.00000011921 1.0 0.999999940395 
1.0 1.00000011921 0.997939944267 1.03315234184 1.08982563019 1.0898026228 1.03307807446 1.00000023842 1.0 1.0 0.999999940395 1.0064766407 1.07342135906 1.18637979031 1.29279947281 1.29276955128 1.18625664711 1.04033148289 1.0064188242 1.0 1.0 1.06623494625 1.16017413139 1.28765714169 1.42321801186 1.42319083214 1.28754067421 1.113935709 1.06616795063 1.00000011921 1.0 1.10194373131 1.20024549961 1.31934797764 1.43931365013 1.43928182125 1.31925749779 1.15184938908 1.10188293457 1.00000011921 1.0 1.12920868397 1.23480725288 1.35245716572 1.45865499973 1.45862853527 1.35237979889 1.18272566795 1.1291475296 1.00000011921 1.0 1.12919771671 1.23479282856 1.35243582726 1.45888209343 1.45884287357 1.35234808922 1.18271768093 1.12913632393 1.00000011921 1.0 1.10189342499 1.20020091534 1.31922984123 1.43956148624 1.43950939178 1.31913328171 1.15180397034 1.10183227062 1.0 1.0 1.04834330082 1.13102126122 1.24792730808 1.37402915955 1.37402367592 1.24779844284 1.0921100378 1.0482749939 1.00000011921 1.0 1.00640845299 1.07331800461 1.18641781807 1.29305124283 1.29294312 1.18638706207 1.04023969173 1.00634992123 1.00000011921 1.0 1.00000011921 0.997946679592 1.03305029869 1.08944070339 1.08953166008 1.03292262554 1.00000011921 1.0 0.999999940395 
1.0 1.00000011921 0.997939944267 1.03315234184 1.08982563019 1.0898026228 1.03307807446 1.00000023842 1.0 1.0 0.999999940395 1.0064766407 1.07342135906 1.18637979031 1.29279947281 1.29276955128 1.18625664711 1.04033148289 1.0064188242 1.0 1.0 1.06623494625 1.16017413139 1.28765714169 1.42389655113 1.42386949062 1.28754067421 1.113935709 1.06616795063 1.00000011921 1.0 1.10194373131 1.20024549961 1.31934797764 1.44008004665 1.44004905224 1.31925749779 1.15184938908 1.10188293457 1.00000011921 1.0 1.12920868397 1.23480725288 1.35245716572 1.46017372608 1.46014726162 1.35237979889 1.18272566795 1.1291475296 1.00000011921 1.0 1.12919771671 1.23479282856 1.35243582726 1.46042227745 1.46038269997 1.35234808922 1.18271768093 1.12913632393 1.00000011921 1.0 1.10189342499 1.20020091534 1.31922984123 1.44034838676 1.4402961731 1.31913328171 1.15180397034 1.10183227062 1.0 1.0 1.04834330082 1.13102126122 1.24792730808 1.37402915955 1.37402367592 1.24779844284 1.0921100378 1.0482749939 1.00000011921 1.0 1.00640845299 1.07331800461 1.18641781807 1.29305124283 1.29294312 1.18638706207 1.04023969173 1.00634992123 1.00000011921 1.0 1.00000011921 0.997946679592 1.03305029869 1.08944070339 1.08953166008 1.03292262554 1.00000011921 1.0 0.999999940395 
1.0 1.00000011921 0.997939944267 1.03315234184 1.08982563019 1.0898026228 1.03307807446 1.00000023842 1.0 1.0 0.999999940395 1.0064766407 1.07342135906 1.18637979031 1.29279947281 1.29276955128 1.18625664711 1.04033148289 1.0064188242 1.0 1.0 1.06623494625 1.16017413139 1.28765714169 1.42399084568 1.4239641428 1.28754067421 1.113935709 1.06616795063 1.00000011921 1.0 1.10194373131 1.20024549961 1.31934797764 1.44016480446 1.44013392925 1.31925749779 1.15184938908 1.10188293457 1.00000011921 1.0 1.12920868397 1.23480725288 1.35245716572 1.46043527126 1.4604088068 1.35237979889 1.18272566795 1.1291475296 1.00000011921 1.0 1.12919771671 1.23479282856 1.35243582726 1.46069169044 1.46065175533 1.35234808922 1.18271768093 1.12913632393 1.00000011921 1.0 1.10189342499 1.20020091534 1.31922984123 1.44043982029 1.44038748741 1.31913328171 1.15180397034 1.10183227062 1.0 1.0 1.04834330082 1.13102126122 1.24792730808 1.37402915955 1.37402367592 1.24779844284 1.0921100378 1.0482749939 1.00000011921 1.0 1.00640845299 1.07331800461 1.18641781807 1.29305124283 1.29294312 1.18638706207 1.04023969173 1.00634992123 1.00000011921 1.0 1.00000011921 0.997946679592 1.03305029869 1.08944070339 1.08953166008 1.03292262554 1.00000011921 1.0 0.999999940395 
1.0 1.00000011921 0.997939944267 1.03315234184 1.08982563019 1.0898026228 1.03307807446 1.00000023842 1.0 1.0 0.999999940395 1.0064766407 1.07342135906 1.18637979031 1.29279947281 1.29276955128 1.18625664711 1.04033148289 1.0064188242 1.0 1.0 1.06623494625 1.16017413139 1.28765714169 1.42401087284 1.42398405075 1.28754067421 1.113935709 1.06616795063 1.00000011921 1.0 1.10194373131 1.20024549961 1.31934797764 1.44017457962 1.44014358521 1.31925749779 1.15184938908 1.10188293457 1.00000011921 1.0 1.12920868397 1.23480725288 1.35245716572 1.46048700809 1.46046078205 1.35237979889 1.18272566795 1.1291475296 1.00000011921 1.0 1.12919771671 1.23479282856 1.35243582726 1.4607462883 1.46070659161 1.35234808922 1.18271768093 1.12913632393 1.00000011921 1.0 1.10189342499 1.20020091534 1.31922984123 1.44045174122 1.44039940834 1.31913328171 1.15180397034 1.10183227062 1.0 1.0 1.04834330082 1.13102126122 1.24792730808 1.37402915955 1.37402367592 1.24779844284 1.0921100378 1.0482749939 1.00000011921 1.0 1.00640845299 1.07331800461 1.18641781807 1.29305124283 1.29294312 1.18638706207 1.04023969173 1.00634992123 1.00000011921 1.0 1.00000011921 0.997946679592 1.03305029869 1.08944070339 1.08953166008 1.03292262554 1.00000011921 1.0 0.999999940395 
