14.0133399963 13.8613548279 13.1392259598 12.1012229919 11.5212182999 11.5216798782 12.1035194397 13.141702652 13.862531662 14.0133047104 22.0078239441 21.7457046509 20.8467540741 19.6600284576 18.973690033 18.9742279053 19.6626415253 20.8496608734 21.7473106384 22.0078296661 30.0044384003 29.7337970734 29.0103626251 28.067407608 27.4936885834 27.494146347 28.069524765 29.0126419067 29.7351932526 30.0044689178 38.0035247803 37.8290214539 37.3774337769 36.8034629822 36.4485473633 36.4488296509 36.8047599792 37.3788375854 37.8298950195 38.0035591125 46.0069465637 45.9467201233 45.7945861816 45.6034584045 45.4849319458 45.4850273132 45.6038894653 45.7950592041 45.9470176697 46.0069656372 54.013053894 54.0735855103 54.2264900208 54.4186096191 54.5377883911 54.5376930237 54.4181747437 54.2260284424 54.0732917786 54.01304245 62.0164718628 62.1912269592 62.6435470581 63.2184791565 63.5739974976 63.5737190247 63.2171821594 62.6421585083 62.1903572083 62.0164299011 70.0155487061 70.2863311768 71.010345459 71.9542541504 72.5281906128 72.5277404785 71.9521408081 71.0080795288 70.284942627 70.0155181885 78.0121612549 78.2740707397 79.1732635498 80.360458374 81.0470428467 81.0464859009 80.3578948975 79.1703720093 78.2724761963 78.0121459961 86.0066680908 86.1583099365 86.8790435791 87.9148406982 88.4928436279 88.4925994873 87.9125747681 86.876625061 86.1571426392 86.0067138672 
14.0041694641 13.8019189835 13.0527915955 11.9456443787 11.275434494 11.2759876251 11.9482088089 13.0553541183 13.8031787872 14.0041761398 21.9951972961 21.644651413 20.6410522461 19.2841320038 18.4852695465 18.4858932495 19.2871990204 20.6443042755 21.6464824677 21.995267868 29.9875774384 29.5962314606 28.7299346924 27.6743240356 27.0271778107 27.0276947021 27.6767044067 28.7325439453 29.5979690552 29.9876937866 37.9893035889 37.7066383362 37.1666107178 36.5365333557 36.141834259 36.1421508789 36.5379753113 37.1681671143 37.7077980042 37.9894104004 46.0012435913 45.8984642029 45.7169723511 45.5094795227 45.3784713745 45.3785743713 45.5099563599 45.7174720764 45.8988609314 46.0012893677 54.0187950134 54.1220970154 54.3045578003 54.5131263733 54.6448669434 54.6447601318 54.5126342773 54.3040390015 54.121711731 54.0187492371 62.030708313 62.3137435913 62.8546791077 63.4858436584 63.8812484741 63.8809318542 63.4844055176 62.8531227112 62.3125953674 62.0305976868 70.0324020386 70.4238586426 71.2907714844 72.3475875854 72.9949798584 72.9944763184 72.3452377319 71.2881774902 70.42212677 70.0323104858 78.0247802734 78.3750228882 79.3787002563 80.7361984253 81.5353088379 81.5346679688 80.733215332 79.3754501343 78.3732147217 78.0247116089 86.0158157349 86.2176742554 86.9652938843 88.0696487427 88.7376403809 88.7373886108 88.0670928955 86.9628372192 86.2164459229 86.0158157349 
14.0008792877 13.7821359634 13.0267734528 11.899553299 11.2021894455 11.2027759552 11.9021844864 13.0293617249 13.7834157944 14.0009031296 21.9915180206 21.6145744324 20.5721130371 19.1243438721 18.2206764221 18.2214126587 19.127702713 20.5755138397 21.6164836884 21.9916057587 29.9839458466 29.5602493286 28.6357307434 27.449836731 26.7131023407 26.7136936188 27.4525737762 28.6385746002 29.5621051788 29.9840812683 37.9866523743 37.6767234802 37.0791893005 36.3714904785 35.9276580811 35.9280166626 36.3731155396 37.0809364319 37.6779785156 37.9867744446 46.0001525879 45.8861999512 45.6815948486 45.4495697021 45.3033676147 45.3034820557 45.4500999451 45.6821746826 45.8866386414 46.0001983643 54.0198898315 54.1344261169 54.3401031494 54.5733222961 54.7203712463 54.7202453613 54.5727844238 54.3395233154 54.1339950562 54.0198364258 62.0333595276 62.3436927795 62.9421768188 63.6510734558 64.0957260132 64.0953598022 63.6494483948 62.9404220581 62.3424377441 62.033241272 70.0360565186 70.459854126 71.3849487305 72.5721435547 73.309135437 73.3085479736 72.5694274902 71.3820953369 70.4580078125 70.0359191895 78.0284576416 78.4050827026 79.447517395 80.8957366943 81.7995223999 81.7987670898 80.8924560547 79.4441452026 78.4031906128 78.0283660889 86.0191116333 86.2374420166 86.9912719727 88.1154251099 88.8104629517 88.8101882935 88.1127624512 86.9887924194 86.2361831665 86.0190963745 
13.9997711182 13.775680542 13.0191936493 11.8878269196 11.1852216721 11.1858167648 11.8904705048 13.0217933655 13.7769622803 13.9997987747 21.9902877808 21.6047325134 20.5501365662 19.0741996765 18.1387252808 18.1395015717 19.0776500702 20.5535831451 21.6066608429 21.9903793335 29.9828338623 29.5484638214 28.602519989 27.3673858643 26.5620708466 26.5627288818 27.370306015 28.6054401398 29.550359726 29.9829750061 37.9857788086 37.6668586731 37.049571991 36.2936706543 35.8086128235 35.809009552 36.2954368591 37.051399231 37.6681442261 37.9859046936 45.9998168945 45.8822402954 45.6689567566 45.4186134338 45.2595481873 45.259677887 45.4191894531 45.6695785522 45.8826942444 45.999874115 54.0202255249 54.1384086609 54.352809906 54.6044387817 54.7644577026 54.7643127441 54.603843689 54.3521766663 54.1379623413 54.0201797485 62.0342292786 62.3535728455 62.9718170166 63.7289352417 64.2148895264 64.2144927979 63.7271766663 62.9699859619 62.3522796631 62.0341110229 70.0371704102 70.4716262817 71.4181289673 72.6545562744 73.4600219727 73.4593887329 72.6516876221 71.415222168 70.4697494507 70.0370178223 78.0296936035 78.4149169922 79.4694442749 80.9457855225 81.8812637329 81.8804779053 80.9424285889 79.4660263062 78.4130020142 78.0296020508 86.0202255249 86.243888855 86.9988327026 88.1270370483 88.8273162842 88.827041626 88.1243515015 86.9963760376 86.2426376343 86.0201873779 
13.9995746613 13.77455616 13.0180139542 11.8862533569 11.1830825806 11.1836795807 11.8888988495 13.0206098557 13.7758388519 13.9996032715 21.9900665283 21.6030063629 20.5463943481 19.0659790039 18.126083374 18.1268692017 19.0694446564 20.5498485565 21.6049404144 21.9901599884 29.9826335907 29.5463695526 28.5966529846 27.3531742096 26.5357704163 26.5364532471 27.3561210632 28.5995883942 29.5482654572 29.9827728271 37.9856338501 37.6651000977 37.043964386 36.2771339417 35.7756118774 35.7760276794 36.2789382935 37.0458183289 37.66639328 37.9857559204 45.9997558594 45.8815231323 45.6666221619 45.4108963013 45.245552063 45.245677948 45.4114875793 45.6672325134 45.8819770813 45.9998054504 54.0202903748 54.139125824 54.3551635742 54.6121902466 54.7785873413 54.7784347534 54.6115875244 54.3545379639 54.1386756897 54.0202445984 62.0343780518 62.3553276062 62.9774284363 63.7454910278 64.2478790283 64.2474517822 63.7436828613 62.9755706787 62.3540420532 62.0342674255 70.0373535156 70.4737319946 71.4240112305 72.668762207 73.4862518311 73.4856033325 72.6658630371 71.421081543 70.4718399048 70.0372161865 78.0299072266 78.416633606 79.4731903076 80.953994751 81.8938598633 81.8930587769 80.950630188 79.4697723389 78.4147338867 78.0298080444 86.0204238892 86.245010376 87.0000228882 88.1285858154 88.8294296265 88.8291473389 88.1259078979 86.9975509644 86.2437591553 86.0203781128 
13.9995613098 13.7744894028 13.017950058 11.8861789703 11.1829862595 11.1835861206 11.8888244629 13.0205450058 13.7757730484 13.9995937347 21.9900531769 21.6029014587 20.5461807251 19.0655345917 18.1254348755 18.1262187958 19.0690002441 20.5496330261 21.6048355103 21.990146637 29.9826202393 29.5462398529 28.5963039398 27.3523540497 26.5344562531 26.5351352692 27.3552951813 28.5992336273 29.5481376648 29.9827594757 37.9856262207 37.6649856567 37.0436248779 36.2760734558 35.7731437683 35.7735595703 36.2778816223 37.0454750061 37.6662864685 37.985748291 45.99974823 45.8814849854 45.6664657593 45.4103050232 45.2442016602 45.2443389893 45.4109039307 45.6670913696 45.8819389343 45.9998054504 54.0202941895 54.1391830444 54.3553237915 54.6127853394 54.7799568176 54.7798080444 54.6121788025 54.3546943665 54.1387176514 54.0202407837 62.0343933105 62.3554458618 62.9777603149 63.746547699 64.250328064 64.2499160767 63.7447357178 62.9759254456 62.35414505 62.0342712402 70.0373764038 70.4738616943 71.4243621826 72.6695861816 73.4875717163 73.4869232178 72.6666793823 71.4214248657 70.4719619751 70.0372390747 78.0299224854 78.4167327881 79.4734115601 80.9544525146 81.8945083618 81.8937225342 80.9510726929 79.4699783325 78.4148254395 78.0298309326 86.0204315186 86.2450714111 87.0000839233 88.1286621094 88.829536438 88.829246521 88.1259689331 86.9976196289 86.2438201904 86.020401001 
13.9995613098 13.7744884491 13.0179414749 11.8861608505 11.1829633713 11.1835632324 11.8888072968 13.0205364227 13.7757720947 13.9995946884 21.9900531769 21.6029014587 20.546169281 19.0655117035 18.1254062653 18.1261901855 19.068977356 20.5496196747 21.6048336029 21.990146637 29.9826202393 29.5462360382 28.5962924957 27.3523292542 26.5344200134 26.5351009369 27.3552761078 28.5992240906 29.5481319427 29.9827594757 37.985622406 37.6649894714 37.0436058044 36.2760467529 35.7730941772 35.7735099792 36.2778549194 37.045463562 37.6662826538 37.985748291 45.99974823 45.8814849854 45.6664581299 45.4102897644 45.244178772 45.2443161011 45.4108963013 45.6670837402 45.8819389343 45.9998054504 54.0202941895 54.1391830444 54.3553314209 54.6128005981 54.7799835205 54.7798347473 54.6121940613 54.3546943665 54.1387176514 54.0202407837 62.0343933105 62.3554344177 62.9777755737 63.7465705872 64.2503738403 64.2499542236 63.7447738647 62.975944519 62.3541488647 62.0342712402 70.0373764038 70.4738540649 71.4243850708 72.6696166992 73.4875946045 73.4869537354 72.6667175293 71.4214401245 70.4719772339 70.0372390747 78.0299224854 78.4167404175 79.4734191895 80.9544677734 81.8945617676 81.8937530518 80.9510879517 79.4699935913 78.4148254395 78.0298309326 86.0204315186 86.2450714111 87.0000839233 88.1286773682 88.8295516968 88.8292694092 88.1260070801 86.9976348877 86.2438201904 86.020401001 
