13.9423809052 21.7270927429 29.3274784088 37.2313537598 45.6791801453 54.3424797058 62.7891235352 70.6916427612 78.2920684814 86.0773468018 13.9088134766 21.5102348328 28.634147644 36.5187301636 45.3963851929 54.6266860962 63.5023994446 71.3841247559 78.5077819824 86.1107788086 13.8931045532 21.365776062 28.2596530914 36.1111488342 45.2206077576 54.8033447266 63.9102020264 71.7582397461 78.6515579224 86.1264190674 13.8835630417 21.2915611267 28.106546402 35.9396362305 45.1458473206 54.8784790039 64.0818252563 71.9111785889 78.7255630493 86.1359100342 13.8776664734 21.2602329254 28.0386199951 35.8635177612 45.113319397 54.9111633301 64.157989502 71.979019165 78.7567825317 86.1417922974 13.8776741028 21.2602500916 28.0386753082 35.8635826111 45.1133499146 54.9111366272 64.1579284668 71.9789505005 78.7567672729 86.141784668 13.8835821152 21.2916870117 28.1068077087 35.9399795532 45.145980835 54.8783416748 64.0814819336 71.9109115601 78.7254333496 86.1358947754 13.8931293488 21.3660335541 28.2602291107 36.1117782593 45.2210540771 54.8028907776 63.9096031189 71.7576675415 78.6513061523 86.1264038086 13.908870697 21.5106754303 28.6354694366 36.5199890137 45.3969192505 54.6261253357 63.5011558533 71.3827972412 78.5073547363 86.1107177734 13.9425144196 21.7277946472 29.3294639587 37.2337608337 45.6803131104 54.341381073 62.7867279053 70.6897201538 78.2913742065 86.0772094727 
13.9370326996 21.713060379 29.3071136475 37.186882019 45.6463851929 54.3754272461 62.8335189819 70.7119598389 78.306098938 86.0826873779 13.8999195099 21.4836006165 28.5631160736 36.3635177612 45.3086471558 54.7148590088 63.6574935913 71.4549484253 78.5343704224 86.119644165 13.8795204163 21.3160915375 28.1028347015 35.874130249 45.1013946533 54.9231681824 64.1471710205 71.9147338867 78.7010574341 86.1399536133 13.8640651703 21.2197399139 27.8886432648 35.6725616455 45.0184707642 55.0064964294 64.3489151001 72.1287765503 78.7970581055 86.1553497314 13.8540897369 21.175283432 27.8002719879 35.5890197754 44.9844207764 55.0407028198 64.432510376 72.2170944214 78.8413391113 86.1652679443 13.8540992737 21.1753082275 27.8003330231 35.5890808105 44.9844551086 55.0406646729 64.4324569702 72.2170333862 78.8413085938 86.1652679443 13.8640985489 21.2199172974 27.8890075684 35.6729393005 45.0186080933 55.0063476562 64.3485336304 72.1284255981 78.7968826294 86.1553115845 13.8795633316 21.3164081573 28.1036186218 35.8749351501 45.1018676758 54.922668457 64.1463851929 71.9139785767 78.7007446289 86.1399230957 13.8999862671 21.4840888977 28.5646381378 36.3650245667 45.3093948364 54.7140693665 63.6560096741 71.4534454346 78.5339050293 86.1195831299 13.937169075 21.7137260437 29.3090362549 37.1895370483 45.6476173401 54.3742523193 62.830871582 70.710144043 78.3054580688 86.08253479 
13.9358282089 21.7103214264 29.3039207458 37.1794662476 45.6411437988 54.3806915283 62.8409309387 70.7151412964 78.3088378906 86.0838775635 13.8978824615 21.4787044525 28.5474643707 36.3207092285 45.2764320374 54.7472457886 63.7002182007 71.4705429077 78.5392608643 86.1216506958 13.8762817383 21.3031139374 28.0613002777 35.7721099854 45.0363121033 54.988571167 64.2490615845 71.9561309814 78.7139892578 86.1431884766 13.859459877 21.1943969727 27.8079395294 35.5214157104 44.9350585938 55.0903205872 64.4999771118 72.2092819214 78.8222961426 86.1599349976 13.8485088348 21.1398010254 27.6879444122 35.4140625 44.8935241699 55.1320571899 64.6074295044 72.329208374 78.8766937256 86.1708297729 13.8485202789 21.139837265 27.6880302429 35.4141273499 44.8935623169 55.132019043 64.6073684692 72.3291168213 78.876663208 86.1708374023 13.8594970703 21.1945991516 27.8084011078 35.5218734741 44.9352340698 55.0901412964 64.4995117188 72.2088394165 78.8220977783 86.1598968506 13.876326561 21.3034515381 28.0621547699 35.7730712891 45.0368385315 54.9880142212 64.2481002808 71.9553222656 78.7136611938 86.1431350708 13.8979473114 21.4792022705 28.549041748 36.3223190308 45.2772674561 54.7463569641 63.6986618042 71.468963623 78.538772583 86.1216125488 13.9359607697 21.7109680176 29.3057918549 37.1821670532 45.6423606873 54.379535675 62.8382110596 70.7134017944 78.3082351685 86.083732605 
13.9355201721 21.7097625732 29.3036193848 37.1784248352 45.6401557922 54.381690979 62.8419647217 70.7154541016 78.3094024658 86.0841827393 13.8973588943 21.477804184 28.5442638397 36.3108673096 45.2691192627 54.7545814514 63.7100563049 71.4737319946 78.5401535034 86.1221923828 13.875412941 21.2998638153 28.0500774384 35.7434158325 45.0137672424 55.0112190247 64.2777099609 71.9673614502 78.7172317505 86.1440582275 13.8581266403 21.1871967316 27.7844467163 35.4669189453 44.9002990723 55.1252670288 64.5544052124 72.232711792 78.8294677734 86.1612701416 13.8468208313 21.1292476654 27.6535015106 35.3439292908 44.8525733948 55.173210144 64.6775054932 72.3635559082 78.88722229 86.1725311279 13.8468322754 21.1292877197 27.6535949707 35.3440093994 44.8526268005 55.1731567383 64.6774368286 72.3634643555 78.8871612549 86.1725158691 13.8581628799 21.1874103546 27.7849407196 35.4674301147 44.9004898071 55.1250534058 64.5538864136 72.2322158813 78.8292617798 86.1612319946 13.87545681 21.3002128601 28.0509548187 35.7444419861 45.0143432617 55.0106391907 64.2766876221 71.966506958 78.7168807983 86.1439819336 13.8974246979 21.4782962799 28.5458564758 36.3125 45.2700004578 54.7536659241 63.7084617615 71.4721450806 78.5396957397 86.1221237183 13.9356527328 21.7104053497 29.3054733276 37.1811485291 45.6413650513 54.3805427551 62.8392372131 70.713722229 78.3087921143 86.0840530396 
13.9354286194 21.7096233368 29.3036251068 37.1782569885 45.6399536133 54.381893158 62.8421287537 70.7154312134 78.3095397949 86.0842819214 13.8972034454 21.477602005 28.5434761047 36.3082008362 45.2672615051 54.7564544678 63.7127113342 71.4745254517 78.5403518677 86.1223449707 13.8751430511 21.2989120483 28.0467815399 35.7349357605 45.0069351196 55.0180892944 64.2861709595 71.9706192017 78.7181777954 86.1443405151 13.8577013016 21.1848812103 27.7766895294 35.4482269287 44.8875465393 55.1380691528 64.5730743408 72.240447998 78.83177948 86.1616821289 13.8462638855 21.1257514954 27.6419239044 35.3179740906 44.8365631104 55.1893005371 64.7034454346 72.3750915527 78.8906784058 86.1730804443 13.8462762833 21.1257915497 27.6420288086 35.3180580139 44.8366165161 55.189250946 64.7033615112 72.3749923706 78.8906402588 86.1730651855 13.8577413559 21.1851005554 27.7771949768 35.4487571716 44.8877487183 55.1378440857 64.5725479126 72.2399291992 78.8315582275 86.1616439819 13.8751859665 21.2992591858 28.0476589203 35.7359771729 45.0075302124 55.0174789429 64.2851257324 71.9697647095 78.7178344727 86.14427948 13.8972673416 21.4780960083 28.5450706482 36.309841156 45.2681350708 54.7555351257 63.7111129761 71.4729309082 78.5398712158 86.1222839355 13.9355621338 21.7102642059 29.305475235 37.1809883118 45.6411552429 54.3807601929 62.8393936157 70.7137298584 78.3089447021 86.0841369629 
13.9353952408 21.7095794678 29.3036460876 37.1782226562 45.6398925781 54.3819503784 62.8421592712 70.7154083252 78.3095855713 86.0843200684 13.897146225 21.4775371552 28.5432281494 36.3073043823 45.2666893005 54.7570381165 63.7136077881 71.4747772217 78.5404205322 86.1224060059 13.875041008 21.2985668182 28.0456199646 35.7319869995 45.0045928955 55.0204353333 64.2891159058 71.971786499 78.7185211182 86.1444244385 13.85754776 21.184009552 27.7737541199 35.4411430359 44.8825912476 55.1430549622 64.5801467896 72.2433776855 78.8326416016 86.1618347168 13.8460512161 21.1244029999 27.637430191 35.3076057434 44.830039978 55.195854187 64.7138061523 72.3795700073 78.8920288086 86.173286438 13.8460636139 21.1244449615 27.6375331879 35.3076934814 44.8300933838 55.1957931519 64.7137298584 72.3794708252 78.891998291 86.1732635498 13.8575839996 21.1842269897 27.774263382 35.4416847229 44.8827896118 55.142829895 64.5796051025 72.2428588867 78.8324279785 86.1618118286 13.8750867844 21.2989177704 28.0465068817 35.733039856 45.0052032471 55.0198135376 64.2880706787 71.9709243774 78.7181777954 86.1443634033 13.8972110748 21.4780406952 28.5448188782 36.3089561462 45.2675628662 54.7561035156 63.7120018005 71.4731750488 78.5399398804 86.1223449707 13.9355278015 21.7102165222 29.3054924011 37.1809501648 45.6411056519 54.3808135986 62.839427948 70.7136993408 78.3089981079 86.0841674805 
13.9353809357 21.7095603943 29.3036575317 37.1782112122 45.6398773193 54.381980896 62.8421859741 70.7154083252 78.3096008301 86.0843200684 13.8971233368 21.4775180817 28.5431289673 36.3069458008 45.2664527893 54.7572631836 63.7139625549 71.4748764038 78.5404510498 86.1224212646 13.875 21.2984256744 28.0451431274 35.7308082581 45.0036201477 55.0214042664 64.2902832031 71.9722442627 78.7186660767 86.1444625854 13.8574810028 21.183631897 27.7724933624 35.438129425 44.8804512024 55.1452026367 64.5831451416 72.2446289062 78.8330230713 86.1619033813 13.8459615707 21.1238212585 27.6354618073 35.3030052185 44.8271408081 55.1987686157 64.7183914185 72.3815383911 78.892616272 86.1733856201 13.8459720612 21.1238594055 27.6355667114 35.3030929565 44.8272018433 55.1987075806 64.7183151245 72.3814239502 78.8925704956 86.1733703613 13.8575172424 21.1838512421 27.7730026245 35.4386901855 44.8806610107 55.1449737549 64.5825958252 72.2441101074 78.8328018188 86.1618652344 13.8750457764 21.2987747192 28.0460300446 35.7318687439 45.0042419434 55.0207901001 64.2892303467 71.9714050293 78.7183151245 86.1444320679 13.8971881866 21.4780139923 28.5447216034 36.30859375 45.2673377991 54.7563400269 63.7123641968 71.4732818604 78.5399703979 86.1223754883 13.9355163574 21.7101993561 29.3055019379 37.180934906 45.6410903931 54.3808326721 62.8394393921 70.7136993408 78.3090057373 86.0841827393 
