0.981661319733 1.00624275208 1.03252756596 1.08673381805 1.16987550259 1.1698461771 1.08666217327 1.02338814735 1.00621140003 0.981713533401 0.972692608833 1.04673421383 1.16421091557 1.29288554192 1.40160512924 1.40157878399 1.29278850555 1.09886395931 1.04667901993 0.972751379013 0.970168292522 1.1397818327 1.27211260796 1.40707588196 1.53445577621 1.53443264961 1.40698003769 1.20692384243 1.13971209526 0.970207571983 0.968283414841 1.18522644043 1.31657803059 1.4385406971 1.55412983894 1.5541036129 1.43846225739 1.25199747086 1.1851606369 0.968315243721 0.966471552849 1.22045326233 1.35480344296 1.47374796867 1.57316958904 1.57314872742 1.4736815691 1.28947305679 1.22038257122 0.966502547264 0.966472864151 1.22044157982 1.35479056835 1.47372567654 1.57331049442 1.57328116894 1.47365033627 1.28946900368 1.22037065029 0.966503858566 0.96828764677 1.18517279625 1.31653499603 1.43843770027 1.55428469181 1.55424499512 1.43835222721 1.25195705891 1.18510603905 0.96831882 0.970679223537 1.10786318779 1.23434102535 1.35968518257 1.48789894581 1.4878988266 1.35959029198 1.1714990139 1.10780000687 0.970719814301 0.972701072693 1.04663586617 1.16407096386 1.29297196865 1.40176820755 1.40167927742 1.29296278954 1.09874117374 1.04657638073 0.97276031971 0.981692612171 1.00619983673 1.0324549675 1.08645582199 1.16958892345 1.16968309879 1.08627307415 1.02333462238 1.00616872311 0.98174649477 
0.981647670269 1.00587630272 1.03201472759 1.08607292175 1.16905879974 1.16902911663 1.0860016346 1.02286958694 1.00584518909 0.981700062752 0.972675979137 1.0462423563 1.16364836693 1.29224944115 1.40092885494 1.40090239048 1.29215240479 1.09829747677 1.04618752003 0.972734928131 0.970139324665 1.13921797276 1.27155399323 1.4063501358 1.53640198708 1.53637909889 1.40625441074 1.20636761189 1.13914811611 0.97017878294 0.968244254589 1.18463969231 1.31598103046 1.43788981438 1.55816626549 1.5581433773 1.43781125546 1.2514551878 1.18457376957 0.968276023865 0.966428399086 1.21987497807 1.35414731503 1.47349011898 1.58178365231 1.58176517487 1.47342419624 1.28894984722 1.21980392933 0.966459453106 0.966429948807 1.21986341476 1.35413455963 1.4734685421 1.58199071884 1.58196115494 1.47339344025 1.28894543648 1.21979212761 0.966460585594 0.968248426914 1.18458604813 1.31593883038 1.43778860569 1.55838632584 1.55834746361 1.437702775 1.25141537189 1.18451917171 0.968279719353 0.970650911331 1.10729753971 1.23374474049 1.35896265507 1.48722827435 1.48722922802 1.35886740685 1.17091715336 1.107234478 0.97069144249 0.97268474102 1.04614400864 1.1635081768 1.29233753681 1.40109026432 1.40100133419 1.29232895374 1.09817504883 1.04608500004 0.972744047642 0.981679141521 1.005833745 1.03194224834 1.08579349518 1.16877353191 1.16886758804 1.08561062813 1.02281618118 1.00580298901 0.981732845306 
0.981647372246 1.00587618351 1.0320148468 1.08607375622 1.16906011105 1.16903030872 1.08600246906 1.02286982536 1.0058453083 0.981699943542 0.972675979137 1.04624271393 1.16364920139 1.29225063324 1.40093016624 1.40090370178 1.29215359688 1.09829819202 1.04618787766 0.972734808922 0.970139205456 1.13921880722 1.27155542374 1.40635180473 1.53640341759 1.53638064861 1.40625584126 1.20636880398 1.139149189 0.970178544521 0.968244075775 1.1846408844 1.31598258018 1.43789184093 1.55817055702 1.55814778805 1.43781328201 1.25145661831 1.18457484245 0.968275845051 0.966428101063 1.219876647 1.35414910316 1.47349274158 1.58180296421 1.58178424835 1.47342729568 1.28895127773 1.21980559826 0.966459214687 0.966429591179 1.21986472607 1.35413599014 1.47347152233 1.582010746 1.5819811821 1.47339642048 1.28894686699 1.21979343891 0.96646052599 0.9682482481 1.18458712101 1.3159403801 1.43779039383 1.55839192867 1.55835294724 1.43770456314 1.25141692162 1.18452036381 0.968279421329 0.970650792122 1.10729825497 1.23374569416 1.35896444321 1.48723018169 1.48723065853 1.35886895657 1.17091810703 1.10723531246 0.97069144249 0.972684562206 1.04614448547 1.16350889206 1.2923387289 1.40109169483 1.40100228786 1.29233014584 1.09817552567 1.04608535767 0.972743749619 0.981678962708 1.005833745 1.03194236755 1.08579421043 1.16877472401 1.16886878014 1.0856115818 1.02281630039 1.00580322742 0.981732666492 
0.981647491455 1.00587654114 1.03201556206 1.08607506752 1.16906166077 1.16903233528 1.08600366116 1.02287054062 1.00584566593 0.981699764729 0.972675919533 1.04624354839 1.16365015507 1.29225206375 1.40093159676 1.4009052515 1.29215502739 1.09829950333 1.04618871212 0.972734749317 0.970138907433 1.13922011852 1.27155709267 1.40635406971 1.53640663624 1.53638398647 1.40625822544 1.20637023449 1.1391505003 0.970178246498 0.968243777752 1.18464231491 1.31598460674 1.43789422512 1.55817961693 1.55815660954 1.4378156662 1.25145852566 1.18457663059 0.968275725842 0.966428041458 1.21987831593 1.35415112972 1.47349572182 1.58181250095 1.58179402351 1.4734300375 1.28895366192 1.21980714798 0.966459095478 0.96642935276 1.21986675262 1.3541380167 1.47347426414 1.58202075958 1.58199095726 1.4733992815 1.28894901276 1.21979510784 0.966460347176 0.968248128891 1.18458878994 1.31594240665 1.43779277802 1.55840027332 1.55836164951 1.43770706654 1.25141859055 1.18452191353 0.96827930212 0.970650732517 1.10729944706 1.23374736309 1.35896611214 1.48723232746 1.48723304272 1.35887086391 1.17091941833 1.10723650455 0.97069132328 0.972684264183 1.04614508152 1.16351032257 1.29234015942 1.40109348297 1.401004076 1.29233145714 1.09817671776 1.04608631134 0.972743690014 0.981678962708 1.00583422184 1.03194320202 1.08579552174 1.16877651215 1.16887056828 1.0856127739 1.02281701565 1.00580358505 0.981732726097 
0.981647372246 1.00587701797 1.0320161581 1.0860761404 1.16906380653 1.16903400421 1.08600485325 1.02287113667 1.00584602356 0.981699764729 0.972675740719 1.04624426365 1.16365146637 1.29225361347 1.4009333849 1.40090703964 1.29215669632 1.098300457 1.04618930817 0.972734630108 0.970138788223 1.13922131062 1.2715587616 1.40635633469 1.53641033173 1.53638756275 1.40626049042 1.20637190342 1.1391518116 0.970178067684 0.968243718147 1.18464398384 1.31598675251 1.4378964901 1.5581882 1.5581651926 1.43781793118 1.2514603138 1.18457818031 0.968275487423 0.96642768383 1.21988010406 1.35415303707 1.47349858284 1.58182215691 1.58180356026 1.47343301773 1.28895533085 1.21980893612 0.96645873785 0.966429114342 1.21986842155 1.35414016247 1.47347724438 1.58203017712 1.582000494 1.47340202332 1.2889509201 1.21979689598 0.966460168362 0.968247890472 1.18459022045 1.31594455242 1.43779504299 1.55840921402 1.55837023258 1.43770956993 1.25142037868 1.18452334404 0.968279004097 0.970650553703 1.10730051994 1.2337487936 1.35896813869 1.48723459244 1.4872354269 1.35887289047 1.17092061043 1.10723769665 0.970691084862 0.972684383392 1.04614579678 1.16351139545 1.29234182835 1.40109479427 1.40100574493 1.29233300686 1.09817779064 1.04608678818 0.972743630409 0.981678962708 1.00583446026 1.03194355965 1.08579695225 1.16877830029 1.16887247562 1.0856140852 1.02281749249 1.00580382347 0.981732606888 
0.981647372246 1.0058773756 1.03201663494 1.08607745171 1.16906547546 1.16903591156 1.08600616455 1.02287137508 1.0058465004 0.981699764729 0.972675561905 1.0462449789 1.16365265846 1.29225516319 1.40093505383 1.40090894699 1.29215812683 1.09830141068 1.04619014263 0.972734570503 0.970138669014 1.13922274113 1.27156043053 1.40635871887 1.53641426563 1.53639149666 1.4062628746 1.20637309551 1.13915288448 0.970177948475 0.968243479729 1.18464541435 1.31598889828 1.43789899349 1.55819690228 1.55817425251 1.43782043457 1.25146222115 1.18457961082 0.968275368214 0.966427385807 1.21988177299 1.35415530205 1.47350144386 1.58183193207 1.58181333542 1.47343599796 1.2889572382 1.21981072426 0.966458499432 0.966428995132 1.21987009048 1.35414206982 1.47348022461 1.58203995228 1.58201003075 1.47340512276 1.28895282745 1.21979880333 0.966459870338 0.968247652054 1.18459165096 1.31594669819 1.43779742718 1.55841803551 1.55837917328 1.43771183491 1.25142228603 1.18452513218 0.968278825283 0.970650434494 1.10730159283 1.23375022411 1.35897028446 1.4872367382 1.48723757267 1.3588745594 1.17092204094 1.10723888874 0.970690906048 0.972684144974 1.04614675045 1.16351246834 1.29234313965 1.40109670162 1.40100741386 1.29233467579 1.09817874432 1.04608750343 0.972743451595 0.981678962708 1.00583481789 1.03194403648 1.08579802513 1.16878008842 1.16887438297 1.08561503887 1.02281796932 1.0058041811 0.981732428074 
0.981647253036 1.00587773323 1.0320173502 1.0860786438 1.16906714439 1.16903758049 1.08600735664 1.02287209034 1.00584673882 0.981699645519 0.972675383091 1.04624569416 1.16365385056 1.29225647449 1.40093684196 1.4009103775 1.29215955734 1.09830248356 1.04619085789 0.972734332085 0.970138549805 1.13922393322 1.27156209946 1.40636086464 1.53641939163 1.53639709949 1.40626502037 1.20637476444 1.13915419579 0.970177948475 0.96824324131 1.18464720249 1.31599092484 1.43790125847 1.55820560455 1.55818271637 1.43782293797 1.25146400928 1.18458116055 0.968275129795 0.966427326202 1.21988344193 1.35415732861 1.47350430489 1.58184170723 1.58182287216 1.47343850136 1.28895902634 1.2198125124 0.966458380222 0.966428697109 1.21987187862 1.35414421558 1.47348296642 1.58204948902 1.58201956749 1.47340786457 1.2889547348 1.21980047226 0.966459751129 0.96824747324 1.18459331989 1.31594860554 1.43780004978 1.55842661858 1.55838763714 1.43771421909 1.25142407417 1.18452644348 0.968278825283 0.970650196075 1.10730302334 1.233751297 1.35897219181 1.48723900318 1.48723995686 1.35887658596 1.1709228754 1.10723996162 0.970690667629 0.972684025764 1.04614746571 1.16351377964 1.29234480858 1.40109813213 1.40100932121 1.29233598709 1.09818005562 1.0460883379 0.972743272781 0.981678843498 1.00583517551 1.03194475174 1.08579933643 1.16878223419 1.16887617111 1.08561658859 1.02281844616 1.00580453873 0.981732428074 
