0.981995582581 1.00628304482 1.03126478195 1.07923340797 1.16099393368 1.16096520424 1.07917153835 1.02284324169 1.00625312328 0.982047319412 0.97312194109 1.04700779915 1.15700101852 1.29512345791 1.41542077065 1.415391922 1.2950116396 1.09768247604 1.04695522785 0.973180532455 0.970689833164 1.13897359371 1.26933038235 1.4139469862 1.55633926392 1.55631160736 1.41383194923 1.20656311512 1.13890445232 0.970728695393 0.968746900558 1.18499565125 1.31619954109 1.44768214226 1.57475435734 1.57472240925 1.44759273529 1.2534635067 1.18493044376 0.968778431416 0.96679276228 1.22128820419 1.35652697086 1.48432803154 1.59493803978 1.5949113369 1.48424899578 1.29292738438 1.22121727467 0.966824531555 0.966793656349 1.22127580643 1.35651147366 1.48430395126 1.59513533115 1.59509754181 1.48421442509 1.29292285442 1.22120451927 0.966825246811 0.968751251698 1.18493950367 1.31615102291 1.44756126404 1.57497560978 1.57492470741 1.44746398926 1.25342071056 1.18487334251 0.968782126904 0.971170008183 1.10714256763 1.22974610329 1.36340332031 1.50466167927 1.50465905666 1.36329126358 1.16981649399 1.10708034039 0.971210122108 0.973130106926 1.04690289497 1.15684247017 1.29523146152 1.4156473875 1.41553997993 1.29523384571 1.09754598141 1.04684507847 0.973188996315 0.982027113438 1.00623810291 1.03118991852 1.07892942429 1.16066396236 1.16078388691 1.07873606682 1.02278447151 1.00620830059 0.982080340385 
0.981984376907 1.00608956814 1.03100347519 1.0789232254 1.16060626507 1.16057741642 1.07886147499 1.02257549763 1.00605988503 0.982036173344 0.973108291626 1.04675555229 1.15673243999 1.29483175278 1.41509413719 1.41506564617 1.29472005367 1.09740269184 1.0467031002 0.973166942596 0.970670461655 1.13868701458 1.26906275749 1.41359603405 1.55744969845 1.55742251873 1.41348099709 1.20628774166 1.13861811161 0.970709562302 0.968723833561 1.1846922636 1.31591320038 1.44734382629 1.57674336433 1.57671356201 1.44725453854 1.25319588184 1.18462717533 0.968755424023 0.966769993305 1.22098505497 1.3561784029 1.48409724236 1.59963595867 1.59961092472 1.48401892185 1.29264914989 1.22091388702 0.966801822186 0.966770887375 1.22097253799 1.35616219044 1.48407483101 1.59989368916 1.59985506535 1.48398566246 1.29264366627 1.22090101242 0.966802537441 0.968728065491 1.18463635445 1.31586539745 1.44722425938 1.57701683044 1.57696628571 1.44712650776 1.25315368176 1.18456995487 0.968759059906 0.971150696278 1.1068533659 1.22945475578 1.36306333542 1.50433111191 1.50432908535 1.36295092106 1.16952526569 1.10679161549 0.971190810204 0.973116576672 1.04665076733 1.15657448769 1.29494082928 1.415320158 1.41521275043 1.29494357109 1.09726643562 1.04659307003 0.973175644875 0.982016086578 1.00604474545 1.03092873096 1.07861840725 1.16027736664 1.16039764881 1.07842493057 1.0225174427 1.00601530075 0.982069134712 
0.981984257698 1.00609004498 1.03100419044 1.07892453671 1.16060841084 1.16057944298 1.07886278629 1.02257621288 1.00606036186 0.98203587532 0.973108112812 1.04675650597 1.1567337513 1.29483342171 1.41509592533 1.4150673151 1.2947217226 1.09740376472 1.04670417309 0.973166644573 0.970670342445 1.13868844509 1.26906430721 1.41359841824 1.55745339394 1.55742609501 1.41348338127 1.20628917217 1.13861954212 0.970709383488 0.968723535538 1.18469381332 1.31591546535 1.44734632969 1.57674729824 1.57671761513 1.44725704193 1.25319778919 1.18462884426 0.968755185604 0.966769933701 1.22098660469 1.35618066788 1.48410022259 1.59964549541 1.5996209383 1.48402190208 1.29265117645 1.22091543674 0.966801583767 0.966770648956 1.22097432613 1.3561643362 1.48407757282 1.59990334511 1.5998647213 1.48398852348 1.29264569283 1.22090280056 0.966802477837 0.968728005886 1.18463802338 1.31586754322 1.44722664356 1.57702159882 1.57697081566 1.44712913036 1.25315570831 1.1845716238 0.968758940697 0.971150457859 1.10685455799 1.22945642471 1.36306536198 1.50433373451 1.50433170795 1.36295330524 1.16952681541 1.10679268837 0.97119051218 0.973116457462 1.04665148258 1.15657556057 1.29494249821 1.41532194614 1.41521453857 1.2949450016 1.09726774693 1.0465939045 0.973175406456 0.98201584816 1.00604510307 1.03092932701 1.07861959934 1.1602793932 1.16039943695 1.07842612267 1.02251780033 1.00601553917 0.982068955898 
0.981984138489 1.0060904026 1.03100466728 1.07892584801 1.16061043739 1.16058146954 1.07886385918 1.02257692814 1.00606060028 0.982035815716 0.973107993603 1.04675734043 1.15673494339 1.29483473301 1.41509771347 1.41506910324 1.29472303391 1.0974047184 1.04670500755 0.973166525364 0.970670223236 1.13868975639 1.26906633377 1.41360068321 1.55745720863 1.55742990971 1.41348576546 1.2062908411 1.13862061501 0.970709264278 0.968723297119 1.18469560146 1.31591725349 1.44734859467 1.5767531395 1.57672357559 1.44725930691 1.25319957733 1.18463039398 0.968755066395 0.966769456863 1.22098863125 1.35618281364 1.48410332203 1.59965527058 1.59963035583 1.48402476311 1.29265320301 1.2209174633 0.966801404953 0.966770410538 1.22097623348 1.35616660118 1.48408067226 1.59991323948 1.59987437725 1.48399138451 1.29264783859 1.22090470791 0.966802239418 0.968727827072 1.1846395731 1.31586968899 1.44722902775 1.5770277977 1.57697677612 1.44713175297 1.25315773487 1.18457329273 0.968758702278 0.97115033865 1.10685586929 1.22945809364 1.36306786537 1.50433540344 1.50433385372 1.3629553318 1.16952824593 1.10679399967 0.971190571785 0.973116338253 1.04665243626 1.15657675266 1.29494392872 1.41532385349 1.41521644592 1.29494667053 1.09726881981 1.04659473896 0.973175287247 0.982015788555 1.0060454607 1.03092992306 1.07862091064 1.16028130054 1.16040158272 1.07842755318 1.0225186348 1.00601601601 0.982068955898 
0.981984138489 1.00609076023 1.03100562096 1.07892692089 1.16061222553 1.16058337688 1.07886528969 1.02257740498 1.0060608387 0.982035756111 0.973107933998 1.04675793648 1.15673613548 1.29483616352 1.4150993824 1.41507077217 1.29472470284 1.09740579128 1.0467056036 0.973166406155 0.970670104027 1.1386911869 1.26906812191 1.4136030674 1.5574618578 1.55743467808 1.41348826885 1.2062921524 1.13862204552 0.970708906651 0.968723237514 1.18469715118 1.31591939926 1.44735109806 1.5767595768 1.57672965527 1.44726192951 1.25320136547 1.1846319437 0.968754827976 0.966769397259 1.22099041939 1.3561848402 1.48410618305 1.59966528416 1.599640131 1.48402798176 1.29265511036 1.22091925144 0.966801166534 0.966770291328 1.22097802162 1.35616850853 1.48408341408 1.59992277622 1.5998840332 1.48399424553 1.29264998436 1.22090649605 0.966802000999 0.968727529049 1.18464124203 1.31587183475 1.44723141193 1.57703602314 1.57698535919 1.44713425636 1.25315952301 1.18457472324 0.968758404255 0.97115033865 1.1068571806 1.22945952415 1.36306977272 1.50433802605 1.50433599949 1.36295711994 1.16952931881 1.10679519176 0.971190333366 0.973116159439 1.04665327072 1.15657806396 1.29494547844 1.415325284 1.41521799564 1.29494798183 1.09726977348 1.04659557343 0.973175168037 0.98201584816 1.00604581833 1.0309305191 1.07862210274 1.16028296947 1.16040325165 1.07842862606 1.02251911163 1.00601625443 0.982069015503 
0.981984078884 1.00609099865 1.03100597858 1.07892811298 1.16061401367 1.16058516502 1.07886636257 1.02257788181 1.00606107712 0.982035696507 0.973107814789 1.04675889015 1.15673720837 1.29483783245 1.41510140896 1.41507256031 1.29472613335 1.09740686417 1.04670643806 0.973166286945 0.970670044422 1.13869225979 1.26906967163 1.41360521317 1.55746972561 1.5574426651 1.41349041462 1.20629394054 1.13862323761 0.970708906651 0.968723058701 1.1846985817 1.31592166424 1.44735383987 1.57676815987 1.57673823833 1.44726443291 1.25320327282 1.18463337421 0.968754708767 0.966769218445 1.22099208832 1.35618698597 1.48410892487 1.59967458248 1.59964966774 1.48403084278 1.29265713692 1.22092092037 0.96680098772 0.96677005291 1.22097969055 1.3561706543 1.48408651352 1.59993267059 1.59989380836 1.48399710655 1.2926517725 1.2209084034 0.96680188179 0.96872740984 1.18464267254 1.3158737421 1.44723379612 1.57704460621 1.57699429989 1.44713652134 1.25316131115 1.18457639217 0.968758225441 0.971150100231 1.10685813427 1.22946095467 1.36307191849 1.50434064865 1.50433862209 1.36295950413 1.1695305109 1.10679626465 0.971190392971 0.973116159439 1.04665398598 1.15657901764 1.29494690895 1.41532707214 1.41521978378 1.29494953156 1.09727072716 1.04659628868 0.973174989223 0.982015728951 1.00604605675 1.03093111515 1.07862341404 1.16028499603 1.16040527821 1.07842981815 1.02251946926 1.00601661205 0.982068777084 
0.981983959675 1.00609135628 1.03100657463 1.07892918587 1.16061580181 1.16058695316 1.07886755466 1.02257847786 1.00606155396 0.982035636902 0.97310769558 1.0467594862 1.15673851967 1.29483914375 1.41510272026 1.41507411003 1.29472756386 1.09740781784 1.04670715332 0.973166286945 0.970669746399 1.1386936903 1.26907122135 1.41360759735 1.55747842789 1.55745089054 1.4134926796 1.20629549026 1.1386244297 0.970708608627 0.968722760677 1.18470025063 1.3159236908 1.44735610485 1.57677662373 1.5767468214 1.44726681709 1.25320529938 1.18463516235 0.968754529953 0.966768860817 1.22099387646 1.35618889332 1.48411178589 1.59968400002 1.59965884686 1.48403358459 1.29265904427 1.22092270851 0.966800808907 0.966769814491 1.2209815979 1.35617280006 1.48408925533 1.59994208813 1.5999032259 1.48400008678 1.29265367985 1.22091007233 0.966801643372 0.96872729063 1.18464422226 1.31587588787 1.44723629951 1.57705378532 1.57700276375 1.44713902473 1.25316309929 1.18457794189 0.968758106232 0.971149861813 1.10685920715 1.22946250439 1.36307394505 1.50434303284 1.50434112549 1.36296164989 1.16953194141 1.10679745674 0.971190154552 0.973115861416 1.04665482044 1.15658020973 1.29494845867 1.41532886028 1.4152213335 1.29495120049 1.09727191925 1.04659700394 0.973174929619 0.982015609741 1.00604641438 1.03093183041 1.07862448692 1.16028690338 1.16040682793 1.07843101025 1.02252018452 1.00601685047 0.98206871748 
