0.98212480545 1.02112257481 1.0593047142 1.12766313553 1.20188260078 1.2018558979 1.1275844574 1.04502105713 1.0210711956 0.982177972794 0.973475694656 1.06762742996 1.18535459042 1.29477310181 1.35772657394 1.35770249367 1.29468953609 1.12093865871 1.06755077839 0.973535180092 0.97156894207 1.15391623974 1.27371287346 1.36626636982 1.41576945782 1.41574621201 1.36617708206 1.21585190296 1.15383136272 0.971608757973 0.970533311367 1.19733512402 1.3038469553 1.38463246822 1.42757308483 1.42755830288 1.38455629349 1.25626504421 1.19726550579 0.97056466341 0.969509363174 1.22962844372 1.32386052608 1.39715266228 1.43327593803 1.43326663971 1.39708721638 1.28348207474 1.22955965996 0.969538390636 0.969511270523 1.22961866856 1.32385194302 1.39714169502 1.43330490589 1.43329405785 1.39707410336 1.28347492218 1.22955000401 0.969540297985 0.970535874367 1.19728648663 1.30380880833 1.38456583023 1.42758071423 1.42756330967 1.38448739052 1.25622165203 1.19721806049 0.970567107201 0.97197419405 1.12559878826 1.24962496758 1.35225439072 1.40991473198 1.4099034071 1.35216343403 1.18558573723 1.12552440166 0.972015857697 0.973480701447 1.06753706932 1.18525481224 1.29473173618 1.35775780678 1.35770368576 1.2946690321 1.12085819244 1.06746196747 0.973539888859 0.98215252161 1.02107083797 1.05925238132 1.12751114368 1.20164775848 1.20170736313 1.12739408016 1.04499399662 1.02102041245 0.982204675674 
0.981473326683 1.00953924656 1.04263436794 1.10566759109 1.17938888073 1.17936646938 1.10559570789 1.02852833271 1.00950169563 0.981526494026 0.972418367863 1.05250966549 1.1678917408 1.28272461891 1.37982141972 1.37980175018 1.2826526165 1.10395359993 1.05244493484 0.972478866577 0.969768166542 1.13716614246 1.2716370821 1.39458525181 1.48593997955 1.48592090607 1.39451694489 1.20109772682 1.13708746433 0.969810903072 0.96830201149 1.18032670021 1.315497756 1.42438769341 1.50482428074 1.50480830669 1.42432510853 1.24390172958 1.1802546978 0.968335747719 0.966999530792 1.21438765526 1.35205483437 1.45020413399 1.51766777039 1.51765584946 1.45014739037 1.27931559086 1.21431303024 0.967029809952 0.967001438141 1.21437823772 1.3520462513 1.45018589497 1.5177295208 1.51771354675 1.45012462139 1.279312253 1.21430397034 0.967031657696 0.968305528164 1.18028008938 1.31545841694 1.42430436611 1.50487685204 1.5048545599 1.4242374897 1.24386847019 1.18020927906 0.968339145184 0.970298409462 1.10886907578 1.23549520969 1.35316431522 1.45927166939 1.45926582813 1.35309147835 1.16893041134 1.10880172253 0.970342874527 0.972424685955 1.05242490768 1.16777980328 1.28273904324 1.37990438938 1.37983906269 1.28269934654 1.1038620472 1.05236244202 0.972484588623 0.981500208378 1.00949788094 1.04260289669 1.10547697544 1.17919802666 1.17927062511 1.10535693169 1.02851629257 1.00946140289 0.981551647186 
0.981397390366 1.00735104084 1.03947460651 1.10138750076 1.17455482483 1.17453312874 1.10131764412 1.02539718151 1.00731623173 0.981450438499 0.972300648689 1.04960131645 1.16444277763 1.27891945839 1.37660169601 1.37658405304 1.27884662151 1.10057580471 1.04953896999 0.972361266613 0.969533860683 1.13395810127 1.26822578907 1.39325225353 1.50494205952 1.50492882729 1.39318227768 1.19791960716 1.13388025761 0.969576895237 0.96794128418 1.17710649967 1.31251966953 1.4276072979 1.52940666676 1.5293930769 1.42755234241 1.24137330055 1.17703485489 0.967975437641 0.966531336308 1.21132349968 1.35140168667 1.46178865433 1.55007445812 1.55006527901 1.46174287796 1.27798950672 1.21124863625 0.966562628746 0.966533064842 1.21131420135 1.35139191151 1.4617664814 1.55017721653 1.55016195774 1.46171474457 1.27798724174 1.21123945713 0.966564178467 0.967944860458 1.17706036568 1.31247937679 1.42751741409 1.529509902 1.52948665619 1.42745673656 1.24133729935 1.17698967457 0.967979192734 0.970085561275 1.10565364361 1.23185062408 1.34855294228 1.4628765583 1.46287405491 1.34848284721 1.16539013386 1.10558748245 0.97013014555 0.972307264805 1.04951763153 1.16432857513 1.27893972397 1.37667882442 1.37661445141 1.27890086174 1.10048305988 1.04945766926 0.972367286682 0.981424033642 1.00731146336 1.03944683075 1.10119175911 1.17436981201 1.17444455624 1.10107171535 1.02538824081 1.00727796555 0.981474936008 
0.981386303902 1.00696015358 1.03890502453 1.10061120987 1.17367148399 1.17364931107 1.10054183006 1.0248298645 1.0069258213 0.981439232826 0.972283780575 1.04907894135 1.16381251812 1.27820265293 1.37588703632 1.37586963177 1.27813005447 1.09995317459 1.04901707172 0.972344577312 0.969494819641 1.1333796978 1.26763319969 1.3925498724 1.50778341293 1.50777006149 1.3924793005 1.1973528862 1.13330221176 0.969537913799 0.967880964279 1.17653024197 1.31191277504 1.42719483376 1.53414273262 1.5341296196 1.42714047432 1.24086284637 1.17645823956 0.967915356159 0.966447114944 1.21078145504 1.35106742382 1.46388363838 1.55821299553 1.5582048893 1.46383976936 1.27778291702 1.21070659161 0.966478288174 0.966448903084 1.2107719183 1.35105752945 1.46386170387 1.55833721161 1.55832207203 1.4638106823 1.27778077126 1.21069717407 0.966480195522 0.967884898186 1.17648410797 1.3118724823 1.42710542679 1.53426897526 1.53424537182 1.42704486847 1.24082708359 1.17641329765 0.967918992043 0.970047771931 1.10506618023 1.23121750355 1.34774696827 1.46221065521 1.4622092247 1.347676754 1.16479790211 1.10500025749 0.970092535019 0.972290277481 1.04899549484 1.16369795799 1.27822387218 1.37596213818 1.37589788437 1.27818512917 1.09986031055 1.04893612862 0.972350358963 0.981412827969 1.00692093372 1.03887832165 1.10041451454 1.17348730564 1.17356228828 1.10029470921 1.02482140064 1.00688779354 0.981464028358 
0.981384038925 1.00687682629 1.03878331184 1.10044538975 1.17348086834 1.1734585762 1.10037612915 1.02470862865 1.00684261322 0.981436789036 0.972280323505 1.04896771908 1.1636775732 1.27804732323 1.3757301569 1.37571251392 1.27797448635 1.09981882572 1.04890596867 0.972341001034 0.969486415386 1.13325691223 1.26751041412 1.3923842907 1.50814545155 1.50813233852 1.39231383801 1.19723021984 1.1331795454 0.969529807568 0.967867970467 1.17640864849 1.31178736687 1.42707920074 1.53507721424 1.53506469727 1.42702507973 1.24075353146 1.17633664608 0.967902302742 0.966428935528 1.21066880226 1.35099518299 1.46436405182 1.56027317047 1.56026530266 1.46432054043 1.27773821354 1.21059405804 0.966460287571 0.966430842876 1.21065950394 1.35098528862 1.46434247494 1.56040596962 1.56039071083 1.4642919302 1.27773630619 1.21058440208 0.966462016106 0.967871725559 1.17636239529 1.31174707413 1.42699027061 1.5352127552 1.53518903255 1.4269298315 1.24071776867 1.17629158497 0.967906236649 0.970039725304 1.10494089127 1.23108386993 1.34758639336 1.46208226681 1.46208119392 1.34751594067 1.16467261314 1.10487496853 0.970084488392 0.972286820412 1.04888439178 1.16356301308 1.27806866169 1.37580490112 1.37574052811 1.27802979946 1.09972608089 1.04882490635 0.972346961498 0.981410503387 1.00683784485 1.03875684738 1.10024833679 1.1732968092 1.17337203026 1.10012853146 1.02470016479 1.00680494308 0.981461524963 
0.981383383274 1.00685548782 1.03875243664 1.10040330887 1.17343246937 1.17341041565 1.10033416748 1.02467763424 1.00682139397 0.981436371803 0.972279191017 1.04893958569 1.16364312172 1.27800810337 1.37569046021 1.37567269802 1.27793526649 1.0997852087 1.04887759686 0.972339987755 0.969484210014 1.13322579861 1.26747858524 1.39234113693 1.50817549229 1.50816249847 1.39227080345 1.19719874859 1.1331486702 0.969527542591 0.967864394188 1.17637836933 1.31175756454 1.42704772949 1.53528904915 1.53527665138 1.42699348927 1.24072599411 1.17630648613 0.967898786068 0.966424047947 1.21064126492 1.35097825527 1.46450340748 1.56087040901 1.56086289883 1.46446025372 1.27772772312 1.21056628227 0.96645539999 0.9664260149 1.21063196659 1.35096800327 1.46448230743 1.56100714207 1.56099200249 1.4644317627 1.27772557735 1.21055698395 0.966457247734 0.967868208885 1.17633235455 1.3117171526 1.42695903778 1.5354282856 1.53540444374 1.42689847946 1.24069035053 1.17626142502 0.967902481556 0.970037579536 1.1049093008 1.23104941845 1.34754347801 1.46204698086 1.46204590797 1.34747302532 1.16463911533 1.10484349728 0.970082342625 0.972285866737 1.04885601997 1.16352856159 1.27802944183 1.37576544285 1.37570095062 1.27799069881 1.09969210625 1.04879653454 0.97234582901 0.981409847736 1.0068166256 1.03872585297 1.10020661354 1.17324852943 1.17332363129 1.10008656979 1.02466917038 1.00678360462 0.981460869312 
0.981382966042 1.00684928894 1.03874361515 1.10039150715 1.17341923714 1.17339682579 1.10032236576 1.02466869354 1.00681495667 0.981435954571 0.972278833389 1.04893136024 1.16363358498 1.27799725533 1.37567949295 1.37566173077 1.27792429924 1.09977555275 1.04886960983 0.972339749336 0.969483554363 1.13321733475 1.26746976376 1.39232909679 1.50816869736 1.50815570354 1.39225900173 1.19718980789 1.13313996792 0.969526708126 0.9678632617 1.17637014389 1.31175005436 1.427038908 1.53534579277 1.535333395 1.42698478699 1.24071907997 1.1762983799 0.96789753437 0.966422557831 1.21063435078 1.35097467899 1.46455442905 1.56107068062 1.56106317043 1.46451103687 1.27772593498 1.21055924892 0.966453850269 0.96642434597 1.21062481403 1.35096478462 1.46453356743 1.56120920181 1.56119394302 1.46448302269 1.27772414684 1.21054983139 0.966455698013 0.967867136002 1.1763241291 1.31170964241 1.42695009708 1.53548657894 1.53546273708 1.42688965797 1.24068307877 1.17625331879 0.967901408672 0.970036923885 1.10490059853 1.2310397625 1.34753096104 1.46203613281 1.46203529835 1.34746062756 1.16462922096 1.10483455658 0.970081806183 0.972285568714 1.04884803295 1.16351890564 1.27801859379 1.37575423717 1.37568986416 1.27798008919 1.09968245029 1.04878854752 0.972345590591 0.981409490108 1.0068103075 1.03871703148 1.10019469261 1.1732352972 1.17331051826 1.10007488728 1.02466034889 1.00677728653 0.981460511684 
