14.0003061295 13.7783641815 13.0408754349 11.8670883179 11.0770330429 11.077703476 11.8699741364 13.0434494019 13.7796287537 14.0003328323 21.9894371033 21.5966072083 20.5271511078 18.8428936005 17.6871547699 17.6880378723 18.8471908569 20.5307807922 21.5985450745 21.9895362854 29.9801521301 29.5214138031 28.5402431488 27.1321868896 26.125951767 26.1267242432 27.1358089447 28.5433444977 29.5233764648 29.9803066254 37.9820480347 37.6398887634 36.9917793274 36.1318206787 35.5342407227 35.5347099304 36.1339797974 36.9937438965 37.6412391663 37.9821891785 45.9986915588 45.8715362549 45.6459922791 45.3619041443 45.1674842834 45.1676330566 45.3626060486 45.646648407 45.8720207214 45.998752594 54.0213623047 54.1491966248 54.3759803772 54.6615943909 54.8573532104 54.8571777344 54.6608734131 54.3753089905 54.1487159729 54.0213012695 62.0379638672 62.3805809021 63.0297622681 63.8911628723 64.4898757935 64.4893951416 63.8890228271 63.0278015137 62.379234314 62.0378189087 70.0398330688 70.4986495972 71.4804458618 72.8902435303 73.8963317871 73.8956375122 72.8867034912 71.4773788452 70.4966888428 70.039680481 78.0305328369 78.4229049683 79.4921112061 81.176940918 82.3328323364 82.3319625854 81.1727981567 79.4884414673 78.4209594727 78.0304336548 86.0196762085 86.2410888672 86.9768371582 88.1479187012 88.9337463379 88.9333496094 88.1453475952 86.9741973877 86.2397994995 86.0196456909 
14.0000419617 13.7764644623 13.0374202728 11.8613786697 11.0706176758 11.0712881088 11.8642721176 13.0400009155 13.7777328491 14.0000724792 21.9891166687 21.5937614441 20.5206031799 18.8304576874 17.6703491211 17.6712379456 18.83477211 20.5242462158 21.5957069397 21.9892177582 29.9798316956 29.5181713104 28.5323467255 27.1158981323 26.0961284637 26.0969219208 27.1195487976 28.5354633331 29.5201454163 29.9799842834 37.9818115234 37.6373596191 36.9853897095 36.1165390015 35.5058937073 35.5063819885 36.1187210083 36.987361908 37.638710022 37.9819526672 45.9986000061 45.8705596924 45.6435699463 45.3558502197 45.1575012207 45.1576538086 45.3565597534 45.6442260742 45.8710441589 45.9986610413 54.0214500427 54.1501808167 54.3784294128 54.6676826477 54.867515564 54.8673324585 54.6669616699 54.3777427673 54.1496887207 54.0214004517 62.0382080078 62.3831176758 63.0361442566 63.9064559937 64.518157959 64.5176696777 63.9042663574 63.0341682434 62.3817710876 62.0380706787 70.0401535034 70.5018920898 71.4883270264 72.9065093994 73.925994873 73.9252853394 72.9029312134 71.4852600098 70.4999237061 70.0400161743 78.0308532715 78.4257583618 79.4986495972 81.1893081665 82.3494949341 82.3486175537 81.1851654053 79.4949569702 78.4237976074 78.0307540894 86.0199356079 86.2429885864 86.9802856445 88.1537857056 88.9404525757 88.9400634766 88.1511917114 86.9776382446 86.2416992188 86.0198974609 
14.0000419617 13.7764635086 13.0374116898 11.8613624573 11.0705909729 11.0712604523 11.8642539978 13.0399932861 13.7777328491 14.0000724792 21.9891166687 21.5937576294 20.5205917358 18.8304347992 17.6703166962 17.6712055206 18.8347473145 20.5242328644 21.5957050323 21.9892177582 29.9798316956 29.5181694031 28.5323390961 27.1158771515 26.0960865021 26.0968837738 27.1195259094 28.535451889 29.5201435089 29.9799842834 37.9818115234 37.6373558044 36.9853744507 36.1165161133 35.5058555603 35.5063476562 36.1187019348 36.9873542786 37.6387023926 37.9819564819 45.9986000061 45.8705558777 45.6435699463 45.355846405 45.1574859619 45.1576461792 45.3565483093 45.6442260742 45.8710441589 45.9986610413 54.0214500427 54.1501846313 54.3784255981 54.6676979065 54.8675270081 54.8673477173 54.6669692993 54.3777542114 54.1496925354 54.0214004517 62.0382080078 62.3831176758 63.0361480713 63.9064712524 64.5181884766 64.5177001953 63.9042854309 63.0341796875 62.3817672729 62.0380706787 70.0401535034 70.5018920898 71.4883422852 72.906539917 73.9260406494 73.9253158569 72.9029541016 71.4852600098 70.4999313354 70.0400161743 78.0308532715 78.4257583618 79.4986495972 81.1893310547 82.3495178223 82.3486480713 81.1851806641 79.494972229 78.4238052368 78.0307540894 86.0199356079 86.2429885864 86.9803085327 88.1537857056 88.9404830933 88.9401016235 88.1512069702 86.9776382446 86.2416992188 86.0198974609 
14.000043869 13.7764635086 13.0374069214 11.8613433838 11.07056427 11.071231842 11.8642368317 13.0399856567 13.7777309418 14.0000724792 21.9891166687 21.593755722 20.5205802917 18.830411911 17.6702823639 17.6711711884 18.8347244263 20.5242214203 21.595703125 21.9892177582 29.9798316956 29.518163681 28.532327652 27.115852356 26.0960426331 26.0968456268 27.1194953918 28.5354442596 29.5201358795 29.9799842834 37.9818115234 37.637348175 36.9853668213 36.1164932251 35.5058288574 35.5063171387 36.1186790466 36.9873390198 37.6387023926 37.9819564819 45.9986000061 45.8705558777 45.6435623169 45.3558349609 45.1574745178 45.1576309204 45.3565406799 45.6442337036 45.8710365295 45.9986610413 54.0214500427 54.1501846313 54.3784370422 54.6677055359 54.8675384521 54.8673553467 54.6669769287 54.377746582 54.1496963501 54.0214004517 62.0382080078 62.3831253052 63.0361633301 63.9064941406 64.5182113647 64.5177307129 63.9043235779 63.0341911316 62.3817672729 62.0380706787 70.0401535034 70.5018997192 71.4883575439 72.9065704346 73.9260787964 73.9253692627 72.9029769897 71.4852828979 70.4999313354 70.0400161743 78.0308532715 78.4257507324 79.4986724854 81.1893615723 82.3495483398 82.3486862183 81.1852035522 79.4949874878 78.4237976074 78.0307540894 86.0199356079 86.2429885864 86.9803085327 88.1538162231 88.9405059814 88.9401168823 88.1512298584 86.9776535034 86.2416992188 86.0198974609 
14.000043869 13.7764606476 13.0373983383 11.8613262177 11.0705347061 11.0712041855 11.8642215729 13.0399780273 13.7777309418 14.0000724792 21.9891166687 21.59375 20.5205688477 18.8303852081 17.670249939 17.6711387634 18.8346977234 20.5242099762 21.5957012177 21.9892177582 29.9798316956 29.5181617737 28.5323085785 27.1158256531 26.0960006714 26.0967979431 27.1194725037 28.5354290009 29.5201358795 29.9799842834 37.9818115234 37.6373443604 36.9853591919 36.1164703369 35.5057907104 35.5062789917 36.1186561584 36.9873313904 37.6386985779 37.9819564819 45.9986000061 45.8705558777 45.6435623169 45.3558273315 45.1574630737 45.1576156616 45.3565330505 45.6442184448 45.8710403442 45.9986610413 54.0214500427 54.150188446 54.3784370422 54.6677246094 54.8675537109 54.8673706055 54.6669769287 54.3777580261 54.1496963501 54.0214004517 62.0382080078 62.3831329346 63.0361709595 63.9065170288 64.5182571411 64.5177612305 63.9043388367 63.0341949463 62.3817749023 62.0380706787 70.0401535034 70.5018997192 71.4883575439 72.9065933228 73.9261245728 73.9253997803 72.9030075073 71.4852905273 70.4999237061 70.0400161743 78.0308532715 78.4257659912 79.4986724854 81.1893844604 82.3495788574 82.3487243652 81.1852264404 79.4949951172 78.4237976074 78.0307540894 86.0199356079 86.2429885864 86.9803085327 88.1538162231 88.9405288696 88.9401473999 88.1512451172 86.9776687622 86.2417068481 86.0198974609 
14.000043869 13.7764577866 13.0373897552 11.8613109589 11.0705060959 11.0711784363 11.8642044067 13.0399713516 13.7777271271 14.0000724792 21.9891166687 21.5937480927 20.5205574036 18.8303604126 17.6702156067 17.6711044312 18.8346748352 20.5241985321 21.5956993103 21.9892177582 29.9798316956 29.5181541443 28.5322990417 27.1158008575 26.0959529877 26.0967521667 27.1194419861 28.5354137421 29.5201320648 29.9799842834 37.9818115234 37.6373405457 36.9853515625 36.1164512634 35.5057640076 35.5062446594 36.1186332703 36.9873275757 37.6386947632 37.9819564819 45.9986000061 45.8705558777 45.6435546875 45.3558197021 45.1574516296 45.1576080322 45.3565254211 45.6442184448 45.8710403442 45.9986610413 54.0214500427 54.150188446 54.3784446716 54.66771698 54.8675575256 54.8673858643 54.6669960022 54.3777580261 54.1496963501 54.0214004517 62.0382080078 62.3831329346 63.0361747742 63.906539917 64.5182876587 64.5178070068 63.9043617249 63.0342102051 62.3817749023 62.0380706787 70.0401535034 70.501914978 71.4883804321 72.9066162109 73.9261703491 73.925453186 72.9030303955 71.4852981567 70.4999389648 70.0400161743 78.0308532715 78.4257659912 79.4986801147 81.189414978 82.3496398926 82.3487625122 81.185256958 79.4950027466 78.4238128662 78.0307540894 86.0199356079 86.2429885864 86.9803314209 88.1538391113 88.9405517578 88.9401702881 88.1512527466 86.9776687622 86.2417068481 86.0198974609 
14.000043869 13.7764587402 13.0373821259 11.8612937927 11.0704803467 11.0711488724 11.8641862869 13.0399637222 13.7777280807 14.0000724792 21.9891166687 21.59375 20.5205459595 18.8303375244 17.6701812744 17.6710700989 18.834651947 20.5241889954 21.5956954956 21.9892177582 29.9798316956 29.5181541443 28.532289505 27.11577034 26.095911026 26.0967121124 27.1194171906 28.5354061127 29.5201263428 29.9799842834 37.9818115234 37.6373405457 36.9853401184 36.1164207458 35.5057220459 35.5062103271 36.1186103821 36.9873161316 37.6386947632 37.9819564819 45.9986000061 45.8705558777 45.6435546875 45.3558120728 45.1574363708 45.1575889587 45.3565139771 45.6442146301 45.8710403442 45.9986610413 54.0214500427 54.1501922607 54.3784446716 54.6677360535 54.8675765991 54.8673973083 54.6670036316 54.3777580261 54.1497001648 54.021396637 62.0382080078 62.3831367493 63.0361976624 63.9065704346 64.5183181763 64.5178375244 63.9043807983 63.0342216492 62.381778717 62.0380706787 70.0401535034 70.501914978 71.4884033203 72.9066467285 73.9262161255 73.925491333 72.9030609131 71.4853134155 70.4999465942 70.0400161743 78.0308532715 78.4257736206 79.4986953735 81.1894454956 82.3496704102 82.3487930298 81.1852874756 79.4950180054 78.4238128662 78.0307540894 86.0199356079 86.2429885864 86.9803390503 88.1538391113 88.9405899048 88.9401931763 88.1512832642 86.9776763916 86.2417068481 86.0198974609 
