14.0019226074 13.7857198715 13.0241622925 11.887386322 11.2057514191 11.2063312531 11.8899612427 13.026799202 13.7870016098 14.0019397736 21.9903240204 21.6142482758 20.5576057434 19.1156845093 18.2316436768 18.2323799133 19.1189594269 20.5610523224 21.6161441803 21.9904212952 29.9816932678 29.5335960388 28.590379715 27.4005680084 26.6454544067 26.6460762024 27.4033126831 28.5932559967 29.5355072021 29.9818382263 37.983997345 37.6537094116 37.0374107361 36.3075408936 35.8497467041 35.8501281738 36.3092079163 37.0392036438 37.6550102234 37.9841270447 45.9992675781 45.8777046204 45.6641921997 45.421913147 45.2710342407 45.2711524963 45.4224624634 45.6647949219 45.878162384 45.9993209839 54.0207824707 54.1429748535 54.357585907 54.6010894775 54.7528839111 54.752746582 54.6005363464 54.3569755554 54.1425094604 54.0207328796 62.0360183716 62.366733551 62.9839820862 63.7150306702 64.1736297607 64.1732559204 63.7133636475 62.9821968079 62.3654289246 62.0358963013 70.0382919312 70.4864730835 71.430267334 72.6212921143 73.3765716553 73.3759765625 72.6185760498 71.4273986816 70.4845581055 70.0381469727 78.0296478271 78.4053573608 79.4619216919 80.9042739868 81.7883377075 81.7875747681 80.9010772705 79.458480835 78.4034729004 78.0295639038 86.0180740356 86.23387146 86.9939346313 88.1277542114 88.8074264526 88.8070983887 88.1251525879 86.9913787842 86.2326049805 86.0180435181 
14.0017166138 13.7848434448 13.0243854523 11.8886499405 11.206905365 11.2074842453 11.8912248611 13.0270204544 13.7861242294 14.0017356873 21.99010849 21.6128845215 20.5553836823 19.1102542877 18.2223625183 18.2231044769 19.1135368347 20.5588321686 21.6147842407 21.9902019501 29.9815101624 29.5318508148 28.5856781006 27.3883724213 26.6224155426 26.6230545044 27.3911418915 28.5885620117 29.5337677002 29.9816532135 37.9838638306 37.6521492004 37.0322380066 36.2917060852 35.8199539185 35.8203468323 36.2934150696 37.0340538025 37.6534614563 37.983997345 45.9992141724 45.8770446777 45.661857605 45.4139099121 45.2577362061 45.2578582764 45.4144744873 45.6624717712 45.8775024414 45.9992675781 54.0208320618 54.1436195374 54.3599319458 54.6091423035 54.7662734985 54.7661323547 54.6085624695 54.3593177795 54.1431655884 54.020778656 62.0361633301 62.3682899475 62.9891548157 63.7308731079 64.2034225464 64.2030258179 63.7291603088 62.9873428345 62.366985321 62.036026001 70.0384750366 70.4882125854 71.4349517822 72.6334915161 73.3995513916 73.3989334106 72.6307601929 71.4320678711 70.4863052368 70.0383453369 78.0298614502 78.4067153931 79.4641265869 80.9097061157 81.7975845337 81.7968139648 80.9064788818 79.4607086182 78.4048309326 78.0297775269 86.0182800293 86.2347488403 86.9937133789 88.1264648438 88.8062667847 88.8059234619 88.123878479 86.9911575317 86.2334899902 86.0182571411 
14.0017147064 13.7848405838 13.0243816376 11.8886375427 11.2068862915 11.2074670792 11.8912134171 13.0270147324 13.7861213684 14.0017328262 21.99010849 21.6128826141 20.5553703308 19.1102313995 18.222328186 18.2230701447 19.1135120392 20.5588207245 21.6147823334 21.9902019501 29.9815101624 29.5318431854 28.5856666565 27.388338089 26.6223659515 26.6230049133 27.3911075592 28.5885429382 29.5337638855 29.9816532135 37.9838638306 37.6521453857 37.0322265625 36.2916641235 35.8198699951 35.8202629089 36.2933692932 37.034034729 37.6534538269 37.983997345 45.9992141724 45.877040863 45.661857605 45.4138793945 45.2576828003 45.2578125 45.4144515991 45.6624679565 45.8774986267 45.9992675781 54.0208320618 54.1436309814 54.3599433899 54.609161377 54.766330719 54.7661819458 54.608581543 54.3593215942 54.1431655884 54.020778656 62.0361633301 62.3682975769 62.9891662598 63.7309188843 64.2034988403 64.2031173706 63.7291984558 62.9873542786 62.3669967651 62.0360221863 70.0384750366 70.4882202148 71.434967041 72.6335220337 73.3996124268 73.3989868164 72.6307830811 71.4320755005 70.4863128662 70.0383453369 78.0298614502 78.4067230225 79.4641494751 80.9097213745 81.7976150513 81.7968444824 80.9065093994 79.4607086182 78.4048309326 78.0297775269 86.0182800293 86.2347488403 86.9937210083 88.1264724731 88.8062744141 88.8059387207 88.1238861084 86.9911727905 86.2334899902 86.0182571411 
14.0017147064 13.7848386765 13.0243721008 11.8886203766 11.2068634033 11.2074432373 11.8911943436 13.0270032883 13.7861194611 14.0017328262 21.99010849 21.6128807068 20.5553569794 19.110206604 18.2223052979 18.2230472565 19.113494873 20.5588092804 21.614780426 21.9902019501 29.9815101624 29.5318431854 28.585647583 27.3883190155 26.6223335266 26.6229782104 27.3910865784 28.5885314941 29.5337562561 29.9816532135 37.9838638306 37.6521377563 37.0322151184 36.2916412354 35.8198356628 35.820224762 36.2933502197 37.0340309143 37.6534500122 37.983997345 45.9992141724 45.877040863 45.6618499756 45.4138717651 45.2576751709 45.2577972412 45.4144439697 45.6624526978 45.8774986267 45.9992675781 54.0208320618 54.1436271667 54.3599472046 54.609172821 54.7663345337 54.7661972046 54.6086044312 54.3593215942 54.1431694031 54.020778656 62.0361633301 62.3682975769 62.9891815186 63.7309341431 64.2035293579 64.2031478882 63.7292289734 62.987361908 62.3669967651 62.0360221863 70.0384750366 70.4882278442 71.4349899292 72.6335372925 73.3996353149 73.399017334 72.6308059692 71.4320983887 70.4863052368 70.0383453369 78.0298614502 78.4067230225 79.4641571045 80.9097442627 81.7976379395 81.796875 80.9065246582 79.460723877 78.404838562 78.0297775269 86.0182800293 86.2347412109 86.9937362671 88.1264877319 88.8062973022 88.8059692383 88.1238937378 86.9911880493 86.2334899902 86.0182571411 
14.0017147064 13.7848377228 13.0243635178 11.8886013031 11.2068414688 11.2074213028 11.8911771774 13.0269994736 13.7861175537 14.0017347336 21.99010849 21.6128730774 20.5553474426 19.1101875305 18.2222747803 18.2230186462 19.1134700775 20.558795929 21.6147766113 21.9902019501 29.9815101624 29.5318393707 28.5856399536 27.3882923126 26.6223049164 26.6229496002 27.3910636902 28.5885219574 29.5337562561 29.9816532135 37.9838638306 37.652141571 37.0321998596 36.2916183472 35.8198013306 35.8201904297 36.2933273315 37.0340156555 37.6534500122 37.983997345 45.9992141724 45.8770370483 45.6618461609 45.413860321 45.2576560974 45.2577819824 45.4144325256 45.6624526978 45.8774986267 45.9992675781 54.0208320618 54.1436309814 54.3599472046 54.6091842651 54.7663574219 54.7662086487 54.6086044312 54.3593292236 54.1431732178 54.020778656 62.0361633301 62.368309021 62.9891853333 63.7309570312 64.2035675049 64.2031784058 63.7292442322 62.9873733521 62.366985321 62.0360221863 70.038482666 70.4882354736 71.4349822998 72.6335678101 73.3996734619 73.3990478516 72.6308288574 71.4321136475 70.4863128662 70.0383453369 78.0298614502 78.4067306519 79.4641647339 80.9097595215 81.7976455688 81.7968978882 80.906539917 79.460723877 78.404838562 78.0297775269 86.0182800293 86.2347488403 86.9937362671 88.1265106201 88.8063354492 88.8059921265 88.123916626 86.9911804199 86.2334899902 86.0182571411 
14.0017166138 13.7848348618 13.0243558884 11.888584137 11.2068185806 11.2073974609 11.8911590576 13.0269889832 13.7861166 14.0017347336 21.99010849 21.6128730774 20.5553359985 19.1101646423 18.2222518921 18.2229938507 19.1134490967 20.5587863922 21.6147766113 21.9902000427 29.9815101624 29.531835556 28.5856285095 27.3882694244 26.6222705841 26.62292099 27.3910388947 28.5885105133 29.5337524414 29.9816532135 37.9838638306 37.6521377563 37.0321922302 36.291595459 35.8197631836 35.8201560974 36.2933044434 37.0340156555 37.6534461975 37.983997345 45.9992141724 45.8770370483 45.6618499756 45.4138450623 45.2576446533 45.2577667236 45.4144210815 45.6624526978 45.8774986267 45.9992675781 54.0208320618 54.1436309814 54.3599472046 54.6091957092 54.7663612366 54.7662315369 54.6086273193 54.3593254089 54.1431732178 54.020778656 62.0361633301 62.3682975769 62.9891967773 63.7309799194 64.2036056519 64.2032165527 63.7292709351 62.9873809814 62.3669891357 62.0360221863 70.038482666 70.4882354736 71.4350128174 72.6335830688 73.3997039795 73.3990707397 72.6308517456 71.4321289062 70.4863128662 70.0383453369 78.0298614502 78.4067306519 79.4641799927 80.9097747803 81.7976837158 81.7969284058 80.9065628052 79.4607391357 78.404838562 78.0297775269 86.0182800293 86.2347488403 86.9937515259 88.1265411377 88.806350708 88.806022644 88.1239395142 86.9912033081 86.233505249 86.0182571411 
14.0017166138 13.7848339081 13.0243473053 11.8885660172 11.2067928314 11.2073745728 11.8911409378 13.0269823074 13.7861156464 14.0017347336 21.99010849 21.6128692627 20.5553264618 19.1101417542 18.2222251892 18.2229652405 19.1134300232 20.5587749481 21.6147708893 21.9902000427 29.9815101624 29.5318279266 28.5856170654 27.3882427216 26.6222381592 26.622882843 27.3910121918 28.5884971619 29.533744812 29.9816532135 37.9838638306 37.6521339417 37.0321846008 36.2915687561 35.8197288513 35.8201255798 36.2932739258 37.033996582 37.6534423828 37.983997345 45.9992141724 45.8770332336 45.6618423462 45.4138298035 45.2576293945 45.2577514648 45.4144058228 45.6624450684 45.8774986267 45.9992675781 54.0208320618 54.1436347961 54.3599472046 54.6092147827 54.7663764954 54.766242981 54.6086349487 54.3593330383 54.1431770325 54.020778656 62.0361633301 62.3683052063 62.9892082214 63.7310066223 64.2036437988 64.2032470703 63.7293014526 62.9874000549 62.3670043945 62.0360221863 70.038482666 70.4882354736 71.4350280762 72.633605957 73.3997344971 73.3991088867 72.6308746338 71.4321365356 70.4863204956 70.0383453369 78.0298614502 78.4067306519 79.4641876221 80.9097900391 81.797706604 81.7969512939 80.9065856934 79.4607315063 78.4048461914 78.0297775269 86.0182800293 86.2347564697 86.9937515259 88.1265563965 88.8063583374 88.8060379028 88.1239624023 86.9912109375 86.233505249 86.0182571411 
