1.0 1.00000011921 0.99819457531 1.04848718643 1.0934112072 1.09339356422 1.04841816425 1.00000023842 1.0 1.0 0.999999940395 1.00255846977 1.07492446899 1.12888491154 1.14399194717 1.14398431778 1.12884485722 1.03625535965 1.00252306461 1.0 1.0 1.05416333675 1.1138972044 1.14580976963 1.15433514118 1.15433013439 1.14578855038 1.0934356451 1.05408990383 1.00000011921 1.0 1.08236432076 1.12558436394 1.1493023634 1.15605604649 1.15605318546 1.14928734303 1.11180984974 1.08229994774 1.00000011921 1.0 1.09821975231 1.13158643246 1.15133810043 1.15674602985 1.15674436092 1.15132713318 1.1211758852 1.0981606245 1.00000011921 1.0 1.09821367264 1.13158285618 1.15133583546 1.15675020218 1.15674805641 1.15132415295 1.12117183208 1.09815478325 1.00000011921 1.0 1.08232879639 1.12556707859 1.14928781986 1.15605485439 1.15605175495 1.14927232265 1.11178600788 1.082264781 1.0 1.0 1.03739476204 1.10853683949 1.14474475384 1.15435039997 1.15434741974 1.14472317696 1.08157157898 1.03732204437 1.00000011921 1.0 1.00252640247 1.07485795021 1.12886142731 1.14399957657 1.14398658276 1.12882637978 1.03618645668 1.00249147415 1.00000011921 1.0 1.00000011921 0.998183488846 1.04839420319 1.09324705601 1.09327054024 1.04830920696 1.00000011921 1.0 0.999999940395 
1.0 1.00000011921 0.99819457531 1.04848718643 1.09668421745 1.09666359425 1.04841816425 1.00000023842 1.0 1.0 0.999999940395 1.00255846977 1.07810544968 1.16990482807 1.2317289114 1.23171269894 1.16984009743 1.03625535965 1.00252306461 1.0 1.0 1.05431687832 1.15674459934 1.2399238348 1.2774027586 1.27739036083 1.23986446857 1.10178124905 1.05424308777 1.00000011921 1.0 1.08712363243 1.18700861931 1.25476396084 1.28468680382 1.28467798233 1.25471377373 1.13524258137 1.08705818653 1.00000011921 1.0 1.11239123344 1.20710217953 1.26470005512 1.28821885586 1.28821349144 1.26465952396 1.16227722168 1.1123290062 1.00000011921 1.0 1.11238336563 1.2070953846 1.2646920681 1.28823494911 1.28822863102 1.26465010643 1.16227185726 1.11232089996 1.00000011921 1.0 1.08708262444 1.18697750568 1.25471556187 1.28469228745 1.28468191624 1.25466382504 1.13520646095 1.08701789379 1.0 1.0 1.03739476204 1.13053810596 1.2238162756 1.27240693569 1.27240025997 1.22374951839 1.08249878883 1.03732204437 1.00000011921 1.0 1.00252640247 1.07802927494 1.16988611221 1.23175680637 1.23171532154 1.16984224319 1.03618645668 1.00249147415 1.00000011921 1.0 1.00000011921 0.998183488846 1.04839420319 1.09649026394 1.09652495384 1.04830920696 1.00000011921 1.0 0.999999940395 
1.0 1.00000011921 0.99819457531 1.04848718643 1.09668421745 1.09666359425 1.04841816425 1.00000023842 1.0 1.0 0.999999940395 1.00255846977 1.07810544968 1.16993713379 1.24922657013 1.24920988083 1.16987252235 1.03625535965 1.00252306461 1.0 1.0 1.05431687832 1.15780746937 1.26299500465 1.33854472637 1.33852994442 1.2629352808 1.10178124905 1.05424308777 1.00000011921 1.0 1.08712363243 1.19456648827 1.28885257244 1.35417735577 1.35416483879 1.28879857063 1.13524258137 1.08705818653 1.00000011921 1.0 1.11239123344 1.22599184513 1.31045651436 1.36420512199 1.36419653893 1.31040847301 1.16296422482 1.1123290062 1.00000011921 1.0 1.11238336563 1.22598421574 1.31044113636 1.36424994469 1.36423826218 1.31038963795 1.16295993328 1.11232089996 1.00000011921 1.0 1.08708262444 1.19453203678 1.2887815237 1.35421454906 1.35419750214 1.2887237072 1.13520646095 1.08701789379 1.0 1.0 1.03739476204 1.13053810596 1.22964954376 1.31753003597 1.3175252676 1.22958266735 1.08249878883 1.03732204437 1.00000011921 1.0 1.00252640247 1.07802927494 1.16991972923 1.24928879738 1.24923396111 1.16987645626 1.03618645668 1.00249147415 1.00000011921 1.0 1.00000011921 0.998183488846 1.04839420319 1.09649026394 1.09652495384 1.04830920696 1.00000011921 1.0 0.999999940395 
1.0 1.00000011921 0.99819457531 1.04848718643 1.09668421745 1.09666359425 1.04841816425 1.00000023842 1.0 1.0 0.999999940395 1.00255846977 1.07810544968 1.16993713379 1.2495661974 1.24954998493 1.16987252235 1.03625535965 1.00252306461 1.0 1.0 1.05431687832 1.15780746937 1.26507937908 1.35851585865 1.35850322247 1.26501953602 1.10178124905 1.05424308777 1.00000011921 1.0 1.08712363243 1.19456648827 1.29528594017 1.37952625751 1.37951469421 1.29523694515 1.13524258137 1.08705818653 1.00000011921 1.0 1.11239123344 1.22829055786 1.32344722748 1.39569282532 1.3956849575 1.3234051466 1.16296422482 1.1123290062 1.00000011921 1.0 1.11238336563 1.22828185558 1.32342839241 1.39576768875 1.39575505257 1.32338142395 1.16295993328 1.11232089996 1.00000011921 1.0 1.08708262444 1.19453203678 1.29520797729 1.37959897518 1.37958037853 1.29515433311 1.13520646095 1.08701789379 1.0 1.0 1.03739476204 1.13053810596 1.22964954376 1.32558441162 1.32558083534 1.22958266735 1.08249878883 1.03732204437 1.00000011921 1.0 1.00252640247 1.07802927494 1.16991972923 1.24962961674 1.24957418442 1.16987645626 1.03618645668 1.00249147415 1.00000011921 1.0 1.00000011921 0.998183488846 1.04839420319 1.09649026394 1.09652495384 1.04830920696 1.00000011921 1.0 0.999999940395 
1.0 1.00000011921 0.99819457531 1.04848718643 1.09668421745 1.09666359425 1.04841816425 1.00000023842 1.0 1.0 0.999999940395 1.00255846977 1.07810544968 1.16993713379 1.2495661974 1.24954998493 1.16987252235 1.03625535965 1.00252306461 1.0 1.0 1.05431687832 1.15780746937 1.26507937908 1.36464095116 1.36462974548 1.26501953602 1.10178124905 1.05424308777 1.00000011921 1.0 1.08712363243 1.19456648827 1.29642176628 1.38799226284 1.38798117638 1.2963745594 1.13524258137 1.08705818653 1.00000011921 1.0 1.11239123344 1.22832643986 1.32767832279 1.40772795677 1.40772140026 1.32763886452 1.16296422482 1.1123290062 1.00000011921 1.0 1.11238336563 1.22831761837 1.32765817642 1.40782177448 1.40780937672 1.32761335373 1.16295993328 1.11232089996 1.00000011921 1.0 1.08708262444 1.19453203678 1.29634201527 1.38808572292 1.38806653023 1.29628932476 1.13520646095 1.08701789379 1.0 1.0 1.03739476204 1.13053810596 1.22964954376 1.32648181915 1.32647955418 1.22958266735 1.08249878883 1.03732204437 1.00000011921 1.0 1.00252640247 1.07802927494 1.16991972923 1.24962961674 1.24957418442 1.16987645626 1.03618645668 1.00249147415 1.00000011921 1.0 1.00000011921 0.998183488846 1.04839420319 1.09649026394 1.09652495384 1.04830920696 1.00000011921 1.0 0.999999940395 
1.0 1.00000011921 0.99819457531 1.04848718643 1.09668421745 1.09666359425 1.04841816425 1.00000023842 1.0 1.0 0.999999940395 1.00255846977 1.07810544968 1.16993713379 1.2495661974 1.24954998493 1.16987252235 1.03625535965 1.00252306461 1.0 1.0 1.05431687832 1.15780746937 1.26507937908 1.36668717861 1.36667633057 1.26501953602 1.10178124905 1.05424308777 1.00000011921 1.0 1.08712363243 1.19456648827 1.29656589031 1.39109003544 1.39107942581 1.29651916027 1.13524258137 1.08705818653 1.00000011921 1.0 1.11239123344 1.22832643986 1.32933473587 1.41266679764 1.41266047955 1.32929670811 1.16296422482 1.1123290062 1.00000011921 1.0 1.11238336563 1.22831761837 1.3293145895 1.41277098656 1.41275882721 1.32927060127 1.16295993328 1.11232089996 1.00000011921 1.0 1.08708262444 1.19453203678 1.29648590088 1.39119517803 1.39117574692 1.296433568 1.13520646095 1.08701789379 1.0 1.0 1.03739476204 1.13053810596 1.22964954376 1.32648432255 1.32648217678 1.22958266735 1.08249878883 1.03732204437 1.00000011921 1.0 1.00252640247 1.07802927494 1.16991972923 1.24962961674 1.24957418442 1.16987645626 1.03618645668 1.00249147415 1.00000011921 1.0 1.00000011921 0.998183488846 1.04839420319 1.09649026394 1.09652495384 1.04830920696 1.00000011921 1.0 0.999999940395 
1.0 1.00000011921 0.99819457531 1.04848718643 1.09668421745 1.09666359425 1.04841816425 1.00000023842 1.0 1.0 0.999999940395 1.00255846977 1.07810544968 1.16993713379 1.2495661974 1.24954998493 1.16987252235 1.03625535965 1.00252306461 1.0 1.0 1.05431687832 1.15780746937 1.26507937908 1.36744225025 1.36743175983 1.26501953602 1.10178124905 1.05424308777 1.00000011921 1.0 1.08712363243 1.19456648827 1.29656720161 1.3923535347 1.3923432827 1.29652047157 1.13524258137 1.08705818653 1.00000011921 1.0 1.11239123344 1.22832643986 1.33007705212 1.41489088535 1.41488516331 1.33003950119 1.16296422482 1.1123290062 1.00000011921 1.0 1.11238336563 1.22831761837 1.33005702496 1.41500151157 1.41498935223 1.33001327515 1.16295993328 1.11232089996 1.00000011921 1.0 1.08708262444 1.19453203678 1.29648709297 1.39246475697 1.39244496822 1.29643464088 1.13520646095 1.08701789379 1.0 1.0 1.03739476204 1.13053810596 1.22964954376 1.32648432255 1.32648217678 1.22958266735 1.08249878883 1.03732204437 1.00000011921 1.0 1.00252640247 1.07802927494 1.16991972923 1.24962961674 1.24957418442 1.16987645626 1.03618645668 1.00249147415 1.00000011921 1.0 1.00000011921 0.998183488846 1.04839420319 1.09649026394 1.09652495384 1.04830920696 1.00000011921 1.0 0.999999940395 
