13.9388389587 21.711730957 29.3029289246 37.1827545166 45.6454238892 54.3763961792 62.8376655579 70.7161407471 78.3074035645 86.080871582 13.9031219482 21.4808502197 28.5395011902 36.3722991943 45.3270454407 54.6963806152 63.6488761902 71.4785385132 78.537109375 86.1164627075 13.8816699982 21.318780899 28.065454483 35.9009361267 45.1295700073 54.8948326111 64.1205673218 71.9521636963 78.6981658936 86.137802124 13.8665266037 21.2196464539 27.8765354156 35.7066650391 45.0477676392 54.9770431519 64.3149719238 72.1409454346 78.7970504761 86.152885437 13.8557052612 21.1788234711 27.7979202271 35.6252059937 45.0141143799 55.0108604431 64.3964996338 72.2194824219 78.8377761841 86.1636657715 13.8557138443 21.178850174 27.7979736328 35.6252593994 45.0141487122 55.0108261108 64.3964385986 72.2194366455 78.8377532959 86.1636581421 13.8665676117 21.2198143005 27.8768463135 35.7070236206 45.0479049683 54.9769096375 64.3146209717 72.140625 78.7968978882 86.1528549194 13.8817110062 21.3191108704 28.0661849976 35.9016799927 45.1300239563 54.8943748474 64.1198196411 71.9514465332 78.697845459 86.1377639771 13.9031906128 21.4813213348 28.5411586761 36.3737678528 45.3277397156 54.695640564 63.6474227905 71.4768753052 78.5366516113 86.1163787842 13.9389820099 21.7124538422 29.3049125671 37.1853942871 45.6465873718 54.3752784729 62.8350410461 70.7142181396 78.3067016602 86.0807342529 
13.9362411499 21.7100067139 29.3117237091 37.1774673462 45.6325149536 54.3893737793 62.8428878784 70.7073440552 78.3091659546 86.0834655762 13.8979978561 21.4758319855 28.5224266052 36.284198761 45.2621688843 54.7615737915 63.7367973328 71.4954986572 78.5421447754 86.1215515137 13.8736448288 21.2933197021 27.9799079895 35.7105369568 45.0101280212 55.014881134 64.3107299805 72.0374755859 78.7235641479 86.1458129883 13.8548173904 21.1648654938 27.7129116058 35.4367713928 44.8944129944 55.1311645508 64.5846939087 72.3042373657 78.8516387939 86.1645431519 13.8414011002 21.1027622223 27.5882282257 35.3137969971 44.8457069397 55.1801223755 64.7077713013 72.4288101196 78.9135513306 86.1779174805 13.8414125443 21.1028022766 27.5883178711 35.3138771057 44.8457489014 55.180065155 64.7076797485 72.4287261963 78.9135131836 86.1779098511 13.8548660278 21.1651000977 27.713388443 35.4372825623 44.8946113586 55.1309585571 64.5841903687 72.3037490845 78.8514099121 86.1644973755 13.8736934662 21.2937088013 27.9808311462 35.711555481 45.0106811523 55.0143127441 64.3097305298 72.0365829468 78.7231750488 86.1457595825 13.8980751038 21.4763240814 28.5242214203 36.2858886719 45.263053894 54.7606430054 63.7351531982 71.4936904907 78.5416717529 86.1214828491 13.936378479 21.7106647491 29.3135623932 37.1802406311 45.6336746216 54.3882865906 62.8401031494 70.705619812 78.3085479736 86.0833206177 
13.9364147186 21.7112865448 29.3156242371 37.1818122864 45.6342582703 54.3876266479 62.8385429382 70.7034683228 78.3078842163 86.0832977295 13.8982133865 21.4784584045 28.5295314789 36.2907028198 45.2645111084 54.759223938 63.7302856445 71.4884033203 78.5395355225 86.1213378906 13.8739233017 21.2971172333 27.9897403717 35.719619751 45.0132255554 55.0117645264 64.3016433716 72.0276489258 78.7197799683 86.1455230713 13.8551778793 21.1696777344 27.7248821259 35.4473304749 44.897518158 55.1280517578 64.5741195679 72.2922744751 78.8468475342 86.1642074585 13.8418149948 21.1081409454 27.6012210846 35.3247795105 44.8475990295 55.1782112122 64.696762085 72.4158325195 78.9081954956 86.1774902344 13.8418273926 21.1081829071 27.6013126373 35.3248596191 44.8476486206 55.1781539917 64.6966705322 72.4157485962 78.9081573486 86.1774902344 13.8552265167 21.169916153 27.725353241 35.4478340149 44.8977279663 55.1278381348 64.5736083984 72.2918014526 78.8466110229 86.1641540527 13.8739719391 21.297504425 27.990650177 35.7206306458 45.0137939453 55.0111923218 64.3006439209 72.0267562866 78.7193908691 86.1454772949 13.8982849121 21.4789447784 28.5313243866 36.292388916 45.2653961182 54.7582855225 63.7286453247 71.4866027832 78.5390625 86.1212615967 13.9365530014 21.7119350433 29.317445755 37.1845855713 45.63539505 54.3865432739 62.8357582092 70.7017593384 78.3072662354 86.083152771 
13.9364185333 21.7113113403 29.3157081604 37.1819000244 45.6342964172 54.3875846863 62.8384552002 70.7033920288 78.3078613281 86.0832977295 13.8982162476 21.4785118103 28.5296764374 36.2908363342 45.2645530701 54.7591705322 63.7301445007 71.4882583618 78.5394744873 86.1213378906 13.8739299774 21.2971935272 27.989944458 35.7198143005 45.0132980347 55.0116958618 64.3014526367 72.0274429321 78.7197036743 86.1455230713 13.8551874161 21.1697807312 27.7251396179 35.4475631714 44.8975982666 55.1279678345 64.5738830566 72.2920227051 78.8467483521 86.1641998291 13.8418245316 21.108253479 27.6014995575 35.3250350952 44.8476867676 55.1781234741 64.6965026855 72.4155502319 78.9080657959 86.1774978638 13.841835022 21.1082954407 27.6015853882 35.3251152039 44.8477401733 55.178062439 64.6964263916 72.4154663086 78.9080352783 86.1774978638 13.8552341461 21.1700153351 27.7256088257 35.4480667114 44.8978004456 55.1277580261 64.5733795166 72.291557312 78.8465118408 86.1641387939 13.8739776611 21.297580719 27.9908561707 35.7208251953 45.0138626099 55.0111236572 64.3004455566 72.026550293 78.7193222046 86.1454772949 13.8982896805 21.4790000916 28.5314693451 36.2925262451 45.2654533386 54.7582397461 63.7285079956 71.4864425659 78.5390090942 86.1212692261 13.9365549088 21.7119636536 29.317522049 37.1846733093 45.635433197 54.3865127563 62.8356704712 70.701675415 78.3072357178 86.083152771 
13.9364185333 21.711309433 29.3156986237 37.1818885803 45.6342926025 54.3875808716 62.8384590149 70.7033920288 78.3078765869 86.0832977295 13.8982172012 21.4785060883 28.5296669006 36.2908287048 45.2645492554 54.7591781616 63.7301597595 71.4882736206 78.5394897461 86.1213378906 13.8739280701 21.2971858978 27.9899291992 35.7197914124 45.0132827759 55.0116958618 64.3014678955 72.0274581909 78.7197189331 86.1455230713 13.8551864624 21.1697731018 27.7251205444 35.4475440979 44.8975906372 55.1279754639 64.5739059448 72.2920379639 78.8467559814 86.1641998291 13.8418226242 21.108247757 27.601480484 35.3250083923 44.8476867676 55.1781272888 64.6965179443 72.4155654907 78.9080810547 86.1774978638 13.841835022 21.1082878113 27.601568222 35.3250923157 44.8477287292 55.1780738831 64.6964416504 72.4155044556 78.9080429077 86.1774978638 13.8552341461 21.1700057983 27.7255878448 35.4480476379 44.8977890015 55.1277580261 64.5733947754 72.2915725708 78.8465194702 86.1641387939 13.8739757538 21.2975730896 27.9908370972 35.7208099365 45.0138473511 55.011138916 64.3004608154 72.0265655518 78.7193222046 86.1454772949 13.8982896805 21.4789962769 28.5314617157 36.2925109863 45.2654457092 54.7582397461 63.728515625 71.4864654541 78.5390167236 86.1212692261 13.9365549088 21.7119655609 29.3175201416 37.1846694946 45.635433197 54.3865127563 62.8356781006 70.7016906738 78.3072433472 86.083152771 
13.9364185333 21.7113056183 29.315694809 37.1818809509 45.6342849731 54.3875961304 62.8384666443 70.7033996582 78.3078613281 86.0832977295 13.8982162476 21.4785022736 28.5296535492 36.2908096313 45.2645454407 54.7591781616 63.7301712036 71.4882736206 78.5394897461 86.1213378906 13.8739271164 21.2971782684 27.9899024963 35.7197761536 45.0132789612 55.0117073059 64.3014907837 72.0274810791 78.7197341919 86.1455230713 13.8551864624 21.1697616577 27.7250900269 35.4475212097 44.8975906372 55.127986908 64.5739364624 72.2920608521 78.8467636108 86.1641998291 13.8418235779 21.1082363129 27.6014518738 35.3249855042 44.8476715088 55.1781425476 64.6965560913 72.4156036377 78.9080963135 86.1774978638 13.841835022 21.1082744598 27.6015396118 35.3250694275 44.8477172852 55.1780815125 64.6964645386 72.4155273438 78.9080581665 86.1774978638 13.8552341461 21.1699962616 27.7255649567 35.4480247498 44.8977737427 55.1277694702 64.5734100342 72.291595459 78.8465270996 86.1641387939 13.8739767075 21.2975654602 27.9908180237 35.720790863 45.0138397217 55.0111312866 64.3004760742 72.0265808105 78.7193450928 86.1454772949 13.8982887268 21.4789886475 28.5314426422 36.2924957275 45.2654457092 54.7582435608 63.7285232544 71.4864730835 78.5390167236 86.1212692261 13.9365549088 21.7119598389 29.3175106049 37.1846542358 45.6354255676 54.3865127563 62.8356933594 70.7016983032 78.3072509766 86.083152771 
13.936416626 21.7113037109 29.3156814575 37.1818695068 45.6342849731 54.3875999451 62.8384780884 70.7033996582 78.3078689575 86.0832977295 13.8982152939 21.4784965515 28.5296325684 36.2907981873 45.2645378113 54.759185791 63.7301826477 71.4882888794 78.5394897461 86.1213378906 13.8739271164 21.297170639 27.9898891449 35.7197532654 45.0132751465 55.0117149353 64.3015136719 72.0275039673 78.7197265625 86.1455230713 13.8551855087 21.1697502136 27.725063324 35.4474945068 44.8975753784 55.1279983521 64.5739517212 72.2920913696 78.8467712402 86.1641921997 13.8418216705 21.1082248688 27.6014232635 35.324962616 44.8476600647 55.178150177 64.6965789795 72.4156341553 78.9081115723 86.1774902344 13.8418331146 21.1082649231 27.6015110016 35.3250389099 44.8477096558 55.1780929565 64.6964950562 72.4155654907 78.9080810547 86.1774978638 13.8552341461 21.1699848175 27.7255344391 35.4479980469 44.8977775574 55.1277809143 64.5734405518 72.2916259766 78.8465423584 86.1641387939 13.8739748001 21.2975597382 27.9907932281 35.7207717896 45.0138320923 55.0111465454 64.3004989624 72.0266113281 78.7193374634 86.1454772949 13.8982896805 21.4789829254 28.5314235687 36.2924804688 45.2654304504 54.7582473755 63.7285423279 71.4864883423 78.539024353 86.1212539673 13.9365539551 21.7119579315 29.3175029755 37.1846466064 45.6354255676 54.3865203857 62.8356971741 70.7017059326 78.3072509766 86.083152771 
