14.0025081635 13.7902612686 13.0361804962 11.8958969116 11.1948375702 11.1954250336 11.8985519409 13.0387916565 13.7915334702 14.0025234222 21.9917602539 21.6207504272 20.5756015778 19.1255149841 18.2282581329 18.2289886475 19.1288604736 20.5790157318 21.6226425171 21.9918479919 29.9836215973 29.554069519 28.6305732727 27.4548435211 26.7229290009 26.7235202789 27.4575576782 28.6333961487 29.555934906 29.9837532043 37.9860649109 37.6720695496 37.0754051208 36.3730697632 35.9322052002 35.9325561523 36.3746795654 37.0771369934 37.6733322144 37.9861946106 45.9999542236 45.8846931458 45.6806716919 45.4497528076 45.3045921326 45.3047180176 45.4502754211 45.6812438965 45.8851318359 46.0000076294 54.0200881958 54.1359481812 54.3410415649 54.5731582642 54.7191429138 54.7190246582 54.5726242065 54.340461731 54.1355056763 54.02003479 62.033946991 62.3483543396 62.9459686279 63.6495094299 64.091178894 64.0908203125 63.6478919983 62.9442405701 62.3471069336 62.0338249207 70.0363769531 70.4660186768 71.3900985718 72.5671310425 73.2993087769 73.2987213135 72.564453125 71.3872680664 70.4641647339 70.0362319946 78.028213501 78.3988723755 79.4440002441 80.8945922852 81.7919845581 81.7912597656 80.8913421631 79.4406051636 78.3969955444 78.0281448364 86.0174865723 86.2293243408 86.9818878174 88.1190872192 88.8178634644 88.8175811768 88.1164093018 86.9793930054 86.2280731201 86.0174560547 
14.0008411407 13.7809753418 13.0268821716 11.8830070496 11.175494194 11.1760959625 11.8856744766 13.0294952393 13.7822494507 14.0008649826 21.9899158478 21.6066017151 20.5454368591 19.0564556122 18.1140804291 18.1148662567 19.059928894 20.548915863 21.6085243225 21.9900131226 29.9819374084 29.5370750427 28.584148407 27.3384151459 26.5185317993 26.5192089081 27.3413658142 28.5870914459 29.5389938354 29.9820842743 37.9847793579 37.6577796936 37.0329666138 36.2642211914 35.763999939 35.764415741 36.2660293579 37.0348091125 37.6590843201 37.9849052429 45.9994697571 45.8789176941 45.6621398926 45.4060935974 45.2411766052 45.2413024902 45.4066886902 45.6627655029 45.8793792725 45.9995193481 54.0205764771 54.1417541504 54.3596763611 54.6170272827 54.7829856873 54.7828445435 54.6164207458 54.3590354919 54.141292572 54.0205307007 62.0352363586 62.362663269 62.988445282 63.7584266663 64.259513855 64.2591018677 63.7566108704 62.9865989685 62.3613624573 62.0351104736 70.0380477905 70.4830093384 71.4365158081 72.6835327148 73.5034866333 73.5028610229 72.6806182861 71.4335632324 70.4811019897 70.037902832 78.0300521851 78.4130096436 79.474105835 80.9635314941 81.9058761597 81.9050750732 80.960144043 79.4706420898 78.4111022949 78.0299606323 86.0191497803 86.2386016846 86.9911804199 88.1318130493 88.837020874 88.8367385864 88.1291122437 86.9887161255 86.2373580933 86.0191268921 
14.0007820129 13.7806386948 13.0265407562 11.8825807571 11.174943924 11.1755447388 11.8852481842 13.0291509628 13.7819128036 14.0008077621 21.9898471832 21.6060791016 20.5443325043 19.0541095734 18.1105175018 18.1113052368 19.0575866699 20.5478153229 21.6080036163 21.9899425507 29.9818763733 29.5364246368 28.5823879242 27.3342838287 26.5111522675 26.5118370056 27.3372402191 28.5853347778 29.5383415222 29.9820156097 37.9847259521 37.6572113037 37.0311813354 36.2591934204 35.7550888062 35.7555007935 36.261013031 37.033039093 37.6585235596 37.9848632812 45.9994430542 45.8786888123 45.6613693237 45.4036445618 45.2373847961 45.2375144958 45.4042472839 45.6619911194 45.8791465759 45.9995002747 54.0206069946 54.1419906616 54.3604621887 54.6194915771 54.786819458 54.7866744995 54.6188850403 54.3598327637 54.1415290833 54.0205535889 62.0352859497 62.3632278442 62.9902267456 63.7634506226 64.2684249878 64.2680053711 63.7616348267 62.9883613586 62.3619308472 62.0351600647 70.0381164551 70.4836578369 71.4382553101 72.6876602173 73.5108642578 73.5102081299 72.6847457886 71.435333252 70.4817581177 70.037979126 78.030128479 78.413520813 79.475189209 80.9658660889 81.9094314575 81.9086303711 80.9624786377 79.4717407227 78.4116210938 78.0300292969 86.0192108154 86.2389373779 86.9915237427 88.1322402954 88.8375778198 88.8372879028 88.1295394897 86.9890518188 86.2376937866 86.0191802979 
14.0007762909 13.7805995941 13.0264921188 11.8825139999 11.1748561859 11.1754579544 11.8851823807 13.0291032791 13.781873703 14.0008001328 21.9898414612 21.6060161591 20.5441932678 19.0538291931 18.1101074219 18.1108951569 19.057308197 20.5476799011 21.6079406738 21.9899368286 29.9818668365 29.5363445282 28.5821704865 27.3338031769 26.510351181 26.5110378265 27.3367576599 28.5851154327 29.5382633209 29.982011795 37.9847259521 37.6571464539 37.030960083 36.2585792542 35.7539672852 35.7543869019 36.2603988647 37.0328178406 37.658454895 37.9848518372 45.9994430542 45.87865448 45.6612625122 45.4033164978 45.2368812561 45.2370147705 45.40391922 45.6618919373 45.8791160583 45.9995002747 54.0205993652 54.1420211792 54.3605537415 54.6198196411 54.787322998 54.7871704102 54.6192092896 54.359916687 54.1415519714 54.0205497742 62.0352935791 62.3632965088 62.990436554 63.7640609741 64.2695388794 64.2691268921 63.7622451782 62.9885864258 62.3619766235 62.0351638794 70.0381164551 70.4837417603 71.4384765625 72.6881408691 73.5116577148 73.5110015869 72.685218811 71.4355392456 70.4818344116 70.0379867554 78.0301361084 78.4135894775 79.4753341675 80.9661331177 81.9098358154 81.9090423584 80.9627532959 79.4718780518 78.4116821289 78.0300369263 86.0192184448 86.2389678955 86.991569519 88.13230896 88.8376617432 88.8373794556 88.1295928955 86.9890975952 86.2377319336 86.0191955566 
14.0007762909 13.7805900574 13.0264749527 11.8824825287 11.1748199463 11.1754198074 11.8851528168 13.0290851593 13.7818660736 14.0007991791 21.9898414612 21.6059989929 20.5441532135 19.0537548065 18.1100006104 18.1107883453 19.0572319031 20.5476398468 21.607925415 21.9899368286 29.9818649292 29.53632164 28.582113266 27.3336811066 26.5101642609 26.510848999 27.3366355896 28.5850543976 29.5382423401 29.982006073 37.9847221375 37.6571273804 37.0309028625 36.2584228516 35.753704071 35.754119873 36.2602424622 37.0327682495 37.6584358215 37.9848518372 45.9994430542 45.8786468506 45.6612434387 45.4032325745 45.2367630005 45.2368927002 45.4038314819 45.6618690491 45.879108429 45.9995002747 54.0205993652 54.142036438 54.3605766296 54.6199150085 54.7874488831 54.7873001099 54.6192932129 54.3599357605 54.1415596008 54.0205497742 62.0352859497 62.3633079529 62.9904975891 63.7642211914 64.2698135376 64.2693939209 63.7624015808 62.9886360168 62.3620071411 62.0351638794 70.0381317139 70.483757019 71.4385452271 72.6882629395 73.5118484497 73.5111923218 72.6853485107 71.4355926514 70.4818572998 70.037979126 78.0301361084 78.4135894775 79.4753723145 80.966217041 81.9099349976 81.9091262817 80.9628295898 79.4719161987 78.4117050171 78.0300445557 86.0192260742 86.2389907837 86.9916000366 88.1323471069 88.8376998901 88.8374176025 88.1296310425 86.9891052246 86.2377471924 86.0191955566 
14.0007743835 13.7805862427 13.0264625549 11.8824615479 11.1747894287 11.1753921509 11.8851299286 13.0290765762 13.7818613052 14.0007991791 21.9898395538 21.6059932709 20.54413414 19.0537147522 18.1099510193 18.1107368469 19.0571918488 20.547618866 21.6079177856 21.9899368286 29.9818649292 29.536315918 28.5820846558 27.3336238861 26.5100803375 26.510766983 27.3365783691 28.5850334167 29.538230896 29.982006073 37.9847259521 37.657119751 37.0308799744 36.2583580017 35.7535972595 35.7540168762 36.2601776123 37.0327415466 37.6584281921 37.9848518372 45.9994430542 45.8786430359 45.6612281799 45.4032096863 45.2367095947 45.2368507385 45.4038047791 45.6618614197 45.879108429 45.9995002747 54.0205993652 54.1420288086 54.3605880737 54.6199417114 54.7874946594 54.7873458862 54.6193313599 54.3599433899 54.1415672302 54.0205497742 62.0352897644 62.363319397 62.9905166626 63.7642822266 64.2698974609 64.2695007324 63.762462616 62.988658905 62.3620223999 62.0351676941 70.0381317139 70.4837722778 71.4385681152 72.6883163452 73.511932373 73.5112686157 72.6854095459 71.4356231689 70.4818649292 70.037979126 78.0301361084 78.4136047363 79.475402832 80.966255188 81.9099960327 81.9091949463 80.9628753662 79.4719390869 78.4117126465 78.0300445557 86.0192260742 86.2389984131 86.9915924072 88.1323471069 88.8377227783 88.8374481201 88.1296539307 86.9891204834 86.2377471924 86.0191955566 
14.0007743835 13.7805843353 13.0264549255 11.8824415207 11.1747646332 11.1753644943 11.8851099014 13.0290651321 13.7818584442 14.0007972717 21.9898395538 21.6059875488 20.5441207886 19.0536842346 18.109910965 18.1106967926 19.0571632385 20.5476074219 21.6079101562 21.9899368286 29.9818649292 29.5363101959 28.582069397 27.3335857391 26.5100250244 26.5107135773 27.3365402222 28.5850124359 29.5382270813 29.9820079803 37.9847221375 37.6571159363 37.0308647156 36.2583122253 35.7535324097 35.7539520264 36.2601356506 37.0327186584 37.6584243774 37.9848556519 45.9994430542 45.8786468506 45.6612205505 45.4031791687 45.2366828918 45.2368164062 45.4037780762 45.6618499756 45.8791046143 45.9995002747 54.0205993652 54.1420326233 54.3605918884 54.6199569702 54.7875099182 54.7873649597 54.6193466187 54.3599624634 54.1415710449 54.0205497742 62.0352897644 62.3633308411 62.9905433655 63.7643280029 64.2699737549 64.2695541382 63.7625083923 62.9886817932 62.3620262146 62.0351676941 70.0381240845 70.4837646484 71.4385986328 72.6883468628 73.51197052 73.5113220215 72.6854476929 71.4356536865 70.4818725586 70.037979126 78.0301361084 78.4136199951 79.475402832 80.9662857056 81.9100341797 81.9092330933 80.9628982544 79.4719543457 78.4117126465 78.0300445557 86.0192260742 86.2389984131 86.9916152954 88.1323776245 88.8377609253 88.8374557495 88.1296768188 86.9891357422 86.2377471924 86.0191879272 
