14.0060749054 13.8103132248 13.0524234772 11.9402685165 11.2904615402 11.2909984589 11.9427623749 13.0550346375 13.8115768433 14.0060720444 21.9962005615 21.6564369202 20.6510353088 19.3123321533 18.5364379883 18.5370540619 19.3152980804 20.654291153 21.6582431793 21.996263504 29.9875659943 29.5947952271 28.7318096161 27.6873188019 27.0588493347 27.0593566895 27.6896476746 28.7344074249 29.596534729 29.9876804352 37.9890823364 37.7033691406 37.1619377136 36.5380706787 36.1556129456 36.1559181213 36.5394744873 37.1635055542 37.7045211792 37.9891891479 46.0011672974 45.8973312378 45.7147483826 45.508895874 45.3822479248 45.3823394775 45.5093612671 45.7152748108 45.8977279663 46.0012168884 54.0188674927 54.1232452393 54.3067741394 54.5136680603 54.6410484314 54.6409339905 54.5131988525 54.3062438965 54.1228523254 54.0188217163 62.0309257507 62.317024231 62.8593330383 63.4842605591 63.867401123 63.8670959473 63.4828567505 62.8577766418 62.3158760071 62.0308227539 70.0324172974 70.4252853394 71.2888793945 72.334526062 72.9632568359 72.9627532959 72.3322296143 71.2862854004 70.4235534668 70.0323028564 78.0237808228 78.3632125854 79.3686752319 80.7079315186 81.484046936 81.4834136963 80.7050323486 79.3654327393 78.3614273071 78.0237121582 86.0139312744 86.2092895508 86.9657211304 88.0752410889 88.7230834961 88.7227859497 88.0727386475 86.9631652832 86.2080612183 86.0139312744 
14.0021018982 13.7878656387 13.028383255 11.8994197845 11.2171401978 11.2177219391 11.9019918442 13.0310058594 13.7891426086 14.0021190643 21.9917144775 21.6211242676 20.5733566284 19.1317844391 18.2401771545 18.2409210205 19.1350803375 20.5767803192 21.6230144501 21.9918003082 29.9831905365 29.5511341095 28.6143455505 27.4209861755 26.6702404022 26.6708621979 27.4237365723 28.6172218323 29.5530128479 29.9833297729 37.9856109619 37.6651878357 37.0534744263 36.3293113708 35.8753623962 35.8757362366 36.3309669495 37.0552597046 37.6664772034 37.9857330322 45.9997329712 45.8812065125 45.669883728 45.4308700562 45.2815246582 45.2816429138 45.4314117432 45.6704750061 45.8816642761 45.9997787476 54.0203170776 54.1394462585 54.3518638611 54.592086792 54.7423286438 54.7421989441 54.5915412903 54.3512535095 54.1389884949 54.0202674866 62.0344047546 62.3552284241 62.967880249 63.6932487488 64.1479949951 64.1476287842 63.6915931702 62.9660987854 62.3539505005 62.0342750549 70.0368041992 70.4689331055 71.406288147 72.6009063721 73.3518371582 73.351234436 72.5981674194 71.4034042358 70.4670562744 70.0366744995 78.0282669067 78.3984985352 79.4462127686 80.8881912231 81.7798233032 81.7790679932 80.8849639893 79.4428024292 78.3966369629 78.0281677246 86.0178985596 86.2317199707 86.9897079468 88.1157150269 88.7959442139 88.7956237793 88.1131134033 86.9871826172 86.23046875 86.017868042 
14.0015907288 13.7850704193 13.0259447098 11.8961572647 11.2117528915 11.2123394012 11.8987321854 13.0285663605 13.7863464355 14.0016088486 21.9911365509 21.6167221069 20.5639152527 19.1103019714 18.205537796 18.2062969208 19.1136417389 20.5673561096 21.6186256409 21.9912242889 29.9826717377 29.5456600189 28.5986976624 27.3824710846 26.6009521484 26.6015968323 27.38530159 28.6016159058 29.5475540161 29.9828109741 37.9851989746 37.660446167 37.0386314392 36.2893867493 35.8132781982 35.8136711121 36.2911186218 37.0404663086 37.6617431641 37.9853210449 45.9995689392 45.8792610168 45.6632575989 45.4141960144 45.2570533752 45.2571716309 45.414768219 45.6638793945 45.8797187805 45.999622345 54.0204849243 54.1414031982 54.3585243225 54.6088523865 54.7669487 54.7668075562 54.6082687378 54.3578987122 54.1409378052 54.0204315186 62.0348167419 62.3599777222 62.9827384949 63.7331848145 64.2101211548 64.2097244263 63.731464386 62.9809112549 62.3586883545 62.0346908569 70.0373306274 70.4744033813 71.4219207764 72.6393814087 73.4210357666 73.4204025269 72.6365966797 71.4189987183 70.4725189209 70.0371932983 78.0288314819 78.4028930664 79.4556350708 80.9096221924 81.8143692017 81.8135986328 80.9063568115 79.4522018433 78.4010162354 78.0287475586 86.0184020996 86.2345199585 86.992149353 88.1189422607 88.80128479 88.8009643555 88.1163406372 86.9896316528 86.233253479 86.018371582 
14.0015068054 13.7846231461 13.0255537033 11.8956871033 11.2110118866 11.21159935 11.8982639313 13.0281734467 13.7858982086 14.0015249252 21.9910488129 21.6160106659 20.5623950958 19.1070041656 18.2004528046 18.201215744 19.1103458405 20.5658416748 21.6179122925 21.9911365509 29.9825801849 29.5447444916 28.5961761475 27.376411438 26.590215683 26.5908718109 27.3792572021 28.5990943909 29.5466442108 29.982717514 37.9851226807 37.6596336365 37.0360221863 36.2819824219 35.800868988 35.8012657166 36.2837219238 37.0378646851 37.6609344482 37.9852523804 45.9995346069 45.8789253235 45.662071228 45.4106788635 45.2517166138 45.2518463135 45.4112586975 45.662689209 45.8793869019 45.9995956421 54.0205039978 54.1417388916 54.3597221375 54.6123809814 54.7723197937 54.7721862793 54.6117897034 54.3590888977 54.1412734985 54.0204467773 62.0348892212 62.3607902527 62.9853477478 63.7406005859 64.2225341797 64.2221374512 63.7388496399 62.9835090637 62.3594856262 62.0347633362 70.0374298096 70.4753189087 71.424446106 72.6454391479 73.4317321777 73.4311065674 72.6426239014 71.4215316772 70.4734268188 70.0372848511 78.0289230347 78.4036178589 79.4571533203 80.9129257202 81.819442749 81.8186721802 80.90965271 79.4537200928 78.4017181396 78.0288467407 86.0184936523 86.2349700928 86.9925308228 88.119392395 88.8020172119 88.8016891479 88.1167907715 86.9900131226 86.2337112427 86.0184631348 
14.0014915466 13.7845287323 13.0254678726 11.8955812454 11.2108507156 11.211438179 11.8981580734 13.028087616 13.7858057022 14.0015096664 21.991027832 21.615858078 20.5620708466 19.1063308716 18.1994457245 18.2002086639 19.1096744537 20.5655174255 21.6177597046 21.9911155701 29.9825572968 29.5445461273 28.5956249237 27.3751564026 26.5881519318 26.5888061523 27.3780002594 28.5985469818 29.5464458466 29.9827022552 37.9851150513 37.6594581604 37.0354499817 36.2803268433 35.7979660034 35.7983703613 36.2820777893 37.0372848511 37.6607627869 37.985244751 45.9995346069 45.8788528442 45.6618041992 45.4098243713 45.2503890991 45.2505149841 45.4104042053 45.6624298096 45.8793144226 45.9995880127 54.0205078125 54.1418151855 54.3599815369 54.613243103 54.7736663818 54.773525238 54.6126556396 54.3593559265 54.1413574219 54.0204620361 62.0349006653 62.3609695435 62.9859199524 63.7422523499 64.2254333496 64.2250289917 63.7405014038 62.984085083 62.359664917 62.0347824097 70.0374298096 70.4755172729 71.4249801636 72.6466903687 73.4337997437 73.4331588745 72.6438827515 71.4220809937 70.4736251831 70.0372848511 78.0289459229 78.403755188 79.4574813843 80.9135971069 81.8204498291 81.8196716309 80.9103164673 79.4540405273 78.4018783569 78.0288772583 86.0185012817 86.2350616455 86.9926376343 88.1194992065 88.8021621704 88.8018493652 88.116897583 86.9900970459 86.233795166 86.0184631348 
14.0014858246 13.7845048904 13.025437355 11.8955421448 11.2107963562 11.2113819122 11.8981170654 13.0280590057 13.7857809067 14.0015039444 21.9910240173 21.6158180237 20.5619792938 19.1061515808 18.1991863251 18.1999454498 19.1094913483 20.5654277802 21.6177215576 21.9911117554 29.9825553894 29.5444927216 28.5954761505 27.3748283386 26.5876407623 26.5882968903 27.3776702881 28.5984020233 29.5463924408 29.9826908112 37.9851036072 37.6594047546 37.0352897644 36.279876709 35.7971572876 35.7975616455 36.2816200256 37.0371246338 37.6607170105 37.9852333069 45.9995346069 45.8788337708 45.6617355347 45.4095726013 45.2499923706 45.250125885 45.41015625 45.6623535156 45.8792915344 45.9995880127 54.0205154419 54.141834259 54.3600654602 54.6134910583 54.774055481 54.7739181519 54.6129074097 54.3594245911 54.1413726807 54.0204582214 62.0349082947 62.3610153198 62.9860839844 63.7426986694 64.226234436 64.2258377075 63.7409515381 62.984249115 62.3597106934 62.0347862244 70.037437439 70.4755706787 71.4251480103 72.6470184326 73.4343109131 73.4336700439 72.6442108154 71.4222259521 70.4736862183 70.0372924805 78.0289459229 78.4038085938 79.4575576782 80.9137802124 81.8207092285 81.8199310303 80.9105072021 79.4541320801 78.4019088745 78.0288772583 86.0185165405 86.2350692749 86.9926605225 88.1195373535 88.8022232056 88.8019104004 88.1169509888 86.9901504517 86.233833313 86.0184936523 
14.0014858246 13.7844963074 13.0254240036 11.8955173492 11.2107620239 11.2113494873 11.8980932236 13.0280437469 13.7857723236 14.0015048981 21.9910202026 21.6158027649 20.5619487762 19.1060810089 18.1990890503 18.1998519897 19.1094245911 20.5653877258 21.6177043915 21.991109848 29.9825534821 29.5444736481 28.5954227448 27.374710083 26.5874652863 26.5881214142 27.3775539398 28.5983409882 29.546377182 29.9826908112 37.9851036072 37.6593933105 37.0352287292 36.2797164917 35.7968826294 35.7972946167 36.2814674377 37.0370674133 37.660697937 37.9852333069 45.9995307922 45.8788223267 45.6617012024 45.4094848633 45.2498550415 45.2499923706 45.4100608826 45.6623306274 45.8792915344 45.9995880127 54.0205154419 54.1418418884 54.3600883484 54.6135826111 54.7742080688 54.774055481 54.612991333 54.3594474792 54.1413764954 54.0204582214 62.0349082947 62.3610305786 62.9861335754 63.7428588867 64.2265090942 64.2261047363 63.7411079407 62.9842948914 62.3597221375 62.0347862244 70.0374450684 70.4755859375 71.4251937866 72.6471405029 73.4344711304 73.4338378906 72.6443252563 71.4222793579 70.4736938477 70.0373001099 78.0289459229 78.4038162231 79.4576034546 80.9138412476 81.82081604 81.8200302124 80.9105682373 79.4541702271 78.4019317627 78.0288772583 86.0185165405 86.2350845337 86.9926605225 88.1195678711 88.8022537231 88.8019332886 88.1169509888 86.9901351929 86.2338409424 86.0184783936 
