2.26503753662 4.15517663956 7.38722848892 10.1947383881 11.6336565018 11.6325702667 10.1890382767 7.37915849686 4.14750862122 2.26490879059 2.2915763855 5.35280227661 10.3201198578 14.6153202057 16.7977828979 16.7961273193 14.606716156 10.3077459335 5.34088182449 2.29123544693 2.31177377701 6.17392778397 12.2203216553 17.3940849304 20.0914039612 20.0893363953 17.3836116791 12.2054424286 6.15919160843 2.31126999855 2.32370090485 6.6368598938 13.2164640427 18.8080940247 21.757314682 21.7550697327 18.7967300415 13.2003879547 6.62063217163 2.323097229 2.32989096642 6.85952472687 13.6832551956 19.4640083313 22.5238227844 22.5214977264 19.452255249 13.666636467 6.84261751175 2.32923531532 2.3298869133 6.85935640335 13.6829042435 19.4635028839 22.5232448578 22.5209197998 19.4517498016 13.6662883759 6.84245014191 2.32923150063 2.32367610931 6.63596487045 13.2145643234 18.80534935 21.7541370392 21.7518882751 18.7939949036 13.1984987259 6.61974334717 2.32307267189 2.31173634529 6.17232084274 12.2167644501 17.3890514374 20.084810257 20.0827789307 17.3786220551 12.2019042969 6.15759706497 2.31123256683 2.29151010513 5.35029935837 10.314125061 14.6066446304 16.7875900269 16.7859382629 14.5981016159 10.3017787933 5.33839941025 2.29117012024 2.26498150826 4.15152072906 7.37795305252 10.1801071167 11.6157217026 11.6148328781 10.1744451523 7.3699593544 4.14388370514 2.26485323906 
2.26576733589 3.99807310104 7.06597137451 9.83102321625 11.3068714142 11.305721283 9.82527160645 7.0581741333 3.99092054367 2.265645504 2.29163885117 5.19664525986 10.0307865143 14.3803672791 16.6957569122 16.6939640045 14.3713626862 10.0185556412 5.18517589569 2.29131197929 2.31491613388 6.0518155098 12.0196619034 17.3491191864 20.2411136627 20.238866806 17.3379878998 12.0047245026 6.03741073608 2.31440901756 2.33091306686 6.54273080826 13.1128149033 18.9030361176 22.058177948 22.0557422638 18.8909626007 13.0965147018 6.52671527863 2.33028316498 2.3389942646 6.78276062012 13.6352996826 19.6281414032 22.8977584839 22.895236969 19.6156539917 13.6183872223 6.76597499847 2.3383038044 2.33898854256 6.7825756073 13.6349039078 19.6275844574 22.8971233368 22.8946056366 19.6150970459 13.6179952621 6.76579189301 2.33829784393 2.33087992668 6.54176902771 13.1106958389 18.9000244141 22.0546989441 22.0522575378 18.8879642487 13.0944099426 6.52576351166 2.33025097847 2.31486654282 6.050116539 12.0158452988 17.3435668945 20.2339630127 20.2317638397 17.3324890137 12.0009450912 6.0357298851 2.31435990334 2.29156947136 5.19405889511 10.0245580673 14.3712120056 16.6846008301 16.6828365326 14.3623123169 10.012383461 5.18262672424 2.29124498367 2.26571536064 3.99457144737 7.05694818497 9.81632232666 11.2889785767 11.2880582809 9.81059455872 7.04930114746 3.98747420311 2.26559352875 
2.26586008072 3.92149710655 6.90712547302 9.64256763458 11.1216287613 11.1204681396 9.63683319092 6.8994717598 3.91460132599 2.26574206352 2.29097747803 5.11251783371 9.87320327759 14.2194423676 16.5790023804 16.5771427155 14.2103557587 9.86107826233 5.10129213333 2.29066181183 2.31414175034 5.97828483582 11.8896789551 17.2626152039 20.2790489197 20.2766723633 17.2511615753 11.8748054504 5.96407604218 2.31364655495 2.33032917976 6.48391342163 13.01425457 18.9092082977 22.2188949585 22.2162914276 18.896654129 12.9979248047 6.46804571152 2.32971024513 2.33894968033 6.73344659805 13.5600070953 19.6868801117 23.1208629608 23.1181755066 19.6738643646 13.5430011749 6.71678495407 2.33826613426 2.33894348145 6.73325538635 13.5595932007 19.6862926483 23.1201820374 23.1174964905 19.6732749939 13.5425891876 6.71659421921 2.33825969696 2.33029532433 6.48292016983 13.0120611191 18.9060173035 22.2151737213 22.2125701904 18.8934803009 12.9957475662 6.46706151962 2.32967710495 2.31409192085 5.97655391693 11.8857955933 17.2567863464 20.271572113 20.2692451477 17.245382309 11.870965004 5.96236419678 2.31359672546 2.29091024399 5.10992670059 9.86692142487 14.2101831436 16.5673828125 16.5655593872 14.2012271881 9.85486602783 5.09874773026 2.29059696198 2.26581048965 3.91810178757 6.89829206467 9.62786960602 11.1038246155 11.1029014587 9.62215328217 6.89083194733 3.91127586365 2.2656929493 
2.26587104797 3.89161992073 6.84445333481 9.56636810303 11.0438690186 11.0427083969 9.5606508255 6.83685588837 3.88482522964 2.26575493813 2.29068851471 5.0789604187 9.80931854248 14.1498022079 16.5172576904 16.5153827667 14.140704155 9.79724311829 5.06783437729 2.29037690163 2.31374526024 5.94875001907 11.8358879089 17.2133808136 20.271484375 20.2690486908 17.2018585205 11.8210496902 5.93461942673 2.31325531006 2.33010649681 6.4610452652 12.9753808975 18.9002895355 22.2843666077 22.2816753387 18.8875522614 12.95906353 6.44523525238 2.32949113846 2.33884429932 6.71576118469 13.5318374634 19.7072105408 23.2290344238 23.2262439728 19.6939506531 13.5148181915 6.69914054871 2.33816337585 2.3388376236 6.71556568146 13.5314159393 19.7065982819 23.2283210754 23.2255344391 19.6933441162 13.5143985748 6.69894647598 2.33815693855 2.33007216454 6.4600353241 12.9731607437 18.8970108032 22.2804946899 22.2778053284 18.8842926025 12.9568538666 6.44423675537 2.32945799828 2.31369543076 5.94700479507 11.8319797516 17.2074661255 20.2638549805 20.2614707947 17.1959915161 11.8171863556 5.93289470673 2.31320571899 2.29062175751 5.07636833191 9.80302238464 14.1405210495 16.5055217743 16.5036869049 14.1315546036 9.79102039337 5.06529188156 2.29031252861 2.265822649 3.88826799393 6.83570051193 9.5516834259 11.0261096954 11.0251846313 9.54597854614 6.82831430435 3.88154959679 2.26570653915 
2.2658727169 3.88109016418 6.8222784996 9.53916168213 11.0156936646 11.0145311356 9.53345108032 6.81470155716 3.87433123589 2.26575708389 2.290579319 5.06700325012 9.78639698029 14.1242589951 16.4932975769 16.4914207458 14.11515522 9.77433681488 5.05591344833 2.29026961327 2.31360030174 5.93818187714 11.8164262772 17.1939525604 20.2622203827 20.2597618103 17.1824207306 11.8015995026 5.92408132553 2.31311225891 2.33001923561 6.45307540894 12.9617109299 18.8951759338 22.3065757751 22.3038482666 18.8823795319 12.9453935623 6.43728733063 2.32940554619 2.33882975578 6.70990896225 13.5229730606 19.7147293091 23.272939682 23.2701053619 19.7013759613 13.5059509277 6.69330358505 2.33815002441 2.3388235569 6.7097120285 13.5225486755 19.7141075134 23.2722091675 23.2693767548 19.7007579803 13.5055294037 6.69310665131 2.33814382553 2.32998514175 6.45206069946 12.9594697952 18.8918571472 22.3026332855 22.2999076843 18.8790836334 12.9431734085 6.4362821579 2.32937192917 2.31354999542 5.93643379211 11.8125076294 17.1880149841 20.2545413971 20.2521400452 17.1765289307 11.7977304459 5.92235183716 2.31306242943 2.29051303864 5.06441259384 9.7800951004 14.1149702072 16.4815292358 16.4796943665 14.1060037613 9.76811218262 5.05337285995 2.29020547867 2.26582503319 3.87775444984 6.81355381012 9.52448177338 10.9979505539 10.9970264435 9.51878356934 6.80619430542 3.871073246 2.26570916176 
2.26587247849 3.87721395493 6.81409978867 9.52910804749 11.005241394 11.0040807724 9.5234003067 6.80653238297 3.87046861649 2.26575708389 2.290538311 5.06258296967 9.77789592743 14.1146879196 16.4841785431 16.4823036194 14.1055860519 9.76584625244 5.05150556564 2.29022884369 2.31354689598 5.93427085876 11.809223175 17.1865825653 20.2575931549 20.2551326752 17.1750431061 11.7944030762 5.9201798439 2.31305909157 2.32998538017 6.45018005371 12.9567308426 18.893075943 22.3144645691 22.3117237091 18.8802642822 12.9404201508 6.43439722061 2.32937192917 2.33882904053 6.70785856247 13.5199785233 19.7180290222 23.2907543182 23.287902832 19.7046413422 13.5029525757 6.69125747681 2.33814907074 2.33882260323 6.70766019821 13.5195512772 19.7174015045 23.290019989 23.2871646881 19.7040157318 13.5025281906 6.69105958939 2.33814263344 2.3299510479 6.44916296005 12.9544849396 18.8897476196 22.3104915619 22.3077487946 18.8769512177 12.9381895065 6.43339109421 2.32933783531 2.31349658966 5.93251895905 11.8053007126 17.1806354523 20.2498950958 20.2474880219 17.1691436768 11.7905292511 5.91844892502 2.31300854683 2.29047226906 5.05999183655 9.7715959549 14.1053962708 16.4724006653 16.4705619812 14.0964307785 9.75961875916 5.0489654541 2.29016494751 2.26582503319 3.87388467789 6.80538702011 9.51443004608 10.9875068665 10.9865808487 9.50873184204 6.79803657532 3.86721754074 2.26570940018 
2.26587224007 3.87565541267 6.81081151962 9.52505970001 11.0010299683 10.9998674393 9.5193529129 6.80324554443 3.86891508102 2.26575684547 2.2905216217 5.06080341339 9.77447414398 14.1108179092 16.4804668427 16.4785919189 14.1017150879 9.76242542267 5.04973173141 2.29021239281 2.31352615356 5.93269824982 11.8063287735 17.1835899353 20.2555427551 20.2530784607 17.1720485687 11.7915153503 5.91861104965 2.31303858757 2.3299715519 6.44903182983 12.9547595978 18.8922138214 22.3175754547 22.3148269653 18.8793926239 12.9384498596 6.43325328827 2.32935810089 2.33883047104 6.70706987381 13.5188646317 19.7195911407 23.298500061 23.2956390381 19.7061901093 13.5018367767 6.69046926498 2.33815050125 2.33882403374 6.70687007904 13.5184345245 19.718963623 23.2977542877 23.2948951721 19.7055644989 13.5014095306 6.69027137756 2.33814454079 2.32993674278 6.4480137825 12.9525117874 18.8888721466 22.3135814667 22.3108329773 18.8760719299 12.9362192154 6.43224525452 2.32932424545 2.31347608566 5.93094539642 11.8024082184 17.1776371002 20.2478351593 20.2454204559 17.1661434174 11.7876405716 5.91687965393 2.31298875809 2.29045534134 5.0582113266 9.76817131042 14.1015253067 16.4686813354 16.4668426514 14.0925579071 9.75619697571 5.04719161987 2.29014849663 2.26582455635 3.87232804298 6.80210256577 9.51038360596 10.9832954407 10.9823713303 9.50468635559 6.79475545883 3.8656668663 2.26570940018 
