2.26267623901 3.8620057106 6.77376842499 9.4642124176 10.9873447418 10.9861316681 9.45843887329 6.76630830765 3.85531067848 2.26257991791 2.28796410561 5.0790977478 9.75999546051 14.2240610123 16.7650508881 16.7630233765 14.2143716812 9.74792575836 5.06805419922 2.28766775131 2.31664872169 5.97135925293 11.8621234894 17.4686489105 20.7867698669 20.7841396332 17.4562492371 11.8470592499 5.95734167099 2.31613230705 2.33293104172 6.5044131279 13.0939950943 19.2861480713 22.9419631958 22.9390792847 19.2724723816 13.077293396 6.48855447769 2.33229255676 2.34228682518 6.77794647217 13.7052230835 20.1579399109 23.952205658 23.9492225647 20.1437416077 13.6877622604 6.76118040085 2.34157896042 2.34227967262 6.77772951126 13.7047510147 20.1572761536 23.9514427185 23.9484634399 20.143081665 13.6872987747 6.76096820831 2.3415722847 2.33289480209 6.50332832336 13.0915403366 19.2825813293 22.9377994537 22.9349193573 19.2689476013 13.0748739243 6.48748970032 2.33225727081 2.31659078598 5.96955299377 11.8579263687 17.4622554779 20.778339386 20.775806427 17.4499454498 11.8429517746 5.95556926727 2.31607317924 2.28788304329 5.07637691498 9.75347423553 14.2140846252 16.7521247864 16.7501907349 14.2046165466 9.74154186249 5.06541585922 2.28759074211 2.26263713837 3.85866641998 6.76502227783 9.44913578033 10.9688806534 10.9679946899 9.44335842133 6.75790452957 3.85209679604 2.26254105568 
2.26250743866 3.8080766201 6.65365600586 9.30504131317 10.8092250824 10.8080158234 9.29934120178 6.64632463455 3.80157113075 2.26241445541 2.28705811501 5.00690221786 9.6118183136 14.0405015945 16.5716094971 16.5695800781 14.0308504105 9.5998916626 4.99608469009 2.28677153587 2.3150677681 5.89097690582 11.7019414902 17.2674827576 20.590429306 20.5877780914 17.2551212311 11.6870412827 5.87719011307 2.31456613541 2.33099627495 6.42045068741 12.9269151688 19.0848140717 22.7762145996 22.7732696533 19.0711116791 12.9103860855 6.40482664108 2.33037543297 2.34022784233 6.69277477264 13.5359592438 19.9634857178 23.810333252 23.80727005 19.9492053986 13.5186710358 6.6762471199 2.33953881264 2.34022045135 6.6925611496 13.5354881287 19.9628124237 23.809551239 23.8064956665 19.9485454559 13.5182113647 6.67603635788 2.3395318985 2.33096075058 6.41937589645 12.9244832993 19.0812492371 22.7719764709 22.769033432 19.0675907135 12.907992363 6.40377426147 2.33034086227 2.31501054764 5.88918685913 11.6977834702 17.2611141205 20.5819950104 20.5794391632 17.2488422394 11.6829748154 5.875436306 2.31450843811 2.28697967529 5.00421905518 9.60533618927 14.0305757523 16.5586166382 16.5566921234 14.0211668015 9.59356307983 4.99349308014 2.28669786453 2.26247024536 3.80483961105 6.64511442184 9.29005336761 10.7909879684 10.7901182175 9.28433990479 6.63817453384 3.79847502708 2.2623770237 
2.26250600815 3.80770802498 6.65279579163 9.303855896 10.8078746796 10.8066673279 9.29815483093 6.6454668045 3.80120396614 2.26241207123 2.28705072403 5.00636863708 9.61068153381 14.0390357971 16.5700244904 16.5679988861 14.0293827057 9.59875583649 4.99555206299 2.2867641449 2.31505441666 5.89033985138 11.7006340027 17.2657489777 20.5885772705 20.5859203339 17.2533874512 11.6857299805 5.87655496597 2.31455302238 2.33097863197 6.41974163055 12.9254617691 19.0828781128 22.7741565704 22.7712059021 19.0691776276 12.9089355469 6.40412092209 2.33035778999 2.34020805359 6.69202661514 13.5344276428 19.961435318 23.8081455231 23.8050880432 19.9471549988 13.5171356201 6.67550086975 2.3395190239 2.34020090103 6.6918129921 13.5339565277 19.9607658386 23.8073711395 23.8043117523 19.9464912415 13.5166778564 6.67529010773 2.33951187134 2.3309431076 6.41866779327 12.9230298996 19.0793113708 22.7699127197 22.7669754028 19.065656662 12.9065437317 6.40306758881 2.33032345772 2.3149971962 5.88854932785 11.696472168 17.2593860626 20.5801391602 20.577583313 17.2471122742 11.6816625595 5.87480163574 2.31449484825 2.28697252274 5.0036854744 9.60420036316 14.0291118622 16.5570354462 16.555109024 14.0197000504 9.59243011475 4.99296236038 2.28669023514 2.26246833801 3.8044719696 6.64425706863 9.28886699677 10.7896404266 10.788772583 9.28315639496 6.63731718063 3.79810881615 2.26237535477 
2.26250553131 3.80772900581 6.65284729004 9.30392551422 10.8079519272 10.8067464828 9.29822444916 6.64551687241 3.80122447014 2.26241183281 2.28705120087 5.00639867783 9.61074733734 14.0391206741 16.5701198578 16.5680904388 14.0294685364 9.59882259369 4.9955830574 2.28676462173 2.31505537033 5.89037704468 11.7007102966 17.2658519745 20.5886859894 20.5860290527 17.253490448 11.6858062744 5.8765912056 2.31455349922 2.33097958565 6.41978311539 12.9255456924 19.0829925537 22.7742767334 22.7713241577 19.0692920685 12.9090194702 6.40416193008 2.33035898209 2.34020924568 6.692070961 13.5345153809 19.9615535736 23.8082752228 23.8052139282 19.9472770691 13.5172262192 6.67554426193 2.33952045441 2.34020209312 6.69185590744 13.5340423584 19.9608840942 23.8074951172 23.8044376373 19.9466114044 13.5167655945 6.67533302307 2.33951330185 2.33094406128 6.41870927811 12.9231157303 19.0794258118 22.7700328827 22.7670936584 19.0657711029 12.9066286087 6.40310907364 2.33032441139 2.31499791145 5.88858747482 11.6965503693 17.2594852448 20.5802459717 20.5776901245 17.2472114563 11.6817388535 5.87483882904 2.31449556351 2.28697299957 5.00371599197 9.60426616669 14.0291967392 16.5571231842 16.5552024841 14.0197868347 9.5924949646 4.99299287796 2.28669047356 2.26246833801 3.80449295044 6.6443066597 9.28893661499 10.7897186279 10.7888498306 9.28322410583 6.63736820221 3.7981300354 2.26237535477 
2.26250600815 3.80775141716 6.65289878845 9.30399894714 10.8080358505 10.8068304062 9.29829692841 6.64556980133 3.80124759674 2.26241254807 2.28705143929 5.00643205643 9.61081504822 14.0392103195 16.5702152252 16.5681858063 14.0295600891 9.59889125824 4.99561595917 2.28676509857 2.31505632401 5.89041566849 11.7007894516 17.2659549713 20.5887985229 20.5861415863 17.2535953522 11.6858863831 5.87663078308 2.31455469131 2.33098053932 6.41982650757 12.9256353378 19.083108902 22.7744007111 22.7714538574 19.0694103241 12.9091091156 6.40420532227 2.33035993576 2.34021043777 6.69211673737 13.5346088409 19.9616832733 23.8084087372 23.8053474426 19.9474010468 13.5173225403 6.6755900383 2.33952140808 2.34020328522 6.69190216064 13.5341396332 19.9610099792 23.8076305389 23.8045692444 19.9467353821 13.5168619156 6.67538070679 2.33951473236 2.33094525337 6.41875362396 12.923204422 19.0795440674 22.770160675 22.7672195435 19.0658874512 12.9067173004 6.40315246582 2.33032536507 2.31499886513 5.88862657547 11.6966285706 17.2595920563 20.5803642273 20.5778045654 17.2473182678 11.6818199158 5.87487745285 2.31449651718 2.28697323799 5.00374889374 9.60433578491 14.0292882919 16.5572223663 16.5552978516 14.0198793411 9.59256458282 4.99302577972 2.28669095039 2.26246833801 3.80451583862 6.64435911179 9.28900814056 10.7898006439 10.788933754 9.28329753876 6.63742017746 3.79815220833 2.26237559319 
2.26250624657 3.80777430534 6.65295219421 9.30407142639 10.8081197739 10.8069105148 9.29836845398 6.64562177658 3.80127000809 2.26241254807 2.28705239296 5.00646448135 9.61088466644 14.0392990112 16.5703125 16.5682830811 14.0296478271 9.59896183014 4.99564743042 2.28676509857 2.31505703926 5.89045524597 11.7008686066 17.2660617828 20.5889129639 20.5862541199 17.253704071 11.6859636307 5.87666893005 2.31455516815 2.33098173141 6.41986942291 12.9257259369 19.0832271576 22.7745246887 22.7715778351 19.0695285797 12.9091978073 6.40424728394 2.33036136627 2.34021162987 6.6921620369 13.5346984863 19.961807251 23.8085403442 23.8054828644 19.9475269318 13.5174131393 6.67563581467 2.33952307701 2.34020471573 6.69194698334 13.5342321396 19.9611358643 23.8077640533 23.8047027588 19.9468631744 13.516954422 6.67542505264 2.33951568604 2.33094620705 6.4187951088 12.9232959747 19.079662323 22.7702865601 22.7673454285 19.0660057068 12.9068050385 6.40319538116 2.33032655716 2.31499934196 5.88866615295 11.6967086792 17.2596950531 20.5804729462 20.5779190063 17.2474250793 11.6819000244 5.87491559982 2.31449699402 2.28697347641 5.00378227234 9.60440444946 14.0293779373 16.5573196411 16.5553951263 14.0199661255 9.59263515472 4.99305820465 2.28669142723 2.26246857643 3.80453848839 6.64441108704 9.28908061981 10.7898836136 10.7890148163 9.28336811066 6.63747215271 3.79817461967 2.26237559319 
2.26250624657 3.80779671669 6.65300416946 9.30414199829 10.8081989288 10.8069934845 9.29844093323 6.64567375183 3.8012919426 2.26241278648 2.28705263138 5.00649738312 9.61095523834 14.0393877029 16.5704059601 16.5683803558 14.0297393799 9.59903049469 4.99568080902 2.28676581383 2.31505775452 5.89049339294 11.7009487152 17.2661685944 20.5890254974 20.5863666534 17.2538051605 11.6860427856 5.8767080307 2.31455636024 2.33098316193 6.41991233826 12.9258127213 19.0833454132 22.7746524811 22.7717037201 19.069644928 12.909286499 6.40429115295 2.33036231995 2.34021282196 6.69220685959 13.5347948074 19.9619312286 23.808675766 23.8056144714 19.9476490021 13.5175085068 6.6756811142 2.33952355385 2.34020590782 6.69199371338 13.5343265533 19.9612598419 23.8078937531 23.8048362732 19.9469852448 13.5170497894 6.67547082901 2.33951711655 2.33094739914 6.41883897781 12.9233837128 19.079782486 22.770406723 22.7674674988 19.0661220551 12.9068927765 6.40323829651 2.33032774925 2.31500029564 5.88870429993 11.6967906952 17.2598018646 20.5805892944 20.5780296326 17.2475299835 11.6819782257 5.87495470047 2.31449818611 2.28697395325 5.00381374359 9.60447311401 14.029466629 16.5574169159 16.5554924011 14.0200538635 9.59270477295 4.99309015274 2.28669190407 2.26246881485 3.80456089973 6.64446258545 9.28915309906 10.7899665833 10.7890958786 9.28344249725 6.63752555847 3.7981967926 2.26237559319 
