14.0028562546 13.7910251617 13.0277090073 11.8997278214 11.233133316 11.2336978912 11.9022512436 13.0303516388 13.7923049927 14.002869606 21.9915351868 21.6243343353 20.5779514313 19.1653804779 18.312297821 18.31300354 19.1685504913 20.5813522339 21.6262130737 21.9916267395 29.982711792 29.5439491272 28.6143436432 27.4586639404 26.7457466125 26.7463378906 27.4612808228 28.6171646118 29.5458335876 29.9828510284 37.9847946167 37.6606216431 37.0550613403 36.3538208008 35.9225730896 35.9229202271 36.3553962708 37.0568122864 37.6618995667 37.9849205017 45.9996452332 45.8803100586 45.6711273193 45.4393730164 45.2974090576 45.2975196838 45.4398880005 45.6717147827 45.8807601929 45.9996986389 54.0203933716 54.1403503418 54.3505973816 54.583530426 54.7263298035 54.7262039185 54.5830078125 54.3500137329 54.1398963928 54.0203437805 62.0352210999 62.3598098755 62.9662971497 63.6686935425 64.1007080078 64.1003494263 63.6671218872 62.9645423889 62.3585243225 62.0350914001 70.0372772217 70.4761047363 71.4062805176 72.5631790161 73.2763137817 73.2757415771 72.560585022 71.403465271 70.4742126465 70.0371398926 78.0284347534 78.3952789307 79.4415893555 80.8545913696 81.7077178955 81.7070083618 80.8514862061 79.4381942749 78.3934173584 78.0283508301 86.0171508789 86.2285690308 86.9904174805 88.1155853271 88.7803344727 88.7799987793 88.1130447388 86.9878540039 86.2273101807 86.0171203613 
14.0022182465 13.7880115509 13.0270147324 11.9002952576 11.23158741 11.2321567535 11.9028224945 13.0296487808 13.7892894745 14.0022325516 21.9908485413 21.6195487976 20.5687770844 19.1434230804 18.2750930786 18.2758197784 19.1466350555 20.5722007751 21.6214351654 21.9909381866 29.9821033478 29.5378322601 28.596988678 27.4145469666 26.6653804779 26.6660079956 27.417263031 28.5998458862 29.5397396088 29.9822463989 37.9843177795 37.6551704407 37.0375480652 36.3050956726 35.8456077576 35.8459854126 36.3067703247 37.0393447876 37.6564788818 37.9844436646 45.9994621277 45.8780441284 45.6630439758 45.4182167053 45.2661209106 45.2662467957 45.4187698364 45.6636505127 45.8785018921 45.9995155334 54.0205841064 54.1426200867 54.3587417603 54.6047973633 54.7578010559 54.7576751709 54.6042366028 54.3581161499 54.1421585083 54.020526886 62.0357093811 62.3652610779 62.9838218689 63.7174491882 64.1777191162 64.1773376465 63.7157783508 62.9820251465 62.3639564514 62.0355834961 70.0378875732 70.4822158813 71.4236373901 72.6072540283 73.356552124 73.3559417725 72.6045761108 71.4207687378 70.4803237915 70.0377502441 78.0291213989 78.4000549316 79.4507369995 80.8764953613 81.7448120117 81.7440795898 80.8733444214 79.4473342896 78.3981933594 78.0290298462 86.0177841187 86.2315750122 86.991104126 88.1149673462 88.7818374634 88.7814941406 88.1124191284 86.9885482788 86.2303161621 86.0177688599 
14.0021896362 13.7878713608 13.0269412994 11.9002571106 11.2314653397 11.2320327759 11.9027833939 13.0295753479 13.7891492844 14.0022058487 21.990814209 21.6193218231 20.5683193207 19.1424407959 18.2735786438 18.2743053436 19.1456565857 20.5717411041 21.6212081909 21.9909095764 29.9820728302 29.537530899 28.5961360931 27.4125537872 26.6620960236 26.6627292633 27.4152793884 28.5990028381 29.539434433 29.9822120667 37.9842910767 37.6548995972 37.0365943909 36.3023605347 35.8408622742 35.8412475586 36.3040351868 37.0384101868 37.6562042236 37.9844245911 45.9994506836 45.8779182434 45.6626052856 45.4167556763 45.2638969421 45.2640151978 45.4173126221 45.6632232666 45.8783836365 45.9995040894 54.0205917358 54.1427497864 54.359172821 54.6062660217 54.7600479126 54.7599182129 54.6056900024 54.3585586548 54.1422843933 54.0205383301 62.0357322693 62.3655357361 62.9847679138 63.7201881409 64.1824569702 64.1820755005 63.7185134888 62.9829521179 62.3642311096 62.0355987549 70.0379257202 70.4825210571 71.4244918823 72.6092376709 73.3598251343 73.3592224121 72.6065597534 71.4216156006 70.4806289673 70.0377655029 78.0291519165 78.4002990723 79.4511947632 80.8774871826 81.7463226318 81.7455825806 80.8743286133 79.4477844238 78.3984146118 78.0290527344 86.0178146362 86.2317276001 86.9911651611 88.1149978638 88.7819595337 88.7816009521 88.112449646 86.9886169434 86.2304763794 86.0177993774 
14.0021858215 13.7878513336 13.0269241333 11.9002332687 11.2314291 11.2319965363 11.9027576447 13.0295543671 13.7891311646 14.002202034 21.9908103943 21.6192893982 20.5682487488 19.1423034668 18.2733860016 18.2741088867 19.1455173492 20.5716705322 21.6211738586 21.9909038544 29.9820652008 29.5374908447 28.5960216522 27.4122962952 26.6617050171 26.6623363495 27.4150161743 28.5988883972 29.5393924713 29.9822025299 37.984287262 37.6548576355 37.0364646912 36.3019866943 35.8402290344 35.8406105042 36.3036689758 37.0382804871 37.656162262 37.9844169617 45.9994544983 45.8779067993 45.6625442505 45.4165458679 45.2635765076 45.2636947632 45.4171066284 45.6631622314 45.878364563 45.9995040894 54.0205993652 54.1427612305 54.3592338562 54.6064720154 54.7603759766 54.7602462769 54.6059036255 54.3586235046 54.1422958374 54.0205459595 62.0357284546 62.3655738831 62.9848899841 63.7205467224 64.18309021 64.1827163696 63.7188720703 62.9830741882 62.3642730713 62.0356025696 70.0379180908 70.4825668335 71.424621582 72.6095046997 73.3602294922 73.3596115112 72.6068267822 71.4217453003 70.4806747437 70.0377655029 78.0291519165 78.4003219604 79.4512634277 80.8776168823 81.7465209961 81.7457885742 80.874458313 79.447845459 78.3984527588 78.0290603638 86.0178146362 86.2317428589 86.9911804199 88.1150131226 88.7819976807 88.7816543579 88.1124801636 86.9886398315 86.2304840088 86.017791748 
14.0021858215 13.7878456116 13.0269136429 11.9002132416 11.2314014435 11.2319717407 11.9027395248 13.0295448303 13.7891254425 14.002202034 21.9908103943 21.6192836761 20.5682239532 19.1422615051 18.2733230591 18.2740478516 19.1454753876 20.571647644 21.6211681366 21.990901947 29.9820652008 29.5374774933 28.5959835052 27.4122257233 26.661605835 26.6622371674 27.4149475098 28.5988502502 29.5393829346 29.9822063446 37.9842834473 37.6548500061 37.0364341736 36.3018951416 35.8400726318 35.840461731 36.3035736084 37.0382499695 37.6561546326 37.984413147 45.9994506836 45.8779029846 45.6625366211 45.4164924622 45.2634963989 45.2636184692 45.4170455933 45.6631393433 45.878364563 45.9995002747 54.0205993652 54.1427650452 54.359249115 54.6065292358 54.7604637146 54.7603187561 54.6059570312 54.358631134 54.1423034668 54.0205459595 62.0357284546 62.3655776978 62.9849281311 63.7206459045 64.1832427979 64.1828689575 63.7189598083 62.9831123352 62.364276886 62.0356025696 70.0379180908 70.4825744629 71.4246444702 72.6095733643 73.3603210449 73.3597106934 72.6068878174 71.4217758179 70.4806900024 70.0377655029 78.0291519165 78.4003219604 79.4512863159 80.8776626587 81.7465820312 81.74584198 80.87449646 79.4478759766 78.3984603882 78.0290603638 86.0178146362 86.2317428589 86.9911880493 88.1150360107 88.7820281982 88.7816772461 88.1125106812 86.9886550903 86.2304916382 86.017791748 
14.0021839142 13.7878437042 13.0269060135 11.9001951218 11.2313785553 11.2319469452 11.9027233124 13.0295352936 13.7891235352 14.0022001266 21.9908103943 21.6192798615 20.5682125092 19.1422328949 18.2732868195 18.2740135193 19.1454467773 20.5716342926 21.6211643219 21.990901947 29.9820671082 29.5374698639 28.5959720612 27.4121894836 26.6615486145 26.6621799469 27.4149055481 28.5988273621 29.5393772125 29.9822063446 37.9842834473 37.6548461914 37.0364112854 36.3018493652 35.8400039673 35.8403930664 36.303527832 37.0382270813 37.6561508179 37.984413147 45.9994506836 45.8778991699 45.6625213623 45.416469574 45.2634658813 45.263584137 45.4170227051 45.6631393433 45.8783607483 45.9995002747 54.0205993652 54.1427688599 54.3592529297 54.606552124 54.7604789734 54.7603530884 54.6059875488 54.3586387634 54.1422958374 54.0205459595 62.0357284546 62.3655853271 62.9849433899 63.7206993103 64.1833114624 64.1829299927 63.7190170288 62.9831314087 62.3642845154 62.0356025696 70.0379180908 70.4825897217 71.424659729 72.6096115112 73.3603668213 73.3597640991 72.6069335938 71.4218063354 70.4806900024 70.0377655029 78.0291519165 78.4003448486 79.4513015747 80.8776779175 81.7466201782 81.7458877563 80.8745269775 79.4478988647 78.3984527588 78.0290603638 86.0178146362 86.2317428589 86.9912033081 88.1150665283 88.782043457 88.7817077637 88.1125259399 86.9886627197 86.2304992676 86.017791748 
14.0021839142 13.7878408432 13.0268955231 11.900177002 11.2313537598 11.2319231033 11.9027023315 13.0295257568 13.7891187668 14.0022001266 21.9908103943 21.6192741394 20.5681991577 19.1422080994 18.2732563019 18.2739830017 19.1454257965 20.5716209412 21.6211605072 21.990901947 29.9820671082 29.5374641418 28.595949173 27.4121608734 26.6615104675 26.6621417999 27.4148788452 28.598815918 29.5393695831 29.9822063446 37.9842834473 37.6548347473 37.036403656 36.301815033 35.8399658203 35.84034729 36.3034934998 37.0382156372 37.6561431885 37.984413147 45.9994506836 45.8778915405 45.6625137329 45.4164581299 45.2634506226 45.2635688782 45.4170150757 45.6631240845 45.8783607483 45.9995079041 54.0205993652 54.1427612305 54.3592643738 54.6065597534 54.7605018616 54.7603683472 54.6059875488 54.3586463928 54.1423072815 54.0205459595 62.0357284546 62.3655929565 62.9849586487 63.7207221985 64.1833572388 64.182975769 63.7190437317 62.9831542969 62.3642845154 62.0356025696 70.0379180908 70.4825897217 71.4246673584 72.6096420288 73.3604278564 73.3598098755 72.6069564819 71.4218139648 70.4806900024 70.0377655029 78.0291519165 78.4003372192 79.4513092041 80.8777084351 81.7466506958 81.7459030151 80.8745574951 79.4479064941 78.3984680176 78.0290603638 86.0178146362 86.2317504883 86.9912185669 88.1150817871 88.7820587158 88.7817230225 88.1125411987 86.9886779785 86.2304992676 86.017791748 
