14.0233078003 13.9358091354 13.2808475494 12.2750930786 11.6484127045 11.6489038467 12.2774848938 13.2831430435 13.9368371964 14.0232229233 22.0223693848 21.8558387756 21.0302524567 19.7896842957 19.023607254 19.0242023468 19.7925853729 21.0331020355 21.8572158813 22.0223045349 30.0168781281 29.8400230408 29.1529178619 28.151222229 27.5103416443 27.5108470917 28.1535816193 29.1552238464 29.8412361145 30.0168533325 38.0112915039 37.8883056641 37.4581336975 36.8486747742 36.4543151855 36.4546203613 36.850112915 37.4595451355 37.8890800476 38.0112953186 46.0097084045 45.9653701782 45.8200187683 45.6173362732 45.4861755371 45.4862861633 45.6178207397 45.8204879761 45.9656333923 46.0097084045 54.0102806091 54.0548477173 54.2009544373 54.4046821594 54.536605835 54.5364952087 54.4042129517 54.2004699707 54.0545768738 54.0102806091 62.0086860657 62.1318244934 62.5626983643 63.1731948853 63.5682640076 63.5679512024 63.1717643738 62.561290741 62.1310539246 62.0086898804 70.0030975342 70.1800003052 70.8676223755 71.8703536987 72.5115127563 72.5110321045 71.8680343628 70.8653335571 70.1787948608 70.003112793 77.9976272583 78.1639633179 78.9897079468 80.2306671143 80.9971389771 80.9965133667 80.2278671265 78.986869812 78.1625900269 77.9976882935 85.9967041016 86.0839538574 86.7375717163 87.7409744263 88.3649749756 88.3648071289 87.7385406494 86.7352523804 86.0829238892 85.9967803955 
14.0136890411 13.869354248 13.1783666611 12.1191310883 11.460026741 11.4605503082 12.1216592789 13.1807670593 13.8704967499 14.0136518478 22.0073890686 21.744890213 20.8346500397 19.5236568451 18.7123069763 18.7129325867 19.5267353058 20.8376846313 21.7464885712 22.0073986053 30.0012302399 29.7079792023 28.943983078 27.8988895416 27.2238254547 27.224363327 27.9013710022 28.9464206696 29.7094573975 30.0012779236 37.9999084473 37.7983932495 37.3173332214 36.6814117432 36.2678794861 36.26820755 36.6829223633 37.3188362122 37.7993392944 37.9999656677 46.0056495667 45.9343528748 45.7710609436 45.5592880249 45.4217681885 45.4218711853 45.5597839355 45.7715606689 45.934677124 46.0056686401 54.0143661499 54.0860519409 54.2502326965 54.463142395 54.6014900208 54.6013793945 54.4626426697 54.2497253418 54.0857200623 54.0143432617 62.0200881958 62.2219085693 62.703792572 63.3408241272 63.7551269531 63.7547950745 63.3393173218 62.7022972107 62.220954895 62.02003479 70.0187530518 70.3121185303 71.0767059326 72.1229705811 72.7982711792 72.7977600098 72.1205368042 71.0742797852 70.3106384277 70.0187072754 78.012588501 78.2748260498 79.1851806641 80.4967498779 81.3084640503 81.3078308105 80.4938049316 79.1821594238 78.273223877 78.0125732422 86.0063247681 86.1503067017 86.839805603 87.8963317871 88.5528335571 88.5526885986 87.8937072754 86.8373336792 86.1491470337 86.006362915 
14.0084152222 13.8328475952 13.1178979874 12.0200204849 11.3186798096 11.3192358017 12.0226612091 13.1203670502 13.8340463638 14.0084018707 22.0000152588 21.6851806641 20.7152919769 19.3149375916 18.4446411133 18.4453144073 19.3182506561 20.7185153961 21.686914444 22.0000610352 29.9912509918 29.6284046173 28.788690567 27.6831626892 26.9665813446 26.9671516418 27.6858005524 28.7912864685 29.6300735474 29.9913463593 37.991809845 37.729133606 37.201084137 36.534034729 36.0980262756 36.0983695984 36.5356254578 37.2026748657 37.7302322388 37.9919052124 46.0023841858 45.9076538086 45.7284622192 45.5072174072 45.3627471924 45.3628578186 45.5077438354 45.7289924622 45.9080314636 46.0024185181 54.0176467896 54.1128997803 54.2930831909 54.515537262 54.6608924866 54.660774231 54.5150032043 54.292552948 54.1125183105 54.0176124573 62.0281906128 62.2912483215 62.8202171326 63.4884643555 63.9253082275 63.9249725342 63.4868736267 62.8186302185 62.290145874 62.0280952454 70.0287399292 70.3916549683 71.2320098877 72.3388748169 73.0557098389 73.0551757812 72.3362884521 71.2294158936 70.3899917603 70.0286331177 78.0199508667 78.3344497681 79.304397583 80.7054443359 81.5760726929 81.5753707886 80.7022705078 79.3011627197 78.3327255249 78.0199050903 86.0115661621 86.1867523193 86.9000854492 87.9949264526 88.6937332153 88.6935882568 87.992149353 86.8975372314 86.1855316162 86.0115890503 
14.0053825378 13.8125991821 13.0840969086 11.9642210007 11.2356061935 11.236205101 11.9669189453 13.0866107941 13.8138303757 14.0053844452 21.9963169098 21.6543083191 20.6483974457 19.1765861511 18.2470798492 18.2478027344 19.180109024 20.6517562866 21.6561203003 21.9963798523 29.9873561859 29.5903587341 28.6980075836 27.525308609 26.7637958527 26.7643985748 27.5281047821 28.700761795 29.5921268463 29.9874725342 37.9879570007 37.6940803528 37.1256103516 36.4234542847 35.9631080627 35.963470459 36.4251251221 37.1272888184 37.695274353 37.9880714417 46.0007705688 45.8926277161 45.6994895935 45.4676818848 45.3157615662 45.3158874512 45.4682312012 45.7000350952 45.8930511475 46.0008125305 54.0192718506 54.1280059814 54.3222389221 54.5553131104 54.7081642151 54.7080383301 54.5547523499 54.3216667175 54.12758255 54.0192298889 62.0320510864 62.3263320923 62.8957862854 63.5992240906 64.0604705811 64.0601043701 63.5975494385 62.8941078186 62.3251266479 62.0319404602 70.032623291 70.4297027588 71.3226776123 72.4968414307 73.2586364746 73.25806427 72.4940872192 71.3199310303 70.4279251099 70.0325088501 78.0236587524 78.3653030396 79.3712081909 80.84375 81.7735366821 81.7727966309 80.8403778076 79.3678359985 78.3634796143 78.0235900879 86.0146255493 86.2069549561 86.9337387085 88.0504150391 88.7763977051 88.7762527466 88.0475234985 86.9311523438 86.2057113647 86.0146255493 
14.0035409927 13.8005542755 13.0646038055 11.9310665131 11.1903543472 11.1909723282 11.9337940216 13.0671482086 13.8017997742 14.0035533905 21.9942073822 21.6365089417 20.608083725 19.0897274017 18.1126918793 18.1134586334 19.0933933258 20.6115169525 21.6383647919 21.9942817688 29.9852333069 29.569601059 28.6461486816 27.4158401489 26.6122112274 26.6128501892 27.4187927246 28.6490211487 29.5714321136 29.9853610992 37.9863166809 37.6765975952 37.0800209045 36.3440132141 35.8602104187 35.8605957031 36.3457679749 37.08177948 37.6778488159 37.9864387512 46.0000762939 45.8852615356 45.6810264587 45.4389152527 45.2797966003 45.2799224854 45.4394874573 45.6816062927 45.8857040405 46.000125885 54.0199699402 54.1354179382 54.3407897949 54.5842399597 54.7443580627 54.7442169189 54.5836524963 54.3402023315 54.1349716187 54.0199127197 62.0336875916 62.3438301086 62.9414253235 63.6787719727 64.1635360718 64.1631393433 63.6770172119 62.9396629333 62.3425750732 62.0335693359 70.0347595215 70.4504470825 71.3745269775 72.6063766479 73.4102478027 73.40965271 72.6034851074 71.371673584 70.4486160278 70.0346374512 78.0257644653 78.3830871582 79.4114837646 80.9305267334 81.9078140259 81.9070358276 80.9270401001 79.4080200195 78.3812179565 78.0256881714 86.0164489746 86.2189865112 86.953163147 88.0833587646 88.821395874 88.8212432861 88.080406189 86.9505081177 86.2177124023 86.0164337158 
14.0024185181 13.7932653427 13.0531330109 11.9115180969 11.1644430161 11.1650705338 11.9142684937 13.0556936264 13.7945232391 14.0024356842 21.9929275513 21.6257209778 20.583240509 19.03657341 18.0283222198 18.0291233063 19.0403232574 20.5867271423 21.6275997162 21.9930076599 29.9839668274 29.5571327209 28.614938736 27.3429012299 26.5046710968 26.5053443909 27.3459720612 28.6178874969 29.5590057373 29.9840965271 37.9853935242 37.6664962769 37.0522155762 36.2890396118 35.7849464417 35.7853507996 36.2908592224 37.0540275574 37.6677703857 37.9855194092 45.999710083 45.8812179565 45.6697692871 45.4186134338 45.2532463074 45.2533798218 45.4192085266 45.6703720093 45.8816642761 45.9997634888 54.0203323364 54.1394805908 54.3520965576 54.6046333313 54.7710533142 54.7709121704 54.604019165 54.3514823914 54.138999939 54.0202789307 62.0346183777 62.353931427 62.9692459106 63.7337913513 64.2388763428 64.2384796143 63.7319755554 62.9674186707 62.352645874 62.0344924927 70.036026001 70.4628982544 71.4057159424 72.6793518066 73.5177764893 73.5171508789 72.676361084 71.4027709961 70.4610290527 70.0358886719 78.0270385742 78.3938522339 79.4361953735 80.9835968018 81.9920578003 81.9912567139 80.9800186157 79.4326705933 78.3919525146 78.0269470215 86.017578125 86.2262420654 86.9646148682 88.1028213501 88.8472137451 88.8470458984 88.0998458862 86.9619445801 86.2249755859 86.0175476074 
14.0017375946 13.7888507843 13.0462846756 11.8999900818 11.1496181488 11.1502485275 11.9027519226 13.0488529205 13.7901124954 14.0017566681 21.9921455383 21.6191310883 20.5680484772 19.0042819977 17.9775276184 17.9783535004 19.0080814362 20.5715675354 21.6210250854 21.9922275543 29.9832134247 29.5495414734 28.5954685211 27.2966766357 26.4320259094 26.4327201843 27.2998275757 28.5984573364 29.5514373779 29.9833526611 37.9848251343 37.6603660583 37.0355415344 36.2524642944 35.7323989868 35.7328262329 36.2543449402 37.0374069214 37.6616630554 37.9849586487 45.9995040894 45.8787918091 45.6627006531 45.4049034119 45.2344894409 45.23462677 45.4055137634 45.6633148193 45.8792533875 45.9995574951 54.0205459595 54.1419067383 54.3591995239 54.6184005737 54.7899131775 54.7897644043 54.6177711487 54.3585586548 54.1414337158 54.020488739 62.0351867676 62.3600654602 62.9859161377 63.770401001 64.2914733887 64.291053772 63.7685127258 62.9840698242 62.3587493896 62.0350494385 70.0367660522 70.470489502 71.4251785278 72.7256164551 73.5904083252 73.5897598267 72.7225341797 71.422203064 70.4685897827 70.0366210938 78.0278320312 78.4004211426 79.4513473511 81.0158538818 82.0427627563 82.0419387817 81.0122299194 79.4478149414 78.3985214233 78.0277328491 86.0182495117 86.2306518555 86.9714431763 88.1142730713 88.8619613647 88.8618087769 88.1112823486 86.96875 86.2293701172 86.0182342529 
