1.0 1.00000011921 0.99944627285 1.02492427826 1.08394777775 1.08392310143 1.02485704422 1.00000023842 1.0 1.0 0.999999940395 1.00316870213 1.06906449795 1.18743777275 1.29818248749 1.29815232754 1.18730950356 1.03514504433 1.00313150883 1.0 1.0 1.06441545486 1.15918779373 1.29019653797 1.41270709038 1.41267633438 1.29007458687 1.11316180229 1.06434857845 1.00000011921 1.0 1.10140573978 1.20041537285 1.32275474072 1.42628991604 1.4262573719 1.32265782356 1.15241706371 1.10134530067 1.00000011921 1.0 1.12961184978 1.23555290699 1.35247325897 1.43880331516 1.43877673149 1.35238146782 1.1842700243 1.12955081463 1.00000011921 1.0 1.12960100174 1.2355376482 1.3524544239 1.43894124031 1.43890690804 1.35235500336 1.18426132202 1.12953996658 1.00000011921 1.0 1.10135471821 1.2003724575 1.32263576984 1.42643082142 1.4263843298 1.32253587246 1.15237414837 1.10129463673 1.0 1.0 1.04477512836 1.12922215462 1.24968636036 1.37781965733 1.37781369686 1.24956536293 1.08946728706 1.04470705986 1.00000011921 1.0 1.00312030315 1.06894695759 1.18740260601 1.29844236374 1.29831886292 1.18731081486 1.03505253792 1.00308263302 1.00000011921 1.0 1.00000011921 0.9994571805 1.02481365204 1.08355021477 1.08364534378 1.0246860981 1.00000011921 1.0 0.999999940395 
1.0 1.00000011921 0.99944627285 1.02492427826 1.08394777775 1.08392310143 1.02485704422 1.00000023842 1.0 1.0 0.999999940395 1.00316870213 1.06906449795 1.18743777275 1.29818248749 1.29815232754 1.18730950356 1.03514504433 1.00313150883 1.0 1.0 1.06441545486 1.15918779373 1.29019653797 1.4311388731 1.43110990524 1.29007458687 1.11316180229 1.06434857845 1.00000011921 1.0 1.10140573978 1.20041537285 1.32305645943 1.44661664963 1.44658315182 1.32296299934 1.15241706371 1.10134530067 1.00000011921 1.0 1.12961184978 1.23555290699 1.35632610321 1.46613919735 1.46611046791 1.3562451601 1.1842700243 1.12955081463 1.00000011921 1.0 1.12960100174 1.2355376482 1.35630655289 1.46640396118 1.46636176109 1.35621547699 1.18426132202 1.12953996658 1.00000011921 1.0 1.10135471821 1.2003724575 1.32293462753 1.44689583778 1.4468421936 1.32283818722 1.15237414837 1.10129463673 1.0 1.0 1.04477512836 1.12922215462 1.24968636036 1.38017714024 1.38017117977 1.24956536293 1.08946728706 1.04470705986 1.00000011921 1.0 1.00312030315 1.06894695759 1.18740260601 1.29844236374 1.29831886292 1.18731081486 1.03505253792 1.00308263302 1.00000011921 1.0 1.00000011921 0.9994571805 1.02481365204 1.08355021477 1.08364534378 1.0246860981 1.00000011921 1.0 0.999999940395 
1.0 1.00000011921 0.99944627285 1.02492427826 1.08394777775 1.08392310143 1.02485704422 1.00000023842 1.0 1.0 0.999999940395 1.00316870213 1.06906449795 1.18743777275 1.29818248749 1.29815232754 1.18730950356 1.03514504433 1.00313150883 1.0 1.0 1.06441545486 1.15918779373 1.29019653797 1.43138885498 1.43135976791 1.29007458687 1.11316180229 1.06434857845 1.00000011921 1.0 1.10140573978 1.20041537285 1.32305645943 1.44681417942 1.44678068161 1.32296299934 1.15241706371 1.10134530067 1.00000011921 1.0 1.12961184978 1.23555290699 1.35632610321 1.46661710739 1.46658861637 1.3562451601 1.1842700243 1.12955081463 1.00000011921 1.0 1.12960100174 1.2355376482 1.35630655289 1.46689617634 1.46685421467 1.35621547699 1.18426132202 1.12953996658 1.00000011921 1.0 1.10135471821 1.2003724575 1.32293462753 1.44710576534 1.44705200195 1.32283818722 1.15237414837 1.10129463673 1.0 1.0 1.04477512836 1.12922215462 1.24968636036 1.38017714024 1.38017117977 1.24956536293 1.08946728706 1.04470705986 1.00000011921 1.0 1.00312030315 1.06894695759 1.18740260601 1.29844236374 1.29831886292 1.18731081486 1.03505253792 1.00308263302 1.00000011921 1.0 1.00000011921 0.9994571805 1.02481365204 1.08355021477 1.08364534378 1.0246860981 1.00000011921 1.0 0.999999940395 
1.0 1.00000011921 0.99944627285 1.02492427826 1.08394777775 1.08392310143 1.02485704422 1.00000023842 1.0 1.0 0.999999940395 1.00316870213 1.06906449795 1.18743777275 1.29818248749 1.29815232754 1.18730950356 1.03514504433 1.00313150883 1.0 1.0 1.06441545486 1.15918779373 1.29019653797 1.43140566349 1.43137633801 1.29007458687 1.11316180229 1.06434857845 1.00000011921 1.0 1.10140573978 1.20041537285 1.32305645943 1.44681894779 1.44678592682 1.32296299934 1.15241706371 1.10134530067 1.00000011921 1.0 1.12961184978 1.23555290699 1.35632610321 1.4666403532 1.4666121006 1.3562451601 1.1842700243 1.12955081463 1.00000011921 1.0 1.12960100174 1.2355376482 1.35630655289 1.46692144871 1.46687948704 1.35621547699 1.18426132202 1.12953996658 1.00000011921 1.0 1.10135471821 1.2003724575 1.32293462753 1.44711232185 1.44705879688 1.32283818722 1.15237414837 1.10129463673 1.0 1.0 1.04477512836 1.12922215462 1.24968636036 1.38017714024 1.38017117977 1.24956536293 1.08946728706 1.04470705986 1.00000011921 1.0 1.00312030315 1.06894695759 1.18740260601 1.29844236374 1.29831886292 1.18731081486 1.03505253792 1.00308263302 1.00000011921 1.0 1.00000011921 0.9994571805 1.02481365204 1.08355021477 1.08364534378 1.0246860981 1.00000011921 1.0 0.999999940395 
1.0 1.00000011921 0.99944627285 1.02492427826 1.08394777775 1.08392310143 1.02485704422 1.00000023842 1.0 1.0 0.999999940395 1.00316870213 1.06906449795 1.18743777275 1.29818248749 1.29815232754 1.18730950356 1.03514504433 1.00313150883 1.0 1.0 1.06441545486 1.15918779373 1.29019653797 1.43141448498 1.4313852787 1.29007458687 1.11316180229 1.06434857845 1.00000011921 1.0 1.10140573978 1.20041537285 1.32305645943 1.44682574272 1.44679260254 1.32296299934 1.15241706371 1.10134530067 1.00000011921 1.0 1.12961184978 1.23555290699 1.35632610321 1.46664988995 1.46662116051 1.3562451601 1.1842700243 1.12955081463 1.00000011921 1.0 1.12960100174 1.2355376482 1.35630655289 1.46693110466 1.46688902378 1.35621547699 1.18426132202 1.12953996658 1.00000011921 1.0 1.10135471821 1.2003724575 1.32293462753 1.4471193552 1.44706571102 1.32283818722 1.15237414837 1.10129463673 1.0 1.0 1.04477512836 1.12922215462 1.24968636036 1.38017714024 1.38017117977 1.24956536293 1.08946728706 1.04470705986 1.00000011921 1.0 1.00312030315 1.06894695759 1.18740260601 1.29844236374 1.29831886292 1.18731081486 1.03505253792 1.00308263302 1.00000011921 1.0 1.00000011921 0.9994571805 1.02481365204 1.08355021477 1.08364534378 1.0246860981 1.00000011921 1.0 0.999999940395 
1.0 1.00000011921 0.99944627285 1.02492427826 1.08394777775 1.08392310143 1.02485704422 1.00000023842 1.0 1.0 0.999999940395 1.00316870213 1.06906449795 1.18743777275 1.29818248749 1.29815232754 1.18730950356 1.03514504433 1.00313150883 1.0 1.0 1.06441545486 1.15918779373 1.29019653797 1.43142259121 1.43139314651 1.29007458687 1.11316180229 1.06434857845 1.00000011921 1.0 1.10140573978 1.20041537285 1.32305645943 1.44683361053 1.44680035114 1.32296299934 1.15241706371 1.10134530067 1.00000011921 1.0 1.12961184978 1.23555290699 1.35632610321 1.46665835381 1.46662986279 1.3562451601 1.1842700243 1.12955081463 1.00000011921 1.0 1.12960100174 1.2355376482 1.35630655289 1.46693968773 1.46689760685 1.35621547699 1.18426132202 1.12953996658 1.00000011921 1.0 1.10135471821 1.2003724575 1.32293462753 1.44712710381 1.44707345963 1.32283818722 1.15237414837 1.10129463673 1.0 1.0 1.04477512836 1.12922215462 1.24968636036 1.38017714024 1.38017117977 1.24956536293 1.08946728706 1.04470705986 1.00000011921 1.0 1.00312030315 1.06894695759 1.18740260601 1.29844236374 1.29831886292 1.18731081486 1.03505253792 1.00308263302 1.00000011921 1.0 1.00000011921 0.9994571805 1.02481365204 1.08355021477 1.08364534378 1.0246860981 1.00000011921 1.0 0.999999940395 
1.0 1.00000011921 0.99944627285 1.02492427826 1.08394777775 1.08392310143 1.02485704422 1.00000023842 1.0 1.0 0.999999940395 1.00316870213 1.06906449795 1.18743777275 1.29818248749 1.29815232754 1.18730950356 1.03514504433 1.00313150883 1.0 1.0 1.06441545486 1.15918779373 1.29019653797 1.43143033981 1.43140137196 1.29007458687 1.11316180229 1.06434857845 1.00000011921 1.0 1.10140573978 1.20041537285 1.32305645943 1.44684135914 1.44680821896 1.32296299934 1.15241706371 1.10134530067 1.00000011921 1.0 1.12961184978 1.23555290699 1.35632610321 1.46666705608 1.46663856506 1.3562451601 1.1842700243 1.12955081463 1.00000011921 1.0 1.12960100174 1.2355376482 1.35630655289 1.46694850922 1.46690654755 1.35621547699 1.18426132202 1.12953996658 1.00000011921 1.0 1.10135471821 1.2003724575 1.32293462753 1.44713509083 1.44708144665 1.32283818722 1.15237414837 1.10129463673 1.0 1.0 1.04477512836 1.12922215462 1.24968636036 1.38017714024 1.38017117977 1.24956536293 1.08946728706 1.04470705986 1.00000011921 1.0 1.00312030315 1.06894695759 1.18740260601 1.29844236374 1.29831886292 1.18731081486 1.03505253792 1.00308263302 1.00000011921 1.0 1.00000011921 0.9994571805 1.02481365204 1.08355021477 1.08364534378 1.0246860981 1.00000011921 1.0 0.999999940395 
