2.26597905159 3.88902378082 6.82132768631 9.56044101715 11.1007862091 11.099571228 9.55453491211 6.81378793716 3.88225364685 2.26586198807 2.29194283485 5.08931827545 9.83536148071 14.2760810852 16.7490463257 16.747089386 14.2666101456 9.82317256927 5.07816839218 2.29162240028 2.31522989273 5.97428274155 11.908405304 17.4049873352 20.5940971375 20.5915870667 17.392999649 11.8934116364 5.960044384 2.31473016739 2.3318901062 6.49616909027 13.0660924911 19.1085529327 22.6093101501 22.6065635681 19.0953655243 13.0496063232 6.48021745682 2.33126306534 2.34069848061 6.75539922714 13.6287498474 19.9146232605 23.5450344086 23.5421981812 19.9009418488 13.6115665436 6.73863649368 2.34000468254 2.34069156647 6.75519561768 13.6283226013 19.9140090942 23.5443286896 23.5414981842 19.9003314972 13.6111440659 6.73843717575 2.33999800682 2.33185553551 6.49513339996 13.0638141632 19.1052322388 22.6054325104 22.6026916504 19.0920753479 13.0473556519 6.47919750214 2.33122897148 2.31517887115 5.97248601913 11.9043912888 17.3989334106 20.5861301422 20.5836982727 17.3870201111 11.8894672394 5.95827627182 2.31467938423 2.29187345505 5.08666944504 9.82882499695 14.2664175034 16.7367687225 16.734872818 14.2571315765 9.81674957275 5.07558965683 2.29155635834 2.26592969894 3.88564443588 6.81253814697 9.54529571533 11.0820684433 11.081152916 9.53940868378 6.80530023575 3.87897992134 2.26581263542 
2.26598238945 3.85557985306 6.75108194351 9.47288131714 11.0066690445 11.0054540634 9.46700572968 6.74360752106 3.84892320633 2.26586675644 2.2915585041 5.04971694946 9.75906085968 14.188246727 16.6617622375 16.6598014832 14.178776741 9.74693107605 5.03868532181 2.29124307632 2.31464552879 5.93623781204 11.8369750977 17.3259449005 20.5391559601 20.5365924835 17.3139362335 11.8220357895 5.92210388184 2.31415247917 2.33133220673 6.46268081665 13.004240036 19.0571575165 22.6325817108 22.6297225952 19.0438556671 12.9877977371 6.44682073593 2.33071184158 2.34025979042 6.72585773468 13.5759191513 19.8900470734 23.6232738495 23.6202964783 19.8761634827 13.5587615967 6.70917272568 2.33957219124 2.34025287628 6.7256526947 13.5754814148 19.8894081116 23.6225223541 23.6195449829 19.8755340576 13.5583324432 6.70896863937 2.33956456184 2.33129715919 6.46163606644 13.0019426346 19.0537643433 22.6285152435 22.62566185 19.0404949188 12.9855232239 6.44579029083 2.33067703247 2.31459522247 5.93443155289 11.8329496384 17.3198413849 20.5310573578 20.5285739899 17.3079051971 11.8180818558 5.92032814026 2.31410169601 2.29148983955 5.04707527161 9.75251579285 14.1785736084 16.649389267 16.6474895477 14.1693000793 9.74050998688 5.03611850739 2.29117822647 2.26593375206 3.85225510597 6.74239492416 9.45775318146 10.9880065918 10.9870920181 9.45189094543 6.73524665833 3.845713377 2.26581835747 
2.26598238945 3.85558986664 6.75110673904 9.47291564941 11.0067052841 11.0054931641 9.46703910828 6.74363183975 3.84893345833 2.26586675644 2.29155874252 5.04973268509 9.75909137726 14.188290596 16.6618080139 16.6598491669 14.1788196564 9.7469625473 5.03870010376 2.29124331474 2.31464576721 5.93625688553 11.8370170593 17.3259983063 20.5392169952 20.536649704 17.3139896393 11.8220758438 5.92212343216 2.31415295601 2.33133268356 6.46270370483 13.004283905 19.057220459 22.6326541901 22.6297931671 19.043920517 12.9878435135 6.44684267044 2.33071208 2.34026050568 6.7258810997 13.5759687424 19.8901176453 23.6233615875 23.620388031 19.8762359619 13.5588140488 6.70919561386 2.33957266808 2.34025335312 6.72567653656 13.5755329132 19.8894805908 23.6226062775 23.6196346283 19.8756027222 13.5583820343 6.70899248123 2.33956551552 2.33129763603 6.46165752411 13.0019884109 19.0538253784 22.6285915375 22.6257343292 19.0405597687 12.9855718613 6.4458117485 2.33067727089 2.31459546089 5.93445110321 11.832988739 17.3198928833 20.5311183929 20.5286331177 17.3079605103 11.8181209564 5.92034769058 2.31410193443 2.29149007797 5.0470905304 9.75255012512 14.1786165237 16.6494369507 16.6475372314 14.16933918 9.74054145813 5.0361328125 2.29117846489 2.26593375206 3.85226559639 6.74241924286 9.45778846741 10.9880447388 10.9871301651 9.45192527771 6.73527002335 3.84572339058 2.26581835747 
2.26598215103 3.85560274124 6.75113630295 9.47295761108 11.0067539215 11.0055389404 9.46708106995 6.74366092682 3.84894561768 2.26586675644 2.29155874252 5.04975128174 9.75913333893 14.1883440018 16.6618652344 16.6599063873 14.1788721085 9.74700450897 5.03871822357 2.29124331474 2.31464672089 5.93628025055 11.8370609283 17.3260612488 20.5392875671 20.5367202759 17.3140563965 11.8221235275 5.92214536667 2.31415343285 2.33133292198 6.46273040771 13.0043411255 19.0572948456 22.6327419281 22.6298789978 19.0439949036 12.9878988266 6.44686985016 2.33071279526 2.34026169777 6.72590970993 13.5760278702 19.8902015686 23.6234664917 23.6204891205 19.8763160706 13.5588722229 6.70922374725 2.33957362175 2.34025430679 6.72570514679 13.5755939484 19.8895645142 23.6227111816 23.6197395325 19.8756847382 13.5584411621 6.7090215683 2.33956646919 2.33129835129 6.46168422699 13.0020427704 19.0539035797 22.6286754608 22.6258182526 19.0406341553 12.9856271744 6.44583892822 2.33067822456 2.31459593773 5.93447351456 11.8330364227 17.3199596405 20.5311889648 20.5287055969 17.3080253601 11.8181695938 5.92036914825 2.31410241127 2.29149055481 5.04710912704 9.75258922577 14.1786680222 16.6494941711 16.6475944519 14.1693973541 9.7405834198 5.03615188599 2.29117894173 2.26593375206 3.85227775574 6.7424492836 9.45783042908 10.9880924225 10.9871788025 9.45196628571 6.73530054092 3.84573507309 2.26581835747 
2.26598215103 3.85561418533 6.75116491318 9.47299766541 11.0067977905 11.0055875778 9.46712303162 6.74368858337 3.84895801544 2.26586675644 2.29155921936 5.04976844788 9.75917053223 14.1883945465 16.6619243622 16.6599617004 14.1789245605 9.74704170227 5.03873682022 2.29124379158 2.3146469593 5.93630218506 11.8371133804 17.326128006 20.5393562317 20.5367889404 17.3141212463 11.8221721649 5.92216730118 2.3141541481 2.33133387566 6.46275615692 13.0043935776 19.0573692322 22.6328239441 22.6299629211 19.0440673828 12.9879522324 6.44689559937 2.33071351051 2.34026217461 6.72593784332 13.5760879517 19.8902835846 23.6235694885 23.6205940247 19.8763980865 13.558930397 6.70925188065 2.33957386017 2.34025526047 6.72573375702 13.5756492615 19.8896465302 23.6228141785 23.6198425293 19.8757648468 13.5585002899 6.70904922485 2.33956694603 2.33129882812 6.4617099762 13.0020971298 19.053976059 22.6287574768 22.6259021759 19.0407104492 12.9856805801 6.44586372375 2.33067917824 2.31459641457 5.9344959259 11.8330812454 17.3200206757 20.531255722 20.5287704468 17.30809021 11.8182163239 5.92039203644 2.31410264969 2.29149079323 5.04712629318 9.75262737274 14.1787214279 16.6495494843 16.6476516724 14.1694450378 9.74062252045 5.03616952896 2.29117918015 2.26593375206 3.85228943825 6.74247646332 9.4578704834 10.9881381989 10.9872217178 9.45200824738 6.73532962799 3.8457467556 2.26581835747 
2.26598238945 3.85562586784 6.75119304657 9.47303771973 11.0068445206 11.0056324005 9.46716308594 6.74371767044 3.84896945953 2.26586675644 2.29155945778 5.04978656769 9.75921058655 14.1884479523 16.6619796753 16.6600170135 14.1789751053 9.74707984924 5.03875350952 2.29124426842 2.31464767456 5.93632411957 11.8371582031 17.3261871338 20.5394248962 20.536857605 17.3141822815 11.8222169876 5.92219018936 2.3141541481 2.33133459091 6.46278238297 13.0044488907 19.0574455261 22.6329097748 22.6300468445 19.0441436768 12.9880046844 6.44692087173 2.33071398735 2.34026312828 6.72596549988 13.5761451721 19.8903675079 23.623670578 23.6206970215 19.8764820099 13.5589895248 6.70928001404 2.33957457542 2.3402557373 6.72576093674 13.5757055283 19.8897285461 23.6229190826 23.6199455261 19.8758506775 13.5585575104 6.70907735825 2.33956742287 2.33129954338 6.4617357254 13.0021524429 19.0540504456 22.6288433075 22.6259860992 19.0407848358 12.9857349396 6.44589042664 2.33067989349 2.31459712982 5.93451786041 11.8331279755 17.3200836182 20.5313243866 20.5288391113 17.3081531525 11.8182621002 5.92041444778 2.31410360336 2.29149079323 5.04714393616 9.75266647339 14.17877388 16.6496047974 16.6477088928 14.1694965363 9.74066066742 5.0361866951 2.29117918015 2.26593375206 3.8523015976 6.74250364304 9.45791149139 10.9881839752 10.9872684479 9.45204734802 6.73535680771 3.84575867653 2.26581835747 
2.26598262787 3.85563778877 6.7512216568 9.47307777405 11.0068902969 11.0056772232 9.46720409393 6.74374580383 3.84898090363 2.26586723328 2.29155945778 5.0498046875 9.75924777985 14.188498497 16.6620349884 16.660074234 14.1790275574 9.74711894989 5.03877162933 2.29124450684 2.3146481514 5.93634653091 11.8372030258 17.3262519836 20.5394973755 20.5369281769 17.3142471313 11.8222646713 5.92221260071 2.31415486336 2.33133506775 6.46280765533 13.0045042038 19.0575199127 22.6329956055 22.6301326752 19.0442199707 12.9880590439 6.4469461441 2.33071470261 2.34026384354 6.72599315643 13.5762042999 19.8904514313 23.6237850189 23.6208076477 19.8765659332 13.559044838 6.70930814743 2.33957529068 2.34025669098 6.72578859329 13.5757637024 19.8898124695 23.6230278015 23.6200580597 19.8759346008 13.5586147308 6.70910453796 2.33956837654 2.33130025864 6.46176147461 13.0022029877 19.0541267395 22.6289253235 22.6260700226 19.0408592224 12.985786438 6.44591617584 2.33068013191 2.31459712982 5.9345407486 11.8331775665 17.3201503754 20.5313949585 20.5289115906 17.3082141876 11.8183088303 5.92043590546 2.31410384178 2.29149127007 5.04716205597 9.75270652771 14.1788234711 16.6496639252 16.6477622986 14.169549942 9.74069881439 5.03620481491 2.29117918015 2.26593399048 3.85231280327 6.74253225327 9.45795154572 10.9882297516 10.9873151779 9.45208644867 6.73538637161 3.84577059746 2.26581811905 
