0.982542157173 1.00867640972 1.03318202496 1.07750618458 1.15570402145 1.15567600727 1.07745087147 1.02505433559 1.00864589214 0.982592999935 0.973931610584 1.05180692673 1.1512414217 1.29840528965 1.43163752556 1.43160355091 1.29827511311 1.10067617893 1.05175411701 0.973989129066 0.971659660339 1.14149951935 1.26633608341 1.42106318474 1.55998694897 1.55995035172 1.42092514038 1.20809853077 1.14143073559 0.971697747707 0.969729304314 1.18781650066 1.31651055813 1.4575804472 1.57560288906 1.57556426525 1.45747065544 1.25694704056 1.18775391579 0.969760835171 0.967873692513 1.22511911392 1.35885620117 1.49034750462 1.5904327631 1.59039998055 1.49024271965 1.29788553715 1.22505128384 0.967905163765 0.967874467373 1.22510695457 1.3588385582 1.49032688141 1.59060645103 1.59056401253 1.49021339417 1.29787969589 1.22503912449 0.967905700207 0.969734191895 1.1877604723 1.3164601326 1.45744621754 1.57577800751 1.57572197914 1.45733344555 1.25690770149 1.18769931793 0.969765484333 0.972108840942 1.11060106754 1.22645175457 1.37002027035 1.52008891106 1.52008259296 1.36990523338 1.1713193655 1.11054468155 0.972149610519 0.973940849304 1.05170321465 1.15104877949 1.29839932919 1.43195009232 1.43180775642 1.29831039906 1.10054171085 1.05164992809 0.97400033474 0.9825745821 1.00863015652 1.03311288357 1.07737338543 1.15523564816 1.15528857708 1.0773100853 1.02501618862 1.00860118866 0.98262745142 
0.98236143589 1.00663626194 1.03059530258 1.07472753525 1.15239405632 1.15236651897 1.07467246056 1.02237546444 1.00660800934 0.982412457466 0.97370827198 1.0492721796 1.14888215065 1.29612994194 1.42941498756 1.4293833971 1.29600083828 1.098107934 1.04922115803 0.973766207695 0.971388220787 1.13866865635 1.26362776756 1.41927337646 1.57906591892 1.57903301716 1.4191352129 1.20550537109 1.13860046864 0.971426725388 0.969443082809 1.18478536606 1.31353282928 1.4569491148 1.59578883648 1.59575033188 1.45685076714 1.25425040722 1.18472230434 0.969475090504 0.967572689056 1.2219979763 1.35600841045 1.49515759945 1.61661124229 1.61657822132 1.49506759644 1.29559731483 1.22192919254 0.967604577541 0.967573523521 1.22198545933 1.35599017143 1.49513840675 1.61690115929 1.61685371399 1.49503612518 1.29559218884 1.2219171524 0.967605173588 0.96944797039 1.18472993374 1.31348276138 1.45680892467 1.59609484673 1.59603357315 1.45670580864 1.25421059132 1.18466806412 0.969479680061 0.971843421459 1.10776889324 1.22362661362 1.36623442173 1.52220630646 1.52219974995 1.36612379551 1.16841304302 1.10771286488 0.971885025501 0.973718047142 1.04916954041 1.14868855476 1.29612874985 1.42972242832 1.42958116531 1.29604101181 1.09797203541 1.04911804199 0.973777770996 0.982394397259 1.00659191608 1.03052592278 1.07459259033 1.15193557739 1.15198814869 1.07452976704 1.02233815193 1.0065652132 0.982447445393 
0.982353925705 1.00654864311 1.03048408031 1.07460713387 1.15225481987 1.15222752094 1.07455205917 1.02225971222 1.00652050972 0.982404947281 0.973698854446 1.04916369915 1.14878153801 1.29603040218 1.42929470539 1.42926311493 1.29590129852 1.09799706936 1.04911279678 0.973756670952 0.971376597881 1.13854849339 1.26351761818 1.41916263103 1.58008790016 1.58005416393 1.4190248251 1.20539581776 1.13847994804 0.971415042877 0.969431221485 1.18465769291 1.31340539455 1.45680272579 1.59664011002 1.59660184383 1.45670485497 1.25413036346 1.1845946312 0.969463229179 0.967561721802 1.22186779976 1.35585534573 1.49505627155 1.61807048321 1.61803758144 1.4949669838 1.29546916485 1.22179913521 0.967593610287 0.967562437057 1.22185540199 1.35583722591 1.495038867 1.61838436127 1.61833620071 1.49493682384 1.29546451569 1.22178697586 0.96759390831 0.969436049461 1.1846023798 1.31335568428 1.45666384697 1.59696900845 1.59690701962 1.45656061172 1.2540910244 1.18454039097 0.969467878342 0.971832036972 1.10764801502 1.22350811958 1.36608612537 1.52202701569 1.52202045918 1.36597585678 1.16829133034 1.10759210587 0.9718734622 0.973708510399 1.04906117916 1.14858806133 1.29602944851 1.42960119247 1.42946028709 1.29594171047 1.09786140919 1.04900979996 0.973768293858 0.98238670826 1.00650429726 1.03041446209 1.07447206974 1.15179693699 1.15184962749 1.07440948486 1.0222222805 1.00647807121 0.982439756393 
0.98235309124 1.00653970242 1.03047275543 1.07459509373 1.15224206448 1.15221452713 1.07454001904 1.02224802971 1.00651168823 0.982403934002 0.973697721958 1.04915297031 1.14877164364 1.29602098465 1.42928338051 1.42925179005 1.29589223862 1.09798598289 1.04910206795 0.973755598068 0.971375226974 1.13853704929 1.26350796223 1.41915225983 1.58021783829 1.58018434048 1.41901445389 1.20538508892 1.13846826553 0.97141367197 0.969429850578 1.18464553356 1.31339466572 1.45678842068 1.59670650959 1.59666836262 1.45669043064 1.25411987305 1.18458247185 0.969461739063 0.967560350895 1.22185587883 1.35584056377 1.49504435062 1.61823236942 1.61819958687 1.49495482445 1.29545676708 1.22178697586 0.967592120171 0.967561006546 1.22184348106 1.35582268238 1.49502694607 1.61855280399 1.61850428581 1.49492478371 1.29545223713 1.22177481651 0.967592537403 0.96943461895 1.18459010124 1.31334483624 1.45664966106 1.59704101086 1.59697937965 1.45654642582 1.25408053398 1.18452823162 0.969466567039 0.971830666065 1.10763609409 1.2234967947 1.3660736084 1.52200996876 1.52200317383 1.3659632206 1.16827964783 1.10758018494 0.971872031689 0.97370749712 1.04905033112 1.14857828617 1.29601991177 1.42958974838 1.42944860458 1.29593241215 1.09785056114 1.0489988327 0.973767220974 0.982385873795 1.00649559498 1.03040337563 1.07446026802 1.15178406239 1.15183675289 1.07439744473 1.02221047878 1.00646901131 0.982438802719 
0.982352733612 1.00653851032 1.03047132492 1.07459390163 1.15224134922 1.15221393108 1.07453870773 1.02224636078 1.00651049614 0.982403695583 0.973697304726 1.04915165901 1.14877080917 1.29602074623 1.42928266525 1.429251194 1.29589188099 1.09798502922 1.04910075665 0.973755300045 0.971374869347 1.13853573799 1.26350748539 1.41915249825 1.58025050163 1.58021688461 1.4190145731 1.20538473129 1.13846743107 0.971413254738 0.969429373741 1.18464481831 1.31339466572 1.45678782463 1.59671711922 1.59667897224 1.45668983459 1.25411963463 1.18458151817 0.969461202621 0.967559933662 1.22185528278 1.35583972931 1.49504435062 1.61826574802 1.61823308468 1.49495518208 1.29545605183 1.2217862606 0.967591762543 0.967560589314 1.22184276581 1.35582149029 1.49502706528 1.61858820915 1.61853957176 1.49492490292 1.29545152187 1.22177422047 0.967592060566 0.969434261322 1.18458914757 1.31334471703 1.45664930344 1.59705388546 1.59699177742 1.45654606819 1.25408017635 1.18452739716 0.969465851784 0.971830427647 1.10763502121 1.22349607944 1.36607336998 1.52200829983 1.5220015049 1.36596298218 1.16827857494 1.10757911205 0.971871733665 0.973707199097 1.0490489006 1.14857745171 1.29601979256 1.42958915234 1.42944812775 1.29593205452 1.09784948826 1.04899775982 0.973766863346 0.982385694981 1.00649428368 1.0304018259 1.07445883751 1.15178358555 1.15183615685 1.074395895 1.02220904827 1.0064675808 0.982438564301 
0.982352614403 1.00653839111 1.03047120571 1.07459414005 1.15224277973 1.15221524239 1.07453906536 1.02224612236 1.00651037693 0.982403576374 0.973697125912 1.04915189743 1.14877164364 1.29602217674 1.42928397655 1.42925238609 1.29589295387 1.09798562527 1.04910087585 0.973755002022 0.971374511719 1.13853645325 1.26350867748 1.41915440559 1.58026587963 1.58023238182 1.41901671886 1.20538568497 1.13846802711 0.971413075924 0.969429135323 1.18464553356 1.31339597702 1.45678949356 1.59672319889 1.59668493271 1.45669138432 1.25412082672 1.18458247185 0.969461083412 0.967559754848 1.22185623646 1.3558409214 1.49504649639 1.61827921867 1.61824691296 1.49495732784 1.29545760155 1.2217874527 0.967591404915 0.96756029129 1.22184383869 1.3558229208 1.49502909184 1.61860287189 1.61855435371 1.4949272871 1.29545295238 1.22177529335 0.967592120171 0.969434022903 1.18459022045 1.31334614754 1.45665073395 1.59706068039 1.59699881077 1.45654773712 1.25408172607 1.18452835083 0.969465792179 0.971830189228 1.10763561726 1.22349727154 1.36607468128 1.5220092535 1.52200257778 1.36596417427 1.16827905178 1.10757958889 0.971871614456 0.973707020283 1.04904913902 1.14857816696 1.29602098465 1.42959058285 1.42944931984 1.29593336582 1.0978499651 1.04899787903 0.973766684532 0.982385516167 1.00649428368 1.0304018259 1.07445919514 1.15178477764 1.15183734894 1.07439613342 1.02220904827 1.0064675808 0.982438504696 
0.982352614403 1.00653851032 1.03047156334 1.07459497452 1.15224456787 1.15221691132 1.07453966141 1.0222465992 1.00651037693 0.982403576374 0.973697006702 1.04915237427 1.1487724781 1.29602336884 1.42928552628 1.42925393581 1.29589438438 1.09798645973 1.0491014719 0.973755002022 0.971374452114 1.13853752613 1.26350986958 1.41915678978 1.58027684689 1.58024334908 1.41901910305 1.20538663864 1.1384691 0.971412956715 0.969428896904 1.18464684486 1.31339776516 1.45679187775 1.59672963619 1.59669184685 1.4566937685 1.25412249565 1.18458390236 0.969460964203 0.967559456825 1.22185790539 1.35584294796 1.4950492382 1.6182898283 1.61825680733 1.49495995045 1.29545938969 1.22178912163 0.967591106892 0.967560231686 1.22184538841 1.35582470894 1.49503195286 1.61861360073 1.61856508255 1.49492990971 1.29545462132 1.22177696228 0.967591702938 0.969433784485 1.18459141254 1.31334781647 1.45665311813 1.59706819057 1.59700572491 1.4565500021 1.25408327579 1.18452966213 0.96946567297 0.971829950809 1.10763657093 1.22349822521 1.36607635021 1.52201104164 1.5220041275 1.36596560478 1.16828036308 1.10758054256 0.971871435642 0.97370672226 1.04904985428 1.14857900143 1.29602241516 1.42959201336 1.42945098877 1.29593479633 1.09785079956 1.04899835587 0.973766624928 0.982385516167 1.00649440289 1.03040230274 1.07445979118 1.15178656578 1.15183913708 1.0743970871 1.02220916748 1.0064675808 0.982438445091 
