14.008808136 13.8220939636 13.0486593246 11.909910202 11.2683753967 11.2688903809 11.9124279022 13.0513401031 13.8233919144 14.0087919235 21.9974861145 21.67004776 20.6561565399 19.3358345032 18.6002597809 18.6008396149 19.3386535645 20.659444809 21.6718254089 21.9975414276 29.9874801636 29.5799541473 28.732793808 27.7300624847 27.1382331848 27.1387138367 27.732257843 28.7353076935 29.5817127228 29.9875907898 37.9877929688 37.6973762512 37.1695480347 36.5699996948 36.2105255127 36.2108154297 36.5713272095 37.1710586548 37.698513031 37.9879074097 46.0010986328 45.8976249695 45.7185554504 45.5205993652 45.4016685486 45.4017677307 45.521030426 45.7190666199 45.8980140686 46.0011444092 54.0189323425 54.1229515076 54.3029289246 54.5018806458 54.6214752197 54.6213684082 54.5014419556 54.3024215698 54.1225471497 54.0188865662 62.0322227478 62.3230400085 62.8517227173 63.4522705078 63.8123779297 63.8120956421 63.4509506226 62.8502082825 62.3219032288 62.0321083069 70.0325088501 70.4400863647 71.287940979 72.2917861938 72.8838500977 72.8833847046 72.2896270752 71.2854003906 70.4383239746 70.0323944092 78.0224685669 78.3495941162 79.3635025024 80.6845092773 81.4203720093 81.4197769165 80.6817321777 79.3602294922 78.3478240967 78.0224075317 86.0111923218 86.1975402832 86.969543457 88.1057281494 88.7454681396 88.7451400757 88.103225708 86.9669189453 86.1962432861 86.0112075806 
14.0018844604 13.7849655151 13.017162323 11.858669281 11.1541690826 11.1547679901 11.8613195419 13.0198249817 13.7862730026 14.0019035339 21.9893932343 21.6090812683 20.5302810669 19.054933548 18.1657867432 18.1665229797 19.0582447052 20.5338249207 21.6109905243 21.9894924164 29.9792232513 29.5007381439 28.5329303741 27.3432025909 26.5954551697 26.59608078 27.3459205627 28.5358276367 29.5027351379 29.9793777466 37.9808158875 37.6258544922 36.9971237183 36.2697372437 35.8132705688 35.8136405945 36.271396637 36.9989356995 37.6272125244 37.9809646606 45.99817276 45.8680725098 45.6506729126 45.408367157 45.2578048706 45.2579345703 45.4089126587 45.6512794495 45.8685417175 45.9982261658 54.0218849182 54.1526527405 54.3711738586 54.6147079468 54.7661437988 54.7660217285 54.6141471863 54.3705635071 54.152179718 54.0218276978 62.0392074585 62.394618988 63.0243263245 63.7529029846 64.2101669312 64.2097930908 63.7512397766 63.022518158 62.3932685852 62.0390586853 70.0407562256 70.51927948 71.4877166748 72.6787033081 73.4266433716 73.4260253906 72.6760025024 71.4848098755 70.517288208 70.0406036377 78.0305633545 78.4105148315 79.489112854 80.9649963379 81.8541946411 81.8534469604 80.9617462158 79.4855728149 78.4086151123 78.0304794312 86.0181045532 86.23462677 87.0009536743 88.1563796997 88.8589553833 88.8585739136 88.1537017822 86.998374939 86.2333450317 86.018081665 
14.0017089844 13.7855882645 13.0242395401 11.8743934631 11.1741275787 11.1747264862 11.8770294189 13.026881218 13.7868862152 14.0017280579 21.9892654419 21.6103286743 20.5380535126 19.0690231323 18.1818752289 18.1826076508 19.0723266602 20.5415725708 21.6122283936 21.989364624 29.9792118073 29.5021839142 28.5393505096 27.3541965485 26.6071796417 26.6078052521 27.3569145203 28.5422363281 29.5041732788 29.9793682098 37.9808425903 37.6269226074 37.0011901855 36.2760810852 35.8182373047 35.8186225891 36.2777404785 37.0029907227 37.6282730103 37.9809875488 45.9981880188 45.8684539795 45.6520271301 45.4102058411 45.2584457397 45.2585678101 45.4107513428 45.6526260376 45.8689308167 45.998249054 54.0218734741 54.1522674561 54.3698234558 54.6128540039 54.7655334473 54.7653923035 54.6123008728 54.3692016602 54.1517791748 54.0218086243 62.0391769409 62.3935432434 63.0202522278 63.746547699 64.2051696777 64.204788208 63.7448883057 63.0184593201 62.3922042847 62.0390319824 70.0407867432 70.5178222656 71.481300354 72.667678833 73.414894104 73.4142837524 72.6650009155 71.4783859253 70.515838623 70.0406341553 78.0306854248 78.4092712402 79.481338501 80.9508972168 81.8380889893 81.8373413086 80.9476623535 79.4778213501 78.407371521 78.0305938721 86.0182876587 86.2340087891 86.9938812256 88.1406555176 88.8389968872 88.8386459351 88.1379928589 86.9913330078 86.2327346802 86.0182571411 
14.0017023087 13.7856063843 13.0244188309 11.8747940063 11.1746406555 11.1752386093 11.8774290085 13.0270624161 13.7869033813 14.0017223358 21.9892673492 21.6103668213 20.5382575989 19.06939888 18.182308197 18.1830425262 19.0727024078 20.5417785645 21.6122627258 21.9893684387 29.9792118073 29.5022258759 28.5395240784 27.3545055389 26.6075286865 26.6081542969 27.3572235107 28.5424118042 29.5042114258 29.9793663025 37.9808425903 37.626953125 37.0013122559 36.2762794495 35.8184623718 35.8188476562 36.2779388428 37.0031013489 37.6283073425 37.9809951782 45.9981880188 45.8684654236 45.6520652771 45.4102668762 45.2585220337 45.258644104 45.410823822 45.6526679993 45.868938446 45.998249054 54.0218658447 54.152256012 54.3697776794 54.6127891541 54.7654495239 54.7653198242 54.6122360229 54.3691673279 54.1517715454 54.0218086243 62.0391769409 62.3935165405 63.0201530457 63.7463493347 64.2049407959 64.2045593262 63.7446975708 63.0183448792 62.3921737671 62.0390319824 70.0407791138 70.5177841187 71.4811172485 72.6673736572 73.4145507812 73.4139328003 72.6646957397 71.4782180786 70.5158081055 70.0406341553 78.0306854248 78.4092178345 79.4811401367 80.9505310059 81.8376617432 81.8369140625 80.9472885132 79.4776306152 78.4073410034 78.0305938721 86.0182952881 86.2339935303 86.9936981201 88.1402587891 88.8384857178 88.8381271362 88.1376037598 86.9911651611 86.232711792 86.0182647705 
14.0017032623 13.7856044769 13.0244131088 11.8747825623 11.1746225357 11.1752204895 11.8774166107 13.027053833 13.7869033813 14.0017242432 21.9892673492 21.6103630066 20.5382480621 19.0693855286 18.1822929382 18.1830272675 19.0726909637 20.5417690277 21.6122589111 21.9893684387 29.9792118073 29.5022258759 28.5395183563 27.3544979095 26.6075191498 26.6081428528 27.3572158813 28.5424003601 29.5042114258 29.9793663025 37.9808425903 37.626953125 37.0013008118 36.2762718201 35.8184585571 35.8188438416 36.2779312134 37.0031013489 37.6283073425 37.9809951782 45.9981880188 45.8684616089 45.6520652771 45.4102745056 45.258518219 45.2586402893 45.410823822 45.6526679993 45.8689422607 45.998249054 54.0218658447 54.152256012 54.3697776794 54.6127929688 54.7654495239 54.7653236389 54.6122398376 54.3691673279 54.1517715454 54.0218086243 62.0391769409 62.3935203552 63.0201454163 63.7463531494 64.2049560547 64.204574585 63.7446937561 63.0183486938 62.3921737671 62.0390319824 70.0407791138 70.5177841187 71.4811019897 72.6673965454 73.4145584106 73.4139480591 72.6647033691 71.4782333374 70.5158004761 70.0406341553 78.0306854248 78.4092178345 79.4811401367 80.9505462646 81.837677002 81.8369293213 80.947303772 79.4776306152 78.4073410034 78.0305938721 86.0182952881 86.2339935303 86.9937133789 88.1402587891 88.838508606 88.8381500244 88.1376037598 86.9911804199 86.232711792 86.0182647705 
14.001704216 13.7856063843 13.0244054794 11.8747577667 11.1745929718 11.1751890182 11.8773918152 13.0270433426 13.786901474 14.0017242432 21.9892673492 21.6103610992 20.5382347107 19.0693626404 18.182264328 18.1830024719 19.0726661682 20.5417556763 21.6122608185 21.9893684387 29.9792118073 29.5022201538 28.5395030975 27.3544826508 26.6074943542 26.6081218719 27.3571968079 28.5423870087 29.5042076111 29.9793663025 37.9808425903 37.6269493103 37.0013008118 36.276260376 35.8184394836 35.8188247681 36.277923584 37.0030937195 37.6282997131 37.9809951782 45.9981880188 45.8684654236 45.6520652771 45.4102630615 45.2585144043 45.2586326599 45.4108200073 45.6526641846 45.8689422607 45.998249054 54.0218658447 54.1522598267 54.3697776794 54.6128005981 54.7654571533 54.7653198242 54.6122360229 54.3691711426 54.1517753601 54.0218086243 62.0391769409 62.3935241699 63.0201568604 63.7463684082 64.2049636841 64.2045898438 63.7447128296 63.0183601379 62.3921775818 62.0390319824 70.0407791138 70.5177841187 71.4811325073 72.6674041748 73.4145812988 73.4139633179 72.6647338867 71.4782333374 70.5158157349 70.0406341553 78.0306854248 78.4092254639 79.4811477661 80.9505615234 81.8377075195 81.8369598389 80.9473266602 79.4776535034 78.4073410034 78.0305862427 86.0182952881 86.2340011597 86.9937210083 88.1402816772 88.8385467529 88.8381729126 88.1376266479 86.9911804199 86.232711792 86.0182647705 
14.001704216 13.7856035233 13.0243902206 11.8747320175 11.1745605469 11.175157547 11.8773670197 13.0270318985 13.786901474 14.0017242432 21.9892673492 21.6103591919 20.538225174 19.0693416595 18.1822357178 18.1829738617 19.07264328 20.5417423248 21.6122570038 21.9893684387 29.9792118073 29.5022182465 28.5394935608 27.3544597626 26.6074714661 26.6081027985 27.3571777344 28.542383194 29.5042057037 29.9793663025 37.9808425903 37.6269454956 37.0012931824 36.2762451172 35.8184318542 35.818813324 36.2779083252 37.0030937195 37.6283035278 37.9809875488 45.9981880188 45.8684654236 45.6520614624 45.4102554321 45.2585067749 45.2586326599 45.4108161926 45.6526603699 45.8689422607 45.998249054 54.0218734741 54.1522598267 54.3697814941 54.6128044128 54.7654647827 54.7653236389 54.6122360229 54.3691749573 54.1517715454 54.0218086243 62.0391769409 62.3935203552 63.0201530457 63.746383667 64.2049789429 64.2045974731 63.7447242737 63.0183601379 62.3921852112 62.0390319824 70.0407791138 70.5177841187 71.4811325073 72.667427063 73.414604187 73.4139938354 72.6647415161 71.478263855 70.5158157349 70.0406341553 78.0306854248 78.4092254639 79.4811706543 80.9505996704 81.8377227783 81.8369827271 80.9473571777 79.4776535034 78.4073486328 78.0305862427 86.0182952881 86.2340011597 86.9937362671 88.1403045654 88.8385696411 88.8382110596 88.1376495361 86.9911956787 86.232711792 86.0182647705 
