2.26548051834 3.88402032852 6.78732395172 9.50977516174 11.1081228256 11.106842041 9.50380039215 6.77988481522 3.87728643417 2.26536512375 2.29124307632 5.08432435989 9.8114528656 14.3649616241 17.0065326691 17.0044803619 14.3548870087 9.79924678802 5.07320022583 2.29092502594 2.31510043144 5.98210906982 11.9139003754 17.5847568512 21.0072135925 21.0045681 17.571937561 11.898809433 5.96786022186 2.31459784508 2.33240246773 6.51488208771 13.1004266739 19.3393917084 23.0830383301 23.0801544189 19.3253326416 13.0837841034 6.49889421463 2.33176851273 2.34166765213 6.78182077408 13.6834945679 20.1724376678 24.0464801788 24.0435085297 20.1578865051 13.6661176682 6.76500368118 2.34096288681 2.34166073799 6.78160667419 13.6830263138 20.1717777252 24.0457344055 24.042760849 20.1572246552 13.6656551361 6.76479291916 2.34095573425 2.33236646652 6.51377725601 13.0980100632 19.3358612061 23.078918457 23.0760288239 19.3218269348 13.0813932419 6.4978055954 2.33173322678 2.31504368782 5.98014259338 11.9095315933 17.5783233643 20.9984436035 20.9959125519 17.5655422211 11.8944797516 5.96590137482 2.31454110146 2.29116797447 5.08134460449 9.80415725708 14.3544044495 16.9931430817 16.991147995 14.3444728851 9.79181861877 5.0701675415 2.29085063934 2.26542520523 3.88029646873 6.77751493454 9.49321937561 11.0877046585 11.086810112 9.48671913147 6.76978397369 3.87347888947 2.2653067112 
2.26570010185 3.82814764977 6.6769900322 9.37958240509 10.9641056061 10.9628343582 9.37364959717 6.66962957382 3.82159686089 2.26558661461 2.29081249237 5.02019882202 9.69684028625 14.2383794785 16.87707901 16.8750171661 14.2283172607 9.68470191956 5.00925827026 2.29050207138 2.3142580986 5.9189825058 11.8015460968 17.4625835419 20.9388160706 20.9360618591 17.4497356415 11.7865343094 5.90490293503 2.31376647949 2.33146190643 6.45355701447 12.9889831543 19.2460098267 23.1150341034 23.1119766235 19.2317428589 12.9724187851 6.43773078918 2.3308391571 2.34075593948 6.72217845917 13.5742025375 20.1036071777 24.1356563568 24.1324882507 20.0887126923 13.5569019318 6.70551776886 2.34006237984 2.34074926376 6.72196435928 13.5737333298 20.1029319763 24.1348628998 24.1316947937 20.0880393982 13.5564374924 6.70530700684 2.34005570412 2.33142566681 6.4524474144 12.9865627289 19.2424163818 23.1107292175 23.107667923 19.2281780243 12.9700231552 6.43663597107 2.33080410957 2.31420207024 5.91699695587 11.7971544266 17.4560699463 20.9298000336 20.9271602631 17.4432468414 11.7821836472 5.90292215347 2.31370997429 2.29073834419 5.01717948914 9.68943691254 14.2277822495 16.8634872437 16.8614883423 14.2178602219 9.67714309692 5.0061750412 2.2904291153 2.26564621925 3.82444310188 6.66714048386 9.36290359497 10.9437665939 10.9428653717 9.35637950897 6.65945005417 3.81779694557 2.26552939415 
2.26570129395 3.82769060135 6.67608070374 9.37849807739 10.962887764 10.9616165161 9.37256526947 6.66872119904 3.82114219666 2.26558756828 2.29080820084 5.01966333389 9.69586753845 14.237279892 16.8759117126 16.8738479614 14.2272195816 9.68373012543 5.00872278214 2.29049825668 2.31424975395 5.91844844818 11.8005771637 17.4614696503 20.9377765656 20.9350223541 17.4486198425 11.7855710983 5.90436887741 2.31375837326 2.33145403862 6.4530415535 12.9880428314 19.2449970245 23.114730835 23.1116695404 19.2307281494 12.9714803696 6.43721628189 2.33083152771 2.34074735641 6.7216835022 13.5732831955 20.1027126312 24.1367073059 24.1335372925 20.0878181458 13.5559825897 6.70502376556 2.34005379677 2.34074020386 6.72146844864 13.5728178024 20.1020317078 24.1359138489 24.1327400208 20.0871391296 13.5555200577 6.7048125267 2.34004688263 2.33141708374 6.45193099976 12.985619545 19.2414035797 23.1104183197 23.1073589325 19.2271633148 12.9690818787 6.43612194061 2.33079624176 2.314193964 5.91646099091 11.7961893082 17.4549541473 20.9287509918 20.9261131287 17.4421291351 11.7812194824 5.90238857269 2.31370258331 2.29073405266 5.0166425705 9.68846607208 14.2266817093 16.8623161316 16.8603210449 14.2167625427 9.67617225647 5.00563907623 2.29042458534 2.26564693451 3.82398700714 6.66623067856 9.36181640625 10.9425477982 10.9416503906 9.3552942276 6.65854120255 3.81734204292 2.26553082466 
2.26570129395 3.82770252228 6.67610836029 9.37853717804 10.9629354477 10.9616622925 9.37260627747 6.66874980927 3.82115387917 2.26558804512 2.29080891609 5.01968097687 9.69590568542 14.2373313904 16.8759727478 16.8739109039 14.2272729874 9.68376922607 5.00874090195 2.29049873352 2.31425094604 5.91847133636 11.8006296158 17.4615364075 20.9378528595 20.9350948334 17.4486865997 11.7856168747 5.90439176559 2.31375908852 2.33145451546 6.45306777954 12.9880971909 19.2450752258 23.114818573 23.1117610931 19.2308006287 12.971534729 6.43724155426 2.33083200455 2.34074831009 6.72171163559 13.573343277 20.1027946472 24.1368198395 24.1336460114 20.0879039764 13.5560426712 6.70505332947 2.34005427361 2.34074091911 6.72149705887 13.5728778839 20.1021194458 24.1360225677 24.132850647 20.087228775 13.5555772781 6.70484113693 2.34004759789 2.33141803741 6.45195817947 12.9856786728 19.2414798737 23.1105079651 23.1074447632 19.2272377014 12.9691352844 6.43614768982 2.33079695702 2.31419467926 5.91648435593 11.7962379456 17.4550170898 20.9288272858 20.9261894226 17.4421977997 11.7812662125 5.90241003036 2.31370353699 2.2907345295 5.01666069031 9.68850517273 14.2267360687 16.8623790741 16.8603782654 14.2168140411 9.67621040344 5.00565719604 2.29042458534 2.26564741135 3.8239979744 6.66625976562 9.36185741425 10.9425964355 10.941699028 9.35533237457 6.65856933594 3.81735372543 2.26553106308 
2.26570153236 3.82771348953 6.67613601685 9.37857818604 10.9629831314 10.9617109299 9.37264442444 6.66877555847 3.82116532326 2.26558804512 2.29080891609 5.01969861984 9.69594478607 14.2373847961 16.8760299683 16.8739681244 14.2273235321 9.68380737305 5.00875806808 2.29049873352 2.31425094604 5.91849422455 11.8006734848 17.4616031647 20.9379234314 20.9351654053 17.4487533569 11.7856645584 5.90441322327 2.31376004219 2.33145523071 6.45309448242 12.9881534576 19.2451515198 23.1149101257 23.1118488312 19.23087883 12.9715890884 6.43726921082 2.33083248138 2.34074902534 6.72173976898 13.5734024048 20.1028785706 24.136926651 24.1337528229 20.0879821777 13.5560998917 6.70508146286 2.34005498886 2.34074163437 6.7215256691 13.572936058 20.1022014618 24.1361293793 24.1329574585 20.087310791 13.5556373596 6.704870224 2.34004831314 2.33141875267 6.45198535919 12.9857339859 19.2415599823 23.1105976105 23.1075344086 19.2273178101 12.9691934586 6.43617391586 2.33079767227 2.31419563293 5.91650629044 11.7962827682 17.455083847 20.928899765 20.9262619019 17.4422607422 11.7813138962 5.90243244171 2.31370329857 2.29073476791 5.01667785645 9.68854236603 14.2267856598 16.8624362946 16.8604354858 14.2168674469 9.67624950409 5.00567483902 2.29042506218 2.26564764977 3.82400941849 6.66628599167 9.36189746857 10.9426450729 10.9417448044 9.35537338257 6.65859603882 3.81736445427 2.26553106308 
2.26570177078 3.82772541046 6.67616224289 9.37861728668 10.9630270004 10.9617567062 9.37268447876 6.66880226135 3.82117557526 2.26558804512 2.29080891609 5.01971578598 9.69598293304 14.2374353409 16.8760852814 16.8740253448 14.2273740768 9.68384456635 5.00877571106 2.29049897194 2.3142516613 5.91851472855 11.8007240295 17.4616680145 20.937997818 20.9352397919 17.4488143921 11.7857122421 5.90443611145 2.31376051903 2.33145570755 6.45311975479 12.9882087708 19.2452259064 23.1149978638 23.1119403839 19.2309570312 12.9716453552 6.43729448318 2.33083319664 2.3407497406 6.72176790237 13.5734596252 20.1029624939 24.1370353699 24.1338615417 20.0880661011 13.5561599731 6.70510959625 2.34005570412 2.34074234962 6.72155427933 13.5729932785 20.1022834778 24.1362361908 24.1330623627 20.0873908997 13.5556964874 6.70489740372 2.3400490284 2.33141946793 6.4520111084 12.9857883453 19.2416343689 23.1106872559 23.107624054 19.2273902893 12.9692487717 6.43620014191 2.33079838753 2.31419563293 5.91652917862 11.796330452 17.4551486969 20.9289703369 20.9263343811 17.442325592 11.7813606262 5.90245437622 2.31370377541 2.29073500633 5.01669549942 9.68858242035 14.2268390656 16.862493515 16.8604946136 14.216917038 9.67628765106 5.00569248199 2.29042506218 2.2656481266 3.82402038574 6.66631174088 9.36193656921 10.9426898956 10.9417915344 9.35541248322 6.65862226486 3.81737613678 2.26553106308 
2.26570177078 3.82773637772 6.67618846893 9.37865543365 10.9630756378 10.9618034363 9.37272357941 6.66882944107 3.82118701935 2.26558804512 2.29080939293 5.01973342896 9.69602203369 14.237487793 16.8761463165 16.8740844727 14.2274274826 9.68388366699 5.0087928772 2.29049921036 2.31425213814 5.91853904724 11.8007707596 17.461730957 20.9380645752 20.9353141785 17.4488830566 11.7857589722 5.90445899963 2.31376099586 2.33145642281 6.45314693451 12.9882640839 19.245306015 23.1150894165 23.112033844 19.2310352325 12.9716997147 6.43732118607 2.33083438873 2.34075045586 6.7217965126 13.5735216141 20.1030483246 24.1371440887 24.1339702606 20.0881500244 13.556219101 6.70513772964 2.34005665779 2.3407433033 6.72158145905 13.5730524063 20.1023674011 24.1363449097 24.1331748962 20.0874786377 13.5557565689 6.70492601395 2.34004998207 2.33142018318 6.4520368576 12.9858436584 19.2417106628 23.1107788086 23.1077156067 19.2274665833 12.9693021774 6.43622636795 2.33079910278 2.31419610977 5.91655158997 11.7963809967 17.4552154541 20.9290466309 20.926410675 17.4423923492 11.7814092636 5.90247774124 2.31370472908 2.29073548317 5.01671266556 9.68862056732 14.2268886566 16.8625526428 16.8605518341 14.2169685364 9.67632675171 5.00571012497 2.29042553902 2.2656481266 3.82403159142 6.66633892059 9.36197566986 10.942735672 10.9418382645 9.35545063019 6.65864896774 3.81738710403 2.26553106308 
