2.26570773125 3.92139101028 6.8611869812 9.60008335114 11.20952034 11.2082366943 9.5940694809 6.85368919373 3.91453456879 2.26558852196 2.29179739952 5.1254825592 9.89132118225 14.4556627274 17.0945262909 17.0924949646 14.4455738068 9.87905883789 5.11423015594 2.29147291183 2.31568646431 6.02420568466 11.9947128296 17.6650905609 21.0368061066 21.0342197418 17.6523418427 11.9795618057 6.00982666016 2.31517767906 2.33299827576 6.55641222 13.1801109314 19.3922538757 23.0640182495 23.061214447 19.3783950806 13.1634244919 6.54029655457 2.3323571682 2.34232497215 6.82207202911 13.7608194351 20.2067928314 24.0027732849 23.9998893738 20.1924667358 13.7434244156 6.80513286591 2.34161233902 2.34231758118 6.82185935974 13.7603569031 20.2061424255 24.0020446777 23.9991607666 20.19181633 13.7429656982 6.80492448807 2.34160518646 2.3329615593 6.55531167984 13.1777000427 19.3887672424 23.0599822998 23.0571708679 19.3749389648 13.1610383987 6.53921079636 2.33232188225 2.31562995911 6.02224826813 11.9903535843 17.6587486267 21.0281887054 21.0257205963 17.6460437775 11.9752435684 6.00787734985 2.31512069702 2.29172253609 5.12252807617 9.88408279419 14.4451322556 17.0813503265 17.0793704987 14.4351787567 9.87169933319 5.11122894287 2.29139876366 2.26565027237 3.91765737534 6.85140991211 9.58360958099 11.1890296936 11.1881399155 9.57711601257 6.84364128113 3.91072440147 2.26552796364 
2.26609659195 3.83145475388 6.68447494507 9.391664505 10.9809341431 10.9796581268 9.38572025299 6.67710590363 3.8248925209 2.26598072052 2.29115104675 5.02286529541 9.70921039581 14.2556409836 16.8975887299 16.8955307007 14.2455701828 9.69705200195 5.01190233231 2.29083919525 2.31436061859 5.92311286926 11.8157196045 17.4801101685 20.9564495087 20.9536991119 17.467256546 11.8006944656 5.90899991989 2.3138692379 2.33156442642 6.45794868469 13.0019521713 19.2599563599 23.1253929138 23.1223506927 19.2456893921 12.985373497 6.44209241867 2.33094143867 2.3408434391 6.7264084816 13.5859375 20.1147842407 24.1401386261 24.1369895935 20.099905014 13.5686254501 6.70972108841 2.3401491642 2.34083628654 6.72619438171 13.5854701996 20.1141147614 24.1393566132 24.1361999512 20.09923172 13.5681657791 6.70950937271 2.34014248848 2.3315281868 6.4568400383 12.9995365143 19.2563705444 23.1211071014 23.1180591583 19.2421321869 12.9829864502 6.44099807739 2.33090615273 2.31430482864 5.92112445831 11.8113327026 17.4736003876 20.9474372864 20.9448032379 17.460773468 11.7963438034 5.90701580048 2.3138127327 2.29107832909 5.01984453201 9.7017993927 14.2450342178 16.8840141296 16.8820114136 14.2350978851 9.6894865036 5.00881958008 2.290766716 2.26604175568 3.82774782181 6.67461442947 9.37495231628 10.9605121613 10.959608078 9.36841869354 6.66691303253 3.82108974457 2.26592278481 
2.26610159874 3.8298034668 6.68118619919 9.38773536682 10.9765310287 10.9752521515 9.38179397583 6.67381858826 3.82324695587 2.26598572731 2.2911362648 5.02092647552 9.70569610596 14.2516670227 16.8933525085 16.8912906647 14.2415943146 9.69354152679 5.00996875763 2.29082465172 2.31433320045 5.92117738724 11.8122272491 17.476064682 20.9526691437 20.9499149323 17.4632091522 11.7972021103 5.90707015991 2.31384205818 2.33153367043 6.45607185364 12.9985198975 19.2562255859 23.1243991852 23.1213436127 19.2419567108 12.9819469452 6.44022035599 2.33091139793 2.34081053734 6.72458839417 13.5825500488 20.1114559174 24.1435012817 24.1403312683 20.0965652466 13.5652418137 6.70790624619 2.34011697769 2.3408036232 6.72437477112 13.5820837021 20.1107807159 24.1427021027 24.1395378113 20.0958938599 13.5647783279 6.70769405365 2.34010982513 2.33149766922 6.45496273041 12.9961051941 19.2526416779 23.120098114 23.1170406342 19.238401413 12.97955513 6.43912696838 2.3308763504 2.31427717209 5.91918802261 11.8078384399 17.4695529938 20.9436511993 20.9410114288 17.4567279816 11.7928504944 5.9050860405 2.3137857914 2.29106354713 5.01790428162 9.69828414917 14.2410583496 16.8797740936 16.8777713776 14.2311248779 9.68597507477 5.00688457489 2.29075217247 2.26604700089 3.82609724998 6.67132472992 9.37102031708 10.9561109543 10.955206871 9.36448574066 6.66362380981 3.81944417953 2.26592755318 
2.26610183716 3.82981491089 6.68121433258 9.38777732849 10.9765777588 10.9753017426 9.38183403015 6.67384624481 3.82325863838 2.26598596573 2.29113674164 5.02094459534 9.70573616028 14.2517194748 16.8934135437 16.8913516998 14.2416477203 9.69358062744 5.00998735428 2.29082512856 2.31433367729 5.92119932175 11.8122768402 17.4761314392 20.9527435303 20.9499912262 17.4632778168 11.7972517014 5.90709257126 2.31384205818 2.3315346241 6.45609951019 12.9985761642 19.2563037872 23.1244888306 23.1214370728 19.2420349121 12.9820022583 6.44024753571 2.33091187477 2.34081172943 6.72461748123 13.5826101303 20.111541748 24.1436061859 24.1404342651 20.0966510773 13.5653018951 6.70793485641 2.34011793137 2.34080457687 6.72440338135 13.5821466446 20.1108627319 24.1428070068 24.1396408081 20.0959777832 13.5648412704 6.70772361755 2.34011077881 2.33149862289 6.45498895645 12.9961605072 19.2527198792 23.1201858521 23.1171302795 19.2384777069 12.9796123505 6.43915367126 2.33087706566 2.31427741051 5.9192109108 11.8078870773 17.469619751 20.9437217712 20.9410877228 17.4567947388 11.7929000854 5.90510988235 2.31378626823 2.29106378555 5.01792287827 9.69832420349 14.2411108017 16.8798313141 16.8778305054 14.23117733 9.68601417542 5.0069026947 2.29075241089 2.26604700089 3.82610917091 6.67135429382 9.37106227875 10.9561605453 10.9552555084 9.36452770233 6.66365242004 3.81945610046 2.26592755318 
2.26610183716 3.82982683182 6.68124198914 9.38781547546 10.9766263962 10.9753513336 9.38187408447 6.67387390137 3.82326984406 2.26598572731 2.29113698006 5.02096176147 9.70577526093 14.2517728806 16.8934707642 16.8914089203 14.2416992188 9.69361877441 5.01000499725 2.29082512856 2.31433415413 5.92122268677 11.8123254776 17.4761962891 20.9528179169 20.9500656128 17.4633407593 11.7972974777 5.90711593628 2.31384253502 2.33153510094 6.45612573624 12.998632431 19.2563819885 23.1245803833 23.1215286255 19.2421092987 12.9820575714 6.44027423859 2.33091282845 2.34081196785 6.7246465683 13.5826683044 20.111623764 24.1437110901 24.1405410767 20.0967350006 13.5653600693 6.70796442032 2.34011864662 2.34080505371 6.72443199158 13.5822019577 20.1109485626 24.1429195404 24.1397514343 20.0960617065 13.5649013519 6.70775175095 2.34011173248 2.33149909973 6.45501661301 12.9962177277 19.2527961731 23.1202735901 23.1172180176 19.2385559082 12.9796686172 6.43917942047 2.33087801933 2.31427812576 5.91923379898 11.807934761 17.4696865082 20.9437942505 20.941160202 17.456861496 11.7929487228 5.90513181686 2.31378650665 2.29106426239 5.01794052124 9.69836330414 14.2411651611 16.8798904419 16.8778915405 14.2312297821 9.68605327606 5.00692033768 2.29075312614 2.26604747772 3.82612133026 6.67138051987 9.37110328674 10.9562072754 10.9553022385 9.36456680298 6.66367959976 3.81946754456 2.2659277916 
2.26610183716 3.82983827591 6.68126964569 9.38785743713 10.9766750336 10.9753990173 9.38191318512 6.67390108109 3.82328176498 2.26598572731 2.29113745689 5.02098083496 9.70581436157 14.2518253326 16.893529892 16.8914699554 14.2417526245 9.69365882874 5.01002216339 2.29082584381 2.31433439255 5.92124605179 11.8123722076 17.4762649536 20.9528923035 20.9501399994 17.4634094238 11.7973489761 5.90713834763 2.31384301186 2.33153581619 6.45615196228 12.9986886978 19.2564620972 23.1246738434 23.1216163635 19.2421894073 12.9821157455 6.4403014183 2.33091378212 2.34081292152 6.72467565536 13.5827302933 20.1117076874 24.1438236237 24.1406517029 20.096818924 13.5654220581 6.70799303055 2.34011936188 2.34080600739 6.72446107864 13.5822649002 20.111032486 24.1430263519 24.1398601532 20.0961456299 13.5649614334 6.70778083801 2.34011244774 2.33149957657 6.45504379272 12.9962739944 19.252872467 23.1203708649 23.1173095703 19.2386341095 12.9797229767 6.43920612335 2.33087873459 2.3142786026 5.919257164 11.8079843521 17.4697532654 20.9438705444 20.941236496 17.4569263458 11.7929973602 5.90515422821 2.31378722191 2.29106402397 5.01795816422 9.69840335846 14.2412176132 16.8799476624 16.877948761 14.2312822342 9.68609046936 5.00693750381 2.29075312614 2.26604747772 3.82613253593 6.67141008377 9.37114334106 10.9562568665 10.9553527832 9.36460781097 6.66370820999 3.81947875023 2.26592755318 
2.26610207558 3.82984972 6.68129634857 9.38789653778 10.9767217636 10.97544384 9.38195419312 6.67392873764 3.8232922554 2.26598596573 2.29113721848 5.02099847794 9.70585441589 14.2518768311 16.8935909271 16.8915290833 14.2418079376 9.69369697571 5.0100402832 2.29082560539 2.31433486938 5.92126846313 11.812420845 17.4763298035 20.9529685974 20.950214386 17.463476181 11.7973966599 5.90716075897 2.31384348869 2.33153653145 6.45617866516 12.9987449646 19.2565383911 23.1247634888 23.1217079163 19.2422657013 12.9821710587 6.44032669067 2.33091425896 2.34081363678 6.72470331192 13.5827913284 20.1117916107 24.1439285278 24.1407623291 20.0969028473 13.5654811859 6.70802211761 2.34012007713 2.34080672264 6.72448921204 13.5823221207 20.1111183167 24.1431331635 24.1399688721 20.0962314606 13.5650196075 6.70780897141 2.34011363983 2.33150029182 6.45506954193 12.9963302612 19.2529506683 23.1204605103 23.117401123 19.2387084961 12.9797792435 6.43923330307 2.33087897301 2.3142786026 5.91927909851 11.8080301285 17.4698200226 20.943939209 20.9413051605 17.4569911957 11.7930469513 5.90517759323 2.31378746033 2.29106450081 5.01797628403 9.69843959808 14.2412700653 16.8800067902 16.8780078888 14.2313346863 9.68613052368 5.00695562363 2.29075360298 2.2660472393 3.82614374161 6.67143583298 9.37118244171 10.9563035965 10.9553985596 9.3646478653 6.66373491287 3.8194899559 2.26592755318 
