2.26402568817 4.04932498932 7.18111419678 9.95263195038 11.4364728928 11.4353160858 9.94689178467 7.17322635651 4.04199504852 2.26391077042 2.29153776169 5.27470731735 10.1412467957 14.5305290222 16.8464984894 16.8447113037 14.5214776993 10.1289348602 5.26307535172 2.29120588303 2.31914234161 6.13109254837 12.1677055359 17.5228614807 20.4037208557 20.4014949799 17.5117588043 12.1526069641 6.11658096313 2.31859827042 2.33423018456 6.63532781601 13.2841691971 19.0931663513 22.2348518372 22.2324352264 19.0811290741 13.2677307129 6.6190905571 2.3335723877 2.3425951004 6.88583469391 13.8175516129 19.828578949 23.0827960968 23.0803089142 19.8161315918 13.8005065918 6.86879396439 2.34187412262 2.34258890152 6.8856420517 13.8171463013 19.8280181885 23.0821628571 23.0796699524 19.8155765533 13.8001070023 6.86860275269 2.34186720848 2.33419680595 6.63432741165 13.2820091248 19.0901222229 22.2313594818 22.2289390564 19.0781002045 13.2655849457 6.61809873581 2.33353900909 2.31909012794 6.12938261032 12.163772583 17.5172843933 20.3965778351 20.3943881989 17.5062294006 12.1487035751 6.11488628387 2.31854605675 2.29145359993 5.27208042145 10.1349821091 14.5212640762 16.8353366852 16.8335781097 14.5123033524 10.12271595 5.26047801971 2.29112410545 2.26397752762 4.04574108124 7.17194032669 9.93797683716 11.4185333252 11.4175977707 9.93225097656 7.16417217255 4.03845691681 2.26386237144 
2.26410841942 3.85221028328 6.76591253281 9.45335578918 10.9406089783 10.9394273758 9.44768428802 6.75841093063 3.84554386139 2.26400446892 2.28968167305 5.0530333519 9.71919631958 14.0919513702 16.5057754517 16.5038547516 14.0826864243 9.70718860626 5.04205322266 2.28937840462 2.3164088726 5.9284734726 11.8042459488 17.2471008301 20.3563537598 20.3538722992 17.2353839874 11.7893152237 5.91450023651 2.31590056419 2.33230066299 6.45865392685 13.002409935 18.9973258972 22.4389419556 22.4361896515 18.9844055176 12.9859390259 6.44286346436 2.33167362213 2.34134960175 6.72688055038 13.5916776657 19.8383235931 23.4235916138 23.4207382202 19.8248710632 13.5744886398 6.71021652222 2.34065508842 2.34134292603 6.72667360306 13.5912303925 19.837682724 23.4228458405 23.4199981689 19.8242301941 13.5740423203 6.71001005173 2.34064817429 2.33226418495 6.45759534836 13.0000495911 18.9939136505 22.4349117279 22.4321613312 18.9810199738 12.9835996628 6.44181585312 2.33163785934 2.31635570526 5.92669916153 11.8001461029 17.2409687042 20.3485183716 20.3460960388 17.2293052673 11.7852611542 5.91274642944 2.31584715843 2.2896027565 5.05040121078 9.71281433105 14.0823984146 16.4936580658 16.4917850494 14.0732784271 9.70088672638 5.0394744873 2.28930234909 2.26406645775 3.84890270233 6.75724554062 9.43876075745 10.9229564667 10.9220142365 9.43308067322 6.74997234344 3.8423204422 2.26396274567 
2.26402854919 3.83786988258 6.73216867447 9.40718078613 10.8898143768 10.8886356354 9.40152931213 6.72470855713 3.8312561512 2.26392579079 2.28939175606 5.03273773193 9.6758556366 14.0361175537 16.4464149475 16.4444961548 14.0268688202 9.66389560699 5.02182292938 2.28909111023 2.31591272354 5.90474891663 11.7552528381 17.1827163696 20.2885169983 20.2860336304 17.1710166931 11.7403764725 5.89084529877 2.31540870667 2.33166766167 6.43279361725 12.94926548 18.9272708893 22.3662109375 22.3634605408 18.9143772125 12.9328594208 6.41707611084 2.33104586601 2.34065032005 6.69991779327 13.5365419388 19.7657604218 23.350063324 23.347202301 19.7523288727 13.5194158554 6.68332958221 2.33996224403 2.34064364433 6.69971179962 13.5360946655 19.7651233673 23.349319458 23.3464622498 19.7516899109 13.5189733505 6.68312549591 2.33995509148 2.33163189888 6.43173980713 12.9469232559 18.9238758087 22.3621997833 22.3594474792 18.9109992981 12.9305315018 6.41603517532 2.33101058006 2.31585979462 5.90298223495 11.7511711121 17.176607132 20.2807044983 20.2782802582 17.1649627686 11.7363405228 5.88909959793 2.31535553932 2.28931379318 5.03011798859 9.66949176788 14.0265903473 16.4343032837 16.4324321747 14.0174894333 9.65761566162 5.01925802231 2.28901576996 2.26398658752 3.83458948135 6.72355747223 9.39262008667 10.872218132 10.8712797165 9.38695812225 6.71633529663 3.82806253433 2.26388406754 
2.26402640343 3.83751773834 6.73133707047 9.4060382843 10.8885536194 10.8873739243 9.40038871765 6.7238779068 3.83090543747 2.2639234066 2.2893846035 5.03223514557 9.67478179932 14.0347290039 16.4449367523 16.4430160522 14.0254821777 9.66282176971 5.02132225037 2.28908395767 2.31589984894 5.90415668488 11.754026413 17.18110466 20.2868099213 20.284330368 17.1694049835 11.7391519547 5.89025640488 2.3153963089 2.3316514492 6.43214321136 12.9479293823 18.9254970551 22.3643455505 22.3615894318 18.9125995636 12.9315195084 6.41642713547 2.33102989197 2.34063243866 6.69923496246 13.5351390839 19.7638969421 23.3480968475 23.3452377319 19.7504653931 13.5180168152 6.68264961243 2.33994436264 2.34062576294 6.69902896881 13.534696579 19.7632598877 23.3473529816 23.344493866 19.749830246 13.5175733566 6.68244504929 2.3399374485 2.33161592484 6.43109035492 12.9455833435 18.9220981598 22.360326767 22.3575801849 18.9092216492 12.929192543 6.41538572311 2.33099484444 2.31584739685 5.90239048004 11.7499456406 17.1749954224 20.2790031433 20.2765808105 17.163351059 11.7351160049 5.88851118088 2.31534337997 2.28930640221 5.0296163559 9.66841602325 14.0252008438 16.4328250885 16.4309558868 14.0161008835 9.65654373169 5.0187587738 2.2890086174 2.26398468018 3.83423805237 6.72272729874 9.39147853851 10.8709583282 10.8700208664 9.38581752777 6.71550798416 3.82771277428 2.26388192177 
2.26402664185 3.83752965927 6.73136520386 9.40607833862 10.8885955811 10.8874168396 9.4004278183 6.72390699387 3.83091688156 2.26392364502 2.28938484192 5.03225278854 9.67481708527 14.0347766876 16.444984436 16.4430656433 14.0255289078 9.66285896301 5.0213394165 2.28908443451 2.31590056419 5.90417718887 11.7540712357 17.1811580658 20.2868728638 20.2843914032 17.169462204 11.73919487 5.89027547836 2.31539654732 2.33165216446 6.43216466904 12.947974205 18.9255580902 22.3644065857 22.3616523743 18.9126605988 12.9315652847 6.41645002365 2.3310303688 2.34063315392 6.69925832748 13.5351877213 19.7639598846 23.3481616974 23.3453025818 19.7505283356 13.5180616379 6.68267154694 2.33994483948 2.34062623978 6.69905233383 13.5347442627 19.7633247375 23.3474197388 23.3445587158 19.7498931885 13.5176200867 6.68246746063 2.33993816376 2.33161640167 6.43111181259 12.9456281662 18.9221591949 22.3603916168 22.3576393127 18.9092826843 12.9292402267 6.4154086113 2.33099555969 2.31584787369 5.90241098404 11.7499876022 17.1750488281 20.2790603638 20.2766361237 17.1634063721 11.7351608276 5.88853120804 2.31534385681 2.28930664062 5.02963352203 9.66845226288 14.0252475739 16.4328746796 16.4310054779 14.0161485672 9.65657901764 5.0187754631 2.28900885582 2.26398491859 3.83424973488 6.7227563858 9.39151763916 10.8710021973 10.8700628281 9.38585567474 6.71553421021 3.82772421837 2.26388216019 
2.26402664185 3.83755087852 6.7314157486 9.40614700317 10.8886737823 10.8874931335 9.40049743652 6.72395610809 3.83093857765 2.26392364502 2.28938531876 5.03228282928 9.67488384247 14.034860611 16.4450759888 16.443157196 14.0256137848 9.66292285919 5.02136993408 2.28908467293 2.31590151787 5.90421247482 11.7541437149 17.1812553406 20.2869758606 20.2844944 17.1695594788 11.7392683029 5.89031171799 2.31539726257 2.33165311813 6.43220424652 12.9480543137 18.9256649017 22.3645210266 22.3617706299 18.9127674103 12.931646347 6.4164891243 2.33103179932 2.34063434601 6.69930028915 13.5352725983 19.7640743256 23.3482837677 23.3454227448 19.7506427765 13.5181493759 6.68271493912 2.33994603157 2.34062767029 6.69909381866 13.534828186 19.7634353638 23.347536087 23.3446807861 19.7500076294 13.5177059174 6.68251037598 2.33993911743 2.33161735535 6.43115091324 12.9457111359 18.9222679138 22.3605041504 22.3577537537 18.9093952179 12.9293193817 6.41544914246 2.33099603653 2.31584882736 5.90244674683 11.7500619888 17.1751461029 20.2791633606 20.2767410278 17.1635036469 11.7352352142 5.88856649399 2.31534481049 2.28930711746 5.02966356277 9.66851806641 14.0253324509 16.4329662323 16.4310913086 14.0162315369 9.65664386749 5.01880550385 2.28900909424 2.26398515701 3.83427143097 6.72280502319 9.39158630371 10.8710775375 10.8701400757 9.38592433929 6.71558618546 3.82774591446 2.26388239861 
2.26402664185 3.83757328987 6.73146724701 9.40621757507 10.8887529373 10.8875722885 9.40056705475 6.72400903702 3.83096027374 2.26392388344 2.28938555717 5.03231430054 9.67494869232 14.0349473953 16.4451675415 16.4432487488 14.0256996155 9.66298866272 5.0214009285 2.28908514977 2.31590223312 5.90424871445 11.7542200089 17.1813564301 20.2870788574 20.2845993042 17.1696586609 11.7393445969 5.89034891129 2.31539821625 2.33165407181 6.43224525452 12.948138237 18.925775528 22.3646373749 22.3618850708 18.9128780365 12.9317302704 6.41652965546 2.33103251457 2.34063529968 6.69934177399 13.5353574753 19.7641887665 23.3484039307 23.3455429077 19.7507553101 13.5182342529 6.68275594711 2.33994722366 2.34062862396 6.69913721085 13.5349168777 19.763551712 23.347661972 23.3447990417 19.7501182556 13.5177946091 6.68255233765 2.33994030952 2.3316180706 6.43119239807 12.9457912445 18.9223766327 22.3606204987 22.3578701019 18.9095001221 12.9294033051 6.41548871994 2.33099722862 2.3158493042 5.90248298645 11.7501401901 17.1752471924 20.2792682648 20.2768478394 17.1636009216 11.7353096008 5.88860321045 2.31534552574 2.28930735588 5.02969503403 9.66858577728 14.0254173279 16.4330558777 16.4311847687 14.0163173676 9.65670967102 5.0188369751 2.28900957108 2.26398515701 3.83429312706 6.72285795212 9.39165687561 10.8711576462 10.870218277 9.38599586487 6.71563673019 3.82776761055 2.26388239861 
