2.26625585556 3.95093727112 6.94368362427 9.71298217773 11.2729291916 11.2717056274 9.70698833466 6.93604755402 3.9439637661 2.26613283157 2.29246878624 5.15914678574 9.97238636017 14.4402837753 16.9144039154 16.9124794006 14.4307584763 9.96008777618 5.14778089523 2.29214000702 2.31603002548 6.04391098022 12.0359563828 17.5403842926 20.6637859344 20.6613674164 17.5284748077 12.020866394 6.02947187424 2.3155195713 2.33263611794 6.55796670914 13.1770181656 19.1839866638 22.5867862701 22.5841636658 19.1710720062 13.1604728699 6.54184818268 2.33199882507 2.34143328667 6.81069135666 13.7274742126 19.9526805878 23.47539711 23.4726963043 19.9393215179 13.7102718353 6.7937836647 2.34072899818 2.34142589569 6.81049442291 13.7270507812 19.952085495 23.4747276306 23.4720249176 19.9387302399 13.7098560333 6.79358863831 2.34072184563 2.3326010704 6.55694627762 13.1747722626 19.180770874 22.5830669403 22.5804481506 19.1678848267 13.1582546234 6.54084253311 2.33196401596 2.31597852707 6.04211902618 12.0319566727 17.5344696045 20.6559925079 20.6536502838 17.5226402283 12.0169410706 6.02770996094 2.31546831131 2.2923989296 5.15647554398 9.96582698822 14.4305810928 16.9023303986 16.9004650116 14.4212408066 9.95363998413 5.14517736435 2.29207348824 2.26620173454 3.94746136665 6.93470478058 9.69772720337 11.2539215088 11.2530136108 9.69176673889 6.92735099792 3.94058680534 2.26607942581 
2.26637411118 3.85468244553 6.74619531631 9.47298717499 11.0201482773 11.0189247131 9.46706962585 6.73872852325 3.84803104401 2.26625609398 2.2915418148 5.04863786697 9.76559352875 14.213306427 16.7096595764 16.7076797485 14.2037553787 9.75344181061 5.03759288788 2.2912273407 2.31455659866 5.93999814987 11.8469181061 17.360250473 20.6092529297 20.6066570282 17.3481330872 11.8319616318 5.92583847046 2.31406402588 2.33136248589 6.4666967392 13.0138998032 19.0948219299 22.708486557 22.7056045532 19.0813961029 12.9974327087 6.45081710815 2.33074164391 2.34034228325 6.72968149185 13.5850191116 19.9280166626 23.6968898773 23.6939086914 19.9140033722 13.5678405762 6.7129817009 2.33965325356 2.34033536911 6.72947597504 13.5845832825 19.9273777008 23.696144104 23.6931629181 19.9133739471 13.5674095154 6.71277809143 2.339646101 2.33132767677 6.46565008163 13.0115995407 19.09141922 22.704416275 22.7015380859 19.0780296326 12.9951629639 6.44978713989 2.33070731163 2.31450533867 5.93818235397 11.8428888321 17.3541240692 20.6010570526 20.5985527039 17.342086792 11.8280105591 5.92405509949 2.31401252747 2.2914750576 5.04597997665 9.75901317596 14.2035636902 16.6971683502 16.6952629089 14.1942243576 9.7469959259 5.03501844406 2.29116415977 2.26632428169 3.85135912895 6.73749923706 9.45774173737 11.0012483597 11.0003433228 9.45183944702 6.73038721085 3.84483170509 2.2662062645 
2.26637339592 3.85315775871 6.74298477173 9.46893692017 11.0157213211 11.014497757 9.46302032471 6.73552083969 3.84651184082 2.26625561714 2.2915225029 5.04678440094 9.76198863983 14.2090396881 16.7052593231 16.7032833099 14.1994886398 9.74983787537 5.03574514389 2.29120826721 2.31452655792 5.93817520142 11.8434333801 17.3561191559 20.6053276062 20.6027374268 17.34400177 11.8284797668 5.92402076721 2.31403470039 2.33133482933 6.46508455276 13.0108766556 19.0917396545 22.7075977325 22.7047119141 19.0783100128 12.9944143295 6.44920873642 2.33071422577 2.34031772614 6.72826862335 13.5824594498 19.9261875153 23.7010688782 23.6980667114 19.9121704102 13.565284729 6.71157073975 2.33962917328 2.34031105042 6.7280626297 13.5820236206 19.9255485535 23.7003154755 23.6973152161 19.9115352631 13.5648536682 6.71136856079 2.3396217823 2.33129954338 6.46403646469 13.0085783005 19.0883350372 22.7035140991 22.7006340027 19.0749435425 12.9921426773 6.44817876816 2.33068013191 2.31447529793 5.93635988235 11.8394041061 17.3499927521 20.5971260071 20.5946235657 17.3379516602 11.8245296478 5.92223882675 2.31398320198 2.29145622253 5.04412698746 9.75540828705 14.1992940903 16.6927680969 16.6908607483 14.1899576187 9.74339485168 5.03317165375 2.29114532471 2.26632380486 3.84983730316 6.73429346085 9.45369243622 10.9968242645 10.9959173203 9.44779109955 6.72718477249 3.84331583977 2.26620602608 
2.26637363434 3.85317015648 6.74301338196 9.46897792816 11.0157690048 11.0145454407 9.4630613327 6.73555040359 3.84652471542 2.26625561714 2.29152321815 5.04680204391 9.76202964783 14.2090930939 16.7053165436 16.7033405304 14.1995401382 9.74987888336 5.0357632637 2.29120874405 2.31452655792 5.9381980896 11.8434848785 17.3561859131 20.6053981781 20.6028022766 17.3440647125 11.8285303116 5.9240436554 2.31403446198 2.331335783 6.46511125565 13.010933876 19.0918159485 22.7076892853 22.7047958374 19.0783843994 12.9944696426 6.44923591614 2.33071517944 2.34031915665 6.72829675674 13.5825223923 19.9262714386 23.7011737823 23.6981697083 19.9122524261 13.5653438568 6.71160030365 2.33962988853 2.34031152725 6.72809123993 13.5820827484 19.9256343842 23.7004203796 23.6974220276 19.9116210938 13.5649118423 6.71139860153 2.33962273598 2.33130049706 6.46406412125 13.0086345673 19.0884113312 22.7035999298 22.7007198334 19.0750160217 12.9921989441 6.44820451736 2.33068084717 2.31447577477 5.93638277054 11.8394527435 17.3500576019 20.5971984863 20.5946960449 17.3380203247 11.8245773315 5.9222612381 2.31398367882 2.29145646095 5.04414558411 9.75544929504 14.199347496 16.6928253174 16.6909198761 14.1900110245 9.74343395233 5.03318881989 2.29114580154 2.26632380486 3.84984993935 6.73432350159 9.45373439789 10.9968709946 10.995965004 9.44783306122 6.72721481323 3.84332752228 2.26620602608 
2.26637363434 3.85318279266 6.74304294586 9.46902084351 11.0158185959 11.0145921707 9.46310329437 6.73557949066 3.84653711319 2.26625561714 2.29152345657 5.04682064056 9.76206874847 14.2091464996 16.7053775787 16.7033996582 14.1995954514 9.74991893768 5.03578186035 2.29120898247 2.31452775002 5.93822097778 11.8435316086 17.3562488556 20.6054706573 20.6028785706 17.3441333771 11.8285770416 5.92406654358 2.31403565407 2.33133625984 6.46513700485 13.0109910965 19.0918922424 22.7077770233 22.7048835754 19.0784626007 12.9945259094 6.44926309586 2.3307158947 2.3403198719 6.72832584381 13.5825805664 19.9263553619 23.7012805939 23.6982784271 19.9123382568 13.5654020309 6.71162748337 2.33963036537 2.34031271935 6.72812080383 13.5821409225 19.9257164001 23.7005252838 23.6975250244 19.9117050171 13.5649728775 6.71142625809 2.33962368965 2.33130097389 6.46409034729 13.0086889267 19.0884857178 22.7036895752 22.7008056641 19.075094223 12.9922533035 6.44823169708 2.33068132401 2.3144762516 5.93640565872 11.8395042419 17.3501205444 20.5972652435 20.5947647095 17.3380851746 11.8246240616 5.92228507996 2.31398415565 2.29145693779 5.04416465759 9.75548839569 14.1994018555 16.6928844452 16.6909770966 14.1900644302 9.74347400665 5.03320789337 2.29114580154 2.26632380486 3.84986162186 6.7343506813 9.45377540588 10.996919632 10.996014595 9.44787693024 6.7272439003 3.84334015846 2.2662062645 
2.26637363434 3.85319399834 6.74307060242 9.46905994415 11.0158624649 11.0146379471 9.46314334869 6.73560810089 3.84654855728 2.26625585556 2.29152345657 5.04683828354 9.76210689545 14.2091960907 16.7054328918 16.7034568787 14.1996459961 9.74995708466 5.03579950333 2.29120898247 2.31452775002 5.93824291229 11.843580246 17.3563137054 20.6055374146 20.6029453278 17.3441944122 11.828625679 5.92408943176 2.31403613091 2.33133721352 6.4651632309 13.0110445023 19.0919647217 22.7078552246 22.7049674988 19.0785369873 12.9945802689 6.44928741455 2.33071637154 2.34032034874 6.7283539772 13.5826377869 19.9264373779 23.7013874054 23.6983795166 19.9124202728 13.5654602051 6.71165704727 2.33963131905 2.3403134346 6.72814846039 13.5821990967 19.9258003235 23.7006320953 23.6976280212 19.9117851257 13.565030098 6.71145439148 2.33962464333 2.33130168915 6.46411514282 13.0087413788 19.0885639191 22.7037734985 22.7008895874 19.0751686096 12.992307663 6.44825744629 2.33068203926 2.31447696686 5.93642759323 11.839548111 17.3501853943 20.5973358154 20.594833374 17.3381462097 11.8246707916 5.92230701447 2.31398463249 2.29145717621 5.04418230057 9.75552463531 14.1994524002 16.6929397583 16.6910324097 14.190114975 9.74351215363 5.03322505951 2.2911465168 2.26632380486 3.84987330437 6.7343788147 9.45381641388 10.9969644547 10.9960594177 9.44791507721 6.72727155685 3.84335184097 2.2662062645 
2.26637387276 3.85320568085 6.74309921265 9.46910095215 11.0159063339 11.0146846771 9.46318340302 6.73563575745 3.84656000137 2.2662563324 2.29152393341 5.04685592651 9.76214504242 14.2092475891 16.7054901123 16.7035121918 14.1996974945 9.7499961853 5.0358171463 2.2912094593 2.31452846527 5.9382648468 11.8436288834 17.3563747406 20.6056060791 20.603012085 17.3442611694 11.8286705017 5.9241104126 2.31403636932 2.33133792877 6.4651889801 13.011097908 19.0920410156 22.70794487 22.7050571442 19.0786094666 12.9946327209 6.44931221008 2.33071732521 2.34032130241 6.72838163376 13.582695961 19.9265213013 23.7014884949 23.6984901428 19.9125041962 13.5655193329 6.71168518066 2.33963227272 2.34031414986 6.72817611694 13.5822591782 19.9258823395 23.7007389069 23.6977386475 19.9118690491 13.5650873184 6.71148204803 2.33962535858 2.3313024044 6.4641418457 13.0087966919 19.088634491 22.7038612366 22.7009773254 19.0752449036 12.9923629761 6.44828271866 2.3306825161 2.3144774437 5.93645000458 11.839597702 17.3502483368 20.5974063873 20.5949039459 17.3382110596 11.8247203827 5.9223279953 2.31398463249 2.29145741463 5.04419994354 9.75556659698 14.1995029449 16.6929950714 16.6910896301 14.1901664734 9.74355125427 5.03324317932 2.2911465168 2.26632404327 3.8498852253 6.73440742493 9.45385551453 10.997010231 10.9961051941 9.44795513153 6.72729969025 3.84336328506 2.2662062645 
