1.0 1.00000011921 0.996854603291 1.04431450367 1.09578359127 1.09576463699 1.04425382614 1.00000023842 1.0 1.0 0.999999940395 1.00031006336 1.07748055458 1.16934669018 1.24475598335 1.24474275112 1.16928577423 1.02839505672 1.00030362606 1.0 1.0 1.05059361458 1.15935623646 1.26161658764 1.33599972725 1.33598744869 1.26156508923 1.10028934479 1.05051755905 1.00000011921 1.0 1.08515238762 1.19609868526 1.28917729855 1.35335659981 1.35334634781 1.2891304493 1.13503241539 1.08508455753 1.00000011921 1.0 1.11140727997 1.22727930546 1.31092655659 1.36398875713 1.36398243904 1.31088578701 1.16269767284 1.11134159565 1.00000011921 1.0 1.1113986969 1.22727203369 1.3109112978 1.36402952671 1.36402058601 1.31086719036 1.16269338131 1.11133289337 1.00000011921 1.0 1.08511126041 1.19606637955 1.28911066055 1.35339236259 1.35337817669 1.2890598774 1.13499879837 1.08504378796 1.0 1.0 1.03004169464 1.13222789764 1.2298926115 1.31452059746 1.3145160675 1.22983384132 1.07816910744 1.02996706963 1.00000011921 1.0 1.00030326843 1.07740461826 1.16931390762 1.24479067326 1.2447450161 1.16926932335 1.02832770348 1.00029706955 1.00000011921 1.0 1.00000011921 0.996874332428 1.04420793056 1.09562265873 1.09565746784 1.04412782192 1.00000011921 1.0 0.999999940395 
1.0 1.00000011921 0.996854603291 1.04431450367 1.09578359127 1.09576463699 1.04425382614 1.00000023842 1.0 1.0 0.999999940395 1.00031006336 1.07748055458 1.16934669018 1.24475598335 1.24474275112 1.16928577423 1.02839505672 1.00030362606 1.0 1.0 1.05059361458 1.15935623646 1.2620306015 1.35647618771 1.35646855831 1.26197898388 1.10028934479 1.05051755905 1.00000011921 1.0 1.08515238762 1.19609868526 1.29319524765 1.38322198391 1.38321447372 1.29315280914 1.13503241539 1.08508455753 1.00000011921 1.0 1.11140727997 1.22787868977 1.32518208027 1.40578567982 1.40578258038 1.3251491785 1.16269767284 1.11134159565 1.00000011921 1.0 1.1113986969 1.22787082195 1.32516336441 1.40587925911 1.40587091446 1.32512485981 1.16269338131 1.11133289337 1.00000011921 1.0 1.08511126041 1.19606637955 1.29312229156 1.38331699371 1.38330221176 1.29307508469 1.13499879837 1.08504378796 1.0 1.0 1.03004169464 1.13222789764 1.2298926115 1.31914031506 1.31913852692 1.22983384132 1.07816910744 1.02996706963 1.00000011921 1.0 1.00030326843 1.07740461826 1.16931390762 1.24479067326 1.2447450161 1.16926932335 1.02832770348 1.00029706955 1.00000011921 1.0 1.00000011921 0.996874332428 1.04420793056 1.09562265873 1.09565746784 1.04412782192 1.00000011921 1.0 0.999999940395 
1.0 1.00000011921 0.996854603291 1.04431450367 1.09578359127 1.09576463699 1.04425382614 1.00000023842 1.0 1.0 0.999999940395 1.00031006336 1.07748055458 1.16934669018 1.24475598335 1.24474275112 1.16928577423 1.02839505672 1.00030362606 1.0 1.0 1.05059361458 1.15935623646 1.2620306015 1.35649549961 1.35648775101 1.26197898388 1.10028934479 1.05051755905 1.00000011921 1.0 1.08515238762 1.19609868526 1.29319524765 1.38371419907 1.38370668888 1.29315280914 1.13503241539 1.08508455753 1.00000011921 1.0 1.11140727997 1.22787868977 1.32547390461 1.40733373165 1.407330513 1.32544124126 1.16269767284 1.11134159565 1.00000011921 1.0 1.1113986969 1.22787082195 1.32545590401 1.40743505955 1.40742611885 1.3254172802 1.16269338131 1.11133289337 1.00000011921 1.0 1.08511126041 1.19606637955 1.29312229156 1.38381659985 1.38380134106 1.29307508469 1.13499879837 1.08504378796 1.0 1.0 1.03004169464 1.13222789764 1.2298926115 1.31914031506 1.31913852692 1.22983384132 1.07816910744 1.02996706963 1.00000011921 1.0 1.00030326843 1.07740461826 1.16931390762 1.24479067326 1.2447450161 1.16926932335 1.02832770348 1.00029706955 1.00000011921 1.0 1.00000011921 0.996874332428 1.04420793056 1.09562265873 1.09565746784 1.04412782192 1.00000011921 1.0 0.999999940395 
1.0 1.00000011921 0.996854603291 1.04431450367 1.09578359127 1.09576463699 1.04425382614 1.00000023842 1.0 1.0 0.999999940395 1.00031006336 1.07748055458 1.16934669018 1.24475598335 1.24474275112 1.16928577423 1.02839505672 1.00030362606 1.0 1.0 1.05059361458 1.15935623646 1.2620306015 1.35649549961 1.35648775101 1.26197898388 1.10028934479 1.05051755905 1.00000011921 1.0 1.08515238762 1.19609868526 1.29319524765 1.38372254372 1.38371515274 1.29315280914 1.13503241539 1.08508455753 1.00000011921 1.0 1.11140727997 1.22787868977 1.32549631596 1.40742695332 1.40742361546 1.32546389103 1.16269767284 1.11134159565 1.00000011921 1.0 1.1113986969 1.22787082195 1.32547855377 1.40752887726 1.40751993656 1.32544016838 1.16269338131 1.11133289337 1.00000011921 1.0 1.08511126041 1.19606637955 1.29312229156 1.38382577896 1.38381063938 1.29307508469 1.13499879837 1.08504378796 1.0 1.0 1.03004169464 1.13222789764 1.2298926115 1.31914031506 1.31913852692 1.22983384132 1.07816910744 1.02996706963 1.00000011921 1.0 1.00030326843 1.07740461826 1.16931390762 1.24479067326 1.2447450161 1.16926932335 1.02832770348 1.00029706955 1.00000011921 1.0 1.00000011921 0.996874332428 1.04420793056 1.09562265873 1.09565746784 1.04412782192 1.00000011921 1.0 0.999999940395 
1.0 1.00000011921 0.996854603291 1.04431450367 1.09578359127 1.09576463699 1.04425382614 1.00000023842 1.0 1.0 0.999999940395 1.00031006336 1.07748055458 1.16934669018 1.24475598335 1.24474275112 1.16928577423 1.02839505672 1.00030362606 1.0 1.0 1.05059361458 1.15935623646 1.2620306015 1.35649549961 1.35648775101 1.26197898388 1.10028934479 1.05051755905 1.00000011921 1.0 1.08515238762 1.19609868526 1.29319524765 1.38372790813 1.38372039795 1.29315280914 1.13503241539 1.08508455753 1.00000011921 1.0 1.11140727997 1.22787868977 1.32550549507 1.40744233131 1.40743911266 1.32547295094 1.16269767284 1.11134159565 1.00000011921 1.0 1.1113986969 1.22787082195 1.32548761368 1.40754437447 1.40753567219 1.32544922829 1.16269338131 1.11133289337 1.00000011921 1.0 1.08511126041 1.19606637955 1.29312229156 1.38383126259 1.3838160038 1.29307508469 1.13499879837 1.08504378796 1.0 1.0 1.03004169464 1.13222789764 1.2298926115 1.31914031506 1.31913852692 1.22983384132 1.07816910744 1.02996706963 1.00000011921 1.0 1.00030326843 1.07740461826 1.16931390762 1.24479067326 1.2447450161 1.16926932335 1.02832770348 1.00029706955 1.00000011921 1.0 1.00000011921 0.996874332428 1.04420793056 1.09562265873 1.09565746784 1.04412782192 1.00000011921 1.0 0.999999940395 
1.0 1.00000011921 0.996854603291 1.04431450367 1.09578359127 1.09576463699 1.04425382614 1.00000023842 1.0 1.0 0.999999940395 1.00031006336 1.07748055458 1.16934669018 1.24475598335 1.24474275112 1.16928577423 1.02839505672 1.00030362606 1.0 1.0 1.05059361458 1.15935623646 1.2620306015 1.35649549961 1.35648775101 1.26197898388 1.10028934479 1.05051755905 1.00000011921 1.0 1.08515238762 1.19609868526 1.29319524765 1.38373470306 1.38372707367 1.29315280914 1.13503241539 1.08508455753 1.00000011921 1.0 1.11140727997 1.22787868977 1.32551324368 1.40745198727 1.40744900703 1.32548069954 1.16269767284 1.11134159565 1.00000011921 1.0 1.1113986969 1.22787082195 1.32549548149 1.40755438805 1.40754568577 1.32545685768 1.16269338131 1.11133289337 1.00000011921 1.0 1.08511126041 1.19606637955 1.29312229156 1.3838378191 1.38382279873 1.29307508469 1.13499879837 1.08504378796 1.0 1.0 1.03004169464 1.13222789764 1.2298926115 1.31914031506 1.31913852692 1.22983384132 1.07816910744 1.02996706963 1.00000011921 1.0 1.00030326843 1.07740461826 1.16931390762 1.24479067326 1.2447450161 1.16926932335 1.02832770348 1.00029706955 1.00000011921 1.0 1.00000011921 0.996874332428 1.04420793056 1.09562265873 1.09565746784 1.04412782192 1.00000011921 1.0 0.999999940395 
1.0 1.00000011921 0.996854603291 1.04431450367 1.09578359127 1.09576463699 1.04425382614 1.00000023842 1.0 1.0 0.999999940395 1.00031006336 1.07748055458 1.16934669018 1.24475598335 1.24474275112 1.16928577423 1.02839505672 1.00030362606 1.0 1.0 1.05059361458 1.15935623646 1.2620306015 1.35649549961 1.35648775101 1.26197898388 1.10028934479 1.05051755905 1.00000011921 1.0 1.08515238762 1.19609868526 1.29319524765 1.38374149799 1.38373398781 1.29315280914 1.13503241539 1.08508455753 1.00000011921 1.0 1.11140727997 1.22787868977 1.32552111149 1.40746188164 1.40745854378 1.32548856735 1.16269767284 1.11134159565 1.00000011921 1.0 1.1113986969 1.22787082195 1.32550323009 1.40756380558 1.40755486488 1.32546496391 1.16269338131 1.11133289337 1.00000011921 1.0 1.08511126041 1.19606637955 1.29312229156 1.38384509087 1.38382995129 1.29307508469 1.13499879837 1.08504378796 1.0 1.0 1.03004169464 1.13222789764 1.2298926115 1.31914031506 1.31913852692 1.22983384132 1.07816910744 1.02996706963 1.00000011921 1.0 1.00030326843 1.07740461826 1.16931390762 1.24479067326 1.2447450161 1.16926932335 1.02832770348 1.00029706955 1.00000011921 1.0 1.00000011921 0.996874332428 1.04420793056 1.09562265873 1.09565746784 1.04412782192 1.00000011921 1.0 0.999999940395 
