13.9432792664 21.7275466919 29.3335132599 37.2241287231 45.6706466675 54.3510437012 62.7963066101 70.6856002808 78.2916183472 86.0764465332 13.9096012115 21.5080242157 28.6099834442 36.4589538574 45.3649749756 54.6582565308 63.5621566772 71.4081726074 78.5100021362 86.109992981 13.8923416138 21.360168457 28.1907215118 36.0101089478 45.1728515625 54.8513412476 64.0112762451 71.8270111084 78.6570129395 86.1271896362 13.880065918 21.2753391266 28.0113887787 35.8188705444 45.0911140442 54.9334793091 64.2026367188 72.0061645508 78.7415847778 86.1393890381 13.8718976974 21.238571167 27.9327087402 35.7353591919 45.0562515259 54.9685134888 64.2862014771 72.0847625732 78.7782363892 86.1475448608 13.8719043732 21.2385940552 27.9327659607 35.7354278564 45.0562820435 54.9684791565 64.2861404419 72.0846939087 78.778213501 86.1475372314 13.8800964355 21.2754802704 28.0116920471 35.8192405701 45.0912513733 54.93334198 64.202255249 72.0058670044 78.7414550781 86.1393585205 13.8923740387 21.360452652 28.1913814545 36.0108146667 45.1733322144 54.850856781 64.0105895996 71.8263702393 78.6567230225 86.1271514893 13.9096641541 21.5084686279 28.6114444733 36.4603424072 45.3656158447 54.657585144 63.5608024597 71.4067077637 78.509552002 86.109916687 13.9434127808 21.7282581329 29.3355007172 37.2266578674 45.6718139648 54.3499259949 62.7937927246 70.6836624146 78.2909164429 86.0763015747 
13.9370594025 21.7127723694 29.3155345917 37.1782455444 45.6351547241 54.38671875 62.8421096802 70.7035446167 78.3063964844 86.082649231 13.8991632462 21.4804039001 28.5346450806 36.29479599 45.267364502 54.7563552856 63.7261619568 71.4832839966 78.5375671387 86.1203918457 13.876458168 21.3042354584 28.0254764557 35.7462539673 45.0307006836 54.9942016602 64.2749862671 71.9919281006 78.7127380371 86.1430053711 13.8584461212 21.1882991791 27.7775039673 35.5051803589 44.932723999 55.0926780701 64.5162658691 72.239692688 78.8283157349 86.1609344482 13.8457546234 21.1333847046 27.665687561 35.4035491943 44.8928489685 55.1327285767 64.617980957 72.3514633179 78.8830413818 86.173576355 13.8457670212 21.1334190369 27.665763855 35.4036140442 44.8928985596 55.1326980591 64.6179275513 72.3513793945 78.8830032349 86.1735687256 13.8584899902 21.1885128021 27.7779483795 35.5056190491 44.9328804016 55.092502594 64.5158233643 72.2392654419 78.8281021118 86.1608886719 13.8765048981 21.304599762 28.0263442993 35.7471961975 45.0312347412 54.9936637878 64.274055481 71.9910964966 78.7123794556 86.1429595947 13.8992338181 21.4808921814 28.5363483429 36.2964363098 45.2682228088 54.7554473877 63.7245826721 71.481590271 78.5370941162 86.1203231812 13.9371957779 21.7134361267 29.317401886 37.1810493469 45.6363754272 54.3855667114 62.8392944336 70.7017822266 78.3057632446 86.0825119019 
13.9368591309 21.7138328552 29.3207302094 37.1831130981 45.6363754272 54.3854904175 62.8372306824 70.6983413696 78.3053512573 86.0828475952 13.8987083435 21.4829902649 28.5405044556 36.2902069092 45.2602462769 54.763507843 63.7307167053 71.4774246216 78.5349960327 86.12084198 13.8756504059 21.3052978516 28.0240631104 35.7182159424 45.0027503967 55.0222892761 64.3029251099 71.993309021 78.7116851807 86.1438140869 13.8571224213 21.1853542328 27.7618217468 35.4419441223 44.887172699 55.1384429932 64.5793685913 72.2552947998 78.8312454224 86.1622619629 13.843998909 21.126543045 27.6359710693 35.3184776306 44.8387680054 55.1870803833 64.7029647827 72.3810653687 78.8898468018 86.1753234863 13.8440113068 21.1265830994 27.6360569 35.3185539246 44.8388137817 55.1870269775 64.70287323 72.3809585571 78.8898162842 86.1753082275 13.8571662903 21.1855773926 27.7622928619 35.4424552917 44.8873748779 55.1382408142 64.5788574219 72.2548446655 78.8310241699 86.1622085571 13.8756999969 21.3056678772 28.0249500275 35.7192497253 45.0033493042 55.0216903687 64.301902771 71.9924545288 78.7113265991 86.1437606812 13.8987789154 21.4834766388 28.542224884 36.2918777466 45.2611465454 54.762550354 63.7291107178 71.4757080078 78.5345230103 86.1207733154 13.9369955063 21.7144832611 29.3225536346 37.1859359741 45.6375656128 54.3843688965 62.8343963623 70.6966629028 78.3047409058 86.0827102661 
13.9368419647 21.7140007019 29.3214855194 37.1838798523 45.6366424561 54.385219574 62.8364601135 70.6975784302 78.3051757812 86.082862854 13.8986625671 21.4834117889 28.5415248871 36.2900772095 45.2597999573 54.7639503479 63.7308425903 71.4764099121 78.5345687866 86.1209030151 13.8755559921 21.3055324554 28.0241909027 35.7156066895 44.9993553162 55.0257034302 64.3055267334 71.9931869507 78.7114486694 86.143913269 13.8569631577 21.1850166321 27.7597732544 35.4324798584 44.8784446716 55.1472167969 64.5888137817 72.2573471069 78.8315734863 86.1624298096 13.8437767029 21.1256504059 27.6317768097 35.3026924133 44.8268051147 55.1991081238 64.7187042236 72.3852233887 78.8907318115 86.1755447388 13.843788147 21.1256866455 27.6318664551 35.3027763367 44.8268470764 55.1990509033 64.7186203003 72.3851318359 78.8907089233 86.1755371094 13.8570070267 21.1852455139 27.7602539062 35.433013916 44.87865448 55.1469917297 64.5882797241 72.2568664551 78.8313598633 86.1623764038 13.8756036758 21.3059043884 28.0250816345 35.7166481018 44.9999694824 55.0250854492 64.3044891357 71.9923171997 78.7110900879 86.1438598633 13.898733139 21.4838962555 28.5432415009 36.2917518616 45.2607116699 54.7629928589 63.7292251587 71.4746932983 78.5341110229 86.12084198 13.9369754791 21.7146511078 29.32330513 37.1867027283 45.637840271 54.3841018677 62.8336257935 70.6959152222 78.3045730591 86.0827331543 
13.93683815 21.7140274048 29.3215942383 37.1839942932 45.6366882324 54.3851852417 62.8363494873 70.6974868774 78.3051452637 86.082862854 13.898651123 21.4834709167 28.5416564941 36.2900314331 45.2597198486 54.7640266418 63.7308883667 71.476272583 78.5345153809 86.1209030151 13.8755369186 21.3055419922 28.0241241455 35.7151222229 44.9989051819 55.0261650085 64.3060073853 71.9932479858 78.7114486694 86.1439361572 13.856926918 21.1849098206 27.7592601776 35.4306259155 44.8766365051 55.1490402222 64.5906600952 72.257850647 78.8316955566 86.1624603271 13.8437309265 21.125421524 27.6308174133 35.2991523743 44.824005127 55.2019271851 64.7222366333 72.386177063 78.8909606934 86.1756057739 13.843744278 21.1254634857 27.6309185028 35.2992362976 44.8240509033 55.2018661499 64.72215271 72.3860855103 78.8909301758 86.1755905151 13.8569736481 21.1851272583 27.7597427368 35.4311637878 44.8768501282 55.1488113403 64.5901260376 72.2573852539 78.8314666748 86.1624069214 13.8755846024 21.3059139252 28.0250091553 35.7161712646 44.9995422363 55.0255203247 64.3049621582 71.9923934937 78.7110824585 86.1438751221 13.8987216949 21.4839553833 28.5433807373 36.2917098999 45.2606315613 54.7630691528 63.729259491 71.4745635986 78.5340576172 86.1208343506 13.9369697571 21.7146720886 29.3234100342 37.1868209839 45.6378746033 54.3840675354 62.8335113525 70.6958084106 78.3045578003 86.0827407837 
13.9368343353 21.7140293121 29.3216094971 37.1840019226 45.6366882324 54.3851776123 62.8363342285 70.6974716187 78.3051528931 86.0828704834 13.898648262 21.4834766388 28.5416717529 36.2900085449 45.2597007751 54.7640571594 63.7309112549 71.4762649536 78.5345077515 86.1209030151 13.8755311966 21.3055343628 28.0240802765 35.7149887085 44.9988212585 55.0262374878 64.3061447144 71.9932785034 78.7114562988 86.1439361572 13.8569173813 21.1848602295 27.7590942383 35.4301452637 44.8761863708 55.1494865417 64.5911407471 72.2580184937 78.831741333 86.1624755859 13.8437194824 21.1253471375 27.6305274963 35.2981834412 44.8232421875 55.2026863098 64.7232131958 72.38646698 78.8910446167 86.1756057739 13.8437309265 21.1253852844 27.6306247711 35.2982635498 44.8232917786 55.2026367188 64.7231140137 72.3863677979 78.8910064697 86.1756057739 13.8569641113 21.1850833893 27.7595729828 35.4306869507 44.8763999939 55.1492614746 64.5905990601 72.2575531006 78.8315124512 86.1624069214 13.8755779266 21.3059024811 28.0249710083 35.7160377502 44.9994354248 55.025604248 64.3050918579 71.9924316406 78.7110900879 86.1438674927 13.8987197876 21.4839630127 28.5433921814 36.291683197 45.2606086731 54.763092041 63.7292976379 71.4745483398 78.5340499878 86.12084198 13.9369716644 21.714673996 29.3234272003 37.186832428 45.6378746033 54.3840637207 62.8334960938 70.6957855225 78.3045501709 86.0827484131 
13.9368343353 21.7140274048 29.3216056824 37.1839981079 45.6366882324 54.3851852417 62.8363342285 70.6974716187 78.3051528931 86.0828704834 13.898648262 21.4834728241 28.5416622162 36.2899856567 45.2596893311 54.7640647888 63.7309341431 71.4762649536 78.5345230103 86.1209106445 13.8755283356 21.3055229187 28.0240440369 35.7149276733 44.9987945557 55.0262680054 64.3061981201 71.9933319092 78.7114562988 86.143951416 13.8569135666 21.1848335266 27.7590179443 35.429977417 44.8760452271 55.1496276855 64.5913085938 72.2580871582 78.8317642212 86.1624755859 13.8437166214 21.1253108978 27.6304130554 35.2978477478 44.8229980469 55.2029380798 64.7235412598 72.3865814209 78.8910751343 86.1756210327 13.8437271118 21.1253509521 27.6305103302 35.2979393005 44.8230514526 55.2028770447 64.7234573364 72.386505127 78.8910369873 86.1756057739 13.8569583893 21.1850624084 27.7594985962 35.430519104 44.8762664795 55.1494026184 64.5907669067 72.2576217651 78.8315429688 86.162437439 13.875576973 21.305891037 28.024930954 35.7159843445 44.999420166 55.0256347656 64.3051605225 71.9924850464 78.7111053467 86.1438751221 13.8987188339 21.483959198 28.543384552 36.2916603088 45.260597229 54.7631072998 63.7293167114 71.4745483398 78.5340423584 86.12084198 13.9369678497 21.7146720886 29.323425293 37.1868286133 45.6378707886 54.3840637207 62.8335037231 70.6957855225 78.3045578003 86.0827484131 
