14.0017757416 13.787815094 13.0533828735 11.8843793869 11.0922460556 11.0929164886 11.8872556686 13.0559501648 13.7890739441 14.0017957687 21.9909114838 21.6100082397 20.5464782715 18.8743152618 17.7347888947 17.7356681824 18.8785533905 20.5500946045 21.6119213104 21.9910011292 29.9812278748 29.5287322998 28.5536994934 27.1634807587 26.1867465973 26.1875019073 27.1670131683 28.5567817688 29.5306797028 29.9813747406 37.9826431274 37.6431846619 36.9997596741 36.1562347412 35.5742950439 35.5747566223 36.1583366394 37.001701355 37.6445236206 37.9827766418 45.9987792969 45.8723716736 45.6487159729 45.3708000183 45.1809806824 45.1811294556 45.3714828491 45.6493721008 45.8728523254 45.9988327026 54.021270752 54.1483764648 54.3732872009 54.6527328491 54.8438453674 54.8436813354 54.6520385742 54.372631073 54.147895813 54.0212135315 62.0373802185 62.3772964478 63.0218009949 63.8668060303 64.4498748779 64.4494094849 63.8647079468 63.0198631287 62.3759613037 62.0372390747 70.0387573242 70.4913330078 71.4670181274 72.8590164185 73.8357086182 73.8350219727 72.8555374146 71.4639663696 70.4893875122 70.0386123657 78.0290679932 78.4095153809 79.4727935791 81.1456756592 82.2854537964 82.2845535278 81.1415634155 79.4691619873 78.4076004028 78.0289764404 86.0182113647 86.2316818237 86.9643859863 88.1303329468 88.9179763794 88.9178848267 88.1278915405 86.9617843628 86.2304000854 86.0181808472 
14.0010004044 13.7823648453 13.0436906815 11.8679618835 11.0736627579 11.0743370056 11.8708515167 13.0462722778 13.7836303711 14.0010232925 21.9899864197 21.6019172668 20.5278644562 18.8378200531 17.6833286285 17.684223175 18.8421020508 20.5315246582 21.6038551331 21.9900836945 29.9803352356 29.5195922852 28.5309677124 27.1147899628 26.1017055511 26.1024990082 27.1184177399 28.5340938568 29.5215682983 29.9804878235 37.9819602966 37.6359863281 36.9816207886 36.1148300171 35.5095443726 35.5100326538 36.1170005798 36.9836044312 37.637348175 37.9821014404 45.9985198975 45.8695907593 45.6415786743 45.3549880981 45.1581840515 45.1583366394 45.3556938171 45.6422424316 45.8700752258 45.9985733032 54.0215339661 54.151184082 54.3804855347 54.668636322 54.8669013977 54.8667144775 54.6679191589 54.3798065186 54.1506958008 54.0214767456 62.0380630493 62.3845024109 63.0399589539 63.9082489014 64.5146408081 64.5141677856 63.9060935974 63.0379867554 62.383140564 62.0379142761 70.0396499634 70.5004653931 71.4897537231 72.9077148438 73.9206390381 73.9199066162 72.9041595459 71.486656189 70.4985122681 70.0394973755 78.0299758911 78.4175872803 79.491394043 81.1821289062 82.3368225098 82.3359069824 81.1779937744 79.487701416 78.4156570435 78.0298919678 86.018989563 86.2371139526 86.9740447998 88.146697998 88.9365310669 88.9364395142 88.1442489624 86.9714279175 86.235824585 86.0189590454 
14.0009670258 13.7821264267 13.0432605743 11.8672332764 11.0728359222 11.0735092163 11.8701229095 13.0458440781 13.7833948135 14.0009899139 21.9899482727 21.6015625 20.5270404816 18.8361968994 17.6810970306 17.6819934845 18.8404865265 20.5307025909 21.6035003662 21.9900455475 29.9802970886 29.5191993713 28.5299682617 27.1126422882 26.0976352692 26.0984325409 27.1162700653 28.5330963135 29.5211772919 29.9804515839 37.9819259644 37.6356773376 36.9808273315 36.1129379272 35.5061759949 35.5066604614 36.1151123047 36.9828109741 37.6370429993 37.9820785522 45.9985122681 45.869468689 45.6412773132 45.3542480469 45.1570663452 45.1572265625 45.3549537659 45.6419487 45.8699569702 45.9985694885 54.0215454102 54.1512947083 54.3807792664 54.6693878174 54.8680381775 54.8678588867 54.6686630249 54.3801078796 54.1508140564 54.0214920044 62.0380859375 62.3848075867 63.040763855 63.9101524353 64.5180206299 64.5175323486 63.907989502 63.0387916565 62.3834495544 62.0379562378 70.0396881104 70.500869751 71.4907455444 72.9098739624 73.924697876 73.9239730835 72.9063110352 71.4876480103 70.4989013672 70.0395355225 78.0300216675 78.4179382324 79.4922180176 81.1837463379 82.339050293 82.338142395 81.1796112061 79.48853302 78.416015625 78.0299453735 86.01902771 86.2373428345 86.9744873047 88.1474227905 88.9373550415 88.9372711182 88.1449737549 86.9718399048 86.2360534668 86.018989563 
14.0009613037 13.7820949554 13.0431995392 11.8671255112 11.0727071762 11.0733785629 11.8700180054 13.0457820892 13.7833604813 14.0009841919 21.9899406433 21.6015167236 20.526922226 18.8359699249 17.6807804108 17.6816768646 18.84025383 20.53058815 21.6034526825 21.9900379181 29.9802951813 29.5191421509 28.5298290253 27.1123447418 26.0970649719 26.0978660583 27.1159763336 28.5329589844 29.5211162567 29.9804477692 37.9819259644 37.635635376 36.9807128906 36.112663269 35.5056877136 35.5061683655 36.1148376465 36.9827003479 37.6370010376 37.9820709229 45.9985084534 45.8694534302 45.6412391663 45.3541412354 45.1569213867 45.1570777893 45.354850769 45.6419029236 45.8699417114 45.9985694885 54.0215530396 54.1513175964 54.3808250427 54.6694869995 54.8681907654 54.8680114746 54.6687660217 54.3801422119 54.1508331299 54.0214920044 62.0380897522 62.3848648071 63.0408630371 63.9104194641 64.5185165405 64.5180206299 63.9082565308 63.038898468 62.3834953308 62.0379524231 70.0396881104 70.5009231567 71.4909057617 72.9101715088 73.9252548218 73.9245376587 72.9066009521 71.4877929688 70.4989624023 70.0395355225 78.0300292969 78.4179992676 79.4923324585 81.1839828491 82.3393630981 82.3384399414 81.1798324585 79.4886474609 78.4160614014 78.0299453735 86.01902771 86.2373733521 86.9745330811 88.1475219727 88.9374694824 88.9373855591 88.1450881958 86.9718933105 86.2360916138 86.018989563 
14.00096035 13.7820854187 13.0431804657 11.8670873642 11.0726566315 11.0733280182 11.8699789047 13.0457620621 13.7833518982 14.0009841919 21.9899425507 21.6015052795 20.526889801 18.8358974457 17.680683136 17.6815814972 18.8401851654 20.5305519104 21.6034393311 21.9900360107 29.9802932739 29.5191249847 28.5297832489 27.1122608185 26.0969104767 26.0977058411 27.1158885956 28.5329189301 29.5211048126 29.9804439545 37.9819221497 37.6356163025 36.9806747437 36.1125869751 35.5055541992 35.5060386658 36.1147613525 36.9826622009 37.6369819641 37.9820671082 45.9985084534 45.8694496155 45.6412239075 45.3541183472 45.1568832397 45.1570396423 45.3548202515 45.6418914795 45.8699378967 45.9985694885 54.0215530396 54.1513214111 54.3808326721 54.6695175171 54.8682365417 54.8680534363 54.668800354 54.380153656 54.1508369446 54.0214920044 62.0380897522 62.3848686218 63.0408973694 63.9104957581 64.5186386108 64.5181427002 63.9083328247 63.0389213562 62.3835144043 62.0379524231 70.0396957397 70.5009460449 71.4909210205 72.9102478027 73.9254074097 73.924697876 72.9066925049 71.4878311157 70.4989624023 70.0395431519 78.0300369263 78.4179992676 79.4923782349 81.1840362549 82.3394546509 82.3385467529 81.1799163818 79.4886779785 78.4160766602 78.0299453735 86.0190200806 86.2373886108 86.9745635986 88.147567749 88.9375228882 88.9374542236 88.145111084 86.9719238281 86.236114502 86.018989563 
14.00096035 13.7820835114 13.0431680679 11.8670654297 11.0726203918 11.0732946396 11.8699560165 13.0457515717 13.7833499908 14.0009841919 21.9899425507 21.6014995575 20.5268726349 18.8358592987 17.6806316376 17.6815261841 18.8401451111 20.5305347443 21.6034355164 21.9900379181 29.9802932739 29.5191268921 28.5297679901 27.1122112274 26.0968322754 26.0976295471 27.1158447266 28.5328979492 29.5211009979 29.9804439545 37.9819221497 37.6356124878 36.9806671143 36.1125526428 35.5054931641 35.5059814453 36.1147270203 36.9826545715 37.6369781494 37.9820671082 45.9985084534 45.8694458008 45.6412239075 45.3540992737 45.1568717957 45.1570205688 45.3548088074 45.6418876648 45.8699378967 45.9985694885 54.0215530396 54.1513214111 54.3808403015 54.6695289612 54.8682518005 54.8680763245 54.6688156128 54.3801689148 54.1508331299 54.0214920044 62.0380897522 62.3848648071 63.0409164429 63.9105377197 64.518699646 64.5182113647 63.9083786011 63.0389518738 62.3835105896 62.0379524231 70.0396957397 70.5009460449 71.4909515381 72.9102935791 73.925491333 73.9247817993 72.9067382812 71.4878540039 70.4989776611 70.0395431519 78.0300369263 78.4180145264 79.4923934937 81.1840820312 82.3395080566 82.3385925293 81.17993927 79.4887008667 78.4160766602 78.0299453735 86.0190200806 86.2373962402 86.9745788574 88.1475830078 88.9375610352 88.9374771118 88.1451339722 86.9719314575 86.2360992432 86.018989563 
14.00096035 13.7820825577 13.0431604385 11.8670473099 11.0725917816 11.0732631683 11.8699388504 13.0457448959 13.7833480835 14.0009841919 21.9899425507 21.6014976501 20.5268573761 18.8358306885 17.6805896759 17.6814880371 18.8401145935 20.5305194855 21.6034297943 21.9900379181 29.9802932739 29.5191192627 28.5297489166 27.1121768951 26.0967693329 26.097568512 27.1158123016 28.5328884125 29.5210952759 29.9804420471 37.981918335 37.6356124878 36.9806556702 36.1125259399 35.5054512024 35.5059394836 36.1147003174 36.982635498 37.6369743347 37.9820671082 45.9985084534 45.8694458008 45.6412162781 45.3540916443 45.1568565369 45.1570091248 45.3547973633 45.6418838501 45.8699378967 45.9985694885 54.0215530396 54.1513214111 54.3808441162 54.6695480347 54.8682556152 54.8680801392 54.6688194275 54.3801765442 54.1508331299 54.0214958191 62.0380897522 62.3848762512 63.0409240723 63.9105606079 64.5187454224 64.5182571411 63.9083976746 63.0389595032 62.383518219 62.0379447937 70.0396957397 70.5009460449 71.4909820557 72.9103317261 73.9255447388 73.9248275757 72.9067687988 71.4878845215 70.4989929199 70.0395431519 78.0300369263 78.4180221558 79.492401123 81.1841201782 82.3395462036 82.3386383057 81.1799697876 79.4887084961 78.4160690308 78.0299453735 86.0190200806 86.2373886108 86.9745788574 88.147605896 88.9375915527 88.9375076294 88.145149231 86.9719467163 86.2360992432 86.018989563 
