14.0157403946 13.8712491989 13.1359605789 12.0914907455 11.546251297 11.5466766357 12.093665123 13.138510704 13.8724346161 14.0156898499 22.0080890656 21.7581939697 20.8576602936 19.6953849792 19.058216095 19.0587177277 19.6978302002 20.8605823517 21.7597579956 22.0080966949 30.0017261505 29.7138729095 28.9866943359 28.0904102325 27.5690574646 27.5694770813 28.0923442841 28.9889335632 29.7152996063 30.0017700195 38.0003089905 37.8031425476 37.3510665894 36.8124923706 36.4932289124 36.4934844971 36.8136634827 37.3524131775 37.8040542603 38.0003585815 46.0059432983 45.9363975525 45.7837944031 45.6057739258 45.4996414185 45.4997177124 45.6061515808 45.7842483521 45.9367027283 46.0059623718 54.0140647888 54.0839614868 54.2373313904 54.4162597656 54.5229721069 54.5228805542 54.4158706665 54.2368736267 54.0836486816 54.0140457153 62.019695282 62.2171287537 62.6699333191 63.2094116211 63.5292129517 63.528968811 63.208240509 62.6685791016 62.216217041 62.0196456909 70.0182647705 70.3061981201 71.0339736938 71.9312057495 72.4527893066 72.4523696899 71.9292755127 71.0317306519 70.3047790527 70.0182189941 78.0118865967 78.2615432739 79.1622848511 80.3250808716 80.9624786377 80.9619827271 80.3226623535 79.1593704224 78.2599945068 78.0118713379 86.0042724609 86.1484603882 86.8824462891 87.9248428345 88.4684906006 88.468208313 87.9226913452 86.8799285889 86.147277832 86.0043106079 
14.0041847229 13.7938604355 13.0127439499 11.8611927032 11.1933708191 11.1939277649 11.8637542725 13.0154457092 13.7951726913 14.0041894913 21.9920864105 21.6257514954 20.5740966797 19.1885719299 18.3900985718 18.3907299042 19.1916103363 20.5774936676 21.6276397705 21.9921722412 29.9830780029 29.5421543121 28.6327342987 27.5561237335 26.9201049805 26.9206218719 27.5584945679 28.6354312897 29.5440216064 29.9832134247 37.9848022461 37.6654510498 37.089263916 36.4489860535 36.0647850037 36.0650939941 36.4504013062 37.0908927917 37.6666984558 37.9849281311 45.9998168945 45.8839492798 45.6883926392 45.4778633118 45.350894928 45.3509979248 45.4783325195 45.6889228821 45.88438797 45.9998664856 54.0202255249 54.136680603 54.3332672119 54.5448608398 54.6725196838 54.672416687 54.544380188 54.3327217102 54.1362533569 54.0201759338 62.0352210999 62.3549880981 62.9321174622 63.5734825134 63.95835495 63.9580459595 63.572063446 62.9304847717 62.3537445068 62.0350799561 70.0369110107 70.4779129028 71.3879776001 72.4657897949 73.102104187 73.1015853882 72.4634475708 71.3852767944 70.4760513306 70.0367736816 78.0278778076 78.3938522339 79.4455032349 80.8315963745 81.6303100586 81.6296691895 80.8286056519 79.4421081543 78.3919830322 78.0277938843 86.0158157349 86.225730896 87.0053482056 88.1541900635 88.8201980591 88.8198318481 88.1516418457 87.0027008057 86.2244338989 86.0158081055 
14.0019302368 13.7848672867 13.0176506042 11.8767185211 11.2009391785 11.2015094757 11.879283905 13.0203075409 13.7861623764 14.0019464493 21.9897537231 21.6117992401 20.5522937775 19.1277961731 18.2707176208 18.2714252472 19.1309871674 20.555727005 21.6137008667 21.9898471832 29.9810791016 29.5244483948 28.5871696472 27.4290618896 26.7055873871 26.7061805725 27.4317035675 28.5899868011 29.5263652802 29.9812221527 37.9833450317 37.6498260498 37.0409164429 36.3331260681 35.8958511353 35.8962097168 36.334728241 37.042678833 37.6511306763 37.9834823608 45.9992599487 45.8774261475 45.6669387817 45.4321937561 45.2882118225 45.2883262634 45.432723999 45.6675338745 45.8778839111 45.9993171692 54.0207901001 54.1432533264 54.3548164368 54.5907516479 54.7355728149 54.7354431152 54.5902137756 54.3542175293 54.1427879333 54.0207366943 62.0366783142 62.3706169128 62.9804725647 63.6894302368 64.1274719238 64.1271133423 63.6878242493 62.978717804 62.3693275452 62.0365447998 70.0389175415 70.4956207275 71.4335098267 72.5928039551 73.3164978027 73.3158950806 72.5901947021 71.4306716919 70.4936904907 70.0387802124 78.0302124023 78.4077987671 79.4672164917 80.8922042847 81.7493133545 81.7485961914 80.8890762329 79.4637832642 78.4059143066 78.0301208496 86.0180740356 86.2347183228 87.0004425049 88.1384887695 88.8124542236 88.8120956421 88.1359100342 86.9978790283 86.2334365845 86.0180435181 
14.0016498566 13.7841730118 13.0204114914 11.8834896088 11.2086906433 11.2092609406 11.886051178 13.0230579376 13.7854652405 14.0016670227 21.9894866943 21.6108131409 20.5525531769 19.1265029907 18.2656211853 18.266336441 19.1297035217 20.5559902191 21.6127109528 21.9895839691 29.9808769226 29.5231285095 28.5842895508 27.4192008972 26.6830768585 26.6837005615 27.4218711853 28.5871143341 29.5250549316 29.9810237885 37.983215332 37.6485900879 37.0367851257 36.3181648254 35.8650550842 35.8654327393 36.31980896 37.0385551453 37.6498947144 37.9833526611 45.999206543 45.8768806458 45.664932251 45.42445755 45.2745361328 45.2746658325 45.4249954224 45.6655426025 45.8773422241 45.9992675781 54.0208358765 54.1437950134 54.3568344116 54.598526001 54.7493438721 54.7492141724 54.5979690552 54.3562278748 54.1433334351 54.020778656 62.0367927551 62.3718643188 62.9846229553 63.7043914795 64.1582717896 64.1578979492 63.702747345 62.9828300476 62.3705635071 62.0366706848 70.0391235352 70.4969329834 71.436378479 72.6026382446 73.3389205933 73.3383255005 72.5999908447 71.433555603 70.4950027466 70.0389709473 78.0304870605 78.4087753296 79.4669570923 80.8934783936 81.7543716431 81.7536392212 80.8903274536 79.4635162354 78.4069061279 78.030380249 86.0183486938 86.2354202271 86.9976806641 88.1317062378 88.8046951294 88.8043365479 88.1291275024 86.9951400757 86.2341384888 86.0183410645 
14.0016212463 13.7841062546 13.0207223892 11.8842563629 11.2095880508 11.2101573944 11.8868141174 13.0233669281 13.7853946686 14.0016393661 21.9894561768 21.6107158661 20.55260849 19.1264610291 18.2652664185 18.2659816742 19.1296615601 20.5560455322 21.6126098633 21.9895553589 29.9808540344 29.5229969025 28.5839824677 27.41822052 26.6811389923 26.6817569733 27.4208946228 28.586807251 29.5249214172 29.9810028076 37.9832077026 37.6484565735 37.0363388062 36.3164329529 35.8609313965 35.8613128662 36.3180770874 37.0381164551 37.6497650146 37.983341217 45.9992027283 45.87682724 45.6647186279 45.4234390259 45.2722854614 45.2724075317 45.4239883423 45.6653213501 45.8772888184 45.9992599487 54.0208435059 54.1438522339 54.3570556641 54.5995483398 54.751625061 54.7514877319 54.598991394 54.3564414978 54.1433830261 54.0207862854 62.0368118286 62.3719940186 62.9850502014 63.7061233521 64.1623840332 64.1620025635 63.7044792175 62.9832725525 62.3706970215 62.0366783142 70.0391387939 70.4970626831 71.4366836548 72.6036224365 73.3408584595 73.3402481079 72.6009750366 71.4338531494 70.4951400757 70.0389938354 78.0305175781 78.4088821411 79.4668884277 80.8935165405 81.7547073364 81.7539825439 80.8903808594 79.4634552002 78.4069976807 78.0304031372 86.0183792114 86.2354888916 86.9973754883 88.1309432983 88.8037872314 88.8034362793 88.128364563 86.9948120117 86.2342224121 86.0183639526 
14.0016174316 13.7840890884 13.0207414627 11.8843126297 11.2096481323 11.2102174759 11.8868694305 13.0233860016 13.7853784561 14.0016345978 21.9894504547 21.6106910706 20.5525779724 19.1263828278 18.26512146 18.2658367157 19.1295814514 20.5560150146 21.6125888824 21.9895477295 29.9808521271 29.5229644775 28.5838909149 27.4179878235 26.6807403564 26.6813640594 27.4206581116 28.5867214203 29.5248832703 29.9809970856 37.9832000732 37.6484298706 37.0362358093 36.3160667419 35.8601074219 35.8604888916 36.3177146912 37.0380096436 37.6497344971 37.983341217 45.9992027283 45.8768119812 45.6646690369 45.4232177734 45.2717857361 45.2719154358 45.4237670898 45.6652679443 45.8772697449 45.9992599487 54.0208435059 54.1438598633 54.3571090698 54.5997695923 54.7521209717 54.7519874573 54.5992088318 54.3564949036 54.1434059143 54.0207862854 62.0368156433 62.3720245361 62.9851531982 63.7064857483 64.1632080078 64.1628189087 63.7048339844 62.983379364 62.370716095 62.0366783142 70.0391387939 70.4971084595 71.4367752075 72.6038513184 73.341255188 73.3406600952 72.6012115479 71.4339294434 70.4951858521 70.0390014648 78.0305175781 78.4089126587 79.4669189453 80.8935928345 81.7548751831 81.7541275024 80.8904571533 79.4634933472 78.4070205688 78.0304107666 86.0183868408 86.2355041504 86.9973602295 88.1308822632 88.8037261963 88.8033752441 88.1283111572 86.9947967529 86.2342300415 86.0183639526 
14.0016136169 13.7840843201 13.0207338333 11.8842954636 11.2096242905 11.2101955414 11.8868551254 13.0233783722 13.7853727341 14.0016336441 21.9894504547 21.6106815338 20.5525531769 19.126335144 18.2650489807 18.2657661438 19.1295318604 20.5559940338 21.6125793457 21.9895496368 29.9808540344 29.5229549408 28.5838470459 27.4179019928 26.6806049347 26.6812286377 27.4205722809 28.5866832733 29.5248794556 29.9809970856 37.9832000732 37.6484146118 37.0361976624 36.315952301 35.8598670959 35.860244751 36.3176040649 37.0379714966 37.649723053 37.983341217 45.9992027283 45.8768081665 45.6646537781 45.4231491089 45.2716445923 45.2717628479 45.4237060547 45.6652526855 45.8772697449 45.9992599487 54.0208435059 54.1438674927 54.3571243286 54.5998382568 54.7522621155 54.7521362305 54.599281311 54.3565063477 54.1434059143 54.0207862854 62.036819458 62.3720359802 62.9851989746 63.7066001892 64.163444519 64.1630630493 63.70495224 62.9834213257 62.3707427979 62.0366821289 70.0391311646 70.4971084595 71.4368057251 72.6039352417 73.3413925171 73.3407745361 72.6012878418 71.4339904785 70.4951858521 70.0390014648 78.0305175781 78.4089202881 79.4669342041 80.8936386108 81.7549362183 81.7542037964 80.8905029297 79.4635162354 78.4070281982 78.0304107666 86.0183868408 86.2355117798 86.9973602295 88.130897522 88.8037567139 88.8034057617 88.1283340454 86.9948120117 86.2342300415 86.0183639526 
