13.9377212524 21.7130508423 29.3040466309 37.1892166138 45.6511383057 54.3706512451 62.8312149048 70.7150268555 78.306098938 86.0820007324 13.9011774063 21.4852981567 28.5659122467 36.3957557678 45.3318367004 54.6915550232 63.625328064 71.4521713257 78.5326690674 86.1183776855 13.881688118 21.3227863312 28.1190700531 35.9347343445 45.1372184753 54.8871421814 64.0866394043 71.8985900879 78.6943740845 86.137802124 13.8667221069 21.2326545715 27.9293117523 35.7467422485 45.0581474304 54.9666252136 64.274772644 72.0882034302 78.7841644287 86.1526947021 13.8574504852 21.1933422089 27.8521938324 35.6681594849 45.0253715515 54.9995422363 64.3534164429 72.1652755737 78.8233718872 86.1619262695 13.8574581146 21.193365097 27.8522529602 35.6682167053 45.0253982544 54.9995193481 64.3533630371 72.1652145386 78.8233337402 86.1619186401 13.8667545319 21.2328147888 27.9296245575 35.7470970154 45.0582809448 54.9664764404 64.2744216919 72.0878982544 78.7840270996 86.152671814 13.8817281723 21.3230876923 28.1198005676 35.9354743958 45.1376838684 54.8866615295 64.0859222412 71.8978881836 78.6940765381 86.1377410889 13.9012413025 21.4857788086 28.5674152374 36.3972015381 45.3325080872 54.6908493042 63.623916626 71.4506912231 78.5321884155 86.1183242798 13.9378585815 21.7137374878 29.3060054779 37.1918106079 45.6523323059 54.3695106506 62.82862854 70.7131500244 78.3054351807 86.0818557739 
13.9355697632 21.7087268829 29.3006725311 37.1773643494 45.6406097412 54.3812332153 62.8430480957 70.7183837891 78.3104324341 86.0841293335 13.8974761963 21.477022171 28.5398864746 36.3189163208 45.2760848999 54.7475814819 63.7020339966 71.4781188965 78.5409317017 86.1220855713 13.8756856918 21.2995262146 28.0456695557 35.7605895996 45.0295143127 54.9953956604 64.2606048584 71.9717636108 78.7175521851 86.1437759399 13.8583221436 21.187166214 27.7846813202 35.4967422485 44.9227027893 55.1027336121 64.5246734619 72.2325134277 78.829498291 86.1610641479 13.8470344543 21.1301593781 27.6585445404 35.3819046021 44.8783683777 55.1472930908 64.6396179199 72.3585510254 78.8862838745 86.1723098755 13.8470458984 21.1301994324 27.6586341858 35.3819770813 44.8784179688 55.1472396851 64.639541626 72.3584594727 78.8862533569 86.1723022461 13.8583583832 21.1873836517 27.7851543427 35.4972305298 44.9228820801 55.1025428772 64.5241775513 72.2320404053 78.829284668 86.1610183716 13.8757324219 21.2998790741 28.0465507507 35.7615814209 45.0300521851 54.9948425293 64.2596054077 71.9708938599 78.7172012329 86.1437225342 13.8975419998 21.4775180817 28.5414829254 36.3205451965 45.2769317627 54.7466888428 63.7004432678 71.476524353 78.5404434204 86.1220092773 13.9357032776 21.7093772888 29.3025493622 37.1800537109 45.6417961121 54.3801078796 62.84034729 70.7166519165 78.3098220825 86.0839996338 
13.9353637695 21.7085113525 29.301076889 37.1772766113 45.6401786804 54.3816757202 62.8431282043 70.7179794312 78.3106460571 86.0843505859 13.8971176147 21.4767169952 28.5385131836 36.3128242493 45.2714767456 54.7522125244 63.708114624 71.4794845581 78.541229248 86.122428894 13.8750524521 21.2974643707 28.0383586884 35.7404403687 45.0127067566 55.0122947693 64.2807159424 71.9790420532 78.7196121216 86.1444091797 13.8573198318 21.1818752289 27.7668132782 35.4525871277 44.8926506042 55.132938385 64.5687561035 72.2503204346 78.834777832 86.1620483398 13.8457145691 21.1220436096 27.6315402985 35.3212051392 44.8412055969 55.1846427917 64.7002639771 72.3854751587 78.8943634033 86.173614502 13.8457260132 21.1220912933 27.6316413879 35.3212928772 44.8412513733 55.1845932007 64.7001876831 72.3853759766 78.894317627 86.1736068726 13.8573598862 21.182094574 27.7673206329 35.453125 44.8928604126 55.1327171326 64.5682220459 72.2498321533 78.8345489502 86.1620330811 13.8750963211 21.2978172302 28.0392475128 35.7414855957 45.0132904053 55.0116920471 64.2796630859 71.9782028198 78.7192611694 86.1443557739 13.8971815109 21.4772109985 28.5401153564 36.3144645691 45.2723426819 54.7513046265 63.7065200806 71.4778823853 78.5407562256 86.1223678589 13.9354991913 21.709154129 29.3029384613 37.1799812317 45.6413574219 54.3805541992 62.8404197693 70.7162475586 78.310043335 86.0842056274 
13.935336113 21.7084922791 29.3011760712 37.1773223877 45.6401596069 54.381690979 62.8430900574 70.717880249 78.3106689453 86.0843658447 13.8970661163 21.4767055511 28.5383987427 36.3120765686 45.2709655762 54.7527275085 63.7088661194 71.479598999 78.5412445068 86.1224822998 13.874956131 21.2971763611 28.0373783112 35.7378387451 45.0104026794 55.0146026611 64.2833023071 71.9800338745 78.7199020386 86.1445083618 13.857167244 21.1810302734 27.7639503479 35.445438385 44.8872947693 55.1383209229 64.575881958 72.2531814575 78.8356018066 86.1622238159 13.8455028534 21.1206970215 27.626947403 35.3099746704 44.8338165283 55.1920700073 64.7114868164 72.3900680542 78.8957138062 86.1738433838 13.8455123901 21.1207370758 27.6270484924 35.3100624084 44.8338661194 55.1920089722 64.7113952637 72.3899536133 78.8956756592 86.1738204956 13.8572053909 21.1812515259 27.7644577026 35.4459991455 44.887512207 55.1380996704 64.5753250122 72.2526855469 78.835395813 86.1621856689 13.875002861 21.2975311279 28.0382728577 35.738899231 45.0110054016 55.0139846802 64.2822494507 71.9791717529 78.7195510864 86.1444702148 13.8971319199 21.4772014618 28.5400066376 36.3137245178 45.2718315125 54.7518157959 63.7072639465 71.4779891968 78.5407714844 86.122428894 13.9354724884 21.7091350555 29.303030014 37.1800270081 45.6413345337 54.3805770874 62.8403701782 70.7161483765 78.3100585938 86.0842285156 
13.9353313446 21.7084884644 29.3011932373 37.1773338318 45.6401519775 54.3816947937 62.8430709839 70.7178726196 78.3106613159 86.0843811035 13.8970546722 21.4767036438 28.5383834839 36.3119468689 45.270866394 54.752822876 63.7089920044 71.4796066284 78.5412597656 86.122505188 13.8749351501 21.2971134186 28.0371761322 35.7373847961 45.0100326538 55.0149726868 64.2837600708 71.9802322388 78.7199630737 86.1445236206 13.8571357727 21.180847168 27.7633399963 35.4440002441 44.8861923218 55.1394424438 64.577331543 72.2537841797 78.8357925415 86.1622543335 13.8454561234 21.1203994751 27.6259346008 35.3074607849 44.8321380615 55.1937446594 64.7139892578 72.3910751343 78.8960113525 86.1738891602 13.8454675674 21.1204452515 27.6260375977 35.3075485229 44.8321914673 55.1936798096 64.7139053345 72.3909683228 78.8959655762 86.1738739014 13.8571720123 21.1810684204 27.7638511658 35.4445610046 44.8864135742 55.1392021179 64.5767669678 72.253288269 78.8355712891 86.1622161865 13.8749818802 21.2974720001 28.0380725861 35.7384376526 45.0106506348 55.0143470764 64.2827072144 71.9793624878 78.7196044922 86.1444778442 13.8971214294 21.4772033691 28.5399913788 36.3135948181 45.2717437744 54.7519035339 63.7073898315 71.4780044556 78.5407714844 86.1224365234 13.935464859 21.7091293335 29.3030490875 37.1800384521 45.641330719 54.380569458 62.8403587341 70.7161331177 78.3100585938 86.084236145 
13.9353313446 21.7084884644 29.3011989594 37.1773300171 45.6401519775 54.3816947937 62.8430709839 70.7178573608 78.3106689453 86.0843658447 13.8970527649 21.4767017365 28.5383796692 36.311920166 45.2708511353 54.7528495789 63.7090263367 71.4796142578 78.5412445068 86.1224975586 13.8749303818 21.2970981598 28.0371131897 35.7372627258 45.0099639893 55.015045166 64.2838821411 71.9803085327 78.7199859619 86.1445159912 13.857126236 21.1807937622 27.763168335 35.4436340332 44.8859138489 55.1397094727 64.5776977539 72.2539520264 78.8358535767 86.1622695923 13.8454427719 21.1203155518 27.6256523132 35.3067779541 44.8316917419 55.194190979 64.7146759033 72.3913574219 78.8960876465 86.1738967896 13.8454551697 21.1203575134 27.6257591248 35.3068618774 44.8317565918 55.1941375732 64.71459198 72.3912506104 78.8960571289 86.1738891602 13.8571634293 21.1810188293 27.7636833191 35.444190979 44.8861351013 55.1394882202 64.5771331787 72.2534561157 78.8356323242 86.1622314453 13.8749761581 21.2974510193 28.0380153656 35.7383232117 45.0105743408 55.0144233704 64.2828292847 71.9794158936 78.719619751 86.1444854736 13.8971176147 21.4771976471 28.5399837494 36.3135604858 45.2717247009 54.7519302368 63.7074165344 71.4780197144 78.5407714844 86.1224365234 13.9354629517 21.7091293335 29.3030509949 37.1800384521 45.6413269043 54.3805770874 62.8403587341 70.7161331177 78.3100662231 86.0842285156 
13.9353294373 21.708486557 29.301202774 37.1773300171 45.6401519775 54.3816986084 62.8430747986 70.7178573608 78.3106765747 86.0843658447 13.8970518112 21.4766998291 28.5383682251 36.3118972778 45.2708473206 54.7528495789 63.7090415955 71.4796295166 78.5412521362 86.1224975586 13.8749313354 21.297088623 28.0370864868 35.7372207642 45.0099372864 55.0150604248 64.2839202881 71.9803237915 78.7199783325 86.14453125 13.8571205139 21.1807746887 27.7631015778 35.4435119629 44.8858261108 55.1398086548 64.5778198242 72.2540283203 78.8358612061 86.1622772217 13.8454408646 21.1202831268 27.6255455017 35.3065376282 44.8315467834 55.1943435669 64.7149200439 72.3914489746 78.8961257935 86.1739120483 13.8454504013 21.1203250885 27.6256484985 35.3066329956 44.8315963745 55.1942825317 64.7148208618 72.3913650513 78.8960876465 86.1738967896 13.8571605682 21.1809959412 27.7636165619 35.444065094 44.8860473633 55.1395683289 64.5772628784 72.2535247803 78.8356399536 86.1622314453 13.8749752045 21.2974414825 28.0379886627 35.7382774353 45.0105552673 55.0144386292 64.2828598022 71.9794616699 78.7196273804 86.144493103 13.8971166611 21.4771957397 28.53997612 36.3135452271 45.2717170715 54.7519378662 63.707447052 71.4780273438 78.5407714844 86.1224365234 13.9354600906 21.7091293335 29.3030529022 37.1800346375 45.6413269043 54.3805847168 62.8403549194 70.7161407471 78.3100738525 86.084236145 
