13.9455375671 21.7322902679 29.3331775665 37.2580528259 45.6986236572 54.3229255676 62.7625160217 70.6859664917 78.2868728638 86.0742034912 13.9138259888 21.5226135254 28.6548366547 36.5734786987 45.4276237488 54.595287323 63.4477233887 71.3634719849 78.4954376221 86.1057739258 13.9003677368 21.3863677979 28.2795963287 36.1671485901 45.2556877136 54.7680931091 63.8543357849 71.7383117676 78.6309509277 86.1191940308 13.8920459747 21.3095149994 28.1179695129 35.9899139404 45.1794624329 54.8446998596 64.0316925049 71.899772644 78.7075958252 86.1274719238 13.8871984482 21.2749347687 28.0439052582 35.910900116 45.1462631226 54.8780593872 64.1107635498 71.9737625122 78.7420654297 86.1322860718 13.8872032166 21.2749576569 28.0439605713 35.9109649658 45.1462936401 54.8780250549 64.1106948853 71.9737014771 78.7420425415 86.1322937012 13.8920650482 21.3096466064 28.1182575226 35.9902572632 45.1795959473 54.8445625305 64.0313339233 71.8994979858 78.7074661255 86.1274414062 13.900387764 21.3866271973 28.2801895142 36.1677818298 45.2560882568 54.7676849365 63.8537139893 71.7377166748 78.6306915283 86.119140625 13.9138813019 21.5230236053 28.6561317444 36.5747451782 45.4281692505 54.5947227478 63.4464759827 71.3621749878 78.4950332642 86.10572052 13.9456701279 21.7329883575 29.335144043 37.2603378296 45.6996154785 54.3219604492 62.7602424622 70.6840286255 78.2861785889 86.0740509033 
13.935297966 21.7014408112 29.2807350159 37.1578903198 45.6345367432 54.387336731 62.862575531 70.7383041382 78.3176727295 86.0843963623 13.897480011 21.4669284821 28.5040473938 36.3318862915 45.3033027649 54.7202339172 63.6892547607 71.513961792 78.5509719849 86.1220703125 13.8756027222 21.2928657532 28.0147686005 35.836769104 45.1009025574 54.9236450195 64.1847610474 72.002784729 78.7240905762 86.1438598633 13.858707428 21.1850452423 27.7975921631 35.6379508972 45.0201187134 55.0048408508 64.3837432861 72.2198181152 78.8315887451 86.1606674194 13.8476209641 21.1371936798 27.7097587585 35.5573196411 44.987449646 55.0376663208 64.4644470215 72.3075790405 78.8792877197 86.1717224121 13.8476295471 21.1372261047 27.7098178864 35.5573806763 44.9874839783 55.0376319885 64.4643936157 72.3075256348 78.8792648315 86.1717071533 13.8587493896 21.1852397919 27.797952652 35.6383094788 45.0202484131 55.0046958923 64.3833847046 72.2194442749 78.8313903809 86.1606521606 13.8756446838 21.29322052 28.0155906677 35.837562561 45.1013450623 54.9232025146 64.1839675903 72.0019683838 78.7237319946 86.1438217163 13.8975505829 21.4674263 28.5056915283 36.3334350586 45.3040237427 54.7194824219 63.6877288818 71.5123138428 78.550491333 86.1219940186 13.9354381561 21.7021465302 29.2827129364 37.1605377197 45.6356964111 54.3862228394 62.8599395752 70.7363815308 78.3170166016 86.0842590332 
13.9348888397 21.7038955688 29.292634964 37.166633606 45.6354827881 54.3863983154 62.8537979126 70.7264175415 78.315246582 86.0848007202 13.8964061737 21.4712619781 28.5136203766 36.3164558411 45.2828521729 54.7407836914 63.7046012878 71.5043716431 78.5466690063 86.1231460571 13.8736000061 21.2924041748 28.0060539246 35.7672080994 45.0414810181 54.9833602905 64.2541122437 72.0114135742 78.7245483398 86.1458511353 13.8554401398 21.1745109558 27.7538757324 35.5063018799 44.9356384277 55.0897407532 64.5152282715 72.263343811 78.842086792 86.1639480591 13.8434038162 21.1175537109 27.6344470978 35.3922729492 44.8921279907 55.1334609985 64.6293640137 72.3826904297 78.8988418579 86.1759185791 13.8434143066 21.1175956726 27.6345405579 35.3923530579 44.8921737671 55.1334152222 64.6292800903 72.382598877 78.8988037109 86.1759033203 13.8554840088 21.1747264862 27.7543334961 35.5067749023 44.9358215332 55.0895462036 64.5147399902 72.2628860474 78.8418731689 86.1638946533 13.8736438751 21.2927722931 28.0069274902 35.7681770325 45.0420074463 54.982837677 64.2531509399 72.0105438232 78.7241821289 86.1457977295 13.896478653 21.4717521667 28.5152950287 36.318069458 45.2836723328 54.7399291992 63.7030105591 71.5026855469 78.5461883545 86.1230697632 13.9350290298 21.7045612335 29.2945232391 37.169303894 45.636592865 54.3853263855 62.8511276245 70.7246170044 78.3146133423 86.0846710205 
13.9349346161 21.7047405243 29.2956218719 37.1696395874 45.6364822388 54.385383606 62.8507919312 70.7234191895 78.314414978 86.0847625732 13.8964157104 21.4729480743 28.5180110931 36.3186950684 45.282951355 54.7406845093 63.7023391724 71.4999694824 78.5449905396 86.1231307983 13.8735313416 21.2940750122 28.0097370148 35.76587677 45.0369224548 54.9879493713 64.2554244995 72.0077209473 78.7228927612 86.1459274292 13.85526371 21.1753978729 27.75415802 35.4931945801 44.9202919006 55.1051673889 64.5282745361 72.263053894 78.8411941528 86.1641159058 13.8431224823 21.1175384521 27.6310482025 35.367515564 44.8701515198 55.1555366516 64.654045105 72.3860473633 78.8988723755 86.1762008667 13.843132019 21.1175765991 27.6311378479 35.3675994873 44.8702087402 55.1554870605 64.653968811 72.3859634399 78.8988342285 86.1761856079 13.8553085327 21.175617218 27.7546215057 35.4937133789 44.920501709 55.1049499512 64.5277557373 72.2625808716 78.8409881592 86.1640777588 13.8735799789 21.2944469452 28.0106124878 35.7668762207 45.03748703 54.9873733521 64.2544403076 72.0068740845 78.7225112915 86.1458740234 13.8964881897 21.4734363556 28.5196895599 36.3203163147 45.2837753296 54.7398223877 63.7007522583 71.498298645 78.5445175171 86.1230545044 13.9350738525 21.7054023743 29.2974948883 37.1723136902 45.6375999451 54.3843193054 62.8481216431 70.7216491699 78.3137741089 86.0846176147 
13.9349441528 21.7048358917 29.2959537506 37.1699752808 45.6366043091 54.3852615356 62.8504447937 70.7231063843 78.3143157959 86.0847549438 13.8964176178 21.4731388092 28.5185203552 36.3190231323 45.2830123901 54.7406272888 63.7020111084 71.4994735718 78.5447998047 86.1231307983 13.8735303879 21.2942733765 28.0101890564 35.765914917 45.0367698669 54.9881019592 64.2553787231 72.007270813 78.722694397 86.1459350586 13.8552455902 21.1755027771 27.7542247772 35.4919662476 44.9185409546 55.1069259644 64.5295028687 72.2629928589 78.8410949707 86.1641311646 13.8430957794 21.1175441742 27.6306819916 35.3644599915 44.8668556213 55.1588554382 64.6570892334 72.3864059448 78.8988647461 86.1762237549 13.8431053162 21.1175842285 27.630771637 35.3645477295 44.8669128418 55.1587982178 64.6570129395 72.3863220215 78.8988265991 86.1762161255 13.8552894592 21.1757240295 27.754693985 35.4924850464 44.9187469482 55.1067123413 64.5289764404 72.2625198364 78.8408737183 86.1640853882 13.8735752106 21.2946414948 28.0110664368 35.7669067383 45.0373344421 54.9875259399 64.2543945312 72.0064086914 78.7223205566 86.1458892822 13.8964920044 21.4736328125 28.5202064514 36.3206443787 45.2838401794 54.7397613525 63.700428009 71.4977874756 78.5443344116 86.1230621338 13.9350795746 21.7054977417 29.2978305817 37.1726531982 45.6377220154 54.3841972351 62.8477630615 70.7213287354 78.3136825562 86.0846176147 
13.9349422455 21.7048473358 29.2959918976 37.1700210571 45.6366119385 54.3852539062 62.8504180908 70.7230606079 78.3143081665 86.0847549438 13.8964176178 21.4731578827 28.5185699463 36.3190383911 45.2830047607 54.7406272888 63.7019920349 71.4994277954 78.5447921753 86.1231307983 13.8735265732 21.2942810059 28.0102062225 35.7658729553 45.0367164612 54.9881439209 64.2554321289 72.0072479248 78.7226791382 86.1459274292 13.8552408218 21.1754875183 27.7541561127 35.4916763306 44.9182319641 55.1072387695 64.5297851562 72.2630615234 78.8411102295 86.1641387939 13.8430871964 21.1175060272 27.6305274963 35.3638153076 44.8661804199 55.159538269 64.6577377319 72.3865737915 78.8989028931 86.1762390137 13.8430967331 21.1175460815 27.6306152344 35.363899231 44.8662261963 55.1594848633 64.6576538086 72.3864898682 78.8988571167 86.1762313843 13.8552837372 21.1757087708 27.7546234131 35.4921989441 44.9184417725 55.1070175171 64.5292663574 72.262588501 78.8408966064 86.1640930176 13.8735752106 21.2946529388 28.0110836029 35.766872406 45.0372924805 54.987575531 64.2544326782 72.0063934326 78.7223052979 86.1458969116 13.8964891434 21.4736499786 28.5202465057 36.3206596375 45.28383255 54.7397689819 63.7004165649 71.4977416992 78.5443267822 86.1230545044 13.9350805283 21.7055091858 29.2978591919 37.1726951599 45.6377220154 54.3841896057 62.8477287292 70.721282959 78.3136672974 86.0846176147 
13.9349422455 21.7048492432 29.2959918976 37.1700134277 45.6366119385 54.3852539062 62.8504142761 70.7230606079 78.3143081665 86.0847549438 13.8964176178 21.4731578827 28.5185565948 36.319026947 45.2829971313 54.7406349182 63.7020149231 71.4994430542 78.5447998047 86.1231307983 13.8735246658 21.2942752838 28.0101852417 35.7658424377 45.0367012024 54.9881629944 64.2554702759 72.0072631836 78.722694397 86.1459350586 13.8552379608 21.1754703522 27.7541027069 35.491569519 44.9181442261 55.1073265076 64.5298995972 72.2631149292 78.8411254883 86.1641387939 13.8430833817 21.1174812317 27.6304473877 35.3636054993 44.8659934998 55.1597328186 64.6579589844 72.3866424561 78.8989334106 86.1762466431 13.8430938721 21.117521286 27.6305351257 35.3636932373 44.8660354614 55.1596794128 64.6578598022 72.3865585327 78.8988800049 86.1762313843 13.8552818298 21.1756877899 27.7545661926 35.4920921326 44.9183578491 55.1071014404 64.5293731689 72.2626342773 78.8409118652 86.1640930176 13.8735713959 21.2946472168 28.0110626221 35.7668380737 45.0372695923 54.9875907898 64.2544708252 72.0064239502 78.7223205566 86.1458969116 13.8964881897 21.4736480713 28.520242691 36.3206481934 45.2838287354 54.7397766113 63.700428009 71.4977493286 78.5443191528 86.1230621338 13.9350786209 21.7055091858 29.2978610992 37.1726837158 45.6377258301 54.3841934204 62.8477325439 70.721282959 78.3136672974 86.0846252441 
