2.26594614983 3.94136667252 6.93672847748 9.69449901581 11.2181167603 11.216919899 9.68862056732 6.92906951904 3.93441486359 2.2658264637 2.29216766357 5.14514684677 9.93954467773 14.358423233 16.7807025909 16.7788066864 14.3490991592 9.92730998993 5.13383197784 2.29184174538 2.31560063362 6.02025222778 11.9860372543 17.4353733063 20.5043201447 20.5019283295 17.4236717224 11.9710197449 6.00589895248 2.31509375572 2.3319144249 6.53096723557 13.1196346283 19.0759162903 22.4250335693 22.4224319458 19.0631885529 13.1031646729 6.51493835449 2.3312830925 2.34055614471 6.78219842911 13.6667156219 19.8448238373 23.3137550354 23.3110771179 19.8316555023 13.6495828629 6.76537799835 2.33985948563 2.34054946899 6.78200340271 13.6662969589 19.8442344666 23.3130874634 23.3104076385 19.8310699463 13.6491689682 6.76518440247 2.33985257149 2.33188033104 6.52995872498 13.1174135208 19.0727272034 22.421339035 22.4187374115 19.0600204468 13.1009674072 6.51394271851 2.33125042915 2.31554985046 6.01848745346 11.98209095 17.4295005798 20.4967041016 20.4943771362 17.4178657532 11.9671278 6.00415945053 2.31504368782 2.29209709167 5.14251327515 9.93310165405 14.3489189148 16.7688369751 16.7669868469 14.3397493362 9.92095375061 5.13125324249 2.29177427292 2.26589512825 3.93791627884 6.92780303955 9.67949390411 11.199672699 11.1987514496 9.67364311218 6.92038011551 3.93104720116 2.26577544212 
2.26596879959 3.86508560181 6.77707195282 9.49862098694 11.0136947632 11.0124988556 9.49279975891 6.76955938339 3.85839176178 2.265853405 2.29136776924 5.05720663071 9.77181434631 14.1715755463 16.6093025208 16.6073722839 14.162229538 9.75970363617 5.04614973068 2.29105353355 2.3144030571 5.93846559525 11.8350849152 17.2864322662 20.4486293793 20.4460983276 17.2745952606 11.8201770782 5.92433404922 2.31391072273 2.33094453812 6.46137046814 12.9950313568 19.006685257 22.5260982513 22.5232830048 18.9935626984 12.9786262512 6.4455242157 2.33032631874 2.33981585503 6.72249603271 13.5630578995 19.835105896 23.5078849792 23.5049610138 19.8213996887 13.5459470749 6.70582675934 2.33912992477 2.33980917931 6.72229385376 13.5626268387 19.8344726562 23.507144928 23.5042171478 19.8207740784 13.5455141068 6.70562696457 2.33912348747 2.33091020584 6.46033430099 12.9927558899 19.003320694 22.5220756531 22.5192642212 18.9902267456 12.9763727188 6.44450283051 2.33029222488 2.31435251236 5.93667840958 11.8310956955 17.2803878784 20.4406757355 20.4382190704 17.2686157227 11.8162498474 5.92257499695 2.31386017799 2.29129981995 5.05458211899 9.76534843445 14.1620368958 16.5971469879 16.5952663422 14.1528682709 9.75334262848 5.043592453 2.29098844528 2.26592063904 3.86175322533 6.76836681366 9.4836435318 10.9953546524 10.9944343567 9.47783279419 6.76114034653 3.85516095161 2.26580500603 
2.26596784592 3.86320781708 6.77309036255 9.49363136292 11.0083522797 11.0071554184 9.48781013489 6.76558065414 3.85652041435 2.26585245132 2.29134535789 5.05497217178 9.76745796204 14.166475296 16.6041641235 16.6022319794 14.1571311951 9.75534915924 5.04392242432 2.29103112221 2.31436872482 5.93634653091 11.8310613632 17.2818222046 20.4445438385 20.4420070648 17.2699832916 11.816160202 5.92222261429 2.31387686729 2.33091664314 6.45960712433 12.9917964935 19.0038204193 22.5267505646 22.5239257812 18.9906921387 12.9753961563 6.44376468658 2.33029866219 2.33979439735 6.72104787827 13.5605554581 19.8343372345 23.5147628784 23.5118255615 19.8206214905 13.5434465408 6.70438194275 2.33910870552 2.33978748322 6.72084474564 13.560125351 19.8337020874 23.5140132904 23.5110759735 19.8199901581 13.5430183411 6.70418071747 2.33910226822 2.33088183403 6.45857000351 12.9895181656 19.0004482269 22.5227146149 22.5198936462 18.9873523712 12.9731388092 6.44274139404 2.33026385307 2.31431865692 5.93455982208 11.8270711899 17.2757759094 20.4365825653 20.4341239929 17.263999939 11.8122291565 5.92046260834 2.31382679939 2.2912774086 5.05234670639 9.7609910965 14.1569366455 16.5920028687 16.5901222229 14.1477680206 9.7489900589 5.0413646698 2.29096627235 2.26591968536 3.85987901688 6.7643904686 9.47865581512 10.9900159836 10.9890975952 9.47284507751 6.75716781616 3.85329270363 2.26580405235 
2.26596784592 3.86318230629 6.77303981781 9.49357509613 11.0082950592 11.0070972443 9.4877538681 6.76553153992 3.8564953804 2.26585245132 2.29134511948 5.0549454689 9.76741218567 14.1664266586 16.6041183472 16.6021842957 14.1570806503 9.75530052185 5.04389572144 2.29103112221 2.3143684864 5.93632745743 11.8310308456 17.2817897797 20.4445228577 20.4419879913 17.2699508667 11.8161249161 5.92220401764 2.31387686729 2.33091711998 6.45959854126 12.9917888641 19.0038394928 22.5268363953 22.5240116119 18.9907093048 12.9753875732 6.44375658035 2.33029913902 2.33979463577 6.7210483551 13.5605716705 19.8344097137 23.5150337219 23.5120925903 19.8206958771 13.5434560776 6.70438241959 2.33910918236 2.33978748322 6.72084522247 13.5601387024 19.833776474 23.5142765045 23.511341095 19.820066452 13.5430316925 6.70418214798 2.33910250664 2.33088207245 6.45856142044 12.9895114899 19.0004692078 22.5227966309 22.5199737549 18.9873695374 12.9731292725 6.44273376465 2.33026409149 2.31431865692 5.9345407486 11.8270368576 17.2757453918 20.4365615845 20.4341068268 17.2639694214 11.8121967316 5.92044353485 2.31382656097 2.29127717018 5.05232048035 9.76094532013 14.1568870544 16.5919551849 16.5900783539 14.1477165222 9.74894428253 5.04133844376 2.29096579552 2.26591968536 3.85985374451 6.7643404007 9.47859764099 10.9899578094 10.9890375137 9.4727897644 6.75711917877 3.85326814651 2.26580429077 
2.26596808434 3.86319208145 6.77306365967 9.49360847473 11.0083332062 11.0071353912 9.48778820038 6.76555538177 3.85650515556 2.26585268974 2.29134511948 5.05496072769 9.7674446106 14.1664733887 16.6041698456 16.6022357941 14.157128334 9.7553358078 5.04391145706 2.29103112221 2.31436872482 5.93634700775 11.8310689926 17.2818508148 20.4445896149 20.4420566559 17.2700080872 11.8161668777 5.92222261429 2.31387686729 2.3309173584 6.45962142944 12.9918365479 19.0039100647 22.5269241333 22.5240974426 18.9907798767 12.9754371643 6.44378042221 2.33029961586 2.33979511261 6.72107410431 13.5606279373 19.8344955444 23.5151443481 23.5122051239 19.8207817078 13.5435142517 6.7044095993 2.33911013603 2.33978843689 6.72087192535 13.5601930618 19.833864212 23.5143947601 23.5114555359 19.8201522827 13.5430870056 6.70420789719 2.33910322189 2.33088254929 6.4585852623 12.9895610809 19.0005378723 22.5228824615 22.5200614929 18.9874420166 12.9731798172 6.44275712967 2.33026480675 2.31431913376 5.93456077576 11.8270797729 17.2758026123 20.4366283417 20.434173584 17.2640285492 11.8122386932 5.92046356201 2.31382679939 2.2912774086 5.05233621597 9.7609796524 14.1569309235 16.5920066833 16.5901260376 14.1477632523 9.74897670746 5.04135322571 2.29096627235 2.26591968536 3.85986328125 6.76436376572 9.47863197327 10.9899969101 10.9890766144 9.47282314301 6.75714302063 3.8532781601 2.26580429077 
2.26596784592 3.86320281029 6.77308893204 9.49364471436 11.0083751678 11.0071763992 9.48782348633 6.76558113098 3.85651493073 2.26585268974 2.29134559631 5.05497694016 9.76747894287 14.1665201187 16.604221344 16.6022872925 14.1571731567 9.75537109375 5.04392671585 2.29103112221 2.3143696785 5.93636846542 11.8311138153 17.28191185 20.4446544647 20.4421215057 17.2700691223 11.8162097931 5.92224359512 2.31387782097 2.33091807365 6.45964574814 12.991891861 19.0039825439 22.527009964 22.524187088 18.9908561707 12.9754886627 6.44380426407 2.33029985428 2.3397963047 6.72110128403 13.5606803894 19.8345794678 23.5152568817 23.5123157501 19.8208675385 13.5435714722 6.70443534851 2.33911061287 2.33978891373 6.72089862823 13.5602502823 19.8339500427 23.514503479 23.5115642548 19.8202381134 13.5431442261 6.70423412323 2.33910393715 2.33088326454 6.45860958099 12.9896116257 19.0006122589 22.5229682922 22.5201530457 18.9875144958 12.973233223 6.44278097153 2.330265522 2.31431937218 5.93458080292 11.8271245956 17.2758636475 20.4366931915 20.4342365265 17.2640857697 11.8122806549 5.92048311234 2.31382679939 2.29127764702 5.0523519516 9.76101398468 14.1569786072 16.5920581818 16.5901794434 14.147810936 9.74901199341 5.04136943817 2.29096651077 2.26591992378 3.85987377167 6.76438903809 9.47866916656 10.9900369644 10.9891176224 9.4728603363 6.757168293 3.85328769684 2.26580476761 
2.26596784592 3.86321306229 6.77311515808 9.49368190765 11.0084171295 11.0072193146 9.4878616333 6.76560544968 3.85652565956 2.26585268974 2.29134583473 5.05499267578 9.76751613617 14.1665668488 16.6042728424 16.6023406982 14.1572227478 9.75540733337 5.04394292831 2.29103159904 2.31437015533 5.93638896942 11.8311576843 17.2819728851 20.4447193146 20.4421882629 17.2701301575 11.8162546158 5.92226362228 2.31387829781 2.33091878891 6.45967102051 12.991941452 19.0040569305 22.5270957947 22.5242710114 18.9909286499 12.9755401611 6.44382762909 2.33030056953 2.33979678154 6.72112751007 13.5607404709 19.8346691132 23.5153636932 23.5124225616 19.8209552765 13.5436258316 6.70446205139 2.33911180496 2.3397898674 6.72092437744 13.5603075027 19.8340377808 23.5146160126 23.5116767883 19.8203220367 13.5431985855 6.70426130295 2.33910489082 2.3308839798 6.45863389969 12.9896640778 19.0006847382 22.5230579376 22.520236969 18.9875888824 12.973282814 6.44280529022 2.33026647568 2.3143196106 5.93460130692 11.8271665573 17.2759227753 20.4367637634 20.4343032837 17.2641487122 11.8123245239 5.92050457001 2.31382751465 2.29127788544 5.05236816406 9.7610502243 14.1570262909 16.5921134949 16.5902309418 14.147860527 9.74904727936 5.04138565063 2.29096674919 2.26591992378 3.85988402367 6.76441478729 9.47870540619 10.9900770187 10.989159584 9.4728975296 6.75719356537 3.85329794884 2.26580476761 
