14.0022716522 13.7907772064 13.0469703674 11.8931598663 11.1566057205 11.1572198868 11.8959226608 13.0495615005 13.7920379639 14.002286911 21.9914875031 21.6181144714 20.5636310577 19.0403881073 18.065372467 18.0661659241 19.044008255 20.5671291351 21.620010376 21.9915733337 29.9827098846 29.5438480377 28.59724617 27.3467693329 26.5362091064 26.5368614197 27.3497390747 28.6001815796 29.5457420349 29.9828491211 37.9846038818 37.6596755981 37.0431518555 36.2919616699 35.8041687012 35.8045654297 36.2937278748 37.0449638367 37.6609649658 37.9847335815 45.9994010925 45.8792648315 45.6669654846 45.4197540283 45.2596435547 45.2597618103 45.4203338623 45.6675682068 45.8797264099 45.999458313 54.0206451416 54.1414260864 54.354888916 54.6034355164 54.7645530701 54.764415741 54.6028442383 54.3542747498 54.140953064 54.0205917358 62.03540802 62.3607673645 62.9783096313 63.7308387756 64.2195587158 64.2191772461 63.7290611267 62.9764900208 62.359462738 62.0352783203 70.0372772217 70.4762115479 71.4234237671 72.6753997803 73.4861679077 73.4855728149 72.6725082397 71.4205093384 70.4743041992 70.0371322632 78.0284881592 78.4014282227 79.4558639526 80.9797897339 81.9549179077 81.9541168213 80.9763336182 79.4523696899 78.3995361328 78.0283966064 86.0177307129 86.228729248 86.9707565308 88.1212539673 88.8554153442 88.8551940918 88.1182937622 86.9680862427 86.2274703979 86.0177078247 
14.0010128021 13.783205986 13.0373430252 11.8787727356 11.1388874054 11.1395072937 11.8815441132 13.039937973 13.7844734192 14.0010328293 21.9900531769 21.6067085266 20.5388889313 18.9864311218 17.9802589417 17.9810886383 18.9901390076 20.5424404144 21.6086330414 21.9901504517 29.9813861847 29.5303955078 28.561460495 27.2607402802 26.3840866089 26.3848152161 27.2638835907 28.5644721985 29.5323352814 29.9815311432 37.9835853577 37.6485824585 37.0117416382 36.2119750977 35.6792373657 35.6796722412 36.2138900757 37.0136299133 37.6499061584 37.9837188721 45.9990158081 45.8748474121 45.6535835266 45.387840271 45.2128562927 45.2129936218 45.3884658813 45.654209137 45.8753166199 45.9990692139 54.0210342407 54.145866394 54.3683357239 54.635509491 54.8116760254 54.8115158081 54.6348648071 54.3676872253 54.1453857422 54.0209770203 62.0364303589 62.3718681335 63.0097541809 63.8108787537 64.3445968628 64.3441619873 63.8089675903 63.007850647 62.3705253601 62.0362968445 70.0386047363 70.4896469116 71.4592208862 72.761428833 73.6381530762 73.6374816895 72.758354187 71.4562225342 70.4877090454 70.0384597778 78.029914856 78.4128341675 79.4805526733 81.0336837769 82.0398406982 82.0390014648 81.030128479 79.4770050049 78.4109039307 78.0298233032 86.0189819336 86.2362976074 86.9803314209 88.1355056763 88.8730163574 88.872795105 88.132522583 86.9776382446 86.2350158691 86.0189590454 
14.0009746552 13.782989502 13.0370645523 11.8783750534 11.1384363174 11.1390590668 11.8811502457 13.0396575928 13.7842569351 14.0009965897 21.9900150299 21.6063728333 20.5381641388 18.9849338531 17.9780464172 17.9788818359 18.9886417389 20.5417137146 21.6082954407 21.9901103973 29.9813480377 29.5299854279 28.5603809357 27.2582969666 26.3797149658 26.380443573 27.2614440918 28.5633945465 29.5319271088 29.9814891815 37.9835510254 37.6482391357 37.0107078552 36.2090911865 35.6737709045 35.6742134094 36.2110214233 37.0126037598 37.6495742798 37.9836845398 45.9990005493 45.874710083 45.6531639099 45.3864517212 45.2105979919 45.210723877 45.3870773315 45.6538009644 45.8751754761 45.9990615845 54.0210418701 54.1459999084 54.36876297 54.6369171143 54.8139762878 54.8138122559 54.6362686157 54.3681144714 54.1455230713 54.0209884644 62.0364494324 62.372215271 63.0107841492 63.8137512207 64.3500518799 64.3496170044 63.8118362427 63.0088729858 62.3708610535 62.0363197327 70.0386428833 70.4900588989 71.4602813721 72.7638778687 73.6425018311 73.6418380737 72.7608032227 71.4572906494 70.4881210327 70.0384902954 78.0299530029 78.4131774902 79.4812698364 81.0351791382 82.0420303345 82.0411987305 81.0316238403 79.4777297974 78.411239624 78.0298690796 86.0190200806 86.2365188599 86.9805984497 88.1359024048 88.8734588623 88.8732452393 88.1329116821 86.9779129028 86.2352371216 86.0190048218 
14.0009727478 13.7829751968 13.0370388031 11.8783359528 11.1383857727 11.1390094757 11.881111145 13.0396347046 13.7842416763 14.0009946823 21.9900093079 21.6063461304 20.538110733 18.9848251343 17.9778995514 17.9787311554 18.9885368347 20.5416641235 21.6082725525 21.9901065826 29.981344223 29.5299606323 28.5603046417 27.2581291199 26.3794441223 26.3801689148 27.2612743378 28.5633144379 29.5319004059 29.9814853668 37.9835510254 37.6482124329 37.010635376 36.2088813782 35.6733512878 35.6737937927 36.2108001709 37.0125350952 37.6495437622 37.9836807251 45.9990005493 45.8746986389 45.653137207 45.3863449097 45.2104110718 45.2105484009 45.38697052 45.6537666321 45.8751678467 45.9990615845 54.0210418701 54.1460227966 54.3687973022 54.6370239258 54.8141670227 54.813999176 54.6363639832 54.368144989 54.1455383301 54.0209884644 62.0364532471 62.3722381592 63.0108566284 63.8139801025 64.350479126 64.3500366211 63.8120498657 63.0089607239 62.3708953857 62.0363197327 70.0386505127 70.4900970459 71.4603729248 72.7640457153 73.6427841187 73.6420974731 72.7609710693 71.457359314 70.4881439209 70.0384979248 78.0299530029 78.4132003784 79.4813461304 81.0352783203 82.0421829224 82.0413589478 81.0317382812 79.4777832031 78.4112548828 78.0298690796 86.0190200806 86.2365341187 86.9806365967 88.1359481812 88.8735198975 88.8732833862 88.1329650879 86.9779510498 86.235244751 86.0189971924 
14.0009708405 13.7829713821 13.03703022 11.8783149719 11.1383590698 11.1389808655 11.8810882568 13.0396242142 13.7842378616 14.0009946823 21.9900131226 21.606344223 20.5380916595 18.9847927094 17.9778556824 17.9786872864 18.9885044098 20.5416469574 21.6082687378 21.9901065826 29.981344223 29.5299549103 28.5602855682 27.2580871582 26.3793811798 26.380109787 27.2612361908 28.563293457 29.5318946838 29.9814853668 37.9835510254 37.6482086182 37.0106163025 36.2088356018 35.6732788086 35.6737136841 36.2107582092 37.0125083923 37.6495399475 37.9836807251 45.9990005493 45.8746986389 45.6531295776 45.3863220215 45.2103843689 45.2105178833 45.3869476318 45.6537666321 45.875164032 45.9990615845 54.0210418701 54.1460266113 54.3688011169 54.637046814 54.8141975403 54.814037323 54.6363945007 54.3681488037 54.1455421448 54.0209884644 62.0364532471 62.3722419739 63.0108795166 63.8140182495 64.3505554199 64.350112915 63.8120880127 63.0089683533 62.3708953857 62.0363197327 70.0386505127 70.4901046753 71.460395813 72.7640838623 73.6428451538 73.6421661377 72.7610092163 71.4573822021 70.4881515503 70.0384979248 78.0299530029 78.4132003784 79.4813461304 81.0353164673 82.0422210693 82.0413894653 81.0317611694 79.4777908325 78.4112625122 78.0298690796 86.0190200806 86.2365341187 86.9806289673 88.1359634399 88.8735351562 88.8733215332 88.1329803467 86.9779510498 86.235244751 86.0189971924 
14.0009708405 13.7829694748 13.037024498 11.8782968521 11.1383314133 11.1389541626 11.8810720444 13.0396156311 13.784236908 14.0009946823 21.9900112152 21.6063423157 20.5380783081 18.9847679138 17.9778213501 17.9786529541 18.9884757996 20.5416316986 21.6082649231 21.9901065826 29.981344223 29.5299510956 28.5602664948 27.2580566406 26.3793354034 26.3800621033 27.2612075806 28.5632781982 29.5318908691 29.9814853668 37.9835510254 37.6482086182 37.0106010437 36.2088050842 35.6732330322 35.6736755371 36.2107315063 37.0125007629 37.6495399475 37.9836807251 45.9990005493 45.8746910095 45.6531295776 45.3863067627 45.210357666 45.2105026245 45.386932373 45.6537590027 45.8751678467 45.9990615845 54.0210418701 54.1460227966 54.3688011169 54.6370620728 54.8142089844 54.8140525818 54.6364097595 54.3681602478 54.1455421448 54.0209884644 62.0364532471 62.3722457886 63.0108947754 63.8140449524 64.3505935669 64.350151062 63.812122345 63.0089836121 62.3709030151 62.0363197327 70.0386505127 70.4901123047 71.4604110718 72.7641143799 73.6428833008 73.6422042847 72.7610397339 71.4573974609 70.4881591797 70.0384979248 78.0299530029 78.4132003784 79.4813613892 81.0353393555 82.0422744751 82.0414276123 81.031791687 79.4778213501 78.4112701416 78.0298690796 86.0190200806 86.2365264893 86.9806442261 88.1359786987 88.8735656738 88.8733520508 88.1329956055 86.9779815674 86.2352523804 86.0189971924 
14.0009708405 13.7829675674 13.0370121002 11.8782777786 11.1383075714 11.1389293671 11.8810501099 13.0396099091 13.7842359543 14.0009946823 21.9900093079 21.6063346863 20.5380687714 18.9847431183 17.9777870178 17.9786205292 18.9884529114 20.5416221619 21.6082611084 21.9901065826 29.981344223 29.5299472809 28.5602531433 27.258026123 26.3792953491 26.3800201416 27.2611789703 28.5632724762 29.5318889618 29.9814853668 37.9835510254 37.6482009888 37.0105895996 36.2087860107 35.6731948853 35.6736373901 36.2107048035 37.0124855042 37.6495361328 37.9836807251 45.9990005493 45.8746948242 45.6531219482 45.3862915039 45.2103500366 45.210483551 45.3869094849 45.6537590027 45.875164032 45.9990615845 54.0210533142 54.1460227966 54.3688163757 54.6370697021 54.8142204285 54.8140640259 54.6364326477 54.3681678772 54.1455421448 54.0209884644 62.0364532471 62.3722457886 63.0109024048 63.8140678406 64.3506240845 64.350189209 63.8121376038 63.0089950562 62.3709030151 62.0363197327 70.0386505127 70.4901123047 71.4604263306 72.7641448975 73.6429367065 73.6422424316 72.7610702515 71.4574127197 70.4881591797 70.0384979248 78.0299606323 78.4132080078 79.4813766479 81.0353622437 82.0422897339 82.0414581299 81.0318145752 79.4778137207 78.4112701416 78.0298690796 86.0190200806 86.2365264893 86.9806442261 88.1359863281 88.8736038208 88.8733825684 88.1330032349 86.9779663086 86.2352523804 86.0189971924 
