0.982026994228 1.01066553593 1.03858578205 1.09358119965 1.17536449432 1.175339818 1.09351027012 1.02884447575 1.01063072681 0.982079088688 0.973328530788 1.05548965931 1.16707766056 1.29888248444 1.41047787666 1.41044294834 1.29877710342 1.10791766644 1.05542993546 0.97338616848 0.970892310143 1.14598917961 1.27638494968 1.41148090363 1.50589811802 1.50586891174 1.41136801243 1.21232283115 1.14591777325 0.970930814743 0.968976020813 1.19128084183 1.32174086571 1.43891561031 1.51982390881 1.51979660988 1.43880581856 1.25711774826 1.19121468067 0.969007968903 0.967219233513 1.22678887844 1.35881221294 1.46236610413 1.5295009613 1.52947950363 1.46226143837 1.29415762424 1.22671806812 0.967250645161 0.967220067978 1.22677731514 1.3588000536 1.46235084534 1.52958130836 1.5295548439 1.46224153042 1.29415166378 1.22670602798 0.967251420021 0.968979716301 1.19122624397 1.32169532776 1.43881654739 1.51988959312 1.51985371113 1.43870294094 1.2570797205 1.19115924835 0.969011008739 0.971336662769 1.11605393887 1.23807024956 1.36973381042 1.4857237339 1.48572134972 1.36961603165 1.17797863483 1.11598932743 0.971376419067 0.973336398602 1.0553855896 1.16693520546 1.29896247387 1.41065979004 1.41055846214 1.29895234108 1.10778987408 1.05532169342 0.973394274712 0.982057750225 1.01061797142 1.03851425648 1.09331548214 1.17503666878 1.17514491081 1.09313428402 1.02879142761 1.01058363914 0.98211067915 
0.981738567352 1.00598597527 1.03226864338 1.0859054327 1.16617918015 1.1661529541 1.08583831787 1.02239251137 1.00595676899 0.981790423393 0.972955226898 1.04946577549 1.16071343422 1.29199767113 1.40688991547 1.40686142445 1.29189288616 1.101334095 1.04941046238 0.973013162613 0.970365345478 1.13928592205 1.26949250698 1.40944635868 1.54667365551 1.54664862156 1.40933942795 1.20573782921 1.13921546936 0.970404446125 0.968302130699 1.18426406384 1.31505632401 1.44214975834 1.56693935394 1.56691265106 1.44206631184 1.25133466721 1.18419826031 0.968335211277 0.966441988945 1.21978294849 1.3547475338 1.47864055634 1.58926796913 1.58924520016 1.47856903076 1.28988707066 1.2197111845 0.966474950314 0.96644282341 1.21977090836 1.35473287106 1.47861635685 1.58947122097 1.58943724632 1.47853457928 1.2898837328 1.21969890594 0.966475427151 0.968306064606 1.18420994282 1.31501078606 1.44203579426 1.56716549397 1.56712090969 1.44194436073 1.25129532814 1.18414306641 0.968338191509 0.970824658871 1.10931563377 1.23081207275 1.35996580124 1.49538230896 1.49538135529 1.35986149311 1.17091572285 1.10925209522 0.970865249634 0.972963809967 1.04936218262 1.16056644917 1.29209792614 1.40708684921 1.4069865942 1.29209327698 1.10120165348 1.04930222034 0.973022162914 0.981769919395 1.00594222546 1.03219532967 1.08562481403 1.16586911678 1.16597723961 1.08544242382 1.02233874798 1.0059132576 0.981822967529 
0.981736540794 1.00594961643 1.03221869469 1.08584439754 1.16610372066 1.1660772562 1.08577740192 1.02234196663 1.00592017174 0.98178845644 0.972952961922 1.04941773415 1.16066145897 1.29194009304 1.40682685375 1.40679836273 1.29183530807 1.10128045082 1.04936254025 0.973010957241 0.970361828804 1.13923203945 1.26943957806 1.40937852859 1.54664027691 1.54661536217 1.40927195549 1.20568430424 1.13916134834 0.97040104866 0.968297421932 1.18420767784 1.31500506401 1.44208657742 1.56715202332 1.56712579727 1.44200313091 1.2512871027 1.18414187431 0.968330383301 0.966436862946 1.21972763538 1.35469162464 1.47862577438 1.59053146839 1.59051001072 1.47855448723 1.2898453474 1.2196559906 0.966469526291 0.966437578201 1.21971583366 1.35467708111 1.47860217094 1.59076297283 1.59072887897 1.47852027416 1.28984165192 1.21964383125 0.966470181942 0.968301296234 1.18415355682 1.31495928764 1.44197273254 1.56739497185 1.56735026836 1.44188177586 1.25124764442 1.18408668041 0.968333661556 0.970821261406 1.10926115513 1.23075509071 1.35989451408 1.49530982971 1.49530875683 1.35978984833 1.17085719109 1.10919773579 0.970861971378 0.972961544991 1.04931426048 1.16051435471 1.29204082489 1.40702390671 1.40692353249 1.29203605652 1.1011480093 1.04925429821 0.973020017147 0.981768071651 1.0059056282 1.0321457386 1.08556365967 1.16579353809 1.16590166092 1.08538138866 1.02228820324 1.00587677956 0.981821298599 
0.981736540794 1.00594997406 1.03221940994 1.08584558964 1.16610562801 1.16607940197 1.08577895164 1.02234268188 1.00592076778 0.98178845644 0.972952723503 1.04941856861 1.16066265106 1.29194176197 1.40682864189 1.40680015087 1.2918368578 1.10128164291 1.04936337471 0.973010718822 0.97036164999 1.13923346996 1.26944124699 1.40938091278 1.5466427803 1.54661774635 1.40927410126 1.20568597317 1.13916265965 0.970400810242 0.968297302723 1.18420922756 1.31500709057 1.44208908081 1.56715512276 1.56712889671 1.44200563431 1.25128889084 1.18414342403 0.968330085278 0.966436624527 1.21972954273 1.35469412804 1.47862875462 1.59054148197 1.59051990509 1.47855734825 1.28984749317 1.21965789795 0.966469407082 0.966437220573 1.21971750259 1.35467922688 1.47860527039 1.5907728672 1.59073865414 1.4785233736 1.28984379768 1.2196457386 0.966470003128 0.96830111742 1.18415522575 1.31496179104 1.44197535515 1.56739842892 1.56735396385 1.44188392162 1.25124955177 1.18408846855 0.968333482742 0.970821261406 1.10926234722 1.23075652122 1.35989642143 1.49531233311 1.49531114101 1.35979223251 1.1708586216 1.1091991663 0.970861673355 0.972961485386 1.04931509495 1.1605155468 1.29204213619 1.40702557564 1.40692508221 1.29203748703 1.10114920139 1.04925525188 0.973019778728 0.981767892838 1.00590622425 1.03214621544 1.08556509018 1.16579544544 1.16590368748 1.08538269997 1.02228868008 1.00587713718 0.981821060181 
0.98173648119 1.00595021248 1.0322201252 1.08584713936 1.16610765457 1.16608119011 1.08578014374 1.02234315872 1.00592112541 0.981788337231 0.972952723503 1.04941952229 1.16066384315 1.29194331169 1.40683031082 1.4068018198 1.29183840752 1.10128283501 1.04936420918 0.973010718822 0.970361471176 1.13923466206 1.26944291592 1.40938317776 1.54664576054 1.54662084579 1.40927648544 1.20568740368 1.13916397095 0.970400571823 0.9682970047 1.1842110157 1.31500923634 1.442091465 1.56716048717 1.56713414192 1.4420081377 1.2512909174 1.18414521217 0.968330085278 0.966436386108 1.21973145008 1.35469603539 1.47863197327 1.59055113792 1.59052932262 1.47856020927 1.28984940052 1.21965968609 0.966469168663 0.966437220573 1.21971940994 1.35468125343 1.47860825062 1.59078216553 1.59074854851 1.47852635384 1.28984558582 1.21964764595 0.966469764709 0.968300819397 1.18415677547 1.3149638176 1.44197773933 1.56740403175 1.56735980511 1.44188642502 1.25125133991 1.18408989906 0.968333184719 0.970821022987 1.10926365852 1.23075819016 1.3598985672 1.49531447887 1.49531364441 1.35979413986 1.1708599329 1.10920023918 0.970861554146 0.972961306572 1.04931592941 1.1605168581 1.29204380512 1.40702712536 1.40692698956 1.29203915596 1.10115027428 1.04925596714 0.973019659519 0.981767892838 1.00590658188 1.03214693069 1.08556652069 1.16579723358 1.16590559483 1.08538413048 1.02228951454 1.00587749481 0.981821060181 
0.981736421585 1.00595080853 1.03222060204 1.08584821224 1.16610968113 1.16608309746 1.08578133583 1.02234387398 1.00592160225 0.981788396835 0.972952544689 1.04942035675 1.16066515446 1.2919447422 1.40683233738 1.40680348873 1.29183995724 1.10128378868 1.04936504364 0.973010480404 0.970361351967 1.13923597336 1.26944458485 1.40938556194 1.54664921761 1.54662466049 1.40927886963 1.20568883419 1.13916528225 0.970400571823 0.968296945095 1.18421244621 1.31501114368 1.44209384918 1.56716609001 1.56714010239 1.4420106411 1.25129282475 1.18414676189 0.968329846859 0.966436207294 1.2197329998 1.35469830036 1.47863471508 1.59056067467 1.59053897858 1.47856330872 1.28985118866 1.21966159344 0.966469109058 0.966436982155 1.21972119808 1.35468316078 1.47861123085 1.59079194069 1.59075796604 1.47852945328 1.28984749317 1.21964943409 0.966469526291 0.968300700188 1.1841583252 1.31496596336 1.44198000431 1.56741011143 1.56736564636 1.4418888092 1.25125336647 1.1840916872 0.968332946301 0.970820903778 1.10926496983 1.23075950146 1.35990059376 1.49531698227 1.49531579018 1.35979640484 1.17086100578 1.10920143127 0.970861434937 0.972961187363 1.04931688309 1.16051793098 1.29204535484 1.40702915192 1.40692877769 1.29204070568 1.10115122795 1.04925680161 0.97301954031 0.981767833233 1.0059068203 1.03214764595 1.08556783199 1.16579914093 1.16590750217 1.08538544178 1.02229011059 1.00587809086 0.981820881367 
0.98173636198 1.00595116615 1.03222107887 1.08584964275 1.16611123085 1.16608500481 1.08578276634 1.02234447002 1.00592172146 0.981788396835 0.972952485085 1.0494209528 1.16066610813 1.29194629192 1.40683364868 1.40680527687 1.29184150696 1.10128498077 1.0493657589 0.973010361195 0.970361351967 1.13923728466 1.2694464922 1.40938782692 1.54665279388 1.54662823677 1.40928137302 1.20569050312 1.13916671276 0.970400393009 0.968296647072 1.18421411514 1.31501352787 1.44209623337 1.56717252731 1.56714630127 1.44201290607 1.25129461288 1.18414831161 0.96832960844 0.966435968876 1.21973502636 1.35470020771 1.47863769531 1.5905700922 1.59054839611 1.47856628895 1.28985321522 1.21966338158 0.966468751431 0.966436743736 1.21972310543 1.35468566418 1.47861409187 1.59080207348 1.59076762199 1.4785323143 1.28984975815 1.21965098381 0.966469407082 0.968300580978 1.18416011333 1.31496798992 1.44198250771 1.56741809845 1.56737351418 1.44189143181 1.25125527382 1.18409311771 0.968332827091 0.970820665359 1.1092659235 1.23076105118 1.35990273952 1.49531960487 1.49531805515 1.35979831219 1.17086231709 1.10920250416 0.970861256123 0.972961127758 1.04931771755 1.16051924229 1.29204666615 1.40703082085 1.40693044662 1.2920422554 1.10115242004 1.04925763607 0.97301954031 0.981767654419 1.00590729713 1.03214812279 1.08556902409 1.16580104828 1.16590929031 1.08538675308 1.02229070663 1.00587832928 0.981821000576 
