13.9421081543 21.7244510651 29.3167209625 37.2324066162 45.6842651367 54.3373641968 62.7881088257 70.7023849487 78.2946929932 86.0776138306 13.9089221954 21.5087871552 28.6341381073 36.5401916504 45.4094200134 54.6135902405 63.4809608459 71.3841629028 78.509223938 86.1106643677 13.8941717148 21.3656959534 28.2702255249 36.1389694214 45.2370758057 54.786781311 63.882434845 71.7476882935 78.6516571045 86.1253509521 13.8854827881 21.2931289673 28.1170654297 35.9674301147 45.1624450684 54.8618011475 64.0540771484 71.9006881714 78.724029541 86.1340103149 13.8802576065 21.2623901367 28.0474491119 35.8904495239 45.1297073364 54.8946990967 64.131111145 71.9702148438 78.7546539307 86.1391983032 13.8802642822 21.2624092102 28.047504425 35.8905105591 45.1297302246 54.8946685791 64.1310424805 71.9701690674 78.7546386719 86.1391906738 13.8854999542 21.2932491302 28.1173305511 35.9677734375 45.1625785828 54.8616638184 64.0537338257 71.9004211426 78.7238998413 86.1339874268 13.894197464 21.3659515381 28.2707958221 36.1395874023 45.2375030518 54.7863578796 63.8818283081 71.7471160889 78.6513977051 86.1253356934 13.9089775085 21.509223938 28.6354084015 36.541431427 45.4099388123 54.6130485535 63.4797515869 71.3828811646 78.5087890625 86.1106109619 13.9422416687 21.7251529694 29.3187179565 37.2347488403 45.6853485107 54.3363075256 62.7857933044 70.7004470825 78.2940063477 86.0774765015 
13.9363975525 21.7096118927 29.295835495 37.1838188171 45.6478424072 54.3739776611 62.8366127014 70.7232284546 78.3095397949 86.0832977295 13.8993816376 21.4801845551 28.5581531525 36.3812103271 45.3226509094 54.7007789612 63.6398468018 71.4599227905 78.5377655029 86.1201782227 13.8793115616 21.3143215179 28.1046886444 35.9095344543 45.1247215271 54.8997154236 64.1118392944 71.9129486084 78.702835083 86.1401748657 13.864200592 21.221282959 27.9017772675 35.7182426453 45.0452194214 54.9796104431 64.3032836914 72.1157073975 78.7955322266 86.1552124023 13.8546848297 21.1794338226 27.8210372925 35.6390113831 45.0124168396 55.0125579834 64.3825759888 72.1963882446 78.8372268677 86.1646957397 13.8546962738 21.1794586182 27.8210983276 35.6390686035 45.0124511719 55.0125198364 64.382522583 72.1963348389 78.8372039795 86.1646652222 13.864233017 21.2214508057 27.9021091461 35.7186012268 45.0453567505 54.9794692993 64.3029174805 72.1153793335 78.7953643799 86.1551818848 13.8793525696 21.3146305084 28.1054515839 35.9102973938 45.1251792908 54.8992385864 64.1110992432 71.9121932983 78.7025299072 86.1401443481 13.8994464874 21.4806728363 28.5596599579 36.382686615 45.3233566284 54.7000427246 63.6384048462 71.4584274292 78.5372924805 86.1201171875 13.9365377426 21.7102909088 29.297794342 37.1864128113 45.6490402222 54.3728103638 62.8340339661 70.7213668823 78.3088760376 86.0831680298 
13.9350509644 21.7067089081 29.292974472 37.1753997803 45.6415672302 54.3802757263 62.8450241089 70.7260742188 78.3124389648 86.0846633911 13.8970565796 21.4745979309 28.5402297974 36.3308105469 45.2847213745 54.7389068604 63.6901702881 71.4777984619 78.5433502197 86.1224975586 13.8755455017 21.2990779877 28.0565071106 35.7910842896 45.0523414612 54.9724464417 64.2301483154 71.9609527588 78.7180328369 86.1439208984 13.8588495255 21.1915130615 27.8066062927 35.5492401123 44.9559402466 55.0693359375 64.4722366333 72.2106399536 78.8251876831 86.1605377197 13.8482036591 21.1379051208 27.6896820068 35.4473419189 44.916595459 55.1088752747 64.5742340088 72.3274993896 78.8785858154 86.1711578369 13.8482112885 21.1379413605 27.6897716522 35.4474105835 44.9166297913 55.1088256836 64.5741577148 72.3274230957 78.8785552979 86.1711349487 13.8588838577 21.1917133331 27.807062149 35.5496826172 44.9561004639 55.0691604614 64.4717788696 72.2101974487 78.8249740601 86.1604919434 13.8755893707 21.2994155884 28.0573616028 35.7920188904 45.0528526306 54.9719390869 64.2292327881 71.9601364136 78.7176895142 86.1438751221 13.8971223831 21.4750957489 28.5417957306 36.3324050903 45.285533905 54.7380523682 63.6886100769 71.4762420654 78.5428619385 86.1224212646 13.9351863861 21.7073631287 29.2948799133 37.1780509949 45.6427574158 54.3791351318 62.8423614502 70.7242965698 78.3118209839 86.0845184326 
13.93471241 21.7061977386 29.2930812836 37.1745300293 45.6404418945 54.3814086914 62.8458862305 70.725982666 78.3129501343 86.0849914551 13.8964643478 21.4737091064 28.536939621 36.3195838928 45.2761573792 54.7475166321 63.7013778687 71.4810562134 78.5442276001 86.123085022 13.8745269775 21.2953662872 28.0436897278 35.7570037842 45.024394989 55.0005340576 64.2641677856 71.973739624 78.7217330933 86.1449356079 13.8572711945 21.1829986572 27.7785892487 35.4823150635 44.9128341675 55.112651825 64.5390777588 72.2385864258 78.8336715698 86.1621246338 13.8461742401 21.1253032684 27.6486930847 35.3605690002 44.8662185669 55.1595077515 64.6609344482 72.3683853149 78.89112854 86.1731643677 13.8461847305 21.1253452301 27.6487884521 35.3606491089 44.8662643433 55.1594429016 64.6608657837 72.3682861328 78.8910980225 86.1731567383 13.8573093414 21.1832122803 27.7790794373 35.4828186035 44.9130325317 55.112449646 64.5385665894 72.2380905151 78.8334579468 86.1620635986 13.8745737076 21.2957134247 28.0445709229 35.7580184937 45.0249481201 54.9999809265 64.2631607056 71.9728851318 78.7213821411 86.1448822021 13.8965291977 21.4742145538 28.5385169983 36.3212013245 45.2770004272 54.7466201782 63.6997909546 71.4795074463 78.5437469482 86.1230392456 13.9348459244 21.7068443298 29.294960022 37.1772003174 45.6416130066 54.3802833557 62.8432121277 70.7242202759 78.3123397827 86.084854126 
13.9346313477 21.7061233521 29.2932720184 37.1745414734 45.6403198242 54.3815307617 62.8458786011 70.7257843018 78.3130264282 86.0850753784 13.896323204 21.4736099243 28.5364360809 36.317276001 45.2746047974 54.7490768433 63.7036705017 71.4815597534 78.544342041 86.1232223511 13.8742589951 21.2945156097 28.0407772064 35.7491645813 45.0176353455 55.0073318481 64.2719955444 71.9766540527 78.7225723267 86.1452102661 13.8568544388 21.1807155609 27.7708911896 35.4628181458 44.8981170654 55.1274490356 64.5585327148 72.2462615967 78.8359375 86.1625289917 13.8456068039 21.1217479706 27.6367816925 35.3317070007 44.8470230103 55.1787986755 64.689781189 72.3802566528 78.8946914673 86.1737289429 13.8456172943 21.1217880249 27.6368789673 35.3317947388 44.8470687866 55.1787414551 64.6896896362 72.3801574707 78.8946456909 86.1737060547 13.8568916321 21.180934906 27.771396637 35.4633560181 44.8983192444 55.1272277832 64.5579910278 72.245765686 78.8357315063 86.1624984741 13.8743085861 21.2948627472 28.0416660309 35.7502059937 45.0182266235 55.006729126 64.2709655762 71.9757843018 78.7222290039 86.1451644897 13.8963871002 21.4741134644 28.5380191803 36.3189048767 45.2754631042 54.74817276 63.7020835876 71.4799957275 78.5438613892 86.1231613159 13.9347667694 21.7067661285 29.2951507568 37.1772117615 45.6414909363 54.3804168701 62.8431968689 70.724029541 78.3124160767 86.0849380493 
13.9346132278 21.7061138153 29.293346405 37.174571991 45.6403045654 54.3815460205 62.8458480835 70.7257156372 78.3130340576 86.0850830078 13.8962888718 21.4736061096 28.5363693237 36.3168106079 45.2742805481 54.7494010925 63.7041511536 71.481628418 78.544342041 86.123260498 13.8741979599 21.2943210602 28.0401039124 35.7475318909 45.0162162781 55.0087585449 64.2736282349 71.9773101807 78.7227630615 86.1452560425 13.8567504883 21.1801376343 27.768945694 35.4579315186 44.8940582275 55.1315307617 64.5634002686 72.2482070923 78.836517334 86.1626358032 13.8454627991 21.1208267212 27.6336269379 35.3234596252 44.8410606384 55.1847839355 64.6979980469 72.3834075928 78.8956069946 86.1738739014 13.8454732895 21.1208686829 27.6337299347 35.3235473633 44.8411102295 55.1847267151 64.6979141235 72.3833007812 78.8955612183 86.1738739014 13.8567848206 21.1803569794 27.7694568634 35.4584846497 44.8942680359 55.1313018799 64.5628585815 72.2477035522 78.8363037109 86.1625976562 13.8742427826 21.294670105 28.0409946442 35.7485771179 45.0168151855 55.0081443787 64.2725982666 71.9764709473 78.7224273682 86.1452026367 13.8963527679 21.474105835 28.5379600525 36.3184432983 45.2751426697 54.7484970093 63.7025566101 71.4800491333 78.5438537598 86.1231994629 13.9347467422 21.7067584991 29.2952251434 37.1772460938 45.6414833069 54.3804283142 62.843170166 70.7239608765 78.3124313354 86.0849685669 
13.9346084595 21.706111908 29.2933673859 37.1745834351 45.640296936 54.3815460205 62.8458328247 70.725692749 78.313041687 86.0850982666 13.8962802887 21.4736061096 28.5363636017 36.3167152405 45.2742156982 54.7494621277 63.7042388916 71.4816360474 78.5443344116 86.1232757568 13.8741846085 21.2942733765 28.0399494171 35.747177124 45.0159912109 55.0089836121 64.273979187 71.9774780273 78.7228240967 86.1452789307 13.8567228317 21.1799945831 27.7684669495 35.4567909241 44.8930664062 55.1325263977 64.5645523071 72.2486877441 78.8366546631 86.1626663208 13.8454284668 21.1205921173 27.6328144073 35.3212738037 44.8394050598 55.1864509583 64.7001953125 72.3842010498 78.8958282471 86.1739120483 13.8454399109 21.120634079 27.6329135895 35.3213653564 44.8394546509 55.1863937378 64.700088501 72.3841094971 78.8957977295 86.1738967896 13.856760025 21.1802120209 27.7689743042 35.4573402405 44.8932800293 55.1322937012 64.5639953613 72.2481765747 78.8364486694 86.1626205444 13.8742294312 21.294626236 28.0408382416 35.7482261658 45.0166091919 55.0083694458 64.27293396 71.9766082764 78.7224731445 86.1452331543 13.8963460922 21.474105835 28.5379543304 36.3183479309 45.2750701904 54.7485656738 63.7026329041 71.4800567627 78.5438537598 86.1232070923 13.9347438812 21.7067565918 29.2952423096 37.1772613525 45.6414756775 54.3804206848 62.8431549072 70.7239379883 78.3124313354 86.0849609375 
