14.0085487366 13.8254899979 13.0719718933 11.9842357635 11.3772449493 11.3777351379 11.9866247177 13.0745668411 13.8267393112 14.0085344315 21.9996299744 21.6835021973 20.7142753601 19.4587802887 18.750453949 18.7510108948 19.4615001678 20.7173881531 21.6852455139 21.9996814728 29.9916782379 29.6354312897 28.8303871155 27.8601474762 27.281457901 27.2819232941 27.8622970581 28.8328094482 29.6370620728 29.99177742 37.9935340881 37.7426338196 37.2441978455 36.6604385376 36.3056526184 36.3059310913 36.6617355347 37.2456588745 37.7436828613 37.9936218262 46.0030174255 45.9141082764 45.7460479736 45.5527763367 45.434803009 45.4348983765 45.5532073975 45.7465324402 45.9144706726 46.0030555725 54.0170059204 54.1063690186 54.2752952576 54.4695510864 54.5881881714 54.5880813599 54.4691200256 54.2748031616 54.1060180664 54.0169677734 62.0264778137 62.2777290344 62.7769775391 63.3617248535 63.7171325684 63.7168502808 63.3604164124 62.77551651 62.2766838074 62.0263900757 70.0283203125 70.3846664429 71.1903381348 72.1616363525 72.7405548096 72.7400817871 72.1595001221 71.1879196167 70.383026123 70.0282211304 78.0203475952 78.3361740112 79.305557251 80.5616226196 81.2701644897 81.2696075439 80.5589294434 79.3024749756 78.3344573975 78.0203018188 86.0114593506 86.1941299438 86.9462280273 88.0315704346 88.6367340088 88.636428833 88.0291976929 86.9436798096 86.1929016113 86.0114593506 
14.0026140213 13.790512085 13.0291347504 11.9070034027 11.2360239029 11.2365913391 11.9095401764 13.0317573547 13.7917881012 14.0026283264 21.9925899506 21.6271381378 20.5906448364 19.1821308136 18.3259391785 18.3266410828 19.1853275299 20.5940151215 21.6290168762 21.9926700592 29.9843101501 29.5634803772 28.6475696564 27.5027275085 26.8024749756 26.8030509949 27.5053215027 28.6503639221 29.5653114319 29.9844417572 37.986782074 37.6768951416 37.0851516724 36.3997955322 35.9772415161 35.9775848389 36.4013442993 37.0868682861 37.6781425476 37.9869003296 46.0001716614 45.8860549927 45.6837539673 45.458316803 45.3191871643 45.3192939758 45.4588241577 45.6843223572 45.8864936829 46.0002174377 54.0198745728 54.1345787048 54.3379173279 54.5645103455 54.7044372559 54.7043228149 54.5639953613 54.337348938 54.1341400146 54.0198249817 62.0332336426 62.3435134888 62.9361915588 63.6226959229 64.0460128784 64.0456695557 63.6211471558 62.9344711304 62.3422698975 62.033115387 70.0356826782 70.4565963745 71.373085022 72.5191574097 73.2196731567 73.2190933228 72.5165939331 71.3702774048 70.4547729492 70.0355529785 78.0273895264 78.3924942017 79.4289855957 80.8379211426 81.6942367554 81.6935195923 80.8347854614 79.4256210327 78.3906402588 78.0273208618 86.0173873901 86.2290725708 86.9889526367 88.1082458496 88.7772216797 88.7769088745 88.1057128906 86.9864273071 86.2278213501 86.0173492432 
14.0014286041 13.7839851379 13.0229930878 11.8977508545 11.2199087143 11.2204885483 11.900302887 13.0256118774 13.7852649689 14.0014486313 21.99127388 21.6169109344 20.5680923462 19.1297149658 18.2383136749 18.2390613556 19.1330032349 20.5715122223 21.618812561 21.9913597107 29.9831027985 29.5508766174 28.6118431091 27.4126224518 26.6498851776 26.6505146027 27.415397644 28.6147289276 29.5527572632 29.9832401276 37.9858322144 37.6660728455 37.0517082214 36.3170585632 35.8548812866 35.855266571 36.3187408447 37.0535087585 37.6673583984 37.9859580994 45.9998054504 45.8816184998 45.6688537598 45.4255638123 45.2732467651 45.2733688354 45.4261169434 45.6694641113 45.8820762634 45.9998550415 54.0202331543 54.1390304565 54.3529014587 54.5974197388 54.7506408691 54.75050354 54.5968475342 54.3522834778 54.1385765076 54.0201835632 62.0341873169 62.354347229 62.9696578979 63.7054901123 64.16847229 64.1680908203 63.7038078308 62.9678535461 62.353061676 62.0340614319 70.036895752 70.4691848755 71.408782959 72.6092453003 73.3721160889 73.3715209961 72.6064987183 71.4059066772 70.4673080444 70.0367507935 78.0287094116 78.4027175903 79.4514923096 80.8902435303 81.7816467285 81.7808761597 80.8870239258 79.4480895996 78.4008331299 78.0286102295 86.0185699463 86.2356033325 86.9950714111 88.1173934937 88.79322052 88.7929077148 88.1148300171 86.9925765991 86.2343444824 86.0185470581 
14.0012111664 13.7828006744 13.021982193 11.8964824677 11.2178039551 11.2183856964 11.8990383148 13.0246009827 13.7840805054 14.0012302399 21.9910316467 21.615032196 20.5640563965 19.1206817627 18.2242164612 18.2249679565 19.1239891052 20.5674800873 21.61693573 21.9911193848 29.9828739166 29.5485019684 28.6051540375 27.3961391449 26.6197795868 26.6204242706 27.3989505768 28.6080513 29.5503845215 29.9830112457 37.9856491089 37.6639862061 37.0449943542 36.2982673645 35.823890686 35.8242912292 36.299987793 37.0468177795 37.6652793884 37.9857711792 45.9997329712 45.8807525635 45.6658172607 45.4171028137 45.2604484558 45.2605705261 45.4176712036 45.666431427 45.8812141418 45.9997901917 54.0203132629 54.1398963928 54.3559494019 54.6059188843 54.7635345459 54.7633972168 54.6053390503 54.3553276062 54.1394424438 54.0202560425 62.0343704224 62.3564300537 62.9763641357 63.7242965698 64.1994781494 64.1990890503 63.722568512 62.9745445251 62.355140686 62.0342407227 70.0371246338 70.4715652466 71.4154815674 72.6257095337 73.4021682739 73.401550293 72.6229400635 71.4125747681 70.4696807861 70.0369873047 78.0289459229 78.4045944214 79.4555053711 80.8992614746 81.795715332 81.7949295044 80.8960189819 79.4521026611 78.4027099609 78.0288619995 86.0187835693 86.2367858887 86.9961013794 88.118637085 88.7952957153 88.7949829102 88.116065979 86.9935760498 86.2355270386 86.0187606812 
14.001168251 13.7825641632 13.0217790604 11.8962440491 11.2174167633 11.217997551 11.8987989426 13.0243997574 13.7838420868 14.0011892319 21.9909801483 21.6146526337 20.5632457733 19.1189498901 18.2215766907 18.2223262787 19.1222610474 20.5666751862 21.616558075 21.9910736084 29.9828243256 29.5480117798 28.6037883759 27.3929252625 26.6142539978 26.614906311 27.395740509 28.6066818237 29.5499000549 29.9829654694 37.9856185913 37.6635475159 37.0435638428 36.2941246033 35.8166007996 35.8170051575 36.2958526611 37.0453910828 37.6648445129 37.9857406616 45.9997253418 45.8805732727 45.6651687622 45.4150123596 45.2571716309 45.2573013306 45.4155883789 45.6657867432 45.8810310364 45.9997787476 54.020324707 54.1400871277 54.3566055298 54.6080207825 54.7668304443 54.7666931152 54.6074485779 54.3559799194 54.1396255493 54.020275116 62.0344047546 62.3568649292 62.977809906 63.7284317017 64.2067718506 64.2063751221 63.7267036438 62.9759674072 62.3555793762 62.0342788696 70.0371627808 70.4720535278 71.416847229 72.6289138794 73.4076843262 73.4070587158 72.6261444092 71.4139328003 70.4701843262 70.0370254517 78.0289993286 78.4049682617 79.4563217163 80.9009857178 81.7983322144 81.7975692749 80.8977355957 79.452911377 78.4030914307 78.0289077759 86.0188369751 86.2370147705 86.9962921143 88.118888855 88.7956848145 88.7953567505 88.1163024902 86.9937896729 86.2357559204 86.0187988281 
14.0011577606 13.7825069427 13.0217247009 11.8961782455 11.2173194885 11.2179012299 11.8987340927 13.0243463516 13.7837867737 14.0011787415 21.9909687042 21.6145648956 20.5630569458 19.1185531616 18.2209873199 18.2217407227 19.1218624115 20.5664806366 21.6164684296 21.991060257 29.9828090668 29.5478935242 28.6034584045 27.3921756744 26.6130695343 26.6137218475 27.3949928284 28.6063594818 29.5497837067 29.9829483032 37.9856071472 37.663444519 37.0432090759 36.2931098938 35.814743042 35.8151435852 36.2948417664 37.0450363159 37.6647415161 37.9857292175 45.9997177124 45.8805274963 45.6650123596 45.4144668579 45.2562789917 45.2564086914 45.4150352478 45.6656341553 45.88098526 45.9997673035 54.020324707 54.1401290894 54.3567581177 54.608581543 54.7677307129 54.7675933838 54.608001709 54.3561325073 54.139667511 54.020275116 62.0344009399 62.3569755554 62.9781570435 63.7294540405 64.2086181641 64.2082290649 63.7277183533 62.9763221741 62.3556785583 62.0342941284 70.0371780396 70.4721755981 71.4171600342 72.6296615601 73.4088821411 73.4082489014 72.6268920898 71.4142837524 70.4702987671 70.0370407104 78.029006958 78.4050598145 79.4565124512 80.9013900757 81.7989196777 81.7981491089 80.8981399536 79.4531021118 78.403175354 78.0289230347 86.0188369751 86.2370758057 86.9963607788 88.1189346313 88.7957839966 88.795463562 88.1163711548 86.9938278198 86.2358169556 86.0187988281 
14.0011558533 13.782491684 13.0217056274 11.8961486816 11.2172775269 11.2178564072 11.8987045288 13.0243272781 13.7837724686 14.0011777878 21.9909648895 21.6145362854 20.562997818 19.1184368134 18.2208175659 18.221572876 19.1217441559 20.5664196014 21.616443634 21.9910564423 29.9828128815 29.5478591919 28.6033611298 27.3919658661 26.612745285 26.6133975983 27.39478302 28.6062583923 29.5497512817 29.9829540253 37.9856033325 37.6634140015 37.0431060791 36.2928161621 35.8142127991 35.8146095276 36.2945480347 37.0449333191 37.6647148132 37.9857292175 45.9997138977 45.8805122375 45.6649665833 45.4142913818 45.2560157776 45.2561416626 45.414855957 45.6655845642 45.8809738159 45.9997673035 54.0203323364 54.1401481628 54.3568077087 54.6087532043 54.7680091858 54.7678604126 54.6081695557 54.3561859131 54.1396789551 54.0202827454 62.0344085693 62.3570022583 62.9782524109 63.7297515869 64.2091522217 64.2087478638 63.7280082703 62.9764289856 62.3557128906 62.0342903137 70.0371780396 70.4722137451 71.4172592163 72.6298675537 73.4092025757 73.4085693359 72.6270980835 71.4143829346 70.4703369141 70.0370407104 78.0290145874 78.4051055908 79.4565811157 80.9015045166 81.7990875244 81.798324585 80.8982620239 79.4531555176 78.403213501 78.0289230347 86.0188369751 86.2370986938 86.9963912964 88.1189727783 88.7958374023 88.795501709 88.116394043 86.9938583374 86.235824585 86.0188140869 
