13.9364748001 21.7109298706 29.3065090179 37.1792144775 45.6407623291 54.3810806274 62.8411865234 70.7125549316 78.3082427979 86.0832214355 13.898692131 21.4801445007 28.5439033508 36.327495575 45.2849197388 54.7387084961 63.6934776306 71.474105835 78.5378112793 86.1208648682 13.8772859573 21.3062114716 28.0593395233 35.7970848083 45.0574531555 54.9673194885 64.2241744995 71.9581451416 78.7108535767 86.1422042847 13.860332489 21.1987304688 27.8175964355 35.5658340454 44.963809967 55.0614280701 64.4556350708 72.1996765137 78.8179626465 86.1590652466 13.8490982056 21.1468734741 27.7094135284 35.4685592651 44.92552948 55.0998878479 64.5529937744 72.3077926636 78.8696289062 86.1702575684 13.8491077423 21.146905899 27.709487915 35.4686203003 44.925567627 55.0998535156 64.5529251099 72.3077316284 78.8695983887 86.1702423096 13.860370636 21.1989345551 27.818025589 35.5662536621 44.9639663696 55.0612602234 64.4552078247 72.199256897 78.8177642822 86.1590423584 13.8773298264 21.306552887 28.0601768494 35.7979927063 45.0579681396 54.9667930603 64.223274231 71.9573287964 78.7105255127 86.1421356201 13.8987579346 21.480632782 28.5454940796 36.329082489 45.2857284546 54.7378501892 63.6919364929 71.4725112915 78.5373382568 86.120803833 13.9366083145 21.7115955353 29.3083934784 37.1819229126 45.6419677734 54.3799362183 62.8384742737 70.7107772827 78.3075942993 86.0830917358 
13.9358243942 21.7101783752 29.3074798584 37.1783752441 45.6391181946 54.3827323914 62.8420066833 70.7115783691 78.3089828491 86.0838851929 13.8975362778 21.4790267944 28.5392284393 36.3065643311 45.2678565979 54.7558670044 63.7143783569 71.478767395 78.5389251709 86.1220321655 13.8753585815 21.3000621796 28.0369224548 35.7330665588 45.00806427 55.0169487 64.2880630493 71.9804916382 78.7170028687 86.1441116333 13.8573408127 21.1836662292 27.7671642303 35.445930481 44.887928009 55.1376800537 64.5754013062 72.249961853 78.8329696655 86.1620483398 13.8453140259 21.1241035461 27.6331729889 35.3150291443 44.8365592957 55.1893043518 64.7064208984 72.3838272095 78.8923034668 86.1740264893 13.8453235626 21.1241455078 27.6332778931 35.3151130676 44.8366088867 55.1892547607 64.7063369751 72.3837280273 78.8922653198 86.1740036011 13.857383728 21.183883667 27.7676677704 35.4464683533 44.8881454468 55.1374549866 64.5748519897 72.249458313 78.8327560425 86.1619949341 13.8754034042 21.3004188538 28.0378074646 35.7341194153 45.0086669922 55.0163497925 64.2870101929 71.9796447754 78.7166366577 86.1440734863 13.897603035 21.4795227051 28.5408554077 36.3082122803 45.268737793 54.7549362183 63.7127685547 71.4771270752 78.5384597778 86.1219482422 13.9359588623 21.7108230591 29.3093204498 37.1811141968 45.6403160095 54.3816108704 62.8392677307 70.7098770142 78.3083877563 86.0837478638 
13.935792923 21.7101669312 29.3076076508 37.1784515381 45.6391143799 54.3827400208 62.8419380188 70.7114639282 78.3089981079 86.0839080811 13.8974809647 21.4790344238 28.5391654968 36.3058052063 45.2673187256 54.756401062 63.7151222229 71.4788131714 78.5389251709 86.1220779419 13.8752574921 21.2997817993 28.0359268188 35.7303390503 45.0056037903 55.0194282532 64.290802002 71.9814834595 78.7172698975 86.1442108154 13.8571796417 21.1827964783 27.7641601562 35.4382324219 44.8820724487 55.1435661316 64.5830917358 72.2529602051 78.8338241577 86.1622238159 13.8450870514 21.1226997375 27.6283092499 35.3027534485 44.828414917 55.1974906921 64.7186813354 72.3886947632 78.8937072754 86.1742401123 13.8450965881 21.1227455139 27.6284122467 35.3028411865 44.8284721375 55.1974258423 64.7185897827 72.3885879517 78.8936691284 86.1742248535 13.857216835 21.1830234528 27.7646694183 35.438785553 44.8822860718 55.1433334351 64.5825195312 72.2524642944 78.8336181641 86.1621780396 13.8753004074 21.3001403809 28.0368175507 35.7313957214 45.0062179565 55.0188026428 64.2897338867 71.9806060791 78.7169189453 86.1441497803 13.8975486755 21.4795322418 28.5407943726 36.3074569702 45.2682037354 54.7554626465 63.713508606 71.477180481 78.5384521484 86.1219940186 13.9359264374 21.710811615 29.3094539642 37.1811943054 45.6403007507 54.3816223145 62.839176178 70.7097549438 78.3083953857 86.0837860107 
13.9357891083 21.7101669312 29.3076210022 37.1784667969 45.6391143799 54.3827438354 62.8419342041 70.7114486694 78.3090057373 86.0839157104 13.8974742889 21.4790363312 28.5391578674 36.3057365417 45.2672691345 54.7564468384 63.7151870728 71.4788208008 78.5389251709 86.1220703125 13.875243187 21.2997493744 28.0358066559 35.7300834656 45.0054206848 55.0196037292 64.2910461426 71.981590271 78.7173080444 86.1442260742 13.8571577072 21.1826915741 27.7638072968 35.4374046326 44.8814315796 55.1442184448 64.5839080811 72.2533035278 78.8339538574 86.1622314453 13.8450613022 21.1225299835 27.6277160645 35.3012390137 44.8274116516 55.1985015869 64.7201919556 72.3892745972 78.8938751221 86.1742858887 13.8450727463 21.1225719452 27.6278247833 35.3013267517 44.8274688721 55.1984481812 64.7201080322 72.389175415 78.8938446045 86.1742553711 13.8572006226 21.1829147339 27.7643241882 35.437953949 44.8816490173 55.1439819336 64.5833511353 72.2528076172 78.8337249756 86.1621856689 13.8752908707 21.3001079559 28.0367050171 35.7311439514 45.0060386658 55.0189819336 64.2899932861 71.98072052 78.7169418335 86.1441726685 13.8975410461 21.4795284271 28.5407848358 36.3073921204 45.2681503296 54.7555122375 63.7135810852 71.4771957397 78.538444519 86.1220092773 13.93592453 21.7108078003 29.3094615936 37.1812019348 45.6403007507 54.3816261292 62.8391685486 70.7097320557 78.3084030151 86.0837860107 
13.9357910156 21.7101631165 29.3076152802 37.1784591675 45.6391143799 54.3827362061 62.8419265747 70.7114486694 78.3090057373 86.0839233398 13.8974742889 21.4790344238 28.539150238 36.305721283 45.2672576904 54.7564582825 63.7152061462 71.4788208008 78.5389251709 86.1220703125 13.8752441406 21.2997398376 28.0357837677 35.7300300598 45.0053901672 55.0196418762 64.2911071777 71.9816360474 78.7173233032 86.1442260742 13.8571567535 21.1826648712 27.7637310028 35.4372444153 44.8813171387 55.144329071 64.5840606689 72.2533874512 78.8339614868 86.1622314453 13.8450565338 21.1224899292 27.6275920868 35.3009414673 44.8272171021 55.1986885071 64.7204818726 72.3894195557 78.893913269 86.1742782593 13.8450660706 21.1225337982 27.6276931763 35.3010368347 44.8272743225 55.198638916 64.7203979492 72.3893051147 78.8938827515 86.1742553711 13.8571939468 21.1828918457 27.7642364502 35.4378013611 44.8815460205 55.1440963745 64.5835113525 72.2528915405 78.8337554932 86.1621856689 13.8752889633 21.3000965118 28.0366725922 35.731098175 45.0060195923 55.0190048218 64.2900466919 71.980758667 78.7169647217 86.1441726685 13.8975410461 21.4795265198 28.5407791138 36.3073730469 45.2681427002 54.7555274963 63.7136039734 71.4771957397 78.5384597778 86.1220016479 13.9359226227 21.7108058929 29.3094596863 37.1811943054 45.6402931213 54.3816223145 62.839176178 70.7097396851 78.3083953857 86.0837860107 
13.9357910156 21.7101593018 29.3076114655 37.1784515381 45.6391143799 54.3827438354 62.8419380188 70.7114562988 78.3090057373 86.0839233398 13.8974723816 21.4790267944 28.5391407013 36.3057098389 45.2672538757 54.7564620972 63.7152137756 71.478843689 78.5389328003 86.1220855713 13.8752422333 21.2997322083 28.0357646942 35.7300071716 45.0053787231 55.0196495056 64.2911300659 71.9816360474 78.7173233032 86.1442337036 13.8571529388 21.1826553345 27.7636928558 35.4371910095 44.8812866211 55.1443634033 64.5841217041 72.2534255981 78.833984375 86.1622390747 13.8450546265 21.1224727631 27.627538681 35.3008460999 44.827167511 55.1987419128 64.7205810547 72.3894577026 78.8939361572 86.1742706299 13.8450641632 21.1225147247 27.6276435852 35.3009338379 44.8272094727 55.1986846924 64.720489502 72.3893432617 78.8939056396 86.1742630005 13.8571939468 21.1828765869 27.7642059326 35.4377441406 44.8815078735 55.1441268921 64.5835647583 72.2529296875 78.8337631226 86.1621856689 13.8752889633 21.3000926971 28.036649704 35.7310676575 45.0060005188 55.0190200806 64.2900772095 71.9807662964 78.7169647217 86.1441802979 13.8975391388 21.4795246124 28.5407752991 36.3073577881 45.2681350708 54.7555351257 63.7136192322 71.4772109985 78.5384674072 86.1220092773 13.9359235764 21.7108039856 29.3094539642 37.1811981201 45.6403007507 54.3816223145 62.8391838074 70.7097320557 78.3083953857 86.0837936401 
13.9357891083 21.7101593018 29.3076076508 37.1784477234 45.6391143799 54.3827438354 62.8419418335 70.7114562988 78.3090057373 86.0839233398 13.8974733353 21.4790229797 28.5391311646 36.3056945801 45.2672462463 54.7564659119 63.7152366638 71.4788513184 78.5389328003 86.1220855713 13.8752403259 21.2997245789 28.0357456207 35.7299842834 45.0053672791 55.019657135 64.2911453247 71.9816436768 78.717338562 86.1442337036 13.8571519852 21.1826457977 27.7636623383 35.4371528625 44.8812675476 55.1443786621 64.5841522217 72.2534484863 78.8339920044 86.1622390747 13.8450527191 21.1224594116 27.6275005341 35.3007888794 44.8271408081 55.1987724304 64.7206497192 72.389503479 78.893951416 86.1742782593 13.8450632095 21.1225013733 27.6276054382 35.3008842468 44.8271942139 55.19871521 64.7205505371 72.3893966675 78.893913269 86.1742706299 13.8571920395 21.1828689575 27.7641735077 35.4377059937 44.8814888 55.1441421509 64.5836029053 72.2529602051 78.8337631226 86.1621932983 13.875287056 21.3000831604 28.0366382599 35.7310523987 45.0059928894 55.01902771 64.2900924683 71.9807891846 78.7169723511 86.1441802979 13.8975381851 21.4795188904 28.5407600403 36.3073501587 45.2681274414 54.755531311 63.7136268616 71.4772186279 78.5384674072 86.1220092773 13.9359235764 21.7108020782 29.3094539642 37.181186676 45.6403007507 54.3816261292 62.8391990662 70.7097396851 78.3084030151 86.0837936401 
