1.0 1.00000011921 0.997594118118 1.04033184052 1.09091448784 1.09089684486 1.04027712345 1.00000023842 1.0 1.0 0.999999940395 1.00011861324 1.07298004627 1.16489481926 1.24041211605 1.24040174484 1.16483807564 1.02371442318 1.00011610985 1.0 1.0 1.04531860352 1.15694797039 1.25963592529 1.33875846863 1.33874881268 1.25958895683 1.09541499615 1.04524004459 1.00000011921 1.0 1.08024334908 1.19497561455 1.28942084312 1.35977959633 1.35977172852 1.28937840462 1.13102161884 1.08017253876 1.00000011921 1.0 1.10738873482 1.22732925415 1.31368422508 1.37363684177 1.37363266945 1.31364810467 1.15999984741 1.10732007027 1.00000011921 1.0 1.10738015175 1.2273222208 1.3136677742 1.37368667126 1.37367928028 1.3136279583 1.15999591351 1.1073114872 1.00000011921 1.0 1.08020246029 1.19494390488 1.28935396671 1.35982620716 1.35981416702 1.28930735588 1.1309889555 1.0801320076 1.0 1.0 1.02456951141 1.12875187397 1.22695624828 1.31302046776 1.31301808357 1.22690320015 1.07177615166 1.02449500561 1.00000011921 1.0 1.00011599064 1.07290506363 1.16485905647 1.24043715 1.24039578438 1.16481757164 1.02365195751 1.00011360645 1.00000011921 1.0 1.00000011921 0.997609853745 1.04022479057 1.09076714516 1.0908011198 1.04015123844 1.00000011921 1.0 0.999999940395 
1.0 1.00000011921 0.997594118118 1.04033184052 1.09091448784 1.09089684486 1.04027712345 1.00000023842 1.0 1.0 0.999999940395 1.00011861324 1.07298004627 1.16489481926 1.24041211605 1.24040174484 1.16483807564 1.02371442318 1.00011610985 1.0 1.0 1.04531860352 1.15694797039 1.25995135307 1.35359311104 1.35358691216 1.25990402699 1.09541499615 1.04524004459 1.00000011921 1.0 1.08024334908 1.19497561455 1.29294991493 1.38152229786 1.38151550293 1.29291093349 1.13102161884 1.08017253876 1.00000011921 1.0 1.10738873482 1.22819411755 1.32560229301 1.40452635288 1.40452468395 1.32557165623 1.15999984741 1.10732007027 1.00000011921 1.0 1.10738015175 1.22818613052 1.32558345795 1.40461337566 1.40460646152 1.32554757595 1.15999591351 1.1073114872 1.00000011921 1.0 1.08020246029 1.19494390488 1.29287862778 1.38160908222 1.38159608841 1.29283428192 1.1309889555 1.0801320076 1.0 1.0 1.02456951141 1.12875187397 1.22695624828 1.31604909897 1.31604838371 1.22690320015 1.07177615166 1.02449500561 1.00000011921 1.0 1.00011599064 1.07290506363 1.16485905647 1.24043715 1.24039578438 1.16481757164 1.02365195751 1.00011360645 1.00000011921 1.0 1.00000011921 0.997609853745 1.04022479057 1.09076714516 1.0908011198 1.04015123844 1.00000011921 1.0 0.999999940395 
1.0 1.00000011921 0.997594118118 1.04033184052 1.09091448784 1.09089684486 1.04027712345 1.00000023842 1.0 1.0 0.999999940395 1.00011861324 1.07298004627 1.16489481926 1.24041211605 1.24040174484 1.16483807564 1.02371442318 1.00011610985 1.0 1.0 1.04531860352 1.15694797039 1.25995135307 1.3538517952 1.35384559631 1.25990402699 1.09541499615 1.04524004459 1.00000011921 1.0 1.08024334908 1.19497561455 1.29294991493 1.3824903965 1.38248419762 1.29291093349 1.13102161884 1.08017253876 1.00000011921 1.0 1.10738873482 1.22819411755 1.3263014555 1.40671253204 1.40671086311 1.32627105713 1.15999984741 1.10732007027 1.00000011921 1.0 1.10738015175 1.22818613052 1.32628321648 1.40680575371 1.40679872036 1.32624709606 1.15999591351 1.1073114872 1.00000011921 1.0 1.08020246029 1.19494390488 1.29287862778 1.382584095 1.38257074356 1.29283428192 1.1309889555 1.0801320076 1.0 1.0 1.02456951141 1.12875187397 1.22695624828 1.31604909897 1.31604838371 1.22690320015 1.07177615166 1.02449500561 1.00000011921 1.0 1.00011599064 1.07290506363 1.16485905647 1.24043715 1.24039578438 1.16481757164 1.02365195751 1.00011360645 1.00000011921 1.0 1.00000011921 0.997609853745 1.04022479057 1.09076714516 1.0908011198 1.04015123844 1.00000011921 1.0 0.999999940395 
1.0 1.00000011921 0.997594118118 1.04033184052 1.09091448784 1.09089684486 1.04027712345 1.00000023842 1.0 1.0 0.999999940395 1.00011861324 1.07298004627 1.16489481926 1.24041211605 1.24040174484 1.16483807564 1.02371442318 1.00011610985 1.0 1.0 1.04531860352 1.15694797039 1.25995135307 1.3538517952 1.35384559631 1.25990402699 1.09541499615 1.04524004459 1.00000011921 1.0 1.08024334908 1.19497561455 1.29294991493 1.38258099556 1.38257467747 1.29291093349 1.13102161884 1.08017253876 1.00000011921 1.0 1.10738873482 1.22819411755 1.326405406 1.40701675415 1.40701508522 1.32637548447 1.15999984741 1.10732007027 1.00000011921 1.0 1.10738015175 1.22818613052 1.3263875246 1.40711128712 1.40710425377 1.32635164261 1.15999591351 1.1073114872 1.00000011921 1.0 1.08020246029 1.19494390488 1.29287862778 1.38267612457 1.38266265392 1.29283428192 1.1309889555 1.0801320076 1.0 1.0 1.02456951141 1.12875187397 1.22695624828 1.31604909897 1.31604838371 1.22690320015 1.07177615166 1.02449500561 1.00000011921 1.0 1.00011599064 1.07290506363 1.16485905647 1.24043715 1.24039578438 1.16481757164 1.02365195751 1.00011360645 1.00000011921 1.0 1.00000011921 0.997609853745 1.04022479057 1.09076714516 1.0908011198 1.04015123844 1.00000011921 1.0 0.999999940395 
1.0 1.00000011921 0.997594118118 1.04033184052 1.09091448784 1.09089684486 1.04027712345 1.00000023842 1.0 1.0 0.999999940395 1.00011861324 1.07298004627 1.16489481926 1.24041211605 1.24040174484 1.16483807564 1.02371442318 1.00011610985 1.0 1.0 1.04531860352 1.15694797039 1.25995135307 1.3538517952 1.35384559631 1.25990402699 1.09541499615 1.04524004459 1.00000011921 1.0 1.08024334908 1.19497561455 1.29294991493 1.38259744644 1.38259124756 1.29291093349 1.13102161884 1.08017253876 1.00000011921 1.0 1.10738873482 1.22819411755 1.32643330097 1.40708434582 1.40708255768 1.32640302181 1.15999984741 1.10732007027 1.00000011921 1.0 1.10738015175 1.22818613052 1.32641530037 1.4071791172 1.40717220306 1.32637906075 1.15999591351 1.1073114872 1.00000011921 1.0 1.08020246029 1.19494390488 1.29287862778 1.38269269466 1.38267946243 1.29283428192 1.1309889555 1.0801320076 1.0 1.0 1.02456951141 1.12875187397 1.22695624828 1.31604909897 1.31604838371 1.22690320015 1.07177615166 1.02449500561 1.00000011921 1.0 1.00011599064 1.07290506363 1.16485905647 1.24043715 1.24039578438 1.16481757164 1.02365195751 1.00011360645 1.00000011921 1.0 1.00000011921 0.997609853745 1.04022479057 1.09076714516 1.0908011198 1.04015123844 1.00000011921 1.0 0.999999940395 
1.0 1.00000011921 0.997594118118 1.04033184052 1.09091448784 1.09089684486 1.04027712345 1.00000023842 1.0 1.0 0.999999940395 1.00011861324 1.07298004627 1.16489481926 1.24041211605 1.24040174484 1.16483807564 1.02371442318 1.00011610985 1.0 1.0 1.04531860352 1.15694797039 1.25995135307 1.3538517952 1.35384559631 1.25990402699 1.09541499615 1.04524004459 1.00000011921 1.0 1.08024334908 1.19497561455 1.29294991493 1.38260483742 1.38259863853 1.29291093349 1.13102161884 1.08017253876 1.00000011921 1.0 1.10738873482 1.22819411755 1.32644605637 1.40710794926 1.40710604191 1.32641577721 1.15999984741 1.10732007027 1.00000011921 1.0 1.10738015175 1.22818613052 1.32642805576 1.40720295906 1.40719604492 1.32639229298 1.15999591351 1.1073114872 1.00000011921 1.0 1.08020246029 1.19494390488 1.29287862778 1.38270044327 1.38268721104 1.29283428192 1.1309889555 1.0801320076 1.0 1.0 1.02456951141 1.12875187397 1.22695624828 1.31604909897 1.31604838371 1.22690320015 1.07177615166 1.02449500561 1.00000011921 1.0 1.00011599064 1.07290506363 1.16485905647 1.24043715 1.24039578438 1.16481757164 1.02365195751 1.00011360645 1.00000011921 1.0 1.00000011921 0.997609853745 1.04022479057 1.09076714516 1.0908011198 1.04015123844 1.00000011921 1.0 0.999999940395 
1.0 1.00000011921 0.997594118118 1.04033184052 1.09091448784 1.09089684486 1.04027712345 1.00000023842 1.0 1.0 0.999999940395 1.00011861324 1.07298004627 1.16489481926 1.24041211605 1.24040174484 1.16483807564 1.02371442318 1.00011610985 1.0 1.0 1.04531860352 1.15694797039 1.25995135307 1.3538517952 1.35384559631 1.25990402699 1.09541499615 1.04524004459 1.00000011921 1.0 1.08024334908 1.19497561455 1.29294991493 1.38261210918 1.38260555267 1.29291093349 1.13102161884 1.08017253876 1.00000011921 1.0 1.10738873482 1.22819411755 1.32645523548 1.4071213007 1.40711963177 1.32642495632 1.15999984741 1.10732007027 1.00000011921 1.0 1.10738015175 1.22818613052 1.32643723488 1.40721642971 1.40720951557 1.32640135288 1.15999591351 1.1073114872 1.00000011921 1.0 1.08020246029 1.19494390488 1.29287862778 1.38270759583 1.38269424438 1.29283428192 1.1309889555 1.0801320076 1.0 1.0 1.02456951141 1.12875187397 1.22695624828 1.31604909897 1.31604838371 1.22690320015 1.07177615166 1.02449500561 1.00000011921 1.0 1.00011599064 1.07290506363 1.16485905647 1.24043715 1.24039578438 1.16481757164 1.02365195751 1.00011360645 1.00000011921 1.0 1.00000011921 0.997609853745 1.04022479057 1.09076714516 1.0908011198 1.04015123844 1.00000011921 1.0 0.999999940395 
