2.26526379585 3.85737681389 6.73912906647 9.45676136017 11.0318994522 11.0306529999 9.45080089569 6.73171281815 3.85072636604 2.26515102386 2.29087471962 5.05748748779 9.76021194458 14.2653369904 16.8422298431 16.8401985168 14.2555036545 9.74805450439 5.04645013809 2.29056191444 2.31483006477 5.95207595825 11.8568305969 17.4587345123 20.8227138519 20.820066452 17.4462070465 11.8418149948 5.93792629242 2.31433200836 2.33190131187 6.48289775848 13.0381984711 19.2167739868 22.9249916077 22.9220809937 19.2029304504 13.0216436386 6.46700763702 2.33127355576 2.34105801582 6.74880123138 13.6183643341 20.0556812286 23.9044876099 23.9014835358 20.0412960052 13.6010808945 6.73208141327 2.34036016464 2.34105086327 6.74858856201 13.6179075241 20.0550231934 23.9037265778 23.9007205963 20.0406398773 13.6006269455 6.73187208176 2.34035348892 2.33186578751 6.48182439804 13.0358190536 19.213262558 22.9208507538 22.9179401398 19.1994495392 13.0192890167 6.46595335007 2.33123922348 2.31477689743 5.95019960403 11.8526649475 17.4523639679 20.8140869141 20.8115329742 17.4398765564 11.8377122879 5.93606901169 2.31427931786 2.29080033302 5.05459022522 9.75314617157 14.2550878525 16.829082489 16.8270988464 14.245388031 9.7409029007 5.04351568222 2.29048895836 2.26521253586 3.85370445251 6.72938156128 9.44048309326 11.0121641159 11.0112457275 9.43405723572 6.72170591354 3.84698367119 2.2650976181 
2.26531386375 3.8324174881 6.68856620789 9.3952703476 10.9639310837 10.962685585 9.3893327713 6.68119192123 3.82585024834 2.26520252228 2.29063177109 5.02818202972 9.70568466187 14.2039337158 16.7797203064 16.7776889801 14.1940994263 9.69356536865 5.01722955704 2.29032206535 2.31441545486 5.92343711853 11.8045654297 17.40076828 20.7812042236 20.7785129547 17.3882369995 11.7895908356 5.90936517715 2.31392240524 2.33145856857 6.45629119873 12.989531517 19.1736164093 22.9384403229 22.9354438782 19.1597003937 12.9730129242 6.44047307968 2.33083558083 2.34067034721 6.72390890121 13.573059082 20.0277824402 23.955039978 23.9519271851 20.0132541656 13.5558023453 6.70725488663 2.33997750282 2.34066343307 6.723695755 13.5725975037 20.0271129608 23.954252243 23.9511394501 20.0125827789 13.55534935 6.7070441246 2.33997058868 2.33142280579 6.45521259308 12.9871454239 19.1700668335 22.9341754913 22.9311771393 19.1561775208 12.9706516266 6.43941307068 2.33080124855 2.3143632412 5.92155313492 11.8003902435 17.3943595886 20.7724761963 20.7698783875 17.381860733 11.7854757309 5.90749979019 2.31387019157 2.29055738449 5.02527046204 9.69858074188 14.1936607361 16.7664890289 16.7645053864 14.1839618683 9.68636798859 5.01427698135 2.29024934769 2.26526355743 3.82875776291 6.67880725861 9.37894535065 10.9442367554 10.943315506 9.37251758575 6.67115688324 3.82211518288 2.26515007019 
2.26531434059 3.83234262466 6.68841648102 9.39509010315 10.9637317657 10.9624900818 9.3891544342 6.68104219437 3.82577562332 2.2652027607 2.29063105583 5.02809429169 9.70552539825 14.2037572861 16.7795391083 16.777507782 14.1939220428 9.69340610504 5.01714324951 2.29032158852 2.31441473961 5.92335510254 11.8044195175 17.400604248 20.7810573578 20.7783603668 17.3880691528 11.7894430161 5.90928268433 2.31392145157 2.33145737648 6.45622062683 12.989405632 19.1735019684 22.9384460449 22.9354515076 19.1595878601 12.9728841782 6.44040203094 2.33083462715 2.34066939354 6.72384786606 13.5729503632 20.0277271271 23.955368042 23.952255249 20.0131950378 13.5556983948 6.70719385147 2.33997654915 2.34066200256 6.72363471985 13.5724906921 20.027053833 23.9545764923 23.9514656067 20.0125236511 13.5552425385 6.70698356628 2.33996987343 2.33142161369 6.45514249802 12.9870195389 19.1699504852 22.9341831207 22.931186676 19.1560630798 12.9705238342 6.43934249878 2.33080053329 2.3143620491 5.92147064209 11.8002443314 17.3941936493 20.7723255157 20.7697315216 17.3816947937 11.7853298187 5.9074177742 2.3138692379 2.29055714607 5.02518367767 9.69842147827 14.193482399 16.7663059235 16.7643241882 14.1837844849 9.68620967865 5.01419115067 2.29024910927 2.26526379585 3.82868289948 6.67865657806 9.37876701355 10.9440393448 10.9431180954 9.37233924866 6.67100763321 3.82204079628 2.26515007019 
2.26531434059 3.83235383034 6.68844366074 9.39512825012 10.9637794495 10.9625358582 9.38919353485 6.68106937408 3.82578706741 2.2652027607 2.29063153267 5.0281124115 9.7055644989 14.2038078308 16.7795963287 16.7775630951 14.1939725876 9.69344425201 5.01716089249 2.29032182693 2.31441497803 5.92337751389 11.8044652939 17.4006671906 20.781129837 20.7784347534 17.3881320953 11.7894906998 5.90930652618 2.31392192841 2.33145809174 6.45624637604 12.9894599915 19.1735782623 22.9385375977 22.935541153 19.1596603394 12.9729394913 6.44042825699 2.33083510399 2.34067034721 6.72387552261 13.5730104446 20.0278072357 23.9554786682 23.9523601532 20.0132770538 13.5557537079 6.7072224617 2.33997750282 2.34066343307 6.72366285324 13.5725498199 20.027135849 23.9546871185 23.9515743256 20.0126075745 13.5552988052 6.70701169968 2.33997058868 2.33142232895 6.45516872406 12.987074852 19.1700267792 22.9342727661 22.9312763214 19.1561393738 12.9705781937 6.43936920166 2.33080101013 2.31436228752 5.92149353027 11.8002882004 17.3942584991 20.772397995 20.7698059082 17.3817615509 11.7853784561 5.90743970871 2.31386947632 2.29055738449 5.02520132065 9.69846248627 14.1935348511 16.7663612366 16.7643814087 14.1838350296 9.68624782562 5.01420879364 2.29024910927 2.26526379585 3.82869434357 6.67868518829 9.37880706787 10.9440851212 10.9431657791 9.37237739563 6.67103481293 3.82205224037 2.26515007019 
2.26531410217 3.83236503601 6.68846940994 9.39516830444 10.9638252258 10.9625825882 9.38923168182 6.68109369278 3.82579851151 2.26520299911 2.29063153267 5.02813005447 9.70560264587 14.2038602829 16.7796535492 16.7776222229 14.1940231323 9.69348335266 5.01717805862 2.29032230377 2.3144159317 5.92339992523 11.8045129776 17.4007301331 20.7812023163 20.7785053253 17.3881950378 11.7895383835 5.90932798386 2.31392216682 2.33145856857 6.45627307892 12.9895143509 19.1736526489 22.9386253357 22.9356307983 19.1597366333 12.9729957581 6.44045448303 2.33083581924 2.34067130089 6.72390413284 13.5730686188 20.0278911591 23.9555835724 23.9524726868 20.0133590698 13.5558156967 6.70725059509 2.33997821808 2.34066414833 6.72369098663 13.5726089478 20.0272197723 23.9547901154 23.9516830444 20.0126914978 13.5553588867 6.70703887939 2.33997106552 2.3314230442 6.4551949501 12.9871292114 19.1701030731 22.9343624115 22.9313640594 19.156211853 12.9706325531 6.43939399719 2.33080196381 2.31436276436 5.92151546478 11.8003377914 17.394323349 20.7724723816 20.7698726654 17.3818244934 11.7854242325 5.90746212006 2.31387042999 2.29055762291 5.02521944046 9.69849872589 14.1935873032 16.7664203644 16.7644367218 14.1838855743 9.6862859726 5.01422548294 2.29024958611 2.26526379585 3.82870554924 6.6787109375 9.37884521484 10.9441318512 10.9432125092 9.37241649628 6.67106103897 3.82206320763 2.26515030861 
2.26531410217 3.83237600327 6.68849611282 9.39520740509 10.9638710022 10.9626255035 9.38927078247 6.6811208725 3.8258087635 2.26520299911 2.29063177109 5.02814674377 9.70564079285 14.2039108276 16.7797088623 16.7776756287 14.1940746307 9.69352054596 5.01719474792 2.29032230377 2.3144159317 5.9234213829 11.8045606613 17.4007930756 20.7812690735 20.7785739899 17.3882598877 11.7895851135 5.9093503952 2.31392264366 2.33145952225 6.45629835129 12.989569664 19.1737289429 22.9387168884 22.9357185364 19.1598129272 12.9730482101 6.4404797554 2.33083677292 2.34067177773 6.72393274307 13.5731267929 20.027973175 23.9556941986 23.9525794983 20.0134429932 13.5558729172 6.70727825165 2.33997893333 2.34066462517 6.72371864319 13.5726661682 20.0273017883 23.9548988342 23.951789856 20.0127773285 13.5554161072 6.70706748962 2.3399720192 2.33142375946 6.45522069931 12.9871845245 19.1701774597 22.9344501495 22.9314537048 19.156288147 12.9706869125 6.43941926956 2.33080244064 2.3143632412 5.92153787613 11.8003854752 17.3943862915 20.7725391388 20.7699451447 17.3818893433 11.7854700089 5.90748357773 2.31387066841 2.29055809975 5.02523612976 9.69853591919 14.1936378479 16.7664775848 16.7644939423 14.1839370728 9.68632316589 5.01424217224 2.29024982452 2.26526379585 3.82871627808 6.67873573303 9.37888336182 10.9441776276 10.9432554245 9.37245368958 6.6710858345 3.82207369804 2.26515030861 
2.26531410217 3.83238649368 6.68852138519 9.39524459839 10.9639148712 10.9626722336 9.38930892944 6.68114709854 3.82581925392 2.26520323753 2.29063224792 5.02816534042 9.70567893982 14.2039604187 16.7797660828 16.7777328491 14.1941251755 9.69355773926 5.0172123909 2.29032230377 2.31441640854 5.92344331741 11.8046073914 17.4008579254 20.7813396454 20.7786483765 17.3883247375 11.7896299362 5.90937232971 2.31392288208 2.33145999908 6.45632410049 12.9896230698 19.1738052368 22.9388065338 22.9358100891 19.1598873138 12.9731035233 6.44050502777 2.33083724976 2.34067296982 6.72395992279 13.5731830597 20.0280570984 23.9557991028 23.9526882172 20.0135231018 13.555929184 6.70730543137 2.33997988701 2.34066534042 6.72374629974 13.572725296 20.0273895264 23.9550113678 23.9518966675 20.0128574371 13.5554742813 6.70709514618 2.33997297287 2.33142447472 6.45524644852 12.987238884 19.1702537537 22.9345417023 22.9315414429 19.1563625336 12.970741272 6.43944597244 2.33080267906 2.31436419487 5.92156028748 11.8004302979 17.3944511414 20.7726097107 20.7700157166 17.3819541931 11.7855176926 5.90750741959 2.31387090683 2.29055809975 5.02525281906 9.69857311249 14.1936855316 16.7665309906 16.7645511627 14.1839895248 9.68635940552 5.01426029205 2.29024982452 2.26526403427 3.82872700691 6.67876291275 9.37892150879 10.9442205429 10.9433012009 9.37249279022 6.67111253738 3.8220846653 2.26515078545 
