13.9372138977 21.7153606415 29.3165493011 37.1833953857 45.6419067383 54.3799438477 62.8369636536 70.7025299072 78.303817749 86.0825042725 13.8996715546 21.4863834381 28.5625934601 36.3411407471 45.2947235107 54.7288589478 63.679813385 71.4554290771 78.5315856934 86.1198883057 13.8788957596 21.3169689178 28.1039562225 35.847278595 45.0838394165 54.9408073425 64.1739578247 71.9135894775 78.7001800537 86.1405792236 13.8628234863 21.2203788757 27.8894805908 35.6464691162 45.0011253357 55.0239334106 64.3749237061 72.1279067993 78.7964248657 86.1565856934 13.8521528244 21.1764717102 27.8006649017 35.563785553 44.9674224854 55.0577888489 64.4576721191 72.2166671753 78.8401565552 86.1672058105 13.8521614075 21.1764945984 27.8007297516 35.5638465881 44.9674491882 55.057762146 64.457611084 72.2166290283 78.840133667 86.1671905518 13.8628578186 21.2205524445 27.8898448944 35.6468391418 45.0012588501 55.0237770081 64.3745574951 72.1275558472 78.7962493896 86.156539917 13.8789367676 21.3172855377 28.1047267914 35.8480796814 45.0843353271 54.9402885437 64.1731567383 71.9128417969 78.6998519897 86.1405334473 13.8997373581 21.486869812 28.5641307831 36.3426704407 45.2954902649 54.7280349731 63.6783256531 71.4539031982 78.5311050415 86.1198196411 13.9373474121 21.7160263062 29.3184375763 37.1861381531 45.6431617737 54.3787269592 62.8342170715 70.7007598877 78.3031845093 86.082359314 
13.9357824326 21.7122535706 29.3130321503 37.1761398315 45.6367111206 54.3851547241 62.8442077637 70.7060241699 78.3069229126 86.0839157104 13.8973312378 21.4816856384 28.5464859009 36.2938232422 45.2584190369 54.765335083 63.7270469666 71.4714813232 78.536277771 86.122215271 13.8752393723 21.303571701 28.0579986572 35.7260055542 44.9984321594 55.0266304016 64.2950286865 71.9593811035 78.7135314941 86.1442260742 13.8575353622 21.1928882599 27.7988986969 35.4487724304 44.8830566406 55.1425857544 64.5724487305 72.2182235718 78.8238067627 86.161857605 13.8456916809 21.1371898651 27.6711483002 35.3245353699 44.8347511292 55.1911239624 64.6968078613 72.3458633423 78.8792953491 86.1736450195 13.845703125 21.1372280121 27.6712493896 35.3246154785 44.8347969055 55.1910705566 64.6967163086 72.3457717896 78.8792495728 86.1736297607 13.8575744629 21.1930980682 27.799369812 35.4492797852 44.8832473755 55.1423797607 64.5719299316 72.2177734375 78.8236083984 86.1618041992 13.8752841949 21.3039150238 28.05884552 35.7270240784 44.9990386963 55.0260162354 64.2940139771 71.9585723877 78.7131881714 86.1441726685 13.8973960876 21.4821796417 28.5480728149 36.2954597473 45.2593040466 54.7644042969 63.7254638672 71.4698791504 78.5358047485 86.1221542358 13.9359140396 21.7128829956 29.3148555756 37.1789474487 45.6379470825 54.3839950562 62.8413963318 70.7043609619 78.3063278198 86.0838012695 
13.9357051849 21.7121448517 29.3130321503 37.1760635376 45.6366195679 54.3852539062 62.8442840576 70.7060241699 78.3070297241 86.0839996338 13.8972034454 21.4815769196 28.5459709167 36.2918281555 45.2571258545 54.7666473389 63.7290420532 71.4719924927 78.5363845825 86.1223449707 13.8750171661 21.3029022217 28.0555896759 35.7195472717 44.9928779602 55.0322113037 64.3014755249 71.961807251 78.7142105103 86.1444396973 13.8572034836 21.19115448 27.7928256989 35.4328765869 44.8708992004 55.1548042297 64.5883102417 72.224281311 78.8255386353 86.1621856689 13.845252037 21.1345043182 27.6618461609 35.3007698059 44.8186378479 55.2073173523 64.7205276489 72.355140686 78.8819732666 86.1740722656 13.8452625275 21.1345405579 27.6619529724 35.3008537292 44.8186912537 55.2072486877 64.7204437256 72.3550415039 78.8819274902 86.1740646362 13.8572454453 21.191362381 27.7933120728 35.4334182739 44.8711090088 55.1545753479 64.5877609253 72.2238006592 78.8253326416 86.1621398926 13.8750648499 21.3032474518 28.0564403534 35.7206077576 44.993522644 55.0315704346 64.3004150391 71.9609832764 78.7138519287 86.1443862915 13.897269249 21.4820709229 28.5475749969 36.29347229 45.2580223083 54.7656936646 63.7274513245 71.4703903198 78.5359191895 86.1222839355 13.9358348846 21.712770462 29.3148555756 37.1788749695 45.6378593445 54.3840827942 62.8414649963 70.7043609619 78.3064498901 86.0838699341 
13.9356994629 21.7121295929 29.3130397797 37.1760635376 45.6366157532 54.3852539062 62.844291687 70.7060317993 78.3070373535 86.0840072632 13.897190094 21.4815692902 28.5459251404 36.2916412354 45.2570037842 54.7667655945 63.7292289734 71.472038269 78.5363998413 86.1223526001 13.8749952316 21.3028278351 28.0553245544 35.7189598083 44.9923667908 55.0327262878 64.3020629883 71.9620513916 78.7142868042 86.1444625854 13.8571662903 21.1909484863 27.792137146 35.4311523438 44.8695106506 55.1562004089 64.5900344849 72.2249603271 78.8257446289 86.1622238159 13.8452033997 21.1341876984 27.6607456207 35.2978363037 44.8166160583 55.2093505859 64.7234649658 72.3562393188 78.8822860718 86.174118042 13.8452138901 21.1342258453 27.6608390808 35.2979164124 44.8166732788 55.2092895508 64.7233810425 72.3561477661 78.8822479248 86.1741256714 13.8572053909 21.1911621094 27.7926254272 35.4317016602 44.8697357178 55.1559677124 64.5894851685 72.2244873047 78.8255386353 86.1621704102 13.8750400543 21.3031749725 28.0561847687 35.7200202942 44.993019104 55.0320663452 64.3010025024 71.9612350464 78.7139358521 86.1444168091 13.8972539902 21.4820632935 28.5475254059 36.2932815552 45.2579040527 54.7658157349 63.7276344299 71.4704284668 78.5359268188 86.1222991943 13.9358272552 21.7127590179 29.3148593903 37.1788673401 45.6378479004 54.384098053 62.8414611816 70.7043685913 78.3064651489 86.0838851929 
13.9356956482 21.7121276855 29.3130340576 37.1760482788 45.6366043091 54.3852539062 62.8443031311 70.7060317993 78.3070449829 86.0840072632 13.897187233 21.4815616608 28.5459117889 36.2916030884 45.2569847107 54.7667808533 63.7292709351 71.4720458984 78.5364074707 86.1223526001 13.8749914169 21.3028068542 28.0552749634 35.7188606262 44.9922981262 55.0327949524 64.3021621704 71.9621200562 78.7142944336 86.1444778442 13.8571605682 21.1909065247 27.7919960022 35.430847168 44.8692741394 55.1564331055 64.5903396606 72.2250976562 78.8257827759 86.1622161865 13.8451948166 21.1341228485 27.6605243683 35.2972679138 44.8162345886 55.2097244263 64.724029541 72.3564529419 78.8823471069 86.1741333008 13.8452043533 21.1341590881 27.6606235504 35.2973480225 44.8162956238 55.2096633911 64.7239456177 72.3563690186 78.8823242188 86.1741256714 13.8571987152 21.1911144257 27.7924900055 35.4313926697 44.8694801331 55.1562004089 64.5897827148 72.2246246338 78.8255767822 86.1621780396 13.8750343323 21.3031578064 28.0561313629 35.7199134827 44.9929504395 55.0321350098 64.3011169434 71.9612808228 78.7139511108 86.1444168091 13.8972511292 21.4820575714 28.5475139618 36.2932472229 45.2578849792 54.7658309937 63.7276687622 71.4704437256 78.5359268188 86.1222991943 13.9358263016 21.7127552032 29.3148574829 37.1788673401 45.6378517151 54.384098053 62.841468811 70.7043685913 78.3064651489 86.0838851929 
13.9356937408 21.7121238708 29.3130321503 37.1760482788 45.6366043091 54.3852539062 62.8443107605 70.7060317993 78.3070526123 86.0840072632 13.8971843719 21.4815578461 28.5458965302 36.2915878296 45.2569732666 54.7667884827 63.7292785645 71.4720840454 78.5364151001 86.1223602295 13.8749876022 21.3028011322 28.0552482605 35.7188262939 44.9922790527 55.0328140259 64.302192688 71.9621353149 78.714302063 86.1444778442 13.8571586609 21.1908893585 27.7919464111 35.4307479858 44.8692092896 55.1564979553 64.590423584 72.2251586914 78.8258056641 86.1622238159 13.8451900482 21.1340999603 27.6604480743 35.2970962524 44.8161468506 55.2098274231 64.7241897583 72.3565292358 78.8823776245 86.1741485596 13.8452014923 21.1341381073 27.6605510712 35.2971839905 44.8161964417 55.2097663879 64.724105835 72.3564453125 78.8823394775 86.1741333008 13.8571958542 21.1911010742 27.792432785 35.4312973022 44.8694229126 55.1562690735 64.589881897 72.2246780396 78.8255844116 86.1621856689 13.875038147 21.3031482697 28.05610466 35.7198791504 44.9929275513 55.0321540833 64.3011474609 71.9613113403 78.7139587402 86.1444168091 13.8972511292 21.4820518494 28.547504425 36.2932357788 45.2578773499 54.7658424377 63.7276916504 71.4704589844 78.5359344482 86.1222991943 13.9358243942 21.7127513885 29.3148498535 37.1788597107 45.6378440857 54.384098053 62.8414649963 70.7043762207 78.3064727783 86.0838851929 
13.9356918335 21.7121219635 29.3130283356 37.1760406494 45.6366043091 54.3852577209 62.8443107605 70.7060317993 78.3070526123 86.0840072632 13.8971843719 21.4815559387 28.5458869934 36.2915725708 45.2569694519 54.7667961121 63.7292938232 71.4720840454 78.5364074707 86.1223678589 13.8749895096 21.3027954102 28.055229187 35.7188072205 44.9922714233 55.03282547 64.3022155762 71.9621582031 78.7143173218 86.1444778442 13.8571567535 21.1908760071 27.7919158936 35.4306983948 44.8691864014 55.1565284729 64.5904846191 72.2251968384 78.8258132935 86.1622238159 13.8451890945 21.1340808868 27.66040802 35.2970237732 44.8161048889 55.2098693848 64.7242736816 72.356590271 78.8823852539 86.1741485596 13.845199585 21.1341228485 27.6605072021 35.2971115112 44.81615448 55.2098083496 64.7241821289 72.3564758301 78.8823471069 86.1741333008 13.8571958542 21.1910877228 27.7924060822 35.4312515259 44.8693962097 55.1562919617 64.5899353027 72.2247085571 78.8255996704 86.1621932983 13.8750343323 21.3031425476 28.0560874939 35.7198600769 44.9929199219 55.0321655273 64.3011703491 71.9613418579 78.7139663696 86.1444320679 13.8972501755 21.4820480347 28.5474910736 36.29322052 45.2578697205 54.7658462524 63.7277069092 71.4704666138 78.5359344482 86.1222991943 13.9358263016 21.7127513885 29.3148460388 37.1788520813 45.6378440857 54.384098053 62.8414840698 70.7043762207 78.3064727783 86.0838851929 
