14.0126132965 13.8484697342 13.0980978012 11.9875583649 11.3582286835 11.3587388992 11.9900283813 13.1007041931 13.8497095108 14.0125770569 22.0031414032 21.7130813599 20.7455463409 19.4496154785 18.7070064545 18.7075939178 19.4524440765 20.7487163544 21.7147655487 22.0031757355 29.9948272705 29.6472301483 28.8407974243 27.8334846497 27.2278327942 27.2283210754 27.8357276917 28.8432712555 29.6488380432 29.9949016571 37.993927002 37.747756958 37.241859436 36.637348175 36.268371582 36.2686691284 36.6387062073 37.2433586121 37.7488021851 37.9940071106 46.0032272339 45.9149627686 45.7434959412 45.5437469482 45.4215812683 45.4216804504 45.5441970825 45.7439880371 45.9153289795 46.0032615662 54.0167961121 54.105506897 54.2778816223 54.4786453247 54.6014823914 54.6013870239 54.4781913757 54.2773590088 54.1051521301 54.0167655945 62.0260810852 62.2725830078 62.7793121338 63.3848304749 63.7544517517 63.7541656494 63.3834724426 62.7778205872 62.2715454102 62.0259971619 70.0251693726 70.3728256226 71.1798934937 72.1883163452 72.7941818237 72.7936935425 72.186088562 71.177406311 70.3712234497 70.025100708 78.0168304443 78.3065948486 79.2742462158 80.5707702637 81.3136749268 81.3130722046 80.5679931641 79.2710723877 78.3049316406 78.0167922974 86.0073928833 86.1711883545 86.9201660156 88.0282287598 88.6555480957 88.6552429199 88.0257720947 86.9176025391 86.1699676514 86.0074234009 
14.0033721924 13.7931852341 13.0299530029 11.8699703217 11.1587457657 11.1593465805 11.8726558685 13.0326061249 13.7944793701 14.0033826828 21.9914188385 21.6212120056 20.5563621521 19.0801124573 18.1792201996 18.1799564362 19.0834693909 20.5598621368 21.6231040955 21.9915084839 29.9816169739 29.5268650055 28.5779819489 27.3904685974 26.6506290436 26.6512413025 27.3931941986 28.5808563232 29.5287971497 29.981760025 37.9829597473 37.6456871033 37.0318107605 36.3188018799 35.8725128174 35.8728752136 36.3204345703 37.0335769653 37.6470031738 37.9830970764 45.9987258911 45.8746376038 45.6640586853 45.428894043 45.2820320129 45.2821464539 45.4294281006 45.6646499634 45.8750953674 45.9987869263 54.0213241577 54.1460609436 54.3577384949 54.5941047668 54.7418327332 54.7417030334 54.5935707092 54.3571395874 54.1455917358 54.0212669373 62.0370521545 62.3747596741 62.98960495 63.7038269043 64.1509170532 64.1505584717 63.7022018433 62.9878463745 62.373462677 62.0369148254 70.0383758545 70.4931793213 71.4426727295 72.6315002441 73.3715820312 73.3709716797 72.6287918091 71.4397964478 70.4912414551 70.038230896 78.0285568237 78.3983840942 79.4631271362 80.9399185181 81.8409500122 81.8401947021 80.9366378784 79.4596176147 78.3965148926 78.028465271 86.0166244507 86.2264099121 86.9881439209 88.1450195312 88.8540649414 88.8537521362 88.1423187256 86.9856185913 86.2251434326 86.0166244507 
14.0022382736 13.7885456085 13.0319318771 11.8785629272 11.1676645279 11.1682720184 11.8812408447 13.0345602036 13.7898292542 14.0022535324 21.990234375 21.6142845154 20.5465221405 19.0537490845 18.1284637451 18.129234314 19.0571746826 20.5500431061 21.6161804199 21.9903278351 29.980632782 29.5183181763 28.5565948486 27.3318653107 26.5419521332 26.5426082611 27.3347225189 28.5595264435 29.5202713013 29.9807796478 37.9822235107 37.6382026672 37.0098571777 36.2598609924 35.7804489136 35.7808456421 36.2615966797 37.0116920471 37.6395339966 37.9823722839 45.9984512329 45.8715324402 45.6538696289 45.4047279358 45.2467422485 45.2468719482 45.4052963257 45.6544876099 45.8719978333 45.9985084534 54.0216026306 54.1491889954 54.367980957 54.6184005737 54.7773361206 54.7772026062 54.6178131104 54.3673591614 54.1487083435 54.0215492249 62.0377883911 62.3822593689 63.0115737915 63.7627983093 64.243057251 64.2426605225 63.7610626221 63.0097541809 62.3809204102 62.0376434326 70.0393600464 70.5017166138 71.4640426636 72.6900634766 73.4801254272 73.4794921875 72.68724823 71.4611053467 70.4997634888 70.0392150879 78.0297241211 78.4052963257 79.47290802 80.9662094116 81.8915100098 81.8907241821 80.9628677368 79.4694213867 78.403427124 78.0296325684 86.0177459717 86.231048584 86.9861831665 88.1363372803 88.8450622559 88.8447418213 88.1336288452 86.9836502075 86.2297821045 86.0177307129 
14.0020904541 13.787935257 13.0322303772 11.8798561096 11.1692428589 11.1698493958 11.8825330734 13.0348577499 13.7892179489 14.0021066666 21.9900779724 21.613368988 20.5452594757 19.0505447388 18.1227054596 18.1234798431 19.053976059 20.5487804413 21.6152706146 21.9901714325 29.9804992676 29.5171661377 28.5537204742 27.324213028 26.5266838074 26.5273532867 27.327085495 28.5566596985 29.5191230774 29.9806499481 37.9821357727 37.6371841431 37.0066680908 36.2500419617 35.7620429993 35.7624435425 36.2518005371 37.0085105896 37.6385269165 37.9822731018 45.9984130859 45.8710975647 45.652431488 45.3998756409 45.2389297485 45.2390556335 45.4004554749 45.653049469 45.8715705872 45.9984703064 54.0216445923 54.1496086121 54.3694229126 54.6232757568 54.7852287292 54.7850837708 54.6226882935 54.3688011169 54.1491355896 54.0215835571 62.0378837585 62.3832702637 63.0147781372 63.7726249695 64.26146698 64.2610626221 63.7708587646 63.0129356384 62.3819351196 62.0377426147 70.0394897461 70.5028686523 71.4669036865 72.6977005005 73.4953536987 73.4947052002 72.6948623657 71.463973999 70.5009231567 70.0393447876 78.0298843384 78.406211853 79.4741668701 80.9694061279 81.8972396851 81.8964538574 80.9660491943 79.470664978 78.404335022 78.0297927856 86.017906189 86.2316589355 86.9858856201 88.1350326538 88.8434906006 88.843170166 88.1323242188 86.9833526611 86.2304000854 86.0178985596 
14.0020656586 13.7878160477 13.0322341919 11.879983902 11.1693944931 11.1700029373 11.8826627731 13.0348577499 13.7890996933 14.0020828247 21.9900474548 21.6131858826 20.5449638367 19.049861908 18.1215877533 18.1223621368 19.0532970428 20.5484867096 21.6150856018 21.9901428223 29.9804725647 29.5169429779 28.553106308 27.3226928711 26.523973465 26.5246505737 27.3255748749 28.5560493469 29.5188999176 29.9806213379 37.9821166992 37.6369819641 37.0060157776 36.2479743958 35.7578048706 35.7582206726 36.2497406006 37.0078544617 37.6383285522 37.9822540283 45.9984054565 45.8710136414 45.6521492004 45.3987960815 45.23695755 45.2370796204 45.3993797302 45.6527709961 45.8714866638 45.9984664917 54.0216445923 54.1497039795 54.3697128296 54.6243591309 54.7872161865 54.7870750427 54.6237716675 54.3690834045 54.1492195129 54.0215950012 62.037902832 62.3834762573 63.0154266357 63.774684906 64.2656936646 64.2652893066 63.7729225159 63.0135803223 62.3821296692 62.0377655029 70.0395202637 70.5031051636 71.4675216675 72.6992340088 73.498046875 73.4974060059 72.6963882446 71.46459198 70.5011520386 70.0393676758 78.029914856 78.4063873291 79.4744644165 80.9700775146 81.8983535767 81.897567749 80.9667358398 79.4709701538 78.4045257568 78.0298156738 86.0179290771 86.2317733765 86.9858856201 88.1348876953 88.8433151245 88.8430175781 88.1321868896 86.9833450317 86.2305145264 86.017906189 
14.0020599365 13.7877864838 13.0322189331 11.8799772263 11.1693840027 11.1699914932 11.8826541901 13.0348424911 13.7890701294 14.0020771027 21.9900417328 21.6131381989 20.5448684692 19.0496635437 18.1212806702 18.1220588684 19.0530967712 20.5483932495 21.6150398254 21.9901371002 29.9804668427 29.5168800354 28.5529327393 27.3222846985 26.5233135223 26.5239849091 27.3251628876 28.5558738708 29.5188369751 29.9806156158 37.9821090698 37.636932373 37.0058403015 36.2474136353 35.756652832 35.7570571899 36.2491836548 37.0076789856 37.6382751465 37.9822463989 45.9984016418 45.8709945679 45.6520690918 45.3984947205 45.2363739014 45.2365036011 45.3990859985 45.6526947021 45.8714675903 45.9984664917 54.0216522217 54.1497268677 54.3697853088 54.6246604919 54.7878036499 54.7876586914 54.6240653992 54.3691596985 54.1492385864 54.0215950012 62.0379104614 62.3835296631 63.0156021118 63.7752456665 64.2668457031 64.2664489746 63.773475647 63.0137519836 62.3821907043 62.0377655029 70.0395202637 70.5031661987 71.4676742554 72.6996383667 73.4987106323 73.4980697632 72.6968002319 71.4647445679 70.5012130737 70.0393753052 78.0299224854 78.4064483643 79.4745407104 80.9702682495 81.898651123 81.8978652954 80.9669342041 79.4710617065 78.4045715332 78.029838562 86.0179443359 86.231803894 86.9859085083 88.1349029541 88.8433380127 88.8430328369 88.1322021484 86.9833755493 86.2305526733 86.0179138184 
14.0020580292 13.787776947 13.032201767 11.8799533844 11.1693534851 11.169960022 11.8826303482 13.0348272324 13.789059639 14.0020751953 21.9900398254 21.6131229401 20.5448284149 19.0495796204 18.1211662292 18.1219387054 19.0530147552 20.5483551025 21.615020752 21.9901371002 29.9804649353 29.5168533325 28.5528717041 27.3221492767 26.5230865479 26.5237636566 27.3250255585 28.5558071136 29.5188140869 29.9806118011 37.9821090698 37.6369171143 37.0057792664 36.2472267151 35.7562675476 35.7566795349 36.2489967346 37.0076141357 37.6382598877 37.9822463989 45.9984016418 45.8709869385 45.6520423889 45.3983955383 45.2361755371 45.2363128662 45.398979187 45.6526679993 45.8714637756 45.998462677 54.0216522217 54.1497192383 54.3698196411 54.6247634888 54.7879943848 54.787853241 54.6241645813 54.3691902161 54.1492538452 54.0215950012 62.0379104614 62.3835525513 63.0156593323 63.7754364014 64.2672271729 64.2668151855 63.7736625671 63.0138130188 62.3822097778 62.0377655029 70.0395202637 70.5031814575 71.4677581787 72.6997756958 73.4989395142 73.4982910156 72.696937561 71.4648208618 70.5012283325 70.0393753052 78.0299224854 78.4064712524 79.4745941162 80.9703674316 81.8987731934 81.8979873657 80.967010498 79.4710922241 78.404586792 78.029838562 86.0179443359 86.2318191528 86.9859085083 88.1349334717 88.8433685303 88.8430557251 88.132232666 86.9833755493 86.2305679321 86.0179138184 
