14.0014019012 13.7827682495 13.0222864151 11.8787126541 11.1882886887 11.188873291 11.8813247681 13.0249242783 13.7840518951 14.0014209747 21.989440918 21.6077232361 20.5453090668 19.0894298553 18.1924190521 18.1931686401 19.0927505493 20.5487747192 21.6096343994 21.9895343781 29.981010437 29.5255699158 28.5781841278 27.3772144318 26.6047782898 26.6054267883 27.3800048828 28.5810680389 29.5274982452 29.9811592102 37.9835128784 37.6498756409 37.03074646 36.2899971008 35.8162918091 35.8166885376 36.2917137146 37.0325508118 37.6511917114 37.9836502075 45.9991378784 45.8767051697 45.6621627808 45.4147148132 45.2583694458 45.2584991455 45.4152832031 45.6627883911 45.8771591187 45.9991874695 54.0209121704 54.1439819336 54.3596191406 54.6083374023 54.7656478882 54.7655029297 54.6077690125 54.3590126038 54.1435165405 54.02085495 62.0364990234 62.3705787659 62.9906578064 63.7326049805 64.2071304321 64.206741333 63.7308959961 62.9888496399 62.3692626953 62.036365509 70.0389709473 70.4944992065 71.4424743652 72.6446762085 73.4172439575 73.4166107178 72.6419219971 71.4395904541 70.4925765991 70.0388565063 78.0305328369 78.4118728638 79.4741897583 80.930557251 81.8275680542 81.826789856 80.9273071289 79.470741272 78.4099731445 78.0304260254 86.0185928345 86.236831665 86.995803833 88.1363067627 88.8247299194 88.8243942261 88.1336746216 86.993270874 86.2355575562 86.0185623169 
14.0013637543 13.7826395035 13.0224781036 11.8792848587 11.1889762878 11.1895637512 11.8818950653 13.0251150131 13.7839231491 14.0013847351 21.9894046783 21.6075305939 20.545135498 19.0889415741 18.1914596558 18.1922092438 19.0922641754 20.5486049652 21.6094436646 21.9895000458 29.9809837341 29.5253219604 28.5775680542 27.3755493164 26.6017723083 26.6024227142 27.3783435822 28.5804462433 29.5272502899 29.9811286926 37.9834976196 37.6496582031 37.0300178528 36.2874259949 35.81042099 35.8108177185 36.2891464233 37.0318260193 37.6509742737 37.9836349487 45.9991264343 45.8766098022 45.6618232727 45.4132804871 45.2552528381 45.2553825378 45.413848877 45.662437439 45.8770675659 45.9991836548 54.0209236145 54.1440658569 54.3599700928 54.609790802 54.7687950134 54.7686462402 54.6092033386 54.3593635559 54.1436080933 54.020866394 62.0365219116 62.3707923889 62.9913902283 63.735168457 64.2129821777 64.2125854492 63.7334480286 62.9895744324 62.3694839478 62.0363960266 70.0390090942 70.4947433472 71.4430999756 72.6463394165 73.4202346802 73.419593811 72.6435852051 71.4402160645 70.4928131104 70.0388641357 78.0305709839 78.4120559692 79.4743728638 80.9310455322 81.8285064697 81.8277511597 80.9277954102 79.470916748 78.41015625 78.0304718018 86.0186386108 86.236946106 86.9956054688 88.1357421875 88.8240280151 88.8236999512 88.1330871582 86.9930801392 86.2356872559 86.0186157227 
14.0013637543 13.7826385498 13.0224714279 11.8792667389 11.188955307 11.189540863 11.8818798065 13.0251073837 13.7839221954 14.0013847351 21.9894046783 21.6075305939 20.545124054 19.0889205933 18.1914329529 18.1921806335 19.0922412872 20.5485954285 21.6094398499 21.9895000458 29.9809837341 29.5253219604 28.5775489807 27.3755264282 26.6017436981 26.6023960114 27.378320694 28.5804347992 29.5272445679 29.9811286926 37.9834976196 37.6496543884 37.0300064087 36.2874069214 35.8103866577 35.8107833862 36.2891311646 37.0318183899 37.650970459 37.9836349487 45.9991264343 45.8766098022 45.6618156433 45.4132728577 45.255241394 45.2553634644 45.4138374329 45.6624336243 45.8770675659 45.9991836548 54.0209236145 54.1440734863 54.3599853516 54.6097946167 54.7688064575 54.7686576843 54.6092224121 54.3593635559 54.1436080933 54.020866394 62.0365219116 62.3708000183 62.9914169312 63.7351989746 64.2130203247 64.2126159668 63.7334709167 62.9895858765 62.3694953918 62.0363960266 70.0390090942 70.4947433472 71.443107605 72.6463699341 73.4202651978 73.4196395874 72.6436080933 71.4402313232 70.4928283691 70.0388641357 78.0305709839 78.4120635986 79.4743804932 80.931060791 81.8285217285 81.8277664185 80.9278106689 79.4709320068 78.4101638794 78.0304718018 86.0186386108 86.2369537354 86.9956130981 88.1357498169 88.8240432739 88.82371521 88.1331100464 86.9930877686 86.2357025146 86.0186157227 
14.0013637543 13.7826366425 13.0224609375 11.8792495728 11.1889324188 11.1895198822 11.8818626404 13.0250997543 13.7839212418 14.0013847351 21.9894046783 21.6075286865 20.5451164246 19.0888996124 18.19140625 18.1921577454 19.0922241211 20.548582077 21.6094398499 21.9895000458 29.9809837341 29.5253162384 28.5775375366 27.3755073547 26.6017189026 26.6023693085 27.3783035278 28.5804252625 29.5272483826 29.9811286926 37.9834976196 37.6496505737 37.0299987793 36.2873840332 35.8103485107 35.8107528687 36.2891082764 37.0318107605 37.650970459 37.9836349487 45.9991264343 45.8766098022 45.6618156433 45.4132575989 45.2552337646 45.255355835 45.4138374329 45.6624336243 45.8770637512 45.9991836548 54.0209236145 54.1440696716 54.3599815369 54.6098022461 54.7688140869 54.7686767578 54.6092262268 54.3593559265 54.1436080933 54.020866394 62.0365219116 62.3708000183 62.9914131165 63.7352142334 64.2130432129 64.2126617432 63.7334976196 62.9895973206 62.3694953918 62.0363960266 70.0390090942 70.494758606 71.4431228638 72.6463851929 73.4203033447 73.419670105 72.6436233521 71.440246582 70.4928359985 70.0388717651 78.0305709839 78.412071228 79.4743804932 80.9310760498 81.8285522461 81.827796936 80.9278335571 79.4709396362 78.4101638794 78.0304718018 86.0186386108 86.2369537354 86.9956130981 88.1357650757 88.8240814209 88.8237457275 88.1331329346 86.9930953979 86.2357025146 86.0186157227 
14.0013637543 13.7826366425 13.0224542618 11.8792314529 11.1889104843 11.1894950867 11.8818454742 13.0250883102 13.7839202881 14.0013847351 21.9894046783 21.6075229645 20.5451087952 19.0888786316 18.1913833618 18.1921329498 19.0922012329 20.5485706329 21.6094360352 21.9895000458 29.9809837341 29.5253162384 28.5775299072 27.3754844666 26.6016902924 26.6023387909 27.3782749176 28.5804157257 29.5272445679 29.9811286926 37.9834976196 37.649646759 37.0299911499 36.287361145 35.8103179932 35.8107147217 36.2890815735 37.0317993164 37.6509628296 37.9836349487 45.9991264343 45.8766021729 45.6618156433 45.4132499695 45.2552185059 45.2553443909 45.4138221741 45.6624298096 45.8770637512 45.9991836548 54.0209236145 54.1440696716 54.3599891663 54.6098136902 54.7688331604 54.7686920166 54.6092300415 54.3593635559 54.1436157227 54.020866394 62.0365219116 62.370803833 62.9914169312 63.7352371216 64.2130889893 64.2126846313 63.7335128784 62.9896087646 62.3694839478 62.0363960266 70.0390090942 70.4947509766 71.4431381226 72.6464080811 73.4203262329 73.4196853638 72.6436538696 71.4402542114 70.4928359985 70.0388717651 78.0305709839 78.4120635986 79.4744033813 80.9310913086 81.8285827637 81.8278274536 80.9278488159 79.470954895 78.4101715088 78.0304718018 86.0186386108 86.236946106 86.9956436157 88.1357803345 88.8240814209 88.8237686157 88.1331558228 86.9931106567 86.2356948853 86.0186157227 
14.0013637543 13.7826337814 13.0224466324 11.8792142868 11.1888875961 11.1894731522 11.8818244934 13.0250844955 13.7839193344 14.0013847351 21.9894046783 21.6075210571 20.5450935364 19.0888595581 18.1913604736 18.1921062469 19.0921802521 20.5485591888 21.6094341278 21.9895000458 29.9809837341 29.5253124237 28.5775184631 27.3754615784 26.6016597748 26.6023082733 27.3782520294 28.5804004669 29.5272407532 29.9811286926 37.9834976196 37.6496429443 37.0299758911 36.2873420715 35.8102836609 35.8106842041 36.2890586853 37.0317878723 37.6509590149 37.9836349487 45.9991264343 45.8766021729 45.6618118286 45.4132385254 45.2552108765 45.2553329468 45.4138145447 45.6624221802 45.8770637512 45.9991836548 54.0209236145 54.1440696716 54.3599967957 54.609828949 54.7688446045 54.768699646 54.6092414856 54.3593673706 54.1436157227 54.020866394 62.0365219116 62.3708000183 62.9914360046 63.7352600098 64.2131195068 64.2127151489 63.7335357666 62.9896125793 62.3694915771 62.0363960266 70.0390090942 70.494758606 71.443145752 72.6464309692 73.4203491211 73.4197158813 72.6436691284 71.4402618408 70.4928283691 70.0388717651 78.0305709839 78.412071228 79.474395752 80.9311141968 81.8286209106 81.8278579712 80.9278793335 79.4709701538 78.4101791382 78.0304718018 86.0186386108 86.236946106 86.9956436157 88.1358032227 88.8241195679 88.8237838745 88.1331710815 86.9931106567 86.2356948853 86.0186157227 
14.0013637543 13.7826337814 13.0224380493 11.8791980743 11.1888628006 11.189450264 11.8818092346 13.0250749588 13.7839174271 14.0013856888 21.9894046783 21.6075210571 20.5450839996 19.0888404846 18.1913318634 18.1920814514 19.0921611786 20.5485477448 21.6094303131 21.9895000458 29.9809799194 29.5253105164 28.577507019 27.3754386902 26.6016273499 26.6022815704 27.3782329559 28.5803890228 29.5272369385 29.9811286926 37.9834976196 37.6496429443 37.0299720764 36.2873268127 35.8102493286 35.8106460571 36.2890472412 37.0317840576 37.6509552002 37.9836349487 45.9991264343 45.8765983582 45.6618080139 45.4132270813 45.255191803 45.255317688 45.4137992859 45.6624221802 45.8770599365 45.9991836548 54.0209236145 54.1440811157 54.3599853516 54.609828949 54.7688560486 54.7687187195 54.6092605591 54.3593711853 54.1436157227 54.020866394 62.0365219116 62.370803833 62.9914398193 63.7352752686 64.2131652832 64.2127532959 63.7335510254 62.9896240234 62.3694992065 62.0363960266 70.0390090942 70.494758606 71.4431610107 72.6464538574 73.4203872681 73.4197540283 72.6436920166 71.4402770996 70.4928283691 70.0388717651 78.0305709839 78.412071228 79.4744186401 80.931137085 81.8286361694 81.82787323 80.9278869629 79.4709701538 78.4101791382 78.0304718018 86.0186386108 86.2369537354 86.9956512451 88.1358108521 88.8241348267 88.8238143921 88.1331939697 86.9931106567 86.2357025146 86.0186157227 
