0.981858491898 1.00686168671 1.03274559975 1.08446395397 1.16442751884 1.16439819336 1.08439457417 1.02408504486 1.00683021545 0.981910705566 0.972799003124 1.04693043232 1.16012084484 1.29141533375 1.40382421017 1.40379834175 1.29132008553 1.09688329697 1.04687452316 0.972858905792 0.970200717449 1.13655591011 1.27035844326 1.40955746174 1.53930997849 1.53928673267 1.40946292877 1.2036896944 1.13648319244 0.970241606236 0.968450784683 1.18213915825 1.31630992889 1.44212448597 1.55923497677 1.55920934677 1.44204640388 1.24987006187 1.18207108974 0.968483269215 0.96663826704 1.21814990044 1.35635709763 1.47832322121 1.57874691486 1.57872664928 1.47825527191 1.28882539272 1.21807706356 0.966669738293 0.966639697552 1.21813821793 1.35634434223 1.47829961777 1.57889723778 1.57886815071 1.4782230854 1.28882277012 1.21806466579 0.96667098999 0.968455076218 1.18208515644 1.31626629829 1.44201481342 1.55939793587 1.55935811996 1.44192898273 1.24983012676 1.18201613426 0.968486905098 0.970741033554 1.10506153107 1.23081922531 1.35945212841 1.49227237701 1.49227035046 1.35935819149 1.16724789143 1.10499632359 0.970783293247 0.972807645798 1.04683172703 1.15997946262 1.29151022434 1.40399575233 1.4039041996 1.29150807858 1.09676194191 1.04677176476 0.97286772728 0.981890380383 1.00681829453 1.03267395496 1.08418130875 1.16414451599 1.16424238682 1.08399879932 1.02402973175 1.00678682327 0.981943964958 
0.981836915016 1.00637233257 1.03206658363 1.08360862732 1.16337513924 1.16334533691 1.08353972435 1.02339625359 1.00634133816 0.981889307499 0.972772121429 1.04628264904 1.15939152241 1.2906024456 1.40296399593 1.40293800831 1.29050719738 1.09614431858 1.04622709751 0.972831964493 0.970156669617 1.13582003117 1.26963186264 1.40866613388 1.54282033443 1.54279720783 1.40857160091 1.20297622681 1.13574767113 0.970197677612 0.968394815922 1.18137598038 1.31550717354 1.44130253792 1.56470406055 1.56468057632 1.44122517109 1.24914813042 1.18130791187 0.968427181244 0.966574370861 1.21739649773 1.35555779934 1.47868359089 1.58886170387 1.58884251118 1.4786182642 1.28819715977 1.21732318401 0.966606020927 0.966575860977 1.21738469601 1.35554492474 1.47866129875 1.58907425404 1.58904409409 1.47858583927 1.28819429874 1.21731090546 0.966607093811 0.968399167061 1.18132174015 1.31546449661 1.44119501114 1.56493330002 1.56489300728 1.44110941887 1.24910891056 1.18125271797 0.968430995941 0.970697581768 1.10432195663 1.23004794121 1.35849690437 1.491340518 1.49134016037 1.35840284824 1.16649842262 1.10425710678 0.970739901066 0.972780585289 1.04618406296 1.15925002098 1.29069948196 1.40313255787 1.40304112434 1.29069817066 1.09602200985 1.04612457752 0.97284090519 0.981869101524 1.00632929802 1.03199446201 1.08332431316 1.16309356689 1.16319143772 1.08314156532 1.02334105968 1.00629854202 0.981922626495 
0.981836915016 1.00637209415 1.03206646442 1.08360874653 1.16337561607 1.16334581375 1.08353984356 1.02339601517 1.00634121895 0.981889247894 0.972771883011 1.04628252983 1.15939164162 1.29060280323 1.40296447277 1.40293860435 1.29050767422 1.09614431858 1.04622721672 0.972831785679 0.970156311989 1.13582038879 1.26963281631 1.40866684914 1.54282128811 1.54279780388 1.40857255459 1.20297670364 1.13574814796 0.970197439194 0.968394637108 1.18137645721 1.31550836563 1.4413036108 1.56470692158 1.56468343735 1.44122624397 1.24914884567 1.1813082695 0.968427062035 0.966574132442 1.21739721298 1.35555911064 1.47868657112 1.58889341354 1.58887445927 1.47862124443 1.28819859028 1.21732389927 0.9666056633 0.966575503349 1.21738541126 1.35554611683 1.47866427898 1.58910822868 1.58907771111 1.47858870029 1.28819525242 1.21731173992 0.966606914997 0.968398869038 1.18132245541 1.31546533108 1.44119632244 1.56493639946 1.56489634514 1.44111061096 1.24910998344 1.18125331402 0.968430757523 0.970697462559 1.10432231426 1.23004841805 1.35849785805 1.49134099483 1.49134111404 1.35840380192 1.16649854183 1.1042573452 0.970739662647 0.97278046608 1.04618406296 1.15925014019 1.29070007801 1.40313327312 1.40304160118 1.29069840908 1.09602224827 1.04612445831 0.972840726376 0.98186892271 1.00632894039 1.03199422359 1.08332443237 1.16309416294 1.16319191456 1.08314180374 1.02334082127 1.0062983036 0.981922626495 
0.981836795807 1.00637245178 1.03206706047 1.08360993862 1.16337740421 1.16334748268 1.08354115486 1.02339673042 1.00634145737 0.981889128685 0.972771763802 1.0462833643 1.15939283371 1.29060447216 1.4029661417 1.40294027328 1.29050922394 1.09614527225 1.04622793198 0.972831606865 0.97015619278 1.1358217001 1.26963424683 1.40866911411 1.54282462597 1.54280138016 1.40857481956 1.20297813416 1.13574922085 0.97019726038 0.968394398689 1.18137800694 1.31551027298 1.4413061142 1.56471395493 1.5646905899 1.44122862816 1.24915063381 1.18130981922 0.968426823616 0.966573774815 1.21739935875 1.35556101799 1.47868955135 1.5889030695 1.58888411522 1.47862410545 1.28820025921 1.21732580662 0.966605365276 0.96657538414 1.21738731861 1.3555482626 1.47866714001 1.58911776543 1.58908724785 1.47859156132 1.28819727898 1.21731352806 0.966606736183 0.968398809433 1.18132412434 1.31546771526 1.44119858742 1.5649446249 1.56490445137 1.44111299515 1.24911177158 1.18125474453 0.968430519104 0.970697343349 1.10432338715 1.23004972935 1.35849964619 1.49134337902 1.49134349823 1.35840570927 1.16649985313 1.10425853729 0.970739483833 0.972780406475 1.04618477821 1.15925121307 1.29070150852 1.40313494205 1.40304303169 1.2906999588 1.09602308273 1.04612517357 0.972840547562 0.981868803501 1.00632941723 1.03199458122 1.08332586288 1.16309607029 1.16319394112 1.08314299583 1.02334153652 1.00629854202 0.981922507286 
0.981836616993 1.0063726902 1.03206765652 1.08361124992 1.16337919235 1.16334939003 1.08354234695 1.02339720726 1.00634181499 0.98188918829 0.972771644592 1.04628396034 1.15939390659 1.29060590267 1.40296792984 1.40294182301 1.29051065445 1.09614646435 1.04622864723 0.972831487656 0.97015607357 1.13582289219 1.26963615417 1.40867137909 1.5428289175 1.5428057909 1.40857708454 1.20297956467 1.13575029373 0.970197081566 0.96839427948 1.18137943745 1.31551229954 1.44130861759 1.56472289562 1.56469941139 1.44123136997 1.24915266037 1.18131148815 0.968426764011 0.966573655605 1.21740102768 1.35556352139 1.47869241238 1.58891260624 1.58889400959 1.47862708569 1.28820252419 1.21732747555 0.966605305672 0.966574907303 1.21738910675 1.35555016994 1.47867000103 1.58912718296 1.5890969038 1.47859442234 1.28819930553 1.21731543541 0.96660643816 0.968398451805 1.18132567406 1.31546974182 1.4412009716 1.56495332718 1.56491327286 1.44111526012 1.24911367893 1.18125641346 0.968430280685 0.97069722414 1.10432446003 1.23005139828 1.35850191116 1.49134552479 1.491345644 1.35840773582 1.16650104523 1.10425961018 0.970739364624 0.972780227661 1.04618549347 1.15925240517 1.29070305824 1.40313649178 1.40304493904 1.29070150852 1.09602427483 1.04612600803 0.972840726376 0.981868803501 1.00632965565 1.03199529648 1.08332693577 1.16309785843 1.16319561005 1.08314430714 1.02334189415 1.00629889965 0.981922388077 
0.981836736202 1.00637304783 1.03206825256 1.08361244202 1.16338098049 1.16335105896 1.08354365826 1.02339744568 1.00634205341 0.981889247894 0.972771525383 1.04628479481 1.1593952179 1.29060745239 1.40296924114 1.40294349194 1.29051208496 1.09614729881 1.04622936249 0.972831368446 0.970155894756 1.13582408428 1.2696377039 1.40867364407 1.54283571243 1.54281234741 1.40857923031 1.2029812336 1.13575148582 0.970197081566 0.968394041061 1.18138110638 1.3155143261 1.44131100178 1.56473135948 1.56470799446 1.44123363495 1.24915468693 1.18131303787 0.968426406384 0.966573536396 1.21740269661 1.35556542873 1.4786952734 1.5889223814 1.58890342712 1.4786298275 1.28820419312 1.21732914448 0.966604948044 0.966574907303 1.21739089489 1.3555521965 1.47867298126 1.58913695812 1.58910667896 1.47859716415 1.28820121288 1.21731710434 0.966606318951 0.9683983922 1.18132710457 1.31547188759 1.44120335579 1.56496191025 1.56492185593 1.44111776352 1.24911534786 1.18125784397 0.968430042267 0.970697045326 1.10432565212 1.23005270958 1.35850381851 1.49134802818 1.49134790897 1.35840964317 1.16650247574 1.10426092148 0.97073918581 0.972780168056 1.04618620872 1.15925335884 1.29070448875 1.40313816071 1.40304648876 1.29070305824 1.0960252285 1.04612672329 0.972840368748 0.981868803501 1.00632989407 1.03199589252 1.08332824707 1.16309952736 1.16319727898 1.08314538002 1.02334237099 1.00629925728 0.981922268867 
0.981836557388 1.00637328625 1.03206861019 1.08361363411 1.16338264942 1.1633528471 1.08354449272 1.02339804173 1.00634241104 0.98188906908 0.972771346569 1.04628551006 1.15939617157 1.29060876369 1.40297114849 1.40294504166 1.29051351547 1.09614825249 1.04623019695 0.972831308842 0.970155835152 1.13582539558 1.26963937283 1.40867578983 1.54284346104 1.54282057285 1.40858161449 1.20298218727 1.13575279713 0.970196843147 0.968393683434 1.18138277531 1.31551647186 1.44131350517 1.56473982334 1.56471633911 1.44123601913 1.24915623665 1.18131434917 0.968426287174 0.966573297977 1.21740448475 1.3555675745 1.47869801521 1.58893144131 1.58891260624 1.47863256931 1.28820621967 1.21733081341 0.96660476923 0.966574668884 1.21739280224 1.35555446148 1.47867584229 1.58914637566 1.58911585808 1.47859990597 1.28820312023 1.21731889248 0.966606020927 0.968398153782 1.18132853508 1.31547379494 1.44120597839 1.56497061253 1.56493020058 1.4411200285 1.24911737442 1.1812595129 0.968429982662 0.970696985722 1.10432672501 1.23005437851 1.35850596428 1.49135041237 1.49135029316 1.35841190815 1.16650378704 1.10426187515 0.970739006996 0.972779989243 1.04618692398 1.15925478935 1.29070591927 1.40313959122 1.40304815769 1.29070436954 1.09602618217 1.04612731934 0.972840368748 0.981868743896 1.0063303709 1.03199648857 1.08332943916 1.16310119629 1.16319918633 1.08314669132 1.02334296703 1.0062994957 0.981922149658 
