14.0009174347 13.7825574875 13.0451164246 11.8815174103 11.0966453552 11.0973110199 11.8843612671 13.0476875305 13.7838201523 14.0009412766 21.9901256561 21.6034755707 20.5385723114 18.8902435303 17.7729988098 17.7738723755 18.8943939209 20.542175293 21.6054077148 21.9902248383 29.9809932709 29.5281620026 28.5551223755 27.1810588837 26.2204723358 26.2212142944 27.1845359802 28.5581951141 29.5301132202 29.9811420441 37.9827880859 37.6453895569 37.0045318604 36.1686477661 35.5968780518 35.5973358154 36.1707229614 37.0064659119 37.6467285156 37.982925415 45.998916626 45.8736228943 45.6509590149 45.3753852844 45.1886329651 45.1887817383 45.3760604858 45.6516113281 45.8740959167 45.9989700317 54.0211334229 54.1471252441 54.3710212708 54.6481170654 54.8361206055 54.8359603882 54.6474189758 54.3703651428 54.1466522217 54.0210800171 62.0372238159 62.3750762939 63.0170211792 63.8543624878 64.4272537231 64.4267883301 63.852306366 63.0150871277 62.3737449646 62.0370903015 70.0389938354 70.4918899536 71.4655761719 72.8414077759 73.8019714355 73.8013000488 72.8380050659 71.4625396729 70.4899520874 70.0388259888 78.0298461914 78.4160385132 79.4807128906 81.1297912598 82.2472305298 82.24634552 81.1257858276 79.4770889282 78.4141082764 78.0297546387 86.0190734863 86.2369155884 86.9726028442 88.1329498291 88.9138565063 88.9137649536 88.1305084229 86.9699859619 86.2356338501 86.0190505981 
14.0003376007 13.7785396576 13.0382232666 11.869931221 11.0838718414 11.0845384598 11.8727855682 13.040802002 13.7798080444 14.0003652573 21.9894332886 21.5974845886 20.5248832703 18.8632965088 17.7351646423 17.7360477448 18.8674812317 20.5285129547 21.5994262695 21.9895324707 29.9803218842 29.5213394165 28.5381374359 27.1440067291 26.1528644562 26.1536502838 27.1475543976 28.5412464142 29.5233078003 29.980474472 37.9822845459 37.640007019 36.9906578064 36.1353263855 35.5398025513 35.5402793884 36.1374588013 36.9926185608 37.6413574219 37.982421875 45.9987220764 45.8715324402 45.6455116272 45.3620834351 45.1681785583 45.1683273315 45.3627738953 45.6461791992 45.8720169067 45.9987792969 54.0213317871 54.1492233276 54.3765220642 54.6615066528 54.8568458557 54.8566665649 54.6607971191 54.3758468628 54.1487388611 54.021270752 62.0377349854 62.3804740906 63.0309143066 63.8877334595 64.4843444824 64.4838562012 63.8856086731 63.028968811 62.3791236877 62.0375938416 70.0396575928 70.4987335205 71.4825592041 72.8784942627 73.8694915771 73.8687820435 72.8750152588 71.4795074463 70.4967651367 70.0395126343 78.0305328369 78.4220275879 79.4944152832 81.15675354 82.2850189209 82.2841110229 81.1527099609 79.4907608032 78.4200744629 78.0304336548 86.0196456909 86.2409286499 86.9794769287 88.1444015503 88.9266204834 88.9265213013 88.1419525146 86.9768371582 86.2396469116 86.0196151733 
14.0003318787 13.7785158157 13.0381774902 11.869852066 11.083776474 11.084444046 11.8727054596 13.0407571793 13.7797832489 14.0003585815 21.9894313812 21.597448349 20.5247936249 18.8631267548 17.7349319458 17.7358150482 18.8673095703 20.5284233093 21.5993919373 21.989528656 29.9803199768 29.5212955475 28.5380249023 27.1437740326 26.1524505615 26.1532421112 27.147321701 28.5411224365 29.5232582092 29.9804725647 37.9822807312 37.6399688721 36.9905586243 36.1350746155 35.5392913818 35.5397758484 36.1372070312 36.9925231934 37.6413230896 37.982421875 45.9987220764 45.8715209961 45.6454772949 45.3619804382 45.1680259705 45.168170929 45.3626747131 45.6461410522 45.8720016479 45.9987792969 54.0213317871 54.1492385864 54.3765563965 54.6616172791 54.8570175171 54.8568382263 54.6609039307 54.3758888245 54.1487579346 54.021270752 62.0377349854 62.3805160522 63.0310058594 63.8879852295 64.4848556519 64.4843673706 63.8858566284 63.0290641785 62.3791542053 62.0375976562 70.0396728516 70.4987792969 71.4826965332 72.8787155151 73.8698883057 73.8691864014 72.8752441406 71.4796295166 70.4968109131 70.0395202637 78.0305404663 78.4220581055 79.4945144653 81.1568984985 82.2852554321 82.2843399048 81.1528625488 79.4908447266 78.4201126099 78.0304412842 86.0196533203 86.2409591675 86.9795150757 88.1444778442 88.9267120361 88.926612854 88.1420288086 86.9768753052 86.2396774292 86.0196304321 
14.0003318787 13.7785139084 13.0381679535 11.8698310852 11.0837497711 11.0844154358 11.8726863861 13.0407505035 13.7797842026 14.0003585815 21.9894313812 21.5974445343 20.5247802734 18.8631000519 17.7348976135 17.7357807159 18.8672809601 20.5284137726 21.5993881226 21.989528656 29.9803199768 29.5212879181 28.5380096436 27.1437473297 26.1524066925 26.1531963348 27.1472949982 28.5411148071 29.5232601166 29.9804725647 37.9822807312 37.6399688721 36.9905509949 36.1350479126 35.5392532349 35.5397338867 36.1371803284 36.992515564 37.6413192749 37.9824180603 45.9987220764 45.8715209961 45.6454772949 45.3619728088 45.1680107117 45.1681632996 45.362663269 45.6461372375 45.8720016479 45.9987792969 54.0213317871 54.1492462158 54.3765640259 54.6616249084 54.8570289612 54.8568534851 54.6609191895 54.3758964539 54.1487579346 54.021270752 62.0377349854 62.3805198669 63.0310287476 63.888004303 64.4848937988 64.484413147 63.8858833313 63.0290756226 62.3791656494 62.0375938416 70.0396728516 70.4987792969 71.4826965332 72.8787460327 73.869934082 73.8692245483 72.8752670288 71.479637146 70.4968109131 70.0395202637 78.0305404663 78.4220657349 79.4945220947 81.1569290161 82.2852783203 82.2843704224 81.1528930664 79.4908599854 78.4201202393 78.0304412842 86.0196533203 86.2409591675 86.9795227051 88.1445083618 88.9267425537 88.9266433716 88.1420593262 86.976890564 86.2396774292 86.0196304321 
14.0003328323 13.7785148621 13.0381603241 11.8698139191 11.0837221146 11.0843868256 11.87266922 13.0407400131 13.7797822952 14.0003585815 21.9894313812 21.5974445343 20.5247707367 18.863073349 17.7348632812 17.735748291 18.8672580719 20.5284023285 21.5993843079 21.989528656 29.9803199768 29.5212841034 28.5379943848 27.1437168121 26.1523647308 26.1531543732 27.1472702026 28.5410995483 29.5232505798 29.9804725647 37.9822807312 37.6399650574 36.9905395508 36.1350250244 35.5392189026 35.5396995544 36.1371574402 36.9925041199 37.6413154602 37.9824180603 45.9987220764 45.8715171814 45.6454734802 45.36195755 45.1679954529 45.1681480408 45.3626556396 45.6461334229 45.8719978333 45.9987792969 54.0213317871 54.1492462158 54.3765602112 54.6616325378 54.85704422 54.8568687439 54.6609191895 54.3758964539 54.1487579346 54.021270752 62.0377388 62.3805084229 63.0310287476 63.8880310059 64.4849090576 64.4844360352 63.8859062195 63.0290794373 62.3791732788 62.0375938416 70.0396728516 70.4987792969 71.482711792 72.8787841797 73.869972229 73.8692703247 72.8752975464 71.4796600342 70.4968261719 70.0395202637 78.0305404663 78.4220657349 79.4945220947 81.1569595337 82.2853240967 82.2844238281 81.152923584 79.4908752441 78.4201202393 78.0304412842 86.0196533203 86.2409591675 86.9795227051 88.1445236206 88.9267654419 88.9266586304 88.142074585 86.976890564 86.2396697998 86.0196304321 
14.0003328323 13.7785110474 13.0381526947 11.8697948456 11.0836963654 11.08436203 11.8726491928 13.0407352448 13.7797803879 14.0003595352 21.9894313812 21.5974407196 20.5247592926 18.8630523682 17.7348270416 17.7357120514 18.8672351837 20.5283889771 21.5993843079 21.989528656 29.9803199768 29.5212841034 28.5379867554 27.143693924 26.1523227692 26.1531105042 27.1472377777 28.5410842896 29.5232543945 29.9804725647 37.9822807312 37.6399650574 36.9905319214 36.1349983215 35.5391921997 35.5396652222 36.1371383667 36.9924964905 37.6413116455 37.9824180603 45.9987220764 45.8715171814 45.6454658508 45.361946106 45.1679840088 45.1681365967 45.3626480103 45.6461257935 45.8720016479 45.9987792969 54.0213317871 54.1492424011 54.3765678406 54.6616363525 54.8570632935 54.856880188 54.6609268188 54.3758926392 54.1487579346 54.021270752 62.0377388 62.3805160522 63.0310401917 63.888053894 64.484954834 64.4844741821 63.8859367371 63.029094696 62.3791732788 62.0375938416 70.0396728516 70.4987869263 71.4827270508 72.8787994385 73.8700180054 73.8693161011 72.875328064 71.4796447754 70.4968261719 70.0395202637 78.0305404663 78.4220733643 79.4945373535 81.1569900513 82.2853469849 82.2844543457 81.1529541016 79.4908905029 78.4201278687 78.0304412842 86.0196533203 86.2409591675 86.9795303345 88.1445465088 88.9267883301 88.9266967773 88.1420822144 86.9768981934 86.2396697998 86.0196304321 
14.0003328323 13.7785110474 13.0381450653 11.8697776794 11.0836687088 11.0843334198 11.872631073 13.040725708 13.7797784805 14.0003595352 21.9894313812 21.5974369049 20.5247459412 18.8630256653 17.7347984314 17.7356796265 18.8672122955 20.528377533 21.5993804932 21.989528656 29.9803199768 29.5212802887 28.5379753113 27.1436672211 26.1522769928 26.1530666351 27.1472148895 28.5410766602 29.5232486725 29.9804725647 37.9822807312 37.639957428 36.9905166626 36.134979248 35.5391616821 35.5396347046 36.1371192932 36.9924812317 37.6413116455 37.9824180603 45.9987220764 45.8715171814 45.6454696655 45.3619422913 45.16796875 45.1681251526 45.3626365662 45.6461257935 45.8719978333 45.9987792969 54.0213317871 54.1492462158 54.3765678406 54.6616439819 54.8570632935 54.8568878174 54.6609344482 54.3759040833 54.1487579346 54.021270752 62.0377388 62.3805236816 63.0310554504 63.8880844116 64.484992981 64.4845046997 63.8859558105 63.0291023254 62.3791694641 62.0375938416 70.0396728516 70.4987945557 71.4827423096 72.8788375854 73.8700714111 73.8693618774 72.8753433228 71.479675293 70.4968261719 70.0395202637 78.0305404663 78.4220809937 79.4945526123 81.1570053101 82.2853927612 82.2844772339 81.1529693604 79.4908981323 78.4201278687 78.0304412842 86.0196533203 86.2409591675 86.9795532227 88.144569397 88.9268188477 88.9267272949 88.1420974731 86.9769134521 86.2396697998 86.0196304321 
