13.9399261475 21.7265911102 29.3401832581 37.2082748413 45.6574478149 54.3643035889 62.8120536804 70.6789245605 78.2925949097 86.0798034668 13.9036369324 21.5034198761 28.6149406433 36.4231529236 45.3415298462 54.6818084717 63.5978317261 71.4031982422 78.5145950317 86.1159362793 13.8846549988 21.3478317261 28.2075901031 35.9975509644 45.1551399231 54.869140625 64.0236282349 71.8101654053 78.6694564819 86.1348419189 13.8706817627 21.2719078064 28.0531349182 35.8289489746 45.0812339783 54.9434204102 64.1923294067 71.9644775391 78.7451019287 86.1487503052 13.8619365692 21.2418899536 27.9923324585 35.7579803467 45.0504112244 54.9743843079 64.2633285522 72.0252151489 78.7750396729 86.1574707031 13.8619451523 21.2419052124 27.9923725128 35.7580375671 45.0504379272 54.9743499756 64.2632827759 72.025177002 78.7750244141 86.1574478149 13.8707094193 21.2720298767 28.0533752441 35.8292732239 45.0813598633 54.9432830811 64.1920166016 71.9642410278 78.7449951172 86.1487121582 13.8846902847 21.3480968475 28.2081890106 35.9981956482 45.155620575 54.8686485291 64.0230102539 71.8095703125 78.6691970825 86.1348114014 13.9036951065 21.5038833618 28.6163711548 36.424495697 45.3421554565 54.6811447144 63.596534729 71.4017715454 78.5141448975 86.1158828735 13.9400625229 21.7272624969 29.3421001434 37.2109260559 45.6587142944 54.3631019592 62.8094062805 70.677116394 78.2919616699 86.0796585083 
13.9360179901 21.715467453 29.3208580017 37.1773147583 45.6361618042 54.3857040405 62.8429870605 70.6982116699 78.3037109375 86.0836868286 13.8976325989 21.4856796265 28.5610103607 36.2935905457 45.2571029663 54.7666625977 63.7272224426 71.4569549561 78.5323028564 86.1219177246 13.8756904602 21.3109016418 28.09141922 35.7490005493 45.0138015747 55.0111846924 64.2719726562 71.9260025024 78.7062606812 86.1437835693 13.8585700989 21.2089519501 27.8520488739 35.5076332092 44.917552948 55.1079101562 64.5135726929 72.1651535034 78.8078231812 86.1608276367 13.8469429016 21.1598052979 27.7386131287 35.4062271118 44.8789367676 55.1467094421 64.6150817871 72.2784881592 78.8567810059 86.1723937988 13.8469514847 21.1598377228 27.738697052 35.4062805176 44.8789787292 55.1466674805 64.615020752 72.2784118652 78.8567352295 86.1724014282 13.8586082458 21.2091350555 27.8524799347 35.50806427 44.9177093506 55.1077423096 64.513130188 72.1647262573 78.8076553345 86.1607894897 13.8757362366 21.3112239838 28.0922145844 35.7499389648 45.0143547058 55.0106163025 64.2710494995 71.925239563 78.705947876 86.1437149048 13.897693634 21.4861698151 28.5625686646 36.2951965332 45.2579689026 54.7657394409 63.7256774902 71.4554290771 78.531829834 86.1218643188 13.9361515045 21.7160892487 29.3226566315 37.1801605225 45.6374664307 54.3844909668 62.8401260376 70.6965866089 78.3031387329 86.0835571289 
13.935585022 21.7144432068 29.3193912506 37.1754074097 45.6349639893 54.3869132996 62.8449020386 70.6996917725 78.3047409058 86.0841293335 13.8969726562 21.4844264984 28.5564250946 36.2813682556 45.2487754822 54.7750396729 63.739440918 71.4615249634 78.5335464478 86.1225814819 13.8746480942 21.3072128296 28.0782527924 35.7146072388 44.9841308594 55.0410041809 64.3063201904 71.9391403198 78.7099380493 86.1448135376 13.8570890427 21.2011795044 27.8251247406 35.4370613098 44.8663864136 55.1593322754 64.5839996338 72.1920089722 78.8155670166 86.1623001099 13.8450689316 21.1485691071 27.7002849579 35.311214447 44.8173332214 55.2086219788 64.7099685669 72.3167114258 78.8679656982 86.1742630005 13.845079422 21.148607254 27.7003803253 35.311290741 44.8173828125 55.2085723877 64.7098999023 72.3166122437 78.8679351807 86.1742553711 13.857126236 21.201374054 27.8255805969 35.4375839233 44.8665847778 55.1591186523 64.5834960938 72.1915359497 78.8153839111 86.1622695923 13.8746948242 21.3075428009 28.0790710449 35.7156333923 44.9847869873 55.0403289795 64.3052978516 71.9383621216 78.7096099854 86.144744873 13.8970365524 21.4849185944 28.5580024719 36.283000946 45.2496643066 54.7740783691 63.737865448 71.4599609375 78.5330886841 86.122505188 13.9357156754 21.7150535583 29.3211841583 37.178276062 45.6362533569 54.3857116699 62.8420143127 70.698059082 78.3041763306 86.0839996338 
13.9355545044 21.7143802643 29.3193244934 37.175327301 45.6349182129 54.3869476318 62.8449821472 70.6997528076 78.3048019409 86.0841522217 13.8969268799 21.484369278 28.5561943054 36.2806243896 45.2483100891 54.7754936218 63.7401733398 71.4617538452 78.5336151123 86.1226196289 13.8745698929 21.3069572449 28.0773067474 35.7124557495 44.9822273254 55.0429229736 64.3084564209 71.9400787354 78.7102050781 86.1448898315 13.8569726944 21.2005634308 27.8229637146 35.4312324524 44.8610153198 55.164730072 64.5898284912 72.1941452026 78.8161849976 86.1624145508 13.8449239731 21.1476593018 27.6970252991 35.3014221191 44.8094673157 55.2165222168 64.7197341919 72.3199615479 78.8688735962 86.1744003296 13.8449325562 21.1476974487 27.6971244812 35.3014984131 44.8095321655 55.216468811 64.7196578979 72.3198776245 78.8688430786 86.1744003296 13.8570098877 21.2007579803 27.8234329224 35.43176651 44.8612213135 55.1645050049 64.5892944336 72.193687439 78.8159942627 86.1623764038 13.8746147156 21.3072891235 28.0781269073 35.7134895325 44.9829063416 55.0422325134 64.3074264526 71.9393005371 78.7098693848 86.1448516846 13.8969888687 21.4848632812 28.557767868 36.2822608948 45.2492179871 54.7745361328 63.7386016846 71.4601821899 78.5331497192 86.1225585938 13.9356832504 21.7149963379 29.3211135864 37.1781997681 45.6362113953 54.3857421875 62.8420906067 70.6981430054 78.3042449951 86.0840301514 
13.9355506897 21.7143783569 29.3193187714 37.1753234863 45.6349105835 54.3869590759 62.8449859619 70.6997451782 78.3048095703 86.0841598511 13.8969211578 21.4843635559 28.5561714172 36.2805786133 45.2482872009 54.7755203247 63.7402229309 71.4617767334 78.5336227417 86.1226272583 13.8745622635 21.306936264 28.0772342682 35.7123222351 44.9821434021 55.0429916382 64.3085861206 71.9401550293 78.7102203369 86.1448974609 13.856962204 21.2005138397 27.8227920532 35.4308128357 44.8606414795 55.1651115417 64.5902481079 72.1943283081 78.8162384033 86.1624221802 13.8449106216 21.1475849152 27.6967601776 35.300617218 44.8087806702 55.2172241211 64.7205352783 72.3202133179 78.8689498901 86.1744308472 13.8449230194 21.1476211548 27.6968650818 35.3006896973 44.8088378906 55.2171554565 64.7204666138 72.3201293945 78.8689117432 86.174407959 13.857000351 21.2007102966 27.8232593536 35.4313468933 44.8608512878 55.1648750305 64.5897064209 72.1938552856 78.8160400391 86.1623840332 13.8746109009 21.3072681427 28.0780620575 35.7133560181 44.9828186035 55.0423164368 64.3075637817 71.9393768311 78.7098922729 86.144859314 13.8969860077 21.4848556519 28.5577487946 36.2822189331 45.2491950989 54.7745552063 63.7386512756 71.4602127075 78.5331497192 86.1225662231 13.9356813431 21.7149906158 29.3211097717 37.178188324 45.6362037659 54.3857574463 62.8421020508 70.6981430054 78.3042526245 86.0840301514 
13.9355506897 21.7143745422 29.3193149567 37.1753234863 45.6349029541 54.3869552612 62.8449935913 70.699760437 78.3048095703 86.0841598511 13.8969211578 21.4843597412 28.5561637878 36.2805633545 45.2482795715 54.7755355835 63.740234375 71.4617843628 78.5336151123 86.1226272583 13.8745632172 21.3069286346 28.07721138 35.7122955322 44.9821357727 55.043006897 64.3086242676 71.9401702881 78.7102279663 86.1448974609 13.856962204 21.2005004883 27.8227558136 35.4307556152 44.8606109619 55.165145874 64.5903015137 72.1943588257 78.8162460327 86.1624221802 13.8449115753 21.147567749 27.6967163086 35.3005218506 44.8087043762 55.2172889709 64.7206420898 72.320274353 78.8689575195 86.1744308472 13.8449211121 21.147605896 27.6968135834 35.3006019592 44.8087654114 55.2172279358 64.7205581665 72.3201828003 78.868927002 86.1744155884 13.8569984436 21.2006969452 27.8232192993 35.4312896729 44.8608169556 55.1649169922 64.5897674561 72.193901062 78.8160629272 86.1623840332 13.8746099472 21.3072624207 28.0780391693 35.7133331299 44.9828147888 55.0423202515 64.3075942993 71.9393844604 78.7098922729 86.144859314 13.896985054 21.4848518372 28.5577354431 36.2822036743 45.2491874695 54.7745666504 63.738658905 71.4602279663 78.5331420898 86.1225662231 13.9356822968 21.7149887085 29.321105957 37.1781845093 45.6362037659 54.3857574463 62.8421058655 70.6981430054 78.3042526245 86.0840301514 
13.935549736 21.7143726349 29.3193149567 37.1753120422 45.6349029541 54.3869552612 62.8450012207 70.699760437 78.3048095703 86.0841598511 13.8969211578 21.4843559265 28.5561542511 36.2805519104 45.2482757568 54.7755279541 63.7402496338 71.4617919922 78.5336227417 86.1226272583 13.8745641708 21.3069210052 28.0771961212 35.7122802734 44.9821281433 55.0430183411 64.3086395264 71.9402008057 78.7102279663 86.1448974609 13.8569602966 21.2004947662 27.8227310181 35.4307250977 44.8605880737 55.1651611328 64.5903396606 72.1943817139 78.8162536621 86.1624221802 13.844909668 21.1475543976 27.6966838837 35.3004760742 44.8086891174 55.2173156738 64.7206802368 72.3203048706 78.8689727783 86.1744232178 13.8449192047 21.1475906372 27.6967792511 35.3005523682 44.8087425232 55.2172470093 64.7206039429 72.3202209473 78.8689422607 86.1744003296 13.8569984436 21.2006874084 27.8232040405 35.4312591553 44.8607978821 55.164932251 64.5897903442 72.1939239502 78.816078186 86.1623764038 13.8746089935 21.3072528839 28.0780162811 35.7133102417 44.9828033447 55.0423278809 64.3076171875 71.9394073486 78.7099075317 86.144859314 13.896985054 21.4848499298 28.5577297211 36.2821922302 45.2491912842 54.7745666504 63.7386703491 71.4602355957 78.5331573486 86.1225662231 13.9356813431 21.7149848938 29.321100235 37.1781806946 45.6361999512 54.385761261 62.8421096802 70.6981506348 78.3042602539 86.0840301514 
