13.9418716431 21.7435913086 29.3858566284 37.2357978821 45.6491546631 54.3726501465 62.7843971252 70.6333007812 78.2756576538 86.0778579712 13.9059524536 21.5347003937 28.6964969635 36.3489303589 45.2750854492 54.748588562 63.6715774536 71.3215332031 78.4834442139 86.1136322021 13.8861618042 21.3827877045 28.2910995483 35.8825836182 45.0589942932 54.965763092 64.1380386353 71.7264785767 78.6346511841 86.1333465576 13.8694419861 21.3035926819 28.1069278717 35.701133728 44.9812355042 55.0439186096 64.3195877075 71.9105148315 78.7135467529 86.1499786377 13.8574724197 21.2695217133 28.0306491852 35.6263465881 44.9496231079 55.0756988525 64.3944320679 71.9867401123 78.7474517822 86.1619033813 13.8574790955 21.2695407867 28.0306930542 35.6263961792 44.9496536255 55.0756721497 64.3943939209 71.9867095947 78.7474365234 86.161895752 13.8694810867 21.3037185669 28.107219696 35.7014846802 44.9813766479 55.043800354 64.3192672729 71.9102478027 78.713432312 86.1499404907 13.8862028122 21.3830833435 28.2917900085 35.8832435608 45.0596122742 54.9652175903 64.1374511719 71.7258605957 78.6343917847 86.1333007812 13.9060192108 21.5352191925 28.698091507 36.3504333496 45.2759017944 54.7477836609 63.6702346802 71.3199157715 78.482925415 86.1135635376 13.9420175552 21.7442932129 29.3879184723 37.2388801575 45.6506958008 54.3712425232 62.78125 70.6311264038 78.2749328613 86.0776977539 
13.9378643036 21.7289295197 29.3547744751 37.1975631714 45.6323051453 54.3895835876 62.82264328 70.6643447876 78.2902984619 86.0818405151 13.900554657 21.513671875 28.6316280365 36.2389411926 45.2095680237 54.8144378662 63.7814941406 71.3862609863 78.5044174194 86.1190185547 13.8793210983 21.351190567 28.1904296875 35.6765975952 44.9317359924 55.0936660767 64.3437957764 71.8269119263 78.6661605835 86.1401672363 13.8613595963 21.2600421906 27.9660263062 35.4171524048 44.8238143921 55.2021369934 64.6033554077 72.0510559082 78.7569351196 86.1580429077 13.8485822678 21.2162971497 27.8546829224 35.3051528931 44.7809181213 55.2452507019 64.715461731 72.1622924805 78.8004837036 86.1707611084 13.8485908508 21.2163162231 27.8547592163 35.3052024841 44.7809677124 55.2452011108 64.715423584 72.1622161865 78.8004608154 86.1707611084 13.8614006042 21.2601890564 27.9664020538 35.4176063538 44.8239898682 55.2019767761 64.6029510498 72.0507125854 78.7568054199 86.1580123901 13.8793649673 21.3515129089 28.1911907196 35.6775169373 44.9325141907 55.0929756165 64.342956543 71.8262176514 78.6658477783 86.14012146 13.9006261826 21.5142326355 28.6333637238 36.2405357361 45.2105369568 54.8134765625 63.7801132202 71.3845062256 78.5038375854 86.1189422607 13.9380149841 21.7296504974 29.3569335938 37.2008056641 45.6338195801 54.388217926 62.8193206787 70.6620330811 78.2895278931 86.0816802979 
13.9376373291 21.7281608582 29.3531684875 37.1956291199 45.6316146851 54.3902702332 62.8245849609 70.6659393311 78.2910690308 86.0820770264 13.9002456665 21.5125789642 28.628074646 36.2333068848 45.2068061829 54.8172225952 63.7871246338 71.3898010254 78.5055007935 86.1193084717 13.8789100647 21.3493499756 28.1842594147 35.6644706726 44.9218597412 55.1035842896 64.3559112549 71.8330459595 78.6679840088 86.1405792236 13.8608827591 21.2574043274 27.9567432404 35.3938064575 44.8047180176 55.2213287354 64.626663208 72.060295105 78.7595596313 86.158531189 13.8480682373 21.2131538391 27.8434429169 35.2734107971 44.7571868896 55.2690925598 64.7471542358 72.1734924316 78.803604126 86.1712722778 13.8480758667 21.2131710052 27.8435211182 35.2734642029 44.7572555542 55.2690429688 64.7470932007 72.1734085083 78.8035736084 86.1712646484 13.8609228134 21.2575550079 27.9571266174 35.3942832947 44.8049201965 55.2211532593 64.6262207031 72.0599594116 78.7594299316 86.1584854126 13.8789539337 21.3496723175 28.1850337982 35.6654090881 44.9227142334 55.1028213501 64.3550415039 71.832359314 78.6676864624 86.1405410767 13.9003181458 21.5131454468 28.6298179626 36.2349090576 45.2077789307 54.8162536621 63.7857284546 71.3880386353 78.5049285889 86.1192474365 13.937789917 21.7288856506 29.3553390503 37.1988868713 45.6331253052 54.3889122009 62.821231842 70.6636352539 78.2902984619 86.0819168091 
13.9376220703 21.7281150818 29.3530731201 37.1955184937 45.6315765381 54.3903121948 62.8246879578 70.6660385132 78.2911148071 86.0820922852 13.9002285004 21.5125141144 28.6278762817 36.2329864502 45.2066459656 54.8173751831 63.7874412537 71.3900222778 78.505569458 86.1193313599 13.8788833618 21.349237442 28.1838970184 35.6638259888 44.921257019 55.1041870117 64.356552124 71.8334197998 78.6680984497 86.1405944824 13.8608551025 21.2572402954 27.9561748505 35.3924751282 44.8034362793 55.222618103 64.6279907227 72.0608673096 78.7597198486 86.1585388184 13.8480386734 21.2129535675 27.8427410126 35.2713394165 44.7554740906 55.2708129883 64.749206543 72.1741943359 78.8038024902 86.1713104248 13.8480453491 21.212978363 27.8428249359 35.2713928223 44.7555427551 55.2707519531 64.7491607666 72.174118042 78.8037872314 86.171295166 13.8608942032 21.2573890686 27.9565620422 35.3929519653 44.8036308289 55.2224502563 64.6275558472 72.0605239868 78.7595901489 86.1585159302 13.8789319992 21.3495616913 28.1846733093 35.6647758484 44.92212677 55.1034088135 64.355682373 71.8327255249 78.6678009033 86.1405563354 13.9003009796 21.5130805969 28.6296215057 36.2345924377 45.2076225281 54.8163986206 63.7860527039 71.3882446289 78.5049972534 86.1192626953 13.9377746582 21.7288398743 29.3552436829 37.1987724304 45.6330947876 54.388961792 62.8213386536 70.6637115479 78.2903366089 86.0819244385 
13.937623024 21.7281074524 29.353061676 37.1955032349 45.6315689087 54.3903198242 62.8247070312 70.666053772 78.2911148071 86.0820922852 13.900223732 21.5125045776 28.6278438568 36.2329483032 45.2066268921 54.8173942566 63.7874794006 71.3900299072 78.5055770874 86.1193389893 13.8788814545 21.3492221832 28.18384552 35.6637496948 44.9211997986 55.1042633057 64.356628418 71.8334732056 78.6681060791 86.1405944824 13.8608512878 21.2572154999 27.9561080933 35.3923187256 44.8032989502 55.2227516174 64.6281509399 72.0609436035 78.7597503662 86.1585540771 13.848033905 21.2129268646 27.8426437378 35.2710990906 44.7552871704 55.2710075378 64.7494430542 72.1742706299 78.8038253784 86.1713027954 13.8480415344 21.2129516602 27.8427295685 35.2711601257 44.7553482056 55.2709579468 64.7493972778 72.1742172241 78.8038101196 86.1713027954 13.8608913422 21.2573642731 27.9564876556 35.3928031921 44.8034973145 55.2225837708 64.6277008057 72.0605926514 78.7596130371 86.1585159302 13.8789281845 21.3495445251 28.1846199036 35.6647033691 44.9220581055 55.103477478 64.3557662964 71.8327865601 78.6678161621 86.1405487061 13.9003009796 21.5130729675 28.6295909882 36.2345504761 45.207611084 54.8164215088 63.7860870361 71.3882675171 78.5050048828 86.1192703247 13.9377737045 21.7288360596 29.3552265167 37.1987609863 45.6330871582 54.388961792 62.8213653564 70.6637268066 78.2903518677 86.0819091797 
13.9376239777 21.7281093597 29.3530578613 37.1955032349 45.6315727234 54.3903274536 62.8247146606 70.6660614014 78.2911148071 86.0820922852 13.900223732 21.5125026703 28.6278362274 36.2329330444 45.2066192627 54.8173980713 63.7874984741 71.390045166 78.5055847168 86.1193389893 13.8788814545 21.3492126465 28.1838245392 35.6637268066 44.9211769104 55.1042785645 64.3566513062 71.8334884644 78.6681137085 86.1406021118 13.8608522415 21.2572059631 27.9560718536 35.3922691345 44.8032646179 55.2227935791 64.6281967163 72.0609588623 78.7597503662 86.1585540771 13.8480348587 21.2129154205 27.8426113129 35.2710342407 44.755241394 55.2710494995 64.7495117188 72.1743011475 78.8038406372 86.1713027954 13.8480386734 21.2129364014 27.8426933289 35.2710914612 44.7553024292 55.2710037231 64.7494659424 72.1742401123 78.8038253784 86.1713027954 13.8608913422 21.2573566437 27.9564609528 35.3927536011 44.8034591675 55.222618103 64.6277542114 72.0606307983 78.7596282959 86.1585235596 13.8789262772 21.3495388031 28.1846046448 35.6646728516 44.9220428467 55.1035041809 64.3557891846 71.8327865601 78.6678161621 86.1405563354 13.9002990723 21.5130672455 28.6295776367 36.2345428467 45.2076034546 54.8164291382 63.7861099243 71.3882751465 78.5050125122 86.1192703247 13.9377727509 21.7288341522 29.3552265167 37.1987533569 45.6330795288 54.388961792 62.8213577271 70.663734436 78.2903518677 86.0819244385 
13.9376220703 21.7281036377 29.3530540466 37.1954879761 45.6315689087 54.3903198242 62.82472229 70.6660614014 78.2911300659 86.0820922852 13.9002246857 21.5124969482 28.627828598 36.2329216003 45.206615448 54.8174057007 63.7875099182 71.3900680542 78.5055923462 86.1193389893 13.8788795471 21.3492050171 28.1838130951 35.6637001038 44.9211616516 55.1042938232 64.3566818237 71.8335037231 78.6681213379 86.1406097412 13.8608493805 21.2571964264 27.9560451508 35.3922386169 44.8032417297 55.2228088379 64.6282196045 72.0609970093 78.759765625 86.1585540771 13.8480319977 21.2129039764 27.8425827026 35.2709922791 44.7552261353 55.2710723877 64.7495498657 72.1743392944 78.803855896 86.1713104248 13.8480386734 21.212928772 27.8426647186 35.2710456848 44.755279541 55.2710227966 64.7495040894 72.1742782593 78.8038330078 86.1713027954 13.8608894348 21.2573451996 27.9564323425 35.3927154541 44.803440094 55.2226333618 64.627784729 72.0606536865 78.7596359253 86.158531189 13.8789262772 21.3495330811 28.1845836639 35.6646499634 44.9220237732 55.1035079956 64.3558120728 71.8328170776 78.6678237915 86.1405563354 13.9002971649 21.5130615234 28.6295681 36.2345237732 45.2075958252 54.8164405823 63.7861175537 71.3882980347 78.5050048828 86.1192703247 13.9377727509 21.7288322449 29.3552246094 37.1987495422 45.6330833435 54.3889694214 62.8213729858 70.6637420654 78.2903518677 86.0819396973 
