13.93542099 21.708070755 29.3040390015 37.1725387573 45.6362304688 54.3856430054 62.8478546143 70.7150115967 78.311088562 86.0842819214 13.8968744278 21.4769382477 28.5289554596 36.3053359985 45.2707099915 54.7529830933 63.7156257629 71.4890060425 78.5410079956 86.1226730347 13.8744058609 21.2980136871 28.0280704498 35.7429466248 45.0168113708 55.0081672668 64.2782440186 71.9893493652 78.7190170288 86.14503479 13.8561525345 21.1820526123 27.7684211731 35.4657020569 44.9005737305 55.1249771118 64.5556564331 72.2487411499 78.8345794678 86.1632385254 13.8438959122 21.1246547699 27.6417598724 35.3400230408 44.8516120911 55.1741752625 64.6814575195 72.3752822876 78.8917617798 86.1754302979 13.8439073563 21.1246948242 27.6418552399 35.3401107788 44.8516616821 55.174118042 64.6813735962 72.3751983643 78.8917236328 86.1754302979 13.8561964035 21.1822681427 27.7688980103 35.466217041 44.9007720947 55.1247634888 64.5551300049 72.2482757568 78.8343658447 86.163192749 13.8744516373 21.2983760834 28.0289421082 35.7439689636 45.0174026489 55.0075721741 64.2772216797 71.988494873 78.7186508179 86.1450119019 13.896944046 21.4774360657 28.5306072235 36.3069763184 45.271572113 54.7520828247 63.7140388489 71.4873657227 78.5405426025 86.1226119995 13.9355564117 21.7087249756 29.3059024811 37.17527771 45.6373901367 54.3845329285 62.8451004028 70.7132644653 78.3104858398 86.0841522217 
13.9354124069 21.7081985474 29.3045768738 37.1730766296 45.6363983154 54.3854675293 62.8473167419 70.7144775391 78.3109664917 86.0842971802 13.8968477249 21.4772224426 28.5296592712 36.3053627014 45.2704811096 54.7532157898 63.7156105042 71.4883117676 78.5407333374 86.1226959229 13.8743438721 21.2981510162 28.028131485 35.7414398193 45.0151481628 55.0098190308 64.2797317505 71.9892730713 78.7188720703 86.1451263428 13.8560371399 21.1817512512 27.7669067383 35.4593276978 44.8939552307 55.1316375732 64.5620193481 72.2502441406 78.8348693848 86.1633453369 13.8437366486 21.1239452362 27.6386413574 35.3278617859 44.8410873413 55.1847686768 64.6935806274 72.3783874512 78.8924789429 86.1755905151 13.843747139 21.1239852905 27.6387462616 35.3279495239 44.8411369324 55.1847038269 64.6934890747 72.3782958984 78.8924407959 86.1755828857 13.8560781479 21.181968689 27.7673892975 35.4598617554 44.8941612244 55.1314163208 64.5614776611 72.2497558594 78.8346633911 86.1632919312 13.8743915558 21.2985134125 28.029006958 35.7424697876 45.0157623291 55.0092048645 64.2787246704 71.9884338379 78.7185134888 86.145072937 13.8969173431 21.4777183533 28.5313129425 36.3069992065 45.2713508606 54.7523078918 63.714012146 71.4866790771 78.5402679443 86.1226348877 13.935546875 21.7088489532 29.3064346313 37.1758155823 45.6375617981 54.3843688965 62.8445587158 70.7127456665 78.3103485107 86.0841522217 
13.9354114532 21.7081985474 29.304567337 37.1730651855 45.6363830566 54.3854751587 62.8473243713 70.7144775391 78.3109741211 86.0842971802 13.8968477249 21.4772205353 28.5296497345 36.3053512573 45.2704811096 54.7532196045 63.7156143188 71.488319397 78.540725708 86.1226959229 13.8743457794 21.2981452942 28.0281124115 35.7414283752 45.0151443481 55.0098304749 64.2797470093 71.9892959595 78.7188796997 86.1451263428 13.8560361862 21.1817455292 27.7668838501 35.4593009949 44.8939361572 55.1316490173 64.5620498657 72.2502670288 78.8348846436 86.1633453369 13.8437385559 21.1239356995 27.6386203766 35.3278198242 44.8410606384 55.1847877502 64.6936187744 72.3784255981 78.8924865723 86.1755905151 13.8437480927 21.1239757538 27.638715744 35.327911377 44.8411140442 55.1847229004 64.6935272217 72.378326416 78.8924560547 86.1755828857 13.8560781479 21.1819591522 27.767370224 35.4598388672 44.8941459656 55.1314201355 64.5615081787 72.249786377 78.8346786499 86.1632919312 13.8743896484 21.2985095978 28.0289859772 35.7424545288 45.0157470703 55.0092277527 64.2787322998 71.9884643555 78.7185211182 86.145072937 13.8969163895 21.4777126312 28.5313034058 36.3069915771 45.2713470459 54.7523117065 63.7140235901 71.4866790771 78.5402603149 86.1226348877 13.935546875 21.7088489532 29.306427002 37.1758079529 45.6375617981 54.3843765259 62.8445625305 70.7127532959 78.3103485107 86.0841522217 
13.9354114532 21.7081947327 29.3045692444 37.1730651855 45.636390686 54.385471344 62.847328186 70.7144851685 78.3109664917 86.0842971802 13.8968467712 21.4772148132 28.5296440125 36.3053398132 45.2704696655 54.7532310486 63.7156181335 71.4883346558 78.5407409668 86.1226959229 13.8743438721 21.2981395721 28.0280971527 35.7414131165 45.0151367188 55.0098342896 64.2797622681 71.9893112183 78.7188796997 86.1451263428 13.8560352325 21.1817359924 27.7668609619 35.459274292 44.8939285278 55.1316566467 64.5620651245 72.2502975464 78.8348922729 86.1633453369 13.8437366486 21.1239261627 27.6385974884 35.3277854919 44.8410453796 55.184803009 64.6936569214 72.3784408569 78.8924942017 86.1755828857 13.8437480927 21.123966217 27.6386928558 35.32787323 44.8410949707 55.1847419739 64.6935577393 72.3783569336 78.8924636841 86.1755752563 13.8560771942 21.1819553375 27.7673473358 35.4598083496 44.8941345215 55.1314315796 64.5615310669 72.2498168945 78.8346862793 86.1632843018 13.8743896484 21.2985019684 28.0289707184 35.74243927 45.0157394409 55.009223938 64.2787475586 71.9884796143 78.7185287476 86.145072937 13.8969182968 21.4777126312 28.5312919617 36.3069763184 45.2713394165 54.7523193359 63.7140274048 71.4866943359 78.5402603149 86.1226425171 13.935546875 21.7088432312 29.3064250946 37.1758003235 45.6375617981 54.3843688965 62.8445777893 70.7127532959 78.3103485107 86.0841522217 
13.9354114532 21.70819664 29.304561615 37.1730537415 45.636390686 54.3854827881 62.8473358154 70.7144927979 78.3109817505 86.0842971802 13.8968467712 21.4772109985 28.5296287537 36.3053283691 45.2704658508 54.7532272339 63.715637207 71.4883422852 78.5407409668 86.1226959229 13.8743419647 21.2981338501 28.0280780792 35.741394043 45.0151329041 55.0098457336 64.2797851562 71.9893341064 78.7189025879 86.1451263428 13.8560342789 21.1817264557 27.7668457031 35.4592437744 44.8939208984 55.1316680908 64.5620956421 72.2503051758 78.8349075317 86.1633529663 13.8437356949 21.1239147186 27.6385631561 35.327747345 44.8410224915 55.1848144531 64.6936950684 72.3784713745 78.8925094604 86.1755828857 13.843747139 21.1239566803 27.638666153 35.327835083 44.8410797119 55.1847610474 64.693611145 72.3783721924 78.8924713135 86.1755752563 13.8560771942 21.1819458008 27.767326355 35.4597816467 44.8941345215 55.1314468384 64.5615539551 72.2498397827 78.8346939087 86.1632919312 13.8743896484 21.298494339 28.0289535522 35.7424201965 45.0157394409 55.0092353821 64.2787704468 71.9884796143 78.7185287476 86.145072937 13.8969163895 21.4777050018 28.5312824249 36.3069648743 45.2713394165 54.7523231506 63.7140426636 71.4867019653 78.5402526855 86.1226425171 13.9355449677 21.7088432312 29.3064174652 37.1758003235 45.6375579834 54.3843727112 62.8445854187 70.7127609253 78.3103637695 86.0841522217 
13.9354114532 21.7081890106 29.3045558929 37.1730499268 45.6363868713 54.3854827881 62.8473396301 70.7145004272 78.3109817505 86.0842971802 13.8968458176 21.4772109985 28.5296173096 36.3053207397 45.2704658508 54.7532348633 63.7156448364 71.4883575439 78.5407485962 86.1226959229 13.8743438721 21.2981243134 28.0280666351 35.7413787842 45.0151290894 55.0098495483 64.279800415 71.9893493652 78.7189025879 86.1451263428 13.8560342789 21.1817188263 27.7668170929 35.4592170715 44.8939056396 55.1316871643 64.5621261597 72.2503128052 78.8349151611 86.1633529663 13.8437356949 21.1239051819 27.6385345459 35.3277053833 44.8410148621 55.1848373413 64.6937408447 72.3784942627 78.8925170898 86.1755828857 13.843744278 21.1239452362 27.6386356354 35.3277931213 44.8410644531 55.1847724915 64.6936416626 72.37840271 78.8924789429 86.1755752563 13.8560762405 21.1819381714 27.7672996521 35.4597549438 44.894115448 55.1314582825 64.5615921021 72.2498550415 78.8346939087 86.1632995605 13.8743877411 21.2984867096 28.0289421082 35.7424049377 45.0157279968 55.0092430115 64.2787857056 71.9885025024 78.718536377 86.1450805664 13.8969163895 21.4777011871 28.5312709808 36.3069572449 45.2713356018 54.7523193359 63.714050293 71.4867095947 78.5402679443 86.1226425171 13.9355449677 21.7088413239 29.3064193726 37.1757965088 45.637550354 54.3843803406 62.8445930481 70.7127685547 78.3103561401 86.0841522217 
13.9354124069 21.7081871033 29.3045501709 37.1730422974 45.6363830566 54.3854827881 62.8473472595 70.7145004272 78.3109741211 86.0842971802 13.8968458176 21.4772052765 28.5296058655 36.305305481 45.2704582214 54.7532348633 63.7156562805 71.4883728027 78.5407485962 86.1226959229 13.8743438721 21.2981185913 28.0280513763 35.7413597107 45.01512146 55.0098609924 64.2798156738 71.989364624 78.7189025879 86.1451263428 13.8560333252 21.1817131042 27.7667999268 35.4591903687 44.8938903809 55.1316986084 64.5621490479 72.2503585815 78.8349151611 86.1633453369 13.8437366486 21.1238975525 27.6385154724 35.3276672363 44.8409919739 55.1848487854 64.6937789917 72.3785095215 78.8925247192 86.1755828857 13.843744278 21.1239376068 27.6386089325 35.3277549744 44.8410491943 55.1847915649 64.6936950684 72.3784332275 78.8924865723 86.1755905151 13.8560752869 21.181930542 27.7672805786 35.459728241 44.8940963745 55.1314735413 64.5616149902 72.2498779297 78.8347015381 86.1632995605 13.8743896484 21.2984848022 28.028924942 35.742389679 45.0157279968 55.0092544556 64.2788009644 71.9885101318 78.7185440063 86.1450805664 13.8969154358 21.4776973724 28.5312595367 36.3069496155 45.2713279724 54.7523269653 63.7140579224 71.4867248535 78.5402755737 86.1226348877 13.9355449677 21.7088394165 29.3064136505 37.17578125 45.6375465393 54.3843803406 62.8445930481 70.7127761841 78.3103637695 86.0841674805 
