2.26455760002 3.97618222237 6.94379615784 9.67478466034 11.3234481812 11.3220882416 9.66876792908 6.93630743027 3.96917176247 2.26443886757 2.29137635231 5.18202161789 9.96098804474 14.5999174118 17.3551425934 17.3530845642 14.5893640518 9.94873142242 5.17063856125 2.29104661942 2.31575846672 6.0886592865 12.0931596756 17.8642425537 21.3460731506 21.3434658051 17.8510551453 12.077922821 6.07412958145 2.31523966789 2.33345556259 6.63545608521 13.3129844666 19.6125583649 23.3924007416 23.3895816803 19.5982494354 13.296216011 6.61914587021 2.33280014992 2.34185600281 6.91229248047 13.9058437347 20.4345626831 24.3400173187 24.3371238708 20.4197864532 13.8883914948 6.89511442184 2.34113502502 2.34184956551 6.91207027435 13.9053764343 20.4339065552 24.3393135071 24.3364219666 20.4191303253 13.8879308701 6.89489793777 2.3411283493 2.33342003822 6.63430929184 13.310508728 19.6090011597 23.3883152008 23.3854942322 19.5947418213 13.2937822342 6.61801958084 2.33276581764 2.31569766998 6.08664464951 12.0886278152 17.8579940796 21.337179184 21.3347396851 17.8449230194 12.0734205246 6.07211589813 2.3151781559 2.29129958153 5.17905807495 9.95368099213 14.5889482498 17.3418502808 17.3398628235 14.5786237717 9.94131278992 5.16764259338 2.29097008705 2.26449847221 3.97246360779 6.93430948257 9.65915775299 11.3019666672 11.3012685776 9.65358543396 6.92680978775 3.96542668343 2.26437830925 
2.26578688622 3.83892607689 6.6890039444 9.38701343536 10.9963340759 10.9950084686 9.38108062744 6.68165874481 3.8323507309 2.26567077637 2.2908539772 5.02690935135 9.70324802399 14.3201961517 17.0776939392 17.0755882263 14.3097171783 9.69109630585 5.01594305038 2.29054164886 2.31418013573 5.92871379852 11.8168478012 17.6016788483 21.2411937714 21.2383899689 17.5882225037 11.8017749786 5.91459751129 2.31368708611 2.33179402351 6.4684381485 13.0162286758 19.4132080078 23.416185379 23.4131336212 19.3982944489 12.9995727539 6.4525718689 2.33116650581 2.34122133255 6.74058532715 13.6129846573 20.2803134918 24.4255714417 24.4224262238 20.2648258209 13.5955696106 6.72387599945 2.3405213356 2.34121417999 6.74036693573 13.6125020981 20.279630661 24.4248008728 24.4216575623 20.2641468048 13.5950965881 6.72366428375 2.34051465988 2.33175611496 6.46729850769 13.013756752 19.4095211029 23.4118804932 23.4088344574 19.3946609497 12.9971437454 6.45145177841 2.33112955093 2.31412029266 5.92665910721 11.8123064041 17.5951404572 21.231754303 21.2291221619 17.5817909241 11.7972545624 5.91253328323 2.31362581253 2.29077959061 5.02385234833 9.69569969177 14.3092088699 17.0636291504 17.0616378784 14.2989759445 9.683385849 5.01282978058 2.29046726227 2.26573181152 3.83525729179 6.67945861816 9.37131500244 10.9751348495 10.974445343 9.36581325531 6.67206096649 3.82863426208 2.26561331749 
2.26596736908 3.81473493576 6.64407157898 9.33734321594 10.9398641586 10.938542366 9.33142375946 6.63675308228 3.80823731422 2.26585173607 2.29073810577 4.99953699112 9.65799045563 14.2719326019 17.0224475861 17.0203514099 14.26146698 9.64585208893 4.98864507675 2.29042840004 2.3138718605 5.90064144135 11.768828392 17.5447998047 21.1956310272 21.1927719116 17.5313644409 11.7537879944 5.88659763336 2.31338357925 2.33130860329 6.43841266632 12.9618816376 19.3530387878 23.4108161926 23.4076766968 19.338104248 12.9452667236 6.42262458801 2.33068680763 2.34067583084 6.70890855789 13.5531291962 20.2207813263 24.4425239563 24.4392757416 20.2052135468 13.5357685089 6.69228458405 2.33998203278 2.34066915512 6.70869016647 13.552649498 20.2200965881 24.4417190552 24.4384784698 20.204536438 13.5353002548 6.69207429886 2.33997559547 2.33127093315 6.43727636337 12.9594221115 19.3493556976 23.4064502716 23.4033088684 19.3344745636 12.9428529739 6.42150878906 2.33064985275 2.31381201744 5.8985824585 11.7642908096 17.5382633209 21.1860771179 21.1834049225 17.5249347687 11.7492685318 5.88452625275 2.31332206726 2.2906639576 4.99646663666 9.65040683746 14.260966301 17.0083599091 17.0063819885 14.250746727 9.63809967041 4.98551511765 2.29035425186 2.26591277122 3.81107926369 6.63452625275 9.32165718079 10.9187660217 10.9180850983 9.31616783142 6.62714719772 3.80452990532 2.26579499245 
2.26597428322 3.81378364563 6.6423125267 9.33540248871 10.9376621246 10.9363393784 9.32948303223 6.63499259949 3.80728912354 2.26585888863 2.2907333374 4.99845790863 9.65622234344 14.2700634003 17.020324707 17.0182304382 14.2595977783 9.64408493042 4.98756790161 2.29042410851 2.3138589859 5.89953041077 11.766951561 17.5426616669 21.1935977936 21.1907444 17.5292243958 11.751912117 5.88549041748 2.31337118149 2.33129024506 6.43721723557 12.9597454071 19.3504505157 23.4098033905 23.4066505432 19.3355178833 12.9431333542 6.42143392563 2.3306684494 2.34065294266 6.70763778687 13.5507068634 20.2177371979 24.4433059692 24.4400501251 20.2021694183 13.5333499908 6.69101762772 2.33995914459 2.3406457901 6.70742225647 13.5502281189 20.2170524597 24.4425010681 24.4392528534 20.2014884949 13.5328836441 6.69080734253 2.33995270729 2.3312523365 6.4360833168 12.9572925568 19.3467731476 23.4054222107 23.4022769928 19.3318958282 12.9407243729 6.42031860352 2.33063149452 2.31379938126 5.89747285843 11.7624187469 17.5361289978 21.1840419769 21.1813678741 17.5228004456 11.7473945618 5.88342046738 2.31330966949 2.29065918922 4.99538850784 9.64863967896 14.2590990067 17.0062389374 17.0042648315 14.2488832474 9.63633346558 4.98443889618 2.29034996033 2.26591992378 3.81012964249 6.63276767731 9.31971549988 10.9165706635 10.91588974 9.31422805786 6.62538862228 3.80358362198 2.26580190659 
2.2659740448 3.81379318237 6.64233589172 9.33543777466 10.9377069473 10.9363861084 9.32951831818 6.63501644135 3.8072988987 2.26585888863 2.29073381424 4.99847459793 9.65625667572 14.2701129913 17.0203838348 17.018283844 14.2596473694 9.6441192627 4.98758554459 2.29042410851 2.31385922432 5.89955234528 11.7669992447 17.5427265167 21.1936702728 21.1908168793 17.529291153 11.751958847 5.88551139832 2.31337141991 2.33129096031 6.4372420311 12.9598007202 19.3505249023 23.4098930359 23.4067459106 19.3355922699 12.9431867599 6.421459198 2.33066892624 2.34065365791 6.70766544342 13.5507631302 20.2178153992 24.4434204102 24.4401626587 20.202249527 13.533408165 6.69104480743 2.33996009827 2.34064674377 6.70744991302 13.550286293 20.2171287537 24.4426116943 24.4393615723 20.2015686035 13.5329399109 6.69083499908 2.33995389938 2.33125305176 6.43610906601 12.9573459625 19.3468456268 23.4055118561 23.4023685455 19.3319702148 12.940776825 6.42034292221 2.33063220978 2.31379961967 5.89749479294 11.762462616 17.536195755 21.1841201782 21.1814403534 17.5228652954 11.7474393845 5.88344144821 2.31330990791 2.29065942764 4.99540472031 9.64867401123 14.2591495514 17.0062999725 17.004322052 14.2489318848 9.63637065887 4.98445606232 2.29034996033 2.26591992378 3.81013941765 6.63279104233 9.3197517395 10.9166154861 10.9159345627 9.31426429749 6.62541341782 3.80359315872 2.265802145 
2.2659740448 3.81380486488 6.64236116409 9.33547401428 10.9377498627 10.9364309311 9.32955551147 6.63504266739 3.80731010437 2.26585888863 2.29073381424 4.99849224091 9.65629673004 14.2701644897 17.0204429626 17.0183448792 14.2597017288 9.64416027069 4.98760271072 2.29042482376 2.31385993958 5.89957618713 11.7670478821 17.5427932739 21.1937465668 21.1908931732 17.5293579102 11.7520074844 5.88553380966 2.31337189674 2.33129167557 6.43726968765 12.959854126 19.3506031036 23.4099845886 23.4068374634 19.3356704712 12.9432439804 6.4214849472 2.33066987991 2.34065413475 6.70769453049 13.550822258 20.2178974152 24.4435272217 24.4402675629 20.2023296356 13.5334663391 6.69107532501 2.33996081352 2.34064745903 6.70747852325 13.5503444672 20.217212677 24.4427204132 24.4394683838 20.2016544342 13.533000946 6.69086456299 2.33995437622 2.33125376701 6.43613529205 12.9574022293 19.3469238281 23.4056053162 23.4024600983 19.3320446014 12.9408311844 6.42037010193 2.33063316345 2.31380033493 5.89751720428 11.7625131607 17.5362644196 21.1841964722 21.1815185547 17.52293396 11.7474889755 5.8834643364 2.31331062317 2.29065966606 4.99542188644 9.64871406555 14.2592010498 17.0063591003 17.0043811798 14.2489843369 9.63640785217 4.98447322845 2.29035043716 2.2659201622 3.81015086174 6.63281726837 9.31978797913 10.9166641235 10.9159812927 9.31430053711 6.62543916702 3.80360412598 2.265802145 
2.2659740448 3.8138153553 6.64238786697 9.33551025391 10.9377994537 10.9364805222 9.32959079742 6.63506746292 3.80732107162 2.26585888863 2.29073405266 4.99850988388 9.65633678436 14.2702159882 17.0205001831 17.0184059143 14.2597522736 9.64419651031 4.98761940002 2.29042482376 2.31386041641 5.89959812164 11.7670974731 17.5428600311 21.1938228607 21.1909675598 17.5294246674 11.7520570755 5.88555669785 2.31337285042 2.3312921524 6.4372959137 12.9599103928 19.3506813049 23.4100818634 23.4069309235 19.3357505798 12.9432992935 6.42151165009 2.33067059517 2.34065485001 6.70772266388 13.5508813858 20.2179794312 24.4436302185 24.4403743744 20.202413559 13.5335273743 6.69110202789 2.33996129036 2.34064817429 6.70750570297 13.5504045486 20.2172927856 24.44282341 24.439573288 20.2017345428 13.5330572128 6.69089269638 2.33995509148 2.33125448227 6.43616104126 12.9574565887 19.3470039368 23.4056987762 23.4025535583 19.3321247101 12.9408864975 6.42039680481 2.33063387871 2.31380081177 5.89753961563 11.7625608444 17.5363273621 21.1842708588 21.1815948486 17.5229988098 11.7475376129 5.88348722458 2.31331110001 2.29065990448 4.99544000626 9.64875221252 14.2592535019 17.0064163208 17.0044384003 14.2490358353 9.63644695282 4.98449039459 2.29035043716 2.2659201622 3.81016182899 6.63284397125 9.31982421875 10.9167108536 10.9160270691 9.31433868408 6.6254658699 3.80361533165 2.265802145 
