2.26562857628 4.01943302155 7.0665268898 9.85711574554 11.4451360703 11.44389534 9.85101699829 7.05883646011 4.01224517822 2.26550412178 2.29231786728 5.23714017868 10.1047506332 14.6016368866 17.080493927 17.0785923004 14.5920352936 10.0923748016 5.22555875778 2.29198288918 2.31648683548 6.12123632431 12.1644229889 17.6658382416 20.7664432526 20.7640686035 17.6539955139 12.1492729187 6.10660839081 2.31596422195 2.33252382278 6.63108348846 13.2949829102 19.2700519562 22.6454944611 22.6429195404 19.2572040558 13.2784442902 6.61478233337 2.33187699318 2.34009432793 6.88346099854 13.8316926956 20.0182743073 23.5143375397 23.5116882324 20.0049877167 13.8145389557 6.86636447906 2.33938789368 2.34008836746 6.88326120377 13.8312807083 20.0176792145 23.5136699677 23.5110244751 20.0043926239 13.8141260147 6.86616659164 2.33938193321 2.33249258995 6.63006162643 13.292760849 19.266866684 22.6418037415 22.6392269135 19.2540359497 13.2762422562 6.61377668381 2.33184695244 2.31643438339 6.11943435669 12.1603918076 17.6600208282 20.7585678101 20.7562713623 17.6482410431 12.1452970505 6.10482788086 2.3159122467 2.29224514961 5.23435878754 10.0980129242 14.5918140411 17.0686340332 17.0667514801 14.582324028 10.085609436 5.22276973724 2.29191112518 2.2655711174 4.01572227478 7.05693483353 9.84140872955 11.4255237579 11.42461586 9.83506965637 7.04910945892 4.00850534439 2.26544499397 
2.26611113548 3.87498807907 6.7805314064 9.51504611969 11.087389946 11.0861501694 9.5090637207 6.77305984497 3.86827325821 2.26599264145 2.29123401642 5.07436275482 9.80928134918 14.2975091934 16.843952179 16.8419437408 14.2877826691 9.79708480835 5.06324386597 2.29091858864 2.31476354599 5.96884059906 11.8935937881 17.4634284973 20.7691383362 20.766544342 17.4510688782 11.878578186 5.95461559296 2.31426596642 2.33172106743 6.494181633 13.0604524612 19.1941699982 22.8266468048 22.8238067627 19.1805477142 13.0439186096 6.47824239731 2.33109474182 2.34073877335 6.75587368011 13.6304988861 20.0159263611 23.7829322815 23.7799968719 20.001789093 13.6132450104 6.73911857605 2.34004306793 2.34073162079 6.75566625595 13.6300554276 20.0152873993 23.7821922302 23.7792606354 20.0011501312 13.6128044128 6.73891401291 2.34003639221 2.33168578148 6.49312782288 13.0581207275 19.1907329559 22.8226051331 22.8197612762 19.1771354675 13.0416126251 6.47720479965 2.33105993271 2.3147110939 5.966984272 11.8894853592 17.4571590424 20.7607250214 20.7582206726 17.4448451996 11.8745279312 5.95277881622 2.31421399117 2.2911632061 5.07149505615 9.8023147583 14.2874126434 16.8310909271 16.829120636 14.2778148651 9.79004764557 5.06034755707 2.29084944725 2.26605796814 3.8713388443 6.77084493637 9.49893283844 11.0678529739 11.0669231415 9.49254703522 6.76314973831 3.86456489563 2.26593780518 
2.26617288589 3.84524345398 6.72049760818 9.44219875336 11.0079984665 11.0067615509 9.4362449646 6.71307516098 3.83862781525 2.26605629921 2.29095840454 5.04002189636 9.74573230743 14.2269001007 16.7738113403 16.7717990875 14.2171726227 9.73358058929 5.02900266647 2.29064750671 2.31431412697 5.93623209 11.834564209 17.4006824493 20.7333583832 20.7306995392 17.3883018494 11.8195858002 5.92209529877 2.31382250786 2.33128333092 6.465092659 13.0080947876 19.1547832489 22.861869812 22.8589267731 19.141040802 12.9915924072 6.44923019409 2.3306620121 2.34040141106 6.72965049744 13.5841426849 19.9980773926 23.8610248566 23.8579711914 19.9837360382 13.5669116974 6.71296215057 2.33971047401 2.3403942585 6.72944164276 13.5836877823 19.9974212646 23.8602542877 23.8572044373 19.9830818176 13.5664653778 6.71275663376 2.33970308304 2.33124780655 6.46403121948 13.0057516098 19.1512870789 22.8576869965 22.8547401428 19.1375713348 12.9892721176 6.44818639755 2.33062767982 2.31426239014 5.93436670303 11.8304414749 17.3943634033 20.7248096466 20.7222423553 17.3820209503 11.8155212402 5.92024612427 2.31377100945 2.29088830948 5.0371389389 9.73871898651 14.2167682648 16.7608356476 16.7588653564 14.2071676254 9.7264881134 5.02608537674 2.29057860374 2.26612067223 3.84160804749 6.71079826355 9.42602157593 10.9884881973 10.9875564575 9.41963195801 6.70313453674 3.83492851257 2.26600217819 
2.26617717743 3.84250855446 6.71494007111 9.43540668488 11.0005331039 10.999294281 9.42945384979 6.70752286911 3.83590245247 2.26606011391 2.29093122482 5.03682279587 9.73974609375 14.2200946808 16.7668533325 16.7648410797 14.2103643417 9.72759819031 5.02581262589 2.290620327 2.31426954269 5.9331817627 11.8289785385 17.3944377899 20.727935791 20.725276947 17.3820552826 11.8140048981 5.91905355453 2.31377792358 2.3312420845 6.46240615845 13.0032396317 19.1502780914 22.8631649017 22.860206604 19.1365337372 12.9867401123 6.44654941559 2.33062124252 2.34036278725 6.72726488113 13.5799007416 19.9955482483 23.8701229095 23.8670501709 19.9811973572 13.5626764297 6.71058368683 2.33967232704 2.34035539627 6.72705554962 13.5794534683 19.9948883057 23.8693389893 23.866268158 19.9805374146 13.5622282028 6.71037626266 2.3396654129 2.33120632172 6.46134376526 13.0008907318 19.146774292 22.8589553833 22.8559951782 19.1330566406 12.9844169617 6.44550514221 2.33058691025 2.31421756744 5.93131446838 11.8248519897 17.3881130219 20.7193660736 20.7168045044 17.3757686615 11.8099422455 5.91720342636 2.31372666359 2.29086089134 5.03393697739 9.73272895813 14.2099609375 16.753868103 16.7518978119 14.2003574371 9.72049999237 5.02289485931 2.29055166245 2.26612496376 3.83887553215 6.70524168015 9.41922569275 10.9810266495 10.980093956 9.41283416748 6.69757986069 3.83220481873 2.26600623131 
2.26617717743 3.84240722656 6.7147359848 9.4351606369 11.0002632141 10.9990272522 9.42920875549 6.70731830597 3.83580064774 2.26606059074 2.29093027115 5.03670597076 9.73952960968 14.2198514938 16.7666072845 16.7645950317 14.2101240158 9.72738265991 5.02569484711 2.29061985016 2.31426787376 5.93307352066 11.828783989 17.3942222595 20.7277431488 20.7250862122 17.3818416595 11.8138103485 5.91894483566 2.31377673149 2.33124041557 6.4623169899 13.0030860901 19.1501483917 22.8632164001 22.8602600098 19.1364021301 12.9865846634 6.44646167755 2.33062005043 2.34036183357 6.72719335556 13.5797843933 19.9955177307 23.8706417084 23.8675670624 19.9811649323 13.5625572205 6.71051120758 2.33967161179 2.34035491943 6.72698259354 13.5793333054 19.9948577881 23.8698616028 23.8667869568 19.9805049896 13.5621109009 6.71030664444 2.33966445923 2.33120512962 6.46125459671 13.0007381439 19.146648407 22.8590087891 22.8560466766 19.1329307556 12.9842615128 6.4454164505 2.33058571815 2.31421613693 5.93120574951 11.8246583939 17.3878974915 20.7191772461 20.7166118622 17.3755531311 11.8097457886 5.91709566116 2.31372523308 2.29085993767 5.03382062912 9.73251342773 14.2097177505 16.7536239624 16.7516517639 14.2001152039 9.72028636932 5.02277755737 2.29055094719 2.26612520218 3.83877420425 6.70503854752 9.4189786911 10.9807577133 10.9798250198 9.41258811951 6.69737529755 3.83210325241 2.26600670815 
2.26617717743 3.84241700172 6.71475982666 9.43519592285 11.0003061295 10.9990682602 9.42924404144 6.70734167099 3.8358104229 2.26606035233 2.29093074799 5.03672122955 9.73956489563 14.2199001312 16.766658783 16.7646484375 14.2101707458 9.72741889954 5.02571249008 2.29062008858 2.31426858902 5.93309402466 11.828827858 17.3942832947 20.727809906 20.7251548767 17.3819007874 11.8138542175 5.9189658165 2.31377696991 2.33124113083 6.46234178543 13.0031366348 19.150220871 22.8633041382 22.8603439331 19.1364784241 12.9866371155 6.44648551941 2.33062028885 2.34036254883 6.72722053528 13.5798406601 19.9955997467 23.8707542419 23.8676757812 19.9812450409 13.5626125336 6.71053886414 2.33967208862 2.34035563469 6.72701072693 13.5793895721 19.9949378967 23.8699760437 23.8668994904 19.9805850983 13.562166214 6.71033287048 2.33966493607 2.33120560646 6.46127891541 13.000790596 19.1467208862 22.8590927124 22.8561325073 19.1330032349 12.9843139648 6.44544029236 2.33058595657 2.31421661377 5.93122720718 11.8247003555 17.3879585266 20.7192459106 20.7166805267 17.3756122589 11.8097896576 5.91711616516 2.31372570992 2.29086017609 5.03383636475 9.73254966736 14.2097654343 16.7536735535 16.7517032623 14.2001628876 9.7203207016 5.02279281616 2.29055070877 2.26612496376 3.83878302574 6.70506000519 9.41901493073 10.9808006287 10.9798669815 9.41262435913 6.69739818573 3.83211255074 2.26600694656 
2.26617717743 3.84242773056 6.71478509903 9.4352350235 11.0003528595 10.9991149902 9.42928314209 6.7073674202 3.83582162857 2.26606035233 2.2909309864 5.03673934937 9.7396030426 14.219950676 16.7667198181 16.764705658 14.2102212906 9.72745513916 5.02572870255 2.29061985016 2.31426930428 5.933116436 11.8288736343 17.3943462372 20.7278785706 20.7252216339 17.3819656372 11.8138999939 5.91898870468 2.31377768517 2.3312420845 6.46236848831 13.0031909943 19.1502971649 22.8633937836 22.8604335785 19.1365509033 12.9866924286 6.44651126862 2.33062076569 2.3403635025 6.72724819183 13.5798988342 19.9956855774 23.8708629608 23.8677864075 19.9813308716 13.5626716614 6.71056699753 2.33967256546 2.34035658836 6.72703790665 13.5794477463 19.9950218201 23.8700790405 23.8670082092 19.980670929 13.5622262955 6.71036052704 2.33966612816 2.33120656013 6.46130466461 13.0008459091 19.1467952728 22.8591823578 22.8562202454 19.1330776215 12.9843702316 6.44546699524 2.33058691025 2.31421709061 5.93124961853 11.8247480392 17.3880214691 20.7193107605 20.7167491913 17.3756809235 11.809835434 5.91713809967 2.31372642517 2.29086065292 5.03385400772 9.73258590698 14.209815979 16.7537307739 16.7517585754 14.2002134323 9.7203578949 5.02281093597 2.29055118561 2.26612520218 3.83879446983 6.70508718491 9.4190530777 10.9808444977 10.9799127579 9.41266345978 6.69742488861 3.83212375641 2.26600694656 
