13.9401569366 21.7338371277 29.3659000397 37.2101669312 45.6394920349 54.382358551 62.810043335 70.6532287598 78.2854003906 86.079574585 13.9033727646 21.517496109 28.6372261047 36.2800292969 45.2397232056 54.7841300964 63.7405166626 71.3806991577 78.5005874634 86.1162109375 13.8826293945 21.3560752869 28.1934871674 35.7538375854 44.9960250854 55.0290603638 64.2668151855 71.8239212036 78.6612167358 86.1368713379 13.8653326035 21.2634754181 27.9770717621 35.5361442566 44.9058609009 55.119682312 64.4846725464 72.0401611328 78.7534790039 86.154083252 13.8527889252 21.220117569 27.877040863 35.4456291199 44.8698959351 55.1558189392 64.5752563477 72.1401138306 78.7966384888 86.1665802002 13.8527965546 21.2201423645 27.8771057129 35.4456825256 44.869934082 55.155796051 64.5752182007 72.1400527954 78.79662323 86.1665725708 13.8653726578 21.263633728 27.977432251 35.5365371704 44.9060211182 55.1195373535 64.4843063354 72.0398101807 78.753326416 86.1540527344 13.8826742172 21.3564071655 28.1942462921 35.7546577454 44.9966773987 55.0284690857 64.2660598755 71.8232345581 78.6609115601 86.1368255615 13.9034433365 21.5180358887 28.6389312744 36.2816009521 45.2406387329 54.7832069397 63.7391090393 71.3789672852 78.5000457764 86.1161346436 13.9403066635 21.7345657349 29.3680057526 37.2133178711 45.6410064697 54.3809738159 62.8068275452 70.6509933472 78.2846298218 86.0794067383 
13.9384994507 21.7282562256 29.3545150757 37.1958007812 45.6333732605 54.388507843 62.8244171143 70.6645965576 78.2909698486 86.0812149048 13.901049614 21.5095348358 28.6119327545 36.2346305847 45.2109985352 54.8129959106 63.7858848572 71.4059371948 78.5085296631 86.118522644 13.8795719147 21.3426685333 28.1486320496 35.6571769714 44.9285888672 55.0968360901 64.3633270264 71.8686828613 78.6745910645 86.1399230957 13.8615722656 21.2434501648 27.9100017548 35.3849258423 44.8127174377 55.2132873535 64.6357040405 72.1070175171 78.7734146118 86.1578292847 13.8485479355 21.1949596405 27.7921619415 35.2652435303 44.765838623 55.2604103088 64.7555007935 72.2247695923 78.8217010498 86.1707992554 13.8485536575 21.1949882507 27.7922382355 35.2653007507 44.7658920288 55.2603569031 64.7554473877 72.2246856689 78.8216781616 86.170791626 13.8616123199 21.2436218262 27.9103984833 35.3854064941 44.8129043579 55.2131195068 64.635269165 72.1066665649 78.7732696533 86.1577987671 13.879617691 21.3430099487 28.1494407654 35.6581573486 44.929359436 55.0961341858 64.3624343872 71.8679275513 78.6742630005 86.1398696899 13.9011230469 21.510099411 28.6137161255 36.2362594604 45.2119979858 54.8119888306 63.7844467163 71.4041366577 78.5079498291 86.1184310913 13.9386501312 21.7289905548 29.356672287 37.1990280151 45.634853363 54.3871688843 62.8211174011 70.6623001099 78.2901916504 86.0810546875 
13.9384098053 21.7279720306 29.3539619446 37.1951217651 45.6331329346 54.3887481689 62.8250961304 70.6651611328 78.2912597656 86.0813064575 13.9009246826 21.509141922 28.6106319427 36.2323989868 45.2098693848 54.8141441345 63.7881126404 71.4072341919 78.508934021 86.1186218262 13.8794021606 21.3419418335 28.1461734772 35.6520347595 44.9245262146 55.1009216309 64.3684616089 71.8711090088 78.6753158569 86.1400909424 13.8613643646 21.2423152924 27.9059696198 35.3747749329 44.8049240112 55.221118927 64.6458435059 72.1110687256 78.7745361328 86.1580429077 13.8483123779 21.193529129 27.7870388031 35.2513504028 44.7561378479 55.2701530457 64.7693634033 72.2298736572 78.8231201172 86.1710357666 13.8483219147 21.1935577393 27.7871246338 35.251411438 44.7561950684 55.2701034546 64.769317627 72.2297744751 78.8231124878 86.1710281372 13.8614063263 21.2424850464 27.9063796997 35.3752593994 44.8051223755 55.2209396362 64.6453933716 72.1106872559 78.7743911743 86.1579971313 13.8794469833 21.3422832489 28.146987915 35.6530227661 44.925327301 55.1001853943 64.3675689697 71.8703918457 78.674987793 86.140045166 13.9010000229 21.5097064972 28.612411499 36.2340354919 45.2108764648 54.8131256104 63.7866744995 71.4054260254 78.5083465576 86.118560791 13.9385614395 21.7287082672 29.3561191559 37.1983528137 45.6346168518 54.3874092102 62.8217849731 70.6628494263 78.2904815674 86.0811538696 
13.9384012222 21.7279434204 29.3538970947 37.1950416565 45.6331062317 54.3887786865 62.8251724243 70.665222168 78.2912826538 86.0813140869 13.9009113312 21.5090923309 28.6104812622 36.2321510315 45.2097434998 54.8142623901 63.7883605957 71.4073791504 78.5089645386 86.1186447144 13.8793830872 21.3418540955 28.1458873749 35.6514892578 44.924030304 55.1014137268 64.3690032959 71.8713989258 78.6753921509 86.1401062012 13.8613414764 21.2421836853 27.9055080414 35.3736190796 44.8039627075 55.2220878601 64.6470031738 72.1115264893 78.7746887207 86.1580505371 13.8482875824 21.193365097 27.7864532471 35.2496261597 44.7548942566 55.2714004517 64.7710800171 72.2304534912 78.8232803345 86.1710586548 13.8482952118 21.1933917999 27.7865486145 35.2496910095 44.7549514771 55.2713470459 64.7710266113 72.2303771973 78.8232727051 86.171043396 13.8613824844 21.2423553467 27.905916214 35.3741111755 44.8041610718 55.2219047546 64.6465454102 72.1111450195 78.7745361328 86.1580123901 13.8794279099 21.3421993256 28.1467132568 35.6524887085 44.9248428345 55.1006774902 64.3681030273 71.8706665039 78.6750793457 86.1400604248 13.9009876251 21.5096588135 28.6122684479 36.2337875366 45.2107543945 54.813243866 63.7869186401 71.4055709839 78.5083999634 86.1185913086 13.9385509491 21.7286739349 29.3560581207 37.1982688904 45.6345863342 54.3874397278 62.8218650818 70.6629180908 78.2905044556 86.081161499 
13.9383983612 21.7279319763 29.3538799286 37.1950263977 45.6330986023 54.3887863159 62.8251876831 70.665222168 78.2912902832 86.0813064575 13.9009075165 21.5090827942 28.6104431152 36.2320976257 45.2097206116 54.8142929077 63.7884292603 71.407409668 78.5089874268 86.1186599731 13.8793792725 21.3418331146 28.1458301544 35.6513938904 44.9239273071 55.1015205383 64.3691101074 71.8714752197 78.6754150391 86.1401062012 13.8613376617 21.2421531677 27.9054088593 35.3733978271 44.8037757874 55.2222747803 64.6472244263 72.1116256714 78.7747116089 86.1580581665 13.8482818604 21.1933288574 27.7863311768 35.2492790222 44.7546463013 55.2716407776 64.7714309692 72.2305831909 78.8233184814 86.1710586548 13.8482894897 21.1933517456 27.7864151001 35.2493438721 44.7547073364 55.2715911865 64.7713775635 72.2304840088 78.8233032227 86.1710586548 13.8613777161 21.2423248291 27.9058113098 35.3738861084 44.8039779663 55.2220954895 64.6467590332 72.1112442017 78.774559021 86.1580276489 13.8794240952 21.3421783447 28.1466445923 35.6523780823 44.924747467 55.100769043 64.3682022095 71.8707199097 78.6751022339 86.1400680542 13.9009828568 21.5096473694 28.6122341156 36.2337379456 45.2107276917 54.8132781982 63.7869720459 71.4056091309 78.5084152222 86.1185836792 13.9385499954 21.7286663055 29.3560428619 37.1982536316 45.6345748901 54.3874397278 62.8218803406 70.6629333496 78.2905197144 86.081161499 
13.9383983612 21.7279319763 29.3538780212 37.1950111389 45.6330986023 54.3887863159 62.8252029419 70.6652374268 78.2912902832 86.0813140869 13.9009075165 21.5090770721 28.6104316711 36.2320747375 45.2097129822 54.8143005371 63.788433075 71.4074325562 78.5089950562 86.1186599731 13.8793764114 21.3418254852 28.1457996368 35.651348114 44.9238967896 55.1015434265 64.3691482544 71.8714752197 78.6754302979 86.1401062012 13.8613357544 21.2421379089 27.9053630829 35.3733177185 44.8037185669 55.222328186 64.6473007202 72.1116638184 78.7747192383 86.1580657959 13.8482809067 21.1933116913 27.7862758636 35.2491645813 44.7545776367 55.2717094421 64.7715530396 72.2306365967 78.8233413696 86.1710586548 13.8482875824 21.1933383942 27.7863616943 35.2492294312 44.7546310425 55.2716598511 64.771484375 72.2305374146 78.8233261108 86.1710586548 13.861374855 21.2423095703 27.9057693481 35.3738098145 44.8039169312 55.2221488953 64.6468429565 72.1112823486 78.7745742798 86.1580276489 13.8794240952 21.342168808 28.14661026 35.65234375 44.9247093201 55.1008033752 64.3682479858 71.8707733154 78.6751098633 86.1400680542 13.9009809494 21.5096435547 28.6122150421 36.2337150574 45.2107200623 54.8132858276 63.7869911194 71.4056243896 78.5084152222 86.1185760498 13.9385480881 21.7286682129 29.3560371399 37.1982421875 45.6345710754 54.3874549866 62.82188797 70.6629333496 78.290512085 86.081161499 
13.9383974075 21.7279281616 29.3538665771 37.1950111389 45.6330947876 54.3887939453 62.8252067566 70.6652450562 78.2912979126 86.0813140869 13.9009065628 21.5090751648 28.6104164124 36.2320594788 45.2097053528 54.8142967224 63.7884521484 71.4074478149 78.5089950562 86.1186599731 13.8793764114 21.3418178558 28.1457805634 35.6513214111 44.9238777161 55.1015663147 64.3691864014 71.8715209961 78.6754302979 86.1401062012 13.861333847 21.2421264648 27.90533638 35.3732719421 44.8036880493 55.2223587036 64.6473464966 72.1116943359 78.7747344971 86.1580657959 13.8482789993 21.1932983398 27.7862453461 35.2490997314 44.7545394897 55.2717552185 64.7716064453 72.2306671143 78.8233566284 86.1710586548 13.8482885361 21.1933231354 27.7863330841 35.2491607666 44.7546081543 55.2717056274 64.7715606689 72.2305831909 78.8233337402 86.1710586548 13.8613758087 21.2423000336 27.9057407379 35.3737640381 44.803894043 55.2221832275 64.6468887329 72.1113204956 78.7745742798 86.1580276489 13.8794221878 21.3421630859 28.1465930939 35.6523170471 44.9246902466 55.1008224487 64.3682556152 71.8707809448 78.6751251221 86.1400680542 13.9009828568 21.50963974 28.612203598 36.2336959839 45.2107124329 54.8132896423 63.7870101929 71.4056396484 78.5084228516 86.1185913086 13.9385490417 21.7286605835 29.3560314178 37.1982383728 45.6345672607 54.3874588013 62.8218994141 70.6629333496 78.2905197144 86.081161499 
