13.9403743744 21.7367248535 29.3744449615 37.2111206055 45.6338272095 54.388053894 62.8090438843 70.6446762085 78.2825241089 86.0793533325 13.9037590027 21.5257167816 28.6500072479 36.218460083 45.1967849731 54.8272895813 63.8018913269 71.3678283691 78.492401123 86.1158294678 13.8831748962 21.3667430878 28.2026805878 35.6503639221 44.9146766663 55.1108169556 64.3699264526 71.8145980835 78.6505813599 86.1363372803 13.8650560379 21.2733402252 27.979101181 35.3941802979 44.8073310852 55.2186927795 64.6262359619 72.037940979 78.7436218262 86.1543579102 13.8518743515 21.2280673981 27.8689422607 35.2855796814 44.7651100159 55.2611198425 64.7349243164 72.1479873657 78.7886810303 86.1674880981 13.8518819809 21.2280902863 27.8690242767 35.2856292725 44.7651519775 55.2610778809 64.73487854 72.1479187012 78.7886810303 86.1674804688 13.8651008606 21.2734985352 27.9794635773 35.394618988 44.8074874878 55.2185211182 64.6258163452 72.0376052856 78.7434844971 86.1543121338 13.8832273483 21.3671150208 28.2034988403 35.6512527466 44.9154968262 55.1100120544 64.3691177368 71.8138198853 78.6501998901 86.1362686157 13.9038438797 21.5263290405 28.6519622803 36.2202186584 45.1978187561 54.826171875 63.8002357483 71.3657226562 78.4917297363 86.1157226562 13.940527916 21.7374649048 29.3764781952 37.2140693665 45.6355514526 54.3863754272 62.806312561 70.6425933838 78.2817382812 86.0791778564 
13.9399356842 21.7351646423 29.371137619 37.207118988 45.6322898865 54.3895950317 62.8130569458 70.6479873657 78.2840881348 86.0797653198 13.9031686783 21.5235080719 28.6429405212 36.2075767517 45.1910629272 54.8330421448 63.8127746582 71.3748779297 78.4945983887 86.1164093018 13.8824214935 21.3632774353 28.1913452148 35.627746582 44.8976593018 55.127910614 64.3925094604 71.8259048462 78.6540298462 86.1370697021 13.8642063141 21.2685699463 27.9625053406 35.3555603027 44.7804412842 55.245716095 64.6647872925 72.0544815063 78.7483673096 86.1552124023 13.8509435654 21.2224178314 27.8492279053 35.237487793 44.7338600159 55.2925186157 64.782951355 72.1676483154 78.7943191528 86.1684188843 13.8509502411 21.2224369049 27.8493099213 35.237537384 44.7339172363 55.29246521 64.782913208 72.1675720215 78.7943115234 86.1684036255 13.8642511368 21.2687358856 27.9628887177 35.3560371399 44.7806167603 55.2455291748 64.6643371582 72.0541305542 78.7482299805 86.1551589966 13.8824768066 21.3636550903 28.1921710968 35.6286773682 44.8985519409 55.1270256042 64.3916473389 71.8251113892 78.6536560059 86.1370162964 13.903254509 21.5241203308 28.6448993683 36.2093544006 45.1921234131 54.8319015503 63.8111038208 71.3727722168 78.4939422607 86.116317749 13.9400892258 21.7359085083 29.3731918335 37.2101020813 45.6340179443 54.3879318237 62.8102912903 70.645866394 78.2833023071 86.0796203613 
13.9399175644 21.7351036072 29.3710079193 37.2069549561 45.632232666 54.3896484375 62.8132133484 70.6481170654 78.2841491699 86.0797958374 13.9031438828 21.5234146118 28.6426448822 36.2071380615 45.1908569336 54.8332443237 63.8132133484 71.3751678467 78.4946975708 86.1164398193 13.8823919296 21.3631305695 28.1908740997 35.6268348694 44.8969116211 55.1286621094 64.3934249878 71.8263778687 78.6541824341 86.1371002197 13.8641710281 21.2683753967 27.9618225098 35.3539123535 44.7791442871 55.2470359802 64.6664428711 72.0551605225 78.7485809326 86.1552352905 13.8509082794 21.2221908569 27.8484287262 35.2352485657 44.7322845459 55.2941093445 64.7851791382 72.1684494019 78.7945480347 86.1684494019 13.8509140015 21.2222137451 27.8485069275 35.2353019714 44.7323417664 55.294052124 64.7851257324 72.1683807373 78.7945404053 86.1684188843 13.8642158508 21.2685375214 27.9621944427 35.3543930054 44.7793197632 55.2468338013 64.665977478 72.0548171997 78.7484207153 86.1552047729 13.8824443817 21.3635082245 28.1916885376 35.6277732849 44.8978157043 55.1277656555 64.3925476074 71.8255844116 78.6538009644 86.1370544434 13.9032306671 21.5240306854 28.644613266 36.2089157104 45.19190979 54.8321037292 63.8115463257 71.3730545044 78.4940261841 86.1163406372 13.940071106 21.7358436584 29.3730564117 37.209941864 45.6339530945 54.3879928589 62.8104476929 70.6460037231 78.2833633423 86.0796279907 
13.9399166107 21.7350940704 29.3709812164 37.2069320679 45.6322250366 54.3896636963 62.8132362366 70.648147583 78.2841567993 86.0797958374 13.9031419754 21.5234031677 28.6426067352 36.2070732117 45.190826416 54.833278656 63.8132781982 71.375213623 78.4947052002 86.1164398193 13.8823881149 21.363111496 28.1907958984 35.6267089844 44.8968162537 55.1287651062 64.3935470581 71.8264541626 78.6541976929 86.1371154785 13.8641662598 21.2683410645 27.9617195129 35.3536949158 44.778968811 55.2472038269 64.6666564941 72.0552749634 78.7486038208 86.1552505493 13.8509025574 21.2221565247 27.8483066559 35.2349510193 44.7320785522 55.2943229675 64.785484314 72.1685638428 78.7945861816 86.1684417725 13.8509101868 21.2221775055 27.8483886719 35.2349967957 44.7321281433 55.2942657471 64.7854385376 72.1684951782 78.7945632935 86.1684265137 13.8642110825 21.2685050964 27.9620990753 35.3541793823 44.7791442871 55.2470092773 64.6661987305 72.0549087524 78.7484588623 86.1552047729 13.8824424744 21.363483429 28.191619873 35.6276512146 44.8977127075 55.127872467 64.3926696777 71.8256607056 78.6538162231 86.1370544434 13.9032278061 21.5240154266 28.644569397 36.2088470459 45.1918792725 54.8321380615 63.8116035461 71.3731079102 78.4940490723 86.1163330078 13.9400682449 21.7358398438 29.3730449677 37.2099113464 45.6339454651 54.3880081177 62.8104705811 70.6460113525 78.2833633423 86.0796279907 
13.939912796 21.7350921631 29.3709774017 37.2069168091 45.6322250366 54.3896713257 62.8132514954 70.6481399536 78.2841567993 86.0797958374 13.9031410217 21.5233955383 28.642583847 36.2070541382 45.1908149719 54.8332901001 63.8133049011 71.3752288818 78.494720459 86.1164474487 13.8823852539 21.3631000519 28.1907615662 35.6266670227 44.896774292 55.1287994385 64.3936004639 71.8264846802 78.6542129517 86.1371154785 13.8641653061 21.2683296204 27.9616794586 35.3536262512 44.7789154053 55.2472457886 64.6667175293 72.055305481 78.7486190796 86.1552505493 13.8508987427 21.2221412659 27.8482608795 35.2348518372 44.7320175171 55.2943725586 64.7855758667 72.1686172485 78.7946014404 86.1684494019 13.8509101868 21.2221622467 27.8483390808 35.2349052429 44.7320747375 55.2943191528 64.7855224609 72.1685256958 78.7945861816 86.1684265137 13.8642101288 21.268491745 27.9620571136 35.3541030884 44.7791023254 55.2470550537 64.6662521362 72.0549468994 78.7484588623 86.1552047729 13.8824386597 21.3634757996 28.1915893555 35.6276054382 44.8976821899 55.1279029846 64.3927154541 71.8256912231 78.6538162231 86.1370544434 13.9032258987 21.5240116119 28.6445522308 36.2088279724 45.1918640137 54.8321456909 63.811630249 71.3731155396 78.4940490723 86.1163330078 13.9400682449 21.7358360291 29.3730335236 37.2099075317 45.6339416504 54.3880081177 62.8104858398 70.6460342407 78.2833709717 86.0796279907 
13.939912796 21.7350883484 29.3709697723 37.2069168091 45.6322250366 54.3896713257 62.8132553101 70.648147583 78.2841644287 86.0797958374 13.9031400681 21.5233898163 28.6425743103 36.2070388794 45.1908149719 54.8332901001 63.8133087158 71.3752365112 78.494720459 86.1164474487 13.8823862076 21.3630924225 28.1907444 35.6266365051 44.8967590332 55.1288146973 64.3936233521 71.826499939 78.6542282104 86.1371154785 13.8641643524 21.2683181763 27.9616508484 35.3535842896 44.7789001465 55.2472763062 64.6667709351 72.0553359985 78.748626709 86.1552505493 13.8508987427 21.2221317291 27.8482284546 35.2347984314 44.7319908142 55.2944068909 64.7856369019 72.1686401367 78.7946090698 86.1684494019 13.8509063721 21.2221488953 27.8483161926 35.2348480225 44.7320480347 55.294342041 64.7855834961 72.1685714722 78.7946014404 86.1684265137 13.8642082214 21.2684803009 27.9620265961 35.3540611267 44.779083252 55.2470779419 64.6662979126 72.0549697876 78.7484664917 86.1552047729 13.882440567 21.3634643555 28.191570282 35.6275787354 44.8976669312 55.1279220581 64.3927383423 71.8257217407 78.6538314819 86.137046814 13.9032249451 21.5240039825 28.6445350647 36.2088127136 45.1918678284 54.8321609497 63.8116455078 71.3731307983 78.4940490723 86.1163406372 13.9400691986 21.7358322144 29.3730239868 37.2098960876 45.6339378357 54.3880119324 62.8104934692 70.6460342407 78.2833786011 86.0796279907 
13.939912796 21.7350883484 29.3709697723 37.2069015503 45.6322174072 54.3896789551 62.8132629395 70.6481704712 78.2841644287 86.0797958374 13.9031381607 21.5233860016 28.6425647736 36.2070274353 45.1907997131 54.8332939148 63.8133277893 71.37525177 78.494720459 86.1164474487 13.8823843002 21.3630847931 28.1907291412 35.6266136169 44.8967514038 55.1288299561 64.3936538696 71.8265151978 78.6542282104 86.1371154785 13.8641643524 21.2683086395 27.9616260529 35.3535423279 44.7788734436 55.2472877502 64.666809082 72.0553588867 78.7486419678 86.1552505493 13.8508987427 21.2221183777 27.8482017517 35.2347488403 44.731967926 55.2944297791 64.7856750488 72.1686859131 78.7946166992 86.1684494019 13.8509063721 21.2221374512 27.848285675 35.2348060608 44.7320213318 55.2943763733 64.7856292725 72.1685943604 78.7946090698 86.1684265137 13.8642091751 21.2684726715 27.9620037079 35.3540229797 44.7790527344 55.2471008301 64.666343689 72.0550003052 78.7484817505 86.1552047729 13.882440567 21.3634567261 28.1915588379 35.6275520325 44.8976478577 55.1279335022 64.3927688599 71.8257217407 78.6538467407 86.137046814 13.9032249451 21.5240001678 28.644525528 36.2088012695 45.191860199 54.8321609497 63.8116493225 71.3731384277 78.4940490723 86.1163406372 13.9400682449 21.7358322144 29.3730220795 37.2098960876 45.6339302063 54.3880233765 62.8105010986 70.6460418701 78.2833786011 86.0796279907 
