0.983504354954 1.02203631401 1.0518746376 1.10344517231 1.18644106388 1.18640804291 1.10338687897 1.04195177555 1.02199196815 0.983554363251 0.975591659546 1.07385265827 1.17549240589 1.31178116798 1.40036594868 1.40033340454 1.3116080761 1.12566173077 1.07378900051 0.975644052029 0.973718941212 1.16697490215 1.27849054337 1.39094042778 1.46239960194 1.46236538887 1.39074289799 1.2296038866 1.16690075397 0.973750650883 0.971543192863 1.21406316757 1.31507194042 1.41526210308 1.47571492195 1.47569131851 1.41509211063 1.27720332146 1.21400380135 0.971572697163 0.969748020172 1.25020217896 1.33825480938 1.42968642712 1.48138189316 1.48136758804 1.42952811718 1.30797421932 1.25013887882 0.969779372215 0.969748973846 1.25018930435 1.33824253082 1.42967581749 1.48145198822 1.48143315315 1.42951440811 1.30796408653 1.25012636185 0.969780147076 0.971548199654 1.21400380135 1.31502592564 1.41516709328 1.47574722767 1.47571575642 1.41499698162 1.27715170383 1.21394598484 0.971577346325 0.974146962166 1.13716173172 1.24961555004 1.37499964237 1.4559019804 1.45590245724 1.3748100996 1.19592189789 1.13709783554 0.974181175232 0.975597500801 1.07374203205 1.17532551289 1.3116928339 1.40051877499 1.40041637421 1.31155002117 1.12553954124 1.07367765903 0.975651323795 0.983533740044 1.02197885513 1.0518078804 1.10333788395 1.18592274189 1.18598377705 1.10326099396 1.04191565514 1.02193582058 0.983585119247 
0.98205602169 1.00789105892 1.03424906731 1.08454012871 1.16535925865 1.16533255577 1.08448219299 1.0237249136 1.00786209106 0.982107400894 0.973811328411 1.05633950233 1.15849769115 1.2994042635 1.42769908905 1.42766475677 1.29927206039 1.10787284374 1.05628633499 0.973866224289 0.971404016018 1.14724552631 1.26996445656 1.41853523254 1.5442738533 1.54423344135 1.41839587688 1.21312749386 1.14718008041 0.971440076828 0.969025194645 1.19276750088 1.3185967207 1.45523750782 1.55922734737 1.55918908119 1.45511972904 1.26052677631 1.1927087307 0.969058156013 0.967117726803 1.22891271114 1.35898160934 1.48566281796 1.5710734129 1.57104372978 1.48554754257 1.29962027073 1.22884857655 0.967151165009 0.967118382454 1.2289005518 1.3589656353 1.4856441021 1.57119727135 1.57116055489 1.48552203178 1.29961431026 1.2288364172 0.967151761055 0.969030678272 1.19271183014 1.31854712963 1.45510601997 1.55933701992 1.55928564072 1.45498645306 1.26048707962 1.19265460968 0.969063222408 0.971859872341 1.11741018295 1.23208248615 1.37080943584 1.51407253742 1.51406252384 1.37069141865 1.17835569382 1.11735546589 0.971898853779 0.973820865154 1.05623269081 1.15831053257 1.29938781261 1.42800438404 1.42786741257 1.29929327965 1.10773134232 1.05617856979 0.973877549171 0.982088327408 1.00784516335 1.03417789936 1.08440482616 1.16488444805 1.16493749619 1.08432674408 1.02368664742 1.00781786442 0.98214173317 
0.981857120991 1.0055706501 1.03131020069 1.08137655258 1.16153848171 1.16151249409 1.08131861687 1.02069401741 1.00554442406 0.981908380985 0.973565936089 1.05344212055 1.15577876568 1.29677414894 1.42458403111 1.42455220222 1.29664301872 1.10493421555 1.05339097977 0.97362112999 0.971091985703 1.14401805401 1.26697552204 1.41573405266 1.56812691689 1.56809437275 1.41559386253 1.21028900146 1.14395296574 0.971128582954 0.968712449074 1.18934464455 1.31491267681 1.45189726353 1.58482158184 1.58478295803 1.45179522038 1.25722372532 1.18928456306 0.968745589256 0.966794252396 1.22540724277 1.35533738136 1.48770165443 1.60440409184 1.60436975956 1.48760950565 1.29671728611 1.22534120083 0.966827988625 0.966794788837 1.22539496422 1.35532021523 1.48768079281 1.60464715958 1.60460007191 1.48757839203 1.29671180248 1.2253292799 0.966828405857 0.968717694283 1.18928968906 1.3148651123 1.45176577568 1.58508658409 1.58502674103 1.45166003704 1.25718450546 1.18923091888 0.968750715256 0.971555411816 1.11417937279 1.22897541523 1.36654984951 1.51474106312 1.51473689079 1.36643493176 1.17514455318 1.1141256094 0.971594929695 0.973576068878 1.05333614349 1.15558946133 1.29676628113 1.42487955093 1.42474544048 1.29667329788 1.10479068756 1.05328392982 0.973632931709 0.981889843941 1.00552678108 1.03123867512 1.08123850822 1.16107273102 1.16112577915 1.08116054535 1.02065646648 1.00550222397 0.981943249702 
0.981849312782 1.00547945499 1.0311934948 1.08124911785 1.16138625145 1.16136038303 1.08119142056 1.02057290077 1.00545346737 0.981900930405 0.97355645895 1.05332779884 1.15567040443 1.2966632843 1.4244492054 1.42441737652 1.29653263092 1.10481488705 1.05327665806 0.973611652851 0.971079826355 1.14389073849 1.26686537266 1.41559743881 1.56859612465 1.56856381893 1.4154573679 1.21017122269 1.14382576942 0.971116602421 0.968698680401 1.18920731544 1.3147996664 1.45175123215 1.58564603329 1.58560943604 1.45164906979 1.25711333752 1.18914747238 0.968732059002 0.966781139374 1.22526836395 1.35519576073 1.48760569096 1.60700631142 1.60697448254 1.48751378059 1.29660463333 1.2252022028 0.966814875603 0.96678173542 1.22525620461 1.35517847538 1.48758637905 1.60731220245 1.60726499557 1.48748350143 1.29659843445 1.22519016266 0.966815292835 0.968704104424 1.18915259838 1.31475281715 1.45161998272 1.58595705032 1.58589780331 1.45151400566 1.25707471371 1.18909394741 0.968737125397 0.971543431282 1.11405026913 1.22885298729 1.36641120911 1.51459872723 1.51459491253 1.36629664898 1.17501592636 1.11399638653 0.971582710743 0.973566651344 1.05322194099 1.15548110008 1.29665589333 1.42474508286 1.42461061478 1.29656326771 1.10467147827 1.05316960812 0.973623633385 0.981882095337 1.00543582439 1.03112185001 1.0811111927 1.16092097759 1.16097390652 1.08103322983 1.02053534985 1.0054115057 0.981935799122 
0.981849312782 1.00547969341 1.03119397163 1.08124995232 1.16138803959 1.16136229038 1.08119225502 1.02057337761 1.00545346737 0.981900691986 0.973556339741 1.05332827568 1.15567135811 1.29666495323 1.42445099354 1.42441904545 1.29653394222 1.10481572151 1.0532772541 0.973611533642 0.971079707146 1.14389193058 1.26686704159 1.41559970379 1.56860053539 1.56856811047 1.41545963287 1.21017277241 1.14382696152 0.971116423607 0.968698561192 1.18920886517 1.31480169296 1.45175361633 1.58564949036 1.5856128931 1.45165157318 1.25711500645 1.18914878368 0.968731939793 0.966780900955 1.22527003288 1.3551980257 1.48760867119 1.60702240467 1.60699057579 1.48751676083 1.29660689831 1.22520375252 0.966814637184 0.966781497002 1.22525775433 1.35518062115 1.48758935928 1.60733044147 1.60728335381 1.48748660088 1.29660058022 1.22519183159 0.966815114021 0.968703866005 1.18915402889 1.31475460529 1.4516222477 1.58596122265 1.58590209484 1.45151662827 1.25707626343 1.18909537792 0.968736946583 0.971543312073 1.11405110359 1.22885429859 1.36641347408 1.51460075378 1.5145970583 1.36629867554 1.17501735687 1.1139973402 0.971582651138 0.973566412926 1.05322265625 1.15548193455 1.29665732384 1.42474639416 1.42461228371 1.29656457901 1.10467243195 1.05317032337 0.973623454571 0.981882154942 1.00543606281 1.03112232685 1.08111202717 1.16092276573 1.16097581387 1.0810341835 1.02053582668 1.00541162491 0.981935799122 
0.981849193573 1.00548005104 1.03119468689 1.08125090599 1.16139030457 1.16136419773 1.08119320869 1.02057385445 1.00545406342 0.981900513172 0.973556160927 1.05332911015 1.15567278862 1.29666650295 1.42445278168 1.42442071438 1.29653561115 1.1048167944 1.05327796936 0.973611354828 0.971079707146 1.14389312267 1.26686906815 1.41560220718 1.56860876083 1.56857669353 1.41546213627 1.21017432213 1.14382815361 0.971116244793 0.968698441982 1.18921029568 1.31480383873 1.45175600052 1.58565545082 1.58561825752 1.45165383816 1.2571169138 1.1891503334 0.968731701374 0.966780662537 1.22527170181 1.35520040989 1.487611413 1.60703158379 1.6069996357 1.48751950264 1.29660880566 1.22520565987 0.966814517975 0.966781258583 1.22525942326 1.35518276691 1.4875921011 1.60733962059 1.60729277134 1.48748934269 1.29660284519 1.22519373894 0.966814935207 0.968703687191 1.18915569782 1.31475675106 1.45162498951 1.58596742153 1.58590817451 1.45151925087 1.2570785284 1.18909692764 0.968736886978 0.971543133259 1.11405241489 1.22885596752 1.36641561985 1.5146034956 1.51459980011 1.36630117893 1.17501866817 1.11399877071 0.971582353115 0.973566353321 1.05322360992 1.15548324585 1.29665911198 1.42474853992 1.42461419106 1.29656612873 1.10467362404 1.05317127705 0.973623275757 0.981882095337 1.00543653965 1.03112316132 1.08111310005 1.16092467308 1.16097784042 1.08103525639 1.02053654194 1.00541198254 0.981935620308 
0.981849074364 1.00548040867 1.03119528294 1.08125185966 1.1613920927 1.1613663435 1.08119416237 1.02057421207 1.00545430183 0.981900572777 0.973556160927 1.05332994461 1.15567398071 1.29666805267 1.42445445061 1.42442262173 1.29653728008 1.10481798649 1.05327880383 0.973611295223 0.971079468727 1.14389455318 1.26687097549 1.41560459137 1.56861770153 1.56858563423 1.41546452045 1.21017575264 1.14382946491 0.971116006374 0.968698203564 1.18921208382 1.3148059845 1.45175862312 1.58566129208 1.5856243372 1.45165634155 1.25711870193 1.18915200233 0.968731462955 0.966780424118 1.22527360916 1.35520255566 1.48761451244 1.60704040527 1.60700845718 1.48752224445 1.29661083221 1.22520756721 0.966814279556 0.966781139374 1.22526144981 1.35518491268 1.48759520054 1.60734951496 1.60730242729 1.48749244213 1.29660499096 1.22519564629 0.966814815998 0.968703627586 1.18915712833 1.31475877762 1.4516273737 1.585973382 1.58591413498 1.45152163506 1.25708031654 1.18909859657 0.968736588955 0.97154289484 1.11405360699 1.22885787487 1.36641812325 1.51460599899 1.5146023035 1.36630320549 1.1750202179 1.1139998436 0.971582174301 0.973566293716 1.05322420597 1.15548431873 1.29666042328 1.42474997044 1.4246160984 1.29656803608 1.1046744585 1.0531719923 0.973623156548 0.981881976128 1.00543689728 1.03112363815 1.08111393452 1.16092669964 1.16097998619 1.08103597164 1.02053713799 1.00541245937 0.981935501099 
