0.982774853706 1.02185201645 1.05430138111 1.11594617367 1.19811737537 1.19808602333 1.11586380005 1.04372787476 1.02180433273 0.982826590538 0.974413871765 1.07118344307 1.18508672714 1.30726480484 1.37792825699 1.37789618969 1.30714046955 1.12529408932 1.07111275196 0.974469780922 0.972538769245 1.1627818346 1.27902257442 1.37894201279 1.43513894081 1.43511009216 1.3787946701 1.22557199001 1.16270208359 0.972574174404 0.971006989479 1.20824468136 1.31107771397 1.39830827713 1.44633471966 1.44631505013 1.39818036556 1.26960527897 1.20818090439 0.971036493778 0.969587862492 1.24237215519 1.33111393452 1.41083872318 1.45141756535 1.45140516758 1.41072320938 1.29850900173 1.24230742455 0.969618082047 0.969589114189 1.24236035347 1.3311034441 1.4108299017 1.45146155357 1.45144677162 1.41071200371 1.29849982262 1.2422952652 0.969619214535 0.971009969711 1.20818948746 1.31103420258 1.39823174477 1.44635093212 1.44632649422 1.39810228348 1.26955187321 1.20812547207 0.971039175987 0.972917020321 1.13343632221 1.25281655788 1.36528491974 1.43062841892 1.43062341213 1.36513268948 1.19373309612 1.1333630085 0.972953498363 0.974418580532 1.07107949257 1.18497252464 1.30725455284 1.37800192833 1.37792503834 1.30719089508 1.12519145012 1.07100582123 0.974474489689 0.982803702354 1.02179574966 1.05423283577 1.11574745178 1.19776105881 1.19785380363 1.11557710171 1.04368317127 1.02174830437 0.982855677605 
0.981753110886 1.00875246525 1.0370913744 1.09445655346 1.17528235912 1.1752563715 1.09438478947 1.02609121799 1.00871968269 0.981805324554 0.973066329956 1.05449390411 1.16678357124 1.29406809807 1.40502941608 1.40499937534 1.29396677017 1.10721874237 1.05443477631 0.973123967648 0.970519721508 1.14410018921 1.27307605743 1.40909767151 1.51480603218 1.51477539539 1.40899705887 1.20948445797 1.14402830601 0.970558583736 0.968642950058 1.18868863583 1.31805598736 1.43918919563 1.53058469296 1.53055620193 1.43909776211 1.2540576458 1.18862342834 0.96867531538 0.967006444931 1.2235751152 1.35640966892 1.46732926369 1.5423977375 1.54237532616 1.46724295616 1.29075455666 1.22350513935 0.967038035393 0.967007577419 1.2235635519 1.35639727116 1.46731090546 1.54248332977 1.5424554348 1.46721863747 1.29075098038 1.22349345684 0.967038750648 0.968646407127 1.18863463402 1.31801080704 1.43908405304 1.53065752983 1.53062009811 1.43898761272 1.25401771069 1.18856859207 0.968678295612 0.97097659111 1.11473739147 1.2357339859 1.36280190945 1.48693954945 1.48693346977 1.36270058155 1.17617666721 1.11467278004 0.971017003059 0.973074436188 1.05439174175 1.16664552689 1.2941493988 1.40521979332 1.40512311459 1.29413700104 1.10709297657 1.05432856083 0.973132312298 0.981784105301 1.00870645046 1.0370208025 1.094196558 1.17497169971 1.1750715971 1.09402120113 1.02604043484 1.00867402554 0.981837391853 
0.981613457203 1.0063611269 1.03386521339 1.09050047398 1.17054176331 1.17051637173 1.09043037891 1.02282679081 1.00633144379 0.981665492058 0.972884595394 1.05140829086 1.16347515583 1.29055166245 1.4017021656 1.40167450905 1.29045045376 1.10385584831 1.05135154724 0.972942352295 0.970243632793 1.14067840576 1.26961636543 1.40648043156 1.53775036335 1.53772711754 1.40637814999 1.2062664032 1.14060735703 0.970282971859 0.968302845955 1.18516540527 1.31439733505 1.4388256073 1.55750894547 1.55748283863 1.43874597549 1.25090801716 1.18509948254 0.968335688114 0.966597378254 1.22008776665 1.35354709625 1.47510683537 1.57772505283 1.57770395279 1.47503817081 1.28857719898 1.22001719475 0.966629326344 0.966598272324 1.22007608414 1.35353398323 1.47508251667 1.57788646221 1.57785618305 1.47500479221 1.28857409954 1.22000515461 0.966630101204 0.968306422234 1.18511152267 1.31435215473 1.4387127161 1.5576826334 1.55764138699 1.43862485886 1.25086772442 1.18504488468 0.968338549137 0.970716238022 1.11131536961 1.23213911057 1.35797274113 1.48980808258 1.48980629444 1.35787439346 1.17257726192 1.11125159264 0.970756947994 0.972893297672 1.05130648613 1.16333425045 1.29064178467 1.40188729763 1.40179264545 1.29063212872 1.10372745991 1.05124521255 0.972951352596 0.981644928455 1.00631725788 1.03379356861 1.0902326107 1.17023837566 1.17033886909 1.09005618095 1.02277541161 1.0062879324 0.981698155403 
0.981596112251 1.00603830814 1.0334250927 1.08996117115 1.16989290714 1.16986715794 1.08989143372 1.02237915993 1.00600898266 0.981648385525 0.972862243652 1.05099058151 1.16302192211 1.29005384445 1.40117585659 1.40114831924 1.28995251656 1.10338926315 1.0509339571 0.972920060158 0.970207929611 1.1402156353 1.2691693306 1.40596628189 1.54054605961 1.54052269459 1.40586435795 1.20582926273 1.14014470577 0.9702475667 0.968258857727 1.18469035625 1.31389820576 1.43835294247 1.56131958961 1.56129443645 1.43827390671 1.25046563148 1.18462443352 0.9682918787 0.966545939445 1.21962249279 1.353104949 1.47574949265 1.58419823647 1.58417856693 1.47568273544 1.28824257851 1.21955132484 0.96657794714 0.966546952724 1.21961057186 1.35309147835 1.47572612762 1.58439469337 1.58436393738 1.4756487608 1.28823935986 1.21953928471 0.966578722 0.968262553215 1.18463659286 1.31385397911 1.43824124336 1.56153023243 1.56148850918 1.43815398216 1.25042545795 1.18456971645 0.968294918537 0.970681488514 1.11084699631 1.2316621542 1.35736775398 1.48923158646 1.4892308712 1.35726881027 1.17211163044 1.11078310013 0.970722079277 0.97287094593 1.05088865757 1.16288101673 1.2901455164 1.40135896206 1.40126442909 1.29013609886 1.10326075554 1.05082786083 0.972929179668 0.98162740469 1.00599467754 1.0333533287 1.08969199657 1.16959035397 1.16969120502 1.08951568604 1.02232778072 1.00596559048 0.981680870056 
0.981592774391 1.00597786903 1.03334283829 1.0898604393 1.16977155209 1.16974556446 1.08979058266 1.02229523659 1.00594866276 0.981644868851 0.972857952118 1.05091249943 1.16293728352 1.28996026516 1.40107619762 1.40104866028 1.28985893726 1.10330200195 1.05085611343 0.972915649414 0.970201313496 1.14012992382 1.26908922195 1.40586614609 1.54101717472 1.54099369049 1.40576398373 1.20574772358 1.14005923271 0.97024077177 0.968250632286 1.18460297585 1.31380808353 1.43826341629 1.56198990345 1.56196498871 1.43818426132 1.25038313866 1.18453681469 0.968283474445 0.966536641121 1.21953761578 1.3530151844 1.4758297205 1.58553433418 1.58551478386 1.47576320171 1.28817236423 1.21946656704 0.96656870842 0.966537594795 1.21952605247 1.35300171375 1.47580766678 1.58574306965 1.58571183681 1.47573041916 1.28816974163 1.21945476532 0.966569423676 0.968254268169 1.18454921246 1.31376349926 1.43815231323 1.56221282482 1.56217086315 1.43806493282 1.25034296513 1.18448209763 0.968286633492 0.97067463398 1.11075985432 1.231574893 1.35726499557 1.48913621902 1.48913538456 1.35716629028 1.17202472687 1.11069607735 0.970715463161 0.97286683321 1.0508108139 1.16279602051 1.2900519371 1.40125894547 1.40116453171 1.2900428772 1.1031730175 1.05075001717 0.972924768925 0.981624186039 1.00593435764 1.03327071667 1.08959102631 1.16946899891 1.16956973076 1.08941447735 1.02224338055 1.005905509 0.981677532196 
0.981591820717 1.00596225262 1.03332126141 1.08983469009 1.16974031925 1.16971480846 1.08976483345 1.02227330208 1.00593292713 0.981643974781 0.972856879234 1.05089259148 1.16291582584 1.2899364233 1.40105068684 1.4010232687 1.28983521461 1.10327923298 1.05083608627 0.972914457321 0.970199406147 1.14010810852 1.26906943321 1.40584015846 1.54113435745 1.54111087322 1.4057379961 1.20572721958 1.14003741741 0.970238924026 0.968248307705 1.18458104134 1.31378626823 1.43824076653 1.5621573925 1.56213259697 1.43816184998 1.25036287308 1.18451488018 0.968281269073 0.966534018517 1.21951687336 1.35299181938 1.4758450985 1.5859079361 1.58588826656 1.47577893734 1.288154006 1.21944570541 0.966566264629 0.966534972191 1.21950507164 1.35297822952 1.47582376003 1.58612167835 1.58609032631 1.47574675083 1.28815162182 1.21943354607 0.96656703949 0.968251883984 1.18452715874 1.31374168396 1.43812990189 1.56238496304 1.56234312057 1.43804252148 1.25032293797 1.18446016312 0.96828430891 0.97067284584 1.11073720455 1.23155283928 1.35724115372 1.48911452293 1.48911416531 1.35714256763 1.1720032692 1.11067378521 0.970713615417 0.972865581512 1.05079078674 1.16277456284 1.29002809525 1.40123355389 1.40113890171 1.29001915455 1.10315060616 1.05072999001 0.972923636436 0.981623232365 1.00591850281 1.03324949741 1.08956515789 1.1694381237 1.16953885555 1.08938872814 1.02222168446 1.00588965416 0.981676518917 
0.981591641903 1.00595724583 1.03331422806 1.08982682228 1.16973125935 1.16970551014 1.08975696564 1.02226638794 1.00592792034 0.981643795967 0.972856402397 1.05088627338 1.16290926933 1.28992927074 1.40104317665 1.40101575851 1.28982794285 1.10327231884 1.05082988739 0.972914040089 0.970198512077 1.14010179043 1.26906430721 1.40583264828 1.54117429256 1.54115128517 1.40573060513 1.20572149754 1.1400308609 0.970238149166 0.968247354031 1.18457460403 1.31378042698 1.43823456764 1.56221294403 1.56218791008 1.43815541267 1.25035738945 1.18450844288 0.968280255795 0.966533184052 1.2195110321 1.35298478603 1.47585082054 1.58604109287 1.58602130413 1.4757848978 1.28814935684 1.21943998337 0.96656525135 0.966534018517 1.21949923038 1.35297143459 1.4758297205 1.58625710011 1.58622539043 1.4757527113 1.28814637661 1.21942782402 0.966565907001 0.968250989914 1.18452095985 1.3137358427 1.438123703 1.56244277954 1.56240069866 1.43803620338 1.25031733513 1.18445384502 0.968283355236 0.970672130585 1.11073076725 1.23154652119 1.35723459721 1.48910868168 1.48910796642 1.35713577271 1.17199671268 1.1106672287 0.970712780952 0.97286516428 1.05078458786 1.16276812553 1.2900210619 1.40122580528 1.40113127232 1.2900121212 1.10314381123 1.05072379112 0.97292304039 0.981622815132 1.00591361523 1.03324246407 1.08955740929 1.16942882538 1.16952967644 1.08938074112 1.02221477032 1.00588464737 0.981676220894 
