0.982421457767 1.02097094059 1.05537939072 1.12127649784 1.20086455345 1.20083260536 1.12118256092 1.04307091236 1.02092254162 0.982473731041 0.973901987076 1.06994640827 1.18691051006 1.30306208134 1.36923527718 1.36920571327 1.30296099186 1.12450027466 1.06987309456 0.973959088326 0.971941232681 1.15938842297 1.27697360516 1.37356817722 1.42723631859 1.42720901966 1.3734498024 1.22225546837 1.15930664539 0.97197830677 0.970568180084 1.20389544964 1.30767595768 1.39199471474 1.43859171867 1.43857455254 1.39189362526 1.26456749439 1.20383048058 0.970598936081 0.969313383102 1.23722088337 1.32770502567 1.40472769737 1.44411468506 1.44410395622 1.40463805199 1.29197990894 1.2371544838 0.969343602657 0.969314932823 1.23720979691 1.32769584656 1.40471792221 1.44415342808 1.44414007664 1.40462613106 1.29197251797 1.23714339733 0.969345033169 0.970570921898 1.20384371281 1.30763494968 1.39192283154 1.43860554695 1.43858480453 1.39181983471 1.2645200491 1.20377886295 0.970601201057 0.972318172455 1.13076162338 1.25228822231 1.35930013657 1.42158401012 1.42157578468 1.35917890072 1.19141376019 1.13068830967 0.972357094288 0.973907113075 1.06984710693 1.18680107594 1.30304455757 1.36929607391 1.36922860146 1.30298554897 1.12440705299 1.06977295876 0.973964333534 0.98245036602 1.02091693878 1.05531191826 1.12109339237 1.20056676865 1.20064246655 1.12093412876 1.04302513599 1.02086865902 0.982503116131 
0.98157119751 1.00853025913 1.03863990307 1.09958171844 1.17781889439 1.17779278755 1.09950149059 1.02599644661 1.00849628448 0.981623589993 0.972706079483 1.05391681194 1.1688233614 1.29060912132 1.39486300945 1.39483654499 1.29052484035 1.10685741901 1.05385565758 0.97276455164 0.970035076141 1.14150130749 1.27341926098 1.4041121006 1.50238132477 1.50235366821 1.40402710438 1.20659327507 1.14142692089 0.970075666904 0.968260645866 1.18539178371 1.31748282909 1.43364799023 1.51925241947 1.51923012733 1.43356823921 1.25018680096 1.18532466888 0.968293905258 0.96673732996 1.21981823444 1.35509431362 1.46033191681 1.53109633923 1.53107881546 1.46025729179 1.28614795208 1.21974694729 0.966768801212 0.966738641262 1.21980786324 1.35508334637 1.46031391621 1.53117060661 1.53114819527 1.46023392677 1.28614401817 1.21973609924 0.966769933701 0.968263745308 1.1853415966 1.31743836403 1.43355321884 1.5193156004 1.51928532124 1.43346869946 1.25014829636 1.18527436256 0.968296587467 0.970517277718 1.11289989948 1.23629772663 1.35909378529 1.47603929043 1.47603213787 1.35900509357 1.17398452759 1.11283433437 0.970559120178 0.972713291645 1.05381953716 1.16870331764 1.29067862034 1.39500844479 1.39492511749 1.29066288471 1.10674953461 1.05375635624 0.972771883011 0.981601476669 1.00848543644 1.03856754303 1.09934294224 1.17756307125 1.17764639854 1.0991820097 1.02594518661 1.00845181942 0.981654763222 
0.981465518475 1.00622045994 1.03546237946 1.09544372559 1.17294883728 1.17292308807 1.09536576271 1.02279508114 1.00618934631 0.981517851353 0.97256565094 1.0508877039 1.16536128521 1.28686857224 1.39121687412 1.39119243622 1.28678357601 1.10343790054 1.05082893372 0.972624361515 0.96978867054 1.13814175129 1.26993954182 1.40122938156 1.52459812164 1.52457857132 1.4011425972 1.20337831974 1.13806819916 0.969829440117 0.967927992344 1.1819896698 1.31392538548 1.43327569962 1.54648160934 1.54646062851 1.4332062006 1.2471613884 1.18192183971 0.967961907387 0.966310560703 1.21651113033 1.35260307789 1.46917581558 1.56719040871 1.56717467308 1.46911811829 1.28432011604 1.21643912792 0.966342687607 0.96631193161 1.21650004387 1.35259115696 1.46915268898 1.56732583046 1.56730175018 1.46908664703 1.28431665897 1.21642804146 0.9663438797 0.967931509018 1.18193936348 1.31388068199 1.43317639828 1.54662740231 1.54659414291 1.43309986591 1.24712121487 1.18187141418 0.967964589596 0.970289766788 1.10954082012 1.23264539242 1.35427761078 1.47789609432 1.4778958559 1.35419106483 1.1703761816 1.1094763279 0.970331788063 0.97257322073 1.05079054832 1.16523969173 1.28694653511 1.39135456085 1.39127337933 1.28693282604 1.10332787037 1.05072975159 0.9726318717 0.981496036053 1.00617754459 1.03538930416 1.09519743919 1.17269825935 1.17278325558 1.09503591061 1.02274334431 1.00614655018 0.981549143791 
0.981457948685 1.00601541996 1.03517532349 1.09506583214 1.1724973917 1.1724717617 1.09498810768 1.02250444889 1.00598454475 0.981510221958 0.972555696964 1.05061578751 1.16504371166 1.28650927544 1.3908444643 1.39082014561 1.28642392159 1.10312056541 1.05055725574 0.972614407539 0.969769537449 1.13784003258 1.26964020729 1.40084302425 1.52545297146 1.52543354034 1.4007563591 1.20307719707 1.13776659966 0.969810426235 0.967900216579 1.18168592453 1.31362843513 1.43295037746 1.54891192913 1.54889297485 1.43288099766 1.2468906641 1.18161797523 0.967934012413 0.966278076172 1.21622288227 1.35228574276 1.46919250488 1.57289791107 1.57288324833 1.46913540363 1.28407740593 1.21615052223 0.966310143471 0.966279506683 1.21621203423 1.35227358341 1.46917021275 1.5730702877 1.57304596901 1.4691041708 1.28407347202 1.21613955498 0.966311514378 0.967903494835 1.18163561821 1.31358408928 1.43285226822 1.54909551144 1.54906284809 1.43277573586 1.24685096741 1.18156766891 0.967936635017 0.970271646976 1.10923552513 1.23231565952 1.35388612747 1.47755432129 1.47755455971 1.35379970074 1.17005228996 1.10917115211 0.970314085484 0.972563326359 1.05051887035 1.16492199898 1.28658807278 1.39098131657 1.39090025425 1.28657400608 1.10301017761 1.05045807362 0.972622096539 0.981488525867 1.00597274303 1.0351023674 1.0948189497 1.17224740982 1.17233264446 1.09465765953 1.02245295048 1.00594234467 0.981541693211 
0.981457591057 1.00600767136 1.03516435623 1.09505164623 1.1724807024 1.17245495319 1.09497392178 1.02249360085 1.00597679615 0.981509923935 0.972555279732 1.0506054163 1.16503179073 1.28649568558 1.39083051682 1.3908059597 1.28641057014 1.10310864449 1.05054688454 0.972614049911 0.969768822193 1.1378288269 1.26962924004 1.40082812309 1.52542948723 1.5254098177 1.40074181557 1.20306611061 1.13775539398 0.969809710979 0.967898845673 1.18167459965 1.31361818314 1.43293821812 1.54892361164 1.54890465736 1.43286907673 1.24688184261 1.18160665035 0.967932760715 0.966276526451 1.21621263027 1.3522759676 1.46919810772 1.57324612141 1.57323145866 1.46914088726 1.28407132626 1.21614038944 0.966308712959 0.966277897358 1.21620190144 1.35226404667 1.46917629242 1.57342648506 1.57340216637 1.46911025047 1.28406751156 1.21612906456 0.966309845448 0.967902183533 1.18162429333 1.31357371807 1.43284022808 1.54911100864 1.54907798767 1.43276333809 1.24684178829 1.18155634403 0.96793538332 0.970270931721 1.10922408104 1.23230326176 1.35387086868 1.47753727436 1.47753810883 1.35378456116 1.17004013062 1.10915970802 0.970313131809 0.972562909126 1.05050837994 1.16490995884 1.28657460213 1.39096736908 1.39088594913 1.28656065464 1.10299825668 1.0504475832 0.972621738911 0.981488108635 1.00596475601 1.03509151936 1.094804883 1.17223060131 1.17231583595 1.09464335442 1.0224417448 1.00593435764 0.981541335583 
0.981457471848 1.00600802898 1.03516483307 1.09505295753 1.17248213291 1.17245662212 1.09497511387 1.02249383926 1.00597715378 0.981509804726 0.972555220127 1.05060613155 1.1650326252 1.28649699688 1.39083182812 1.39080750942 1.28641188145 1.10310959816 1.05054759979 0.972613871098 0.969768464565 1.13782978058 1.26963043213 1.40083014965 1.52543115616 1.52541160583 1.4007434845 1.20306742191 1.13775634766 0.969809412956 0.967898786068 1.18167614937 1.31362020969 1.43294048309 1.54892718792 1.54890823364 1.43287110329 1.24688339233 1.18160831928 0.967932522297 0.966276288033 1.2162142992 1.35227823257 1.46920108795 1.57326066494 1.57324588299 1.46914410591 1.28407299519 1.21614205837 0.96630859375 0.966277599335 1.21620357037 1.35226619244 1.46917939186 1.57344162464 1.57341718674 1.46911334991 1.28406918049 1.21613097191 0.966309726238 0.967902064323 1.18162584305 1.31357550621 1.43284237385 1.54911458492 1.54908180237 1.43276560307 1.24684333801 1.18155777454 0.967935264111 0.970270693302 1.10922515392 1.23230493069 1.35387265682 1.4775390625 1.47754001617 1.3537863493 1.17004108429 1.10916078091 0.970313072205 0.972562730312 1.05050909519 1.16491103172 1.28657579422 1.3909689188 1.39088761806 1.28656208515 1.10299909115 1.05044829845 0.972621738911 0.981488108635 1.00596523285 1.0350921154 1.09480583668 1.17223215103 1.17231726646 1.09464454651 1.02244222164 1.00593459606 0.981541156769 
0.981457352638 1.00600838661 1.03516566753 1.09505414963 1.17248415947 1.17245841026 1.09497654438 1.02249443531 1.0059773922 0.981509625912 0.972555100918 1.05060684681 1.1650339365 1.2864985466 1.39083361626 1.39080905914 1.28641343117 1.10311067104 1.05054831505 0.972613692284 0.969768464565 1.13783121109 1.26963233948 1.40083217621 1.52543342113 1.52541399002 1.40074563026 1.20306909084 1.13775777817 0.969809412956 0.967898547649 1.18167769909 1.31362199783 1.43294262886 1.54893255234 1.54891371727 1.43287324905 1.24688518047 1.181609869 0.967932403088 0.966276168823 1.21621620655 1.35228002071 1.46920406818 1.57327008247 1.57325577736 1.46914708614 1.28407502174 1.21614384651 0.966308355331 0.966277360916 1.21620547771 1.35226798058 1.46918225288 1.57345128059 1.57342672348 1.46911621094 1.28407144547 1.21613276005 0.966309547424 0.967901885509 1.18162739277 1.31357777119 1.43284487724 1.54912054539 1.54908788204 1.43276810646 1.24684548378 1.18155944347 0.967935085297 0.970270574093 1.10922646523 1.2323063612 1.35387480259 1.47754132748 1.47754192352 1.35378813744 1.17004227638 1.109161973 0.970312833786 0.972562670708 1.05050981045 1.16491222382 1.28657758236 1.39097058773 1.39088916779 1.28656351566 1.10300028324 1.05044913292 0.972621440887 0.981487989426 1.00596547127 1.03509247303 1.09480726719 1.17223405838 1.17231917381 1.09464597702 1.0224429369 1.00593483448 0.981541097164 
