1.0 1.00000011921 0.997371733189 1.04273104668 1.09967243671 1.09964895248 1.04263448715 1.00000023842 1.0 1.0 0.999999940395 1.00539255142 1.08218443394 1.16965031624 1.19520699978 1.1951982975 1.16957116127 1.0432318449 1.00533592701 1.0 1.0 1.06663453579 1.14927530289 1.19489109516 1.20603275299 1.20602810383 1.19484782219 1.11472892761 1.06656599045 1.00000011921 1.0 1.10131180286 1.1680201292 1.1993803978 1.20755386353 1.20755136013 1.19935035706 1.14663386345 1.10125148296 1.00000011921 1.0 1.12647926807 1.1771119833 1.20176899433 1.20819222927 1.20819079876 1.20174527168 1.16325223446 1.12641978264 1.00000011921 1.0 1.12646949291 1.17710638046 1.20176720619 1.20819818974 1.2081964016 1.2017428875 1.16324651241 1.12641012669 1.00000011921 1.0 1.10126519203 1.16799378395 1.19936347008 1.20755505562 1.20755183697 1.19933319092 1.1465947628 1.10120475292 1.0 1.0 1.04868423939 1.13451778889 1.19266438484 1.20587337017 1.20587265491 1.19261574745 1.09496212006 1.04861199856 1.00000011921 1.0 1.0053306818 1.08209323883 1.16963410378 1.19523191452 1.1952123642 1.16958379745 1.04314374924 1.00527369976 1.00000011921 1.0 1.00000011921 0.997382044792 1.04262626171 1.09936404228 1.09942364693 1.04248821735 1.00000011921 1.0 0.999999940395 
1.0 1.00000011921 0.997371733189 1.04273104668 1.09967243671 1.09964895248 1.04263448715 1.00000023842 1.0 1.0 0.999999940395 1.00539255142 1.08218443394 1.18441867828 1.27562272549 1.27559447289 1.18432104588 1.0432318449 1.00533592701 1.0 1.0 1.06663453579 1.16340124607 1.2787181139 1.35669445992 1.35667264462 1.27862477303 1.11472892761 1.06656599045 1.00000011921 1.0 1.10131180286 1.2001926899 1.30345535278 1.36671817303 1.36670017242 1.30336833 1.14986097813 1.10125148296 1.00000011921 1.0 1.12705898285 1.23232841492 1.32451152802 1.37293887138 1.3729262352 1.32443082333 1.1777433157 1.12700021267 1.00000011921 1.0 1.12704908848 1.23231744766 1.3244985342 1.37298321724 1.37296772003 1.32441365719 1.17773604393 1.12699007988 1.00000011921 1.0 1.10126519203 1.20015251637 1.30336976051 1.3667525053 1.36672925949 1.30327928066 1.14981651306 1.10120475292 1.0 1.0 1.04868423939 1.13599586487 1.24304270744 1.34126865864 1.34126484394 1.2429356575 1.09496212006 1.04861199856 1.00000011921 1.0 1.0053306818 1.08209323883 1.18444490433 1.2757794857 1.2756947279 1.18441188335 1.04314374924 1.00527369976 1.00000011921 1.0 1.00000011921 0.997382044792 1.04262626171 1.09936404228 1.09942364693 1.04248821735 1.00000011921 1.0 0.999999940395 
1.0 1.00000011921 0.997371733189 1.04273104668 1.09967243671 1.09964895248 1.04263448715 1.00000023842 1.0 1.0 0.999999940395 1.00539255142 1.08218443394 1.18441867828 1.27624845505 1.27622115612 1.18432104588 1.0432318449 1.00533592701 1.0 1.0 1.06663453579 1.16340124607 1.27993607521 1.39542901516 1.3954076767 1.27984452248 1.11472892761 1.06656599045 1.00000011921 1.0 1.10131180286 1.2001926899 1.30840492249 1.41274333 1.41271901131 1.30832982063 1.14986097813 1.10125148296 1.00000011921 1.0 1.12705898285 1.23238539696 1.34015667439 1.4297465086 1.42972743511 1.34009289742 1.1777433157 1.12700021267 1.00000011921 1.0 1.12704908848 1.23237395287 1.3401350975 1.42987918854 1.42985224724 1.34006357193 1.17773604393 1.12699007988 1.00000011921 1.0 1.10126519203 1.20015251637 1.3083037138 1.41288506985 1.41284811497 1.30822229385 1.14981651306 1.10120475292 1.0 1.0 1.04868423939 1.13599586487 1.24304270744 1.35425877571 1.35425627232 1.2429356575 1.09496212006 1.04861199856 1.00000011921 1.0 1.0053306818 1.08209323883 1.18444490433 1.27641427517 1.27632761002 1.18441188335 1.04314374924 1.00527369976 1.00000011921 1.0 1.00000011921 0.997382044792 1.04262626171 1.09936404228 1.09942364693 1.04248821735 1.00000011921 1.0 0.999999940395 
1.0 1.00000011921 0.997371733189 1.04273104668 1.09967243671 1.09964895248 1.04263448715 1.00000023842 1.0 1.0 0.999999940395 1.00539255142 1.08218443394 1.18441867828 1.27624845505 1.27622115612 1.18432104588 1.0432318449 1.00533592701 1.0 1.0 1.06663453579 1.16340124607 1.27993607521 1.40002048016 1.39999961853 1.27984452248 1.11472892761 1.06656599045 1.00000011921 1.0 1.10131180286 1.2001926899 1.30840492249 1.41875731945 1.41873395443 1.30832982063 1.14986097813 1.10125148296 1.00000011921 1.0 1.12705898285 1.23238539696 1.34144842625 1.43917047977 1.43915224075 1.34138762951 1.1777433157 1.12700021267 1.00000011921 1.0 1.12704908848 1.23237395287 1.34142684937 1.43934357166 1.43931567669 1.3413567543 1.17773604393 1.12699007988 1.00000011921 1.0 1.10126519203 1.20015251637 1.3083037138 1.4189426899 1.41890501976 1.30822229385 1.14981651306 1.10120475292 1.0 1.0 1.04868423939 1.13599586487 1.24304270744 1.35426735878 1.3542650938 1.2429356575 1.09496212006 1.04861199856 1.00000011921 1.0 1.0053306818 1.08209323883 1.18444490433 1.27641427517 1.27632761002 1.18441188335 1.04314374924 1.00527369976 1.00000011921 1.0 1.00000011921 0.997382044792 1.04262626171 1.09936404228 1.09942364693 1.04248821735 1.00000011921 1.0 0.999999940395 
1.0 1.00000011921 0.997371733189 1.04273104668 1.09967243671 1.09964895248 1.04263448715 1.00000023842 1.0 1.0 0.999999940395 1.00539255142 1.08218443394 1.18441867828 1.27624845505 1.27622115612 1.18432104588 1.0432318449 1.00533592701 1.0 1.0 1.06663453579 1.16340124607 1.27993607521 1.40079379082 1.40077292919 1.27984452248 1.11472892761 1.06656599045 1.00000011921 1.0 1.10131180286 1.2001926899 1.30840492249 1.41981601715 1.4197936058 1.30832982063 1.14986097813 1.10125148296 1.00000011921 1.0 1.12705898285 1.23238539696 1.34163022041 1.44108569622 1.44106769562 1.34156990051 1.1777433157 1.12700021267 1.00000011921 1.0 1.12704908848 1.23237395287 1.341609478 1.4412727356 1.4412446022 1.34153962135 1.17773604393 1.12699007988 1.00000011921 1.0 1.10126519203 1.20015251637 1.3083037138 1.42001628876 1.41997814178 1.30822229385 1.14981651306 1.10120475292 1.0 1.0 1.04868423939 1.13599586487 1.24304270744 1.35426735878 1.3542650938 1.2429356575 1.09496212006 1.04861199856 1.00000011921 1.0 1.0053306818 1.08209323883 1.18444490433 1.27641427517 1.27632761002 1.18441188335 1.04314374924 1.00527369976 1.00000011921 1.0 1.00000011921 0.997382044792 1.04262626171 1.09936404228 1.09942364693 1.04248821735 1.00000011921 1.0 0.999999940395 
1.0 1.00000011921 0.997371733189 1.04273104668 1.09967243671 1.09964895248 1.04263448715 1.00000023842 1.0 1.0 0.999999940395 1.00539255142 1.08218443394 1.18441867828 1.27624845505 1.27622115612 1.18432104588 1.0432318449 1.00533592701 1.0 1.0 1.06663453579 1.16340124607 1.27993607521 1.40098440647 1.40096330643 1.27984452248 1.11472892761 1.06656599045 1.00000011921 1.0 1.10131180286 1.2001926899 1.30840492249 1.42008054256 1.42005813122 1.30832982063 1.14986097813 1.10125148296 1.00000011921 1.0 1.12705898285 1.23238539696 1.34166717529 1.44161593914 1.44159817696 1.34160673618 1.1777433157 1.12700021267 1.00000011921 1.0 1.12704908848 1.23237395287 1.34164726734 1.44180905819 1.44178056717 1.34157729149 1.17773604393 1.12699007988 1.00000011921 1.0 1.10126519203 1.20015251637 1.3083037138 1.42028653622 1.42024850845 1.30822229385 1.14981651306 1.10120475292 1.0 1.0 1.04868423939 1.13599586487 1.24304270744 1.35426735878 1.3542650938 1.2429356575 1.09496212006 1.04861199856 1.00000011921 1.0 1.0053306818 1.08209323883 1.18444490433 1.27641427517 1.27632761002 1.18441188335 1.04314374924 1.00527369976 1.00000011921 1.0 1.00000011921 0.997382044792 1.04262626171 1.09936404228 1.09942364693 1.04248821735 1.00000011921 1.0 0.999999940395 
1.0 1.00000011921 0.997371733189 1.04273104668 1.09967243671 1.09964895248 1.04263448715 1.00000023842 1.0 1.0 0.999999940395 1.00539255142 1.08218443394 1.18441867828 1.27624845505 1.27622115612 1.18432104588 1.0432318449 1.00533592701 1.0 1.0 1.06663453579 1.16340124607 1.27993607521 1.40104699135 1.4010258913 1.27984452248 1.11472892761 1.06656599045 1.00000011921 1.0 1.10131180286 1.2001926899 1.30840492249 1.42016661167 1.42014408112 1.30832982063 1.14986097813 1.10125148296 1.00000011921 1.0 1.12705898285 1.23238539696 1.34167814255 1.44180166721 1.44178390503 1.34161782265 1.1777433157 1.12700021267 1.00000011921 1.0 1.12704908848 1.23237395287 1.34165883064 1.44199740887 1.44196879864 1.34158825874 1.17773604393 1.12699007988 1.00000011921 1.0 1.10126519203 1.20015251637 1.3083037138 1.42037463188 1.42033684254 1.30822229385 1.14981651306 1.10120475292 1.0 1.0 1.04868423939 1.13599586487 1.24304270744 1.35426735878 1.3542650938 1.2429356575 1.09496212006 1.04861199856 1.00000011921 1.0 1.0053306818 1.08209323883 1.18444490433 1.27641427517 1.27632761002 1.18441188335 1.04314374924 1.00527369976 1.00000011921 1.0 1.00000011921 0.997382044792 1.04262626171 1.09936404228 1.09942364693 1.04248821735 1.00000011921 1.0 0.999999940395 
