2.26457428932 3.8518948555 6.72533035278 9.43009376526 11.0076723099 11.0064201355 9.42416000366 6.71794128418 3.84526515007 2.26446580887 2.29032182693 5.05225753784 9.73691177368 14.2605400085 16.8711109161 16.8690567017 14.2505779266 9.7247800827 5.04125404358 2.29001140594 2.31474733353 5.94561672211 11.8364868164 17.4737682343 20.8934993744 20.8908081055 17.4610557556 11.8214731216 5.93151283264 2.31424856186 2.33179092407 6.47842168808 13.0254640579 19.2478218079 23.0211830139 23.0182266235 19.2337703705 13.008893013 6.46256256104 2.33116269112 2.34102725983 6.74626541138 13.6114082336 20.0965099335 24.0136318207 24.0105743408 20.0819034576 13.5940933228 6.72956800461 2.34032869339 2.34102058411 6.74605035782 13.6109409332 20.0958385468 24.0128574371 24.0098018646 20.0812320709 13.5936317444 6.72935581207 2.34032225609 2.33175420761 6.47731876373 13.0230445862 19.2442569733 23.0169696808 23.0140094757 19.2302284241 13.0064964294 6.46147918701 2.33112740517 2.31469154358 5.94366312027 11.8321361542 17.467294693 20.884677887 20.8820991516 17.4546203613 11.8171844482 5.92957830429 2.31419324875 2.29024362564 5.04927873611 9.72964477539 14.2500829697 16.8577098846 16.8557128906 14.2402658463 9.71739959717 5.03823041916 2.28993415833 2.26452279091 3.84819436073 6.71554803848 9.41365909576 10.9876651764 10.9867639542 9.4071855545 6.70785903931 3.84148049355 2.26441216469 
2.26465082169 3.82575035095 6.67279911041 9.36723327637 10.9379062653 10.9366559982 9.36132144928 6.66544961929 3.81920719147 2.26454329491 2.2900891304 5.02183103561 9.68124389648 14.1983098984 16.8072052002 16.8051548004 14.1883535385 9.6691493988 5.01091480255 2.28978252411 2.31432580948 5.91562175751 11.7823448181 17.4136104584 20.8524303436 20.849691391 17.4008922577 11.7673683167 5.90159988403 2.31383180618 2.33131980896 6.44971036911 12.9730386734 19.2015628815 23.0326404572 23.0296020508 19.1874256134 12.9565019608 6.43392848969 2.33069705963 2.3405983448 6.71870088577 13.5608778 20.0636844635 24.0573272705 24.0541687012 20.0489177704 13.543598175 6.70207548141 2.33990502357 2.34059119225 6.71848487854 13.5604104996 20.0630073547 24.0565223694 24.0533714294 20.048242569 13.543135643 6.70186090469 2.3398976326 2.3312830925 6.44860172272 12.9706115723 19.1979675293 23.0283260345 23.0252876282 19.1838550568 12.9540977478 6.43283414841 2.33066129684 2.31427025795 5.91365242004 11.777961731 17.4070968628 20.8435173035 20.8408889771 17.3944072723 11.7630224228 5.8996348381 2.31377577782 2.29001092911 5.01882839203 9.67391109467 14.1878271103 16.793718338 16.7917251587 14.1780023575 9.66167068481 5.00785446167 2.28970527649 2.26460003853 3.8220603466 6.66300916672 9.35074901581 10.9179515839 10.9170541763 9.3442773819 6.65535306931 3.81542849541 2.26448965073 
2.26465344429 3.82479691505 6.67088747025 9.3649597168 10.9353761673 10.9341239929 9.35904979706 6.66353988647 3.81825733185 2.26454639435 2.29008030891 5.02072715759 9.67923164368 14.1960573196 16.8048648834 16.8028106689 14.1861019135 9.66713809967 5.00981426239 2.28977417946 2.31431102753 5.91454744339 11.7804203033 17.4114494324 20.8505764008 20.8478374481 17.3987293243 11.7654466629 5.90052843094 2.31381726265 2.3313024044 6.44869613647 12.971206665 19.1997909546 23.0329647064 23.0299224854 19.1856498718 12.9546718597 6.4329161644 2.33068037033 2.3405816555 6.71773338318 13.5591115952 20.0624103546 24.0597991943 24.0566329956 20.0476398468 13.5418338776 6.70111131668 2.33988833427 2.34057426453 6.71751785278 13.5586442947 20.0617313385 24.0589923859 24.0558338165 20.0469608307 13.5413713455 6.70089769363 2.33988165855 2.33126592636 6.44758749008 12.9687814713 19.1961917877 23.0286464691 23.0256004333 19.1820793152 12.9522666931 6.43182182312 2.33064460754 2.31425523758 5.91257619858 11.7760419846 17.4049396515 20.8416595459 20.8390254974 17.392244339 11.761100769 5.8985619545 2.31376171112 2.29000258446 5.01772499084 9.67189693451 14.1855716705 16.7913722992 16.7893791199 14.1757488251 9.65965843201 5.00675344467 2.28969669342 2.26460266113 3.82110834122 6.66109752655 9.34847354889 10.9154262543 10.9145259857 9.3420009613 6.65344333649 3.81447863579 2.26449275017 
2.26465368271 3.82472467422 6.67074632645 9.36479854584 10.9351997375 10.9339466095 9.35888957977 6.66339874268 3.8181848526 2.26454663277 2.2900800705 5.02064800262 9.6790933609 14.1959114075 16.8047142029 16.8026618958 14.1859550476 9.66699981689 5.00973558426 2.2897734642 2.31431007385 5.91447591782 11.7803010941 17.4113235474 20.8504810333 20.8477401733 17.3986034393 11.7653245926 5.90045642853 2.31381654739 2.33130216599 6.44863319397 12.9710988998 19.1997070312 23.0330619812 23.0300140381 19.1855659485 12.9545669556 6.43285369873 2.33067989349 2.34058070183 6.71767616272 13.5590162277 20.0623722076 24.0601501465 24.0569896698 20.0476016998 13.5417366028 6.7010550499 2.33988761902 2.34057331085 6.71746110916 13.5585460663 20.0616950989 24.0593452454 24.0561885834 20.0469245911 13.5412731171 6.70084095001 2.3398809433 2.33126497269 6.44752407074 12.9686756134 19.1961078644 23.0287418365 23.0256958008 19.1819972992 12.9521598816 6.43175935745 2.33064389229 2.31425404549 5.91250419617 11.7759170532 17.4048137665 20.8415584564 20.8389282227 17.3921203613 11.7609777451 5.89849042892 2.31376028061 2.29000234604 5.0176448822 9.67175865173 14.185426712 16.791223526 16.7892303467 14.1756029129 9.65951919556 5.0066742897 2.28969621658 2.26460289955 3.82103538513 6.66095733643 9.34831237793 10.9152507782 10.9143505096 9.34183979034 6.65330219269 3.8144056797 2.26449346542 
2.26465415955 3.82472276688 6.67074775696 9.36480808258 10.9352121353 10.9339609146 9.35889816284 6.6634016037 3.81818342209 2.26454663277 2.29008054733 5.02065086365 9.67910480499 14.1959323883 16.8047389984 16.8026866913 14.1859779358 9.66701126099 5.00973844528 2.28977370262 2.31431055069 5.91448354721 11.7803201675 17.4113578796 20.8505249023 20.8477878571 17.3986415863 11.7653465271 5.90046358109 2.31381678581 2.33130264282 6.44864463806 12.9711332321 19.1997585297 23.0331535339 23.0301094055 19.1856174469 12.9545974731 6.43286561966 2.33067989349 2.34058141708 6.71769142151 13.55905056 20.0624408722 24.0602970123 24.0571346283 20.0476703644 13.5417728424 6.70107030869 2.33988785744 2.34057402611 6.71747541428 13.5585794449 20.0617580414 24.0594940186 24.0563373566 20.0469894409 13.5413093567 6.70085716248 2.33988118172 2.33126568794 6.44753694534 12.968706131 19.1961612701 23.0288333893 23.0257873535 19.1820468903 12.9521894455 6.43177127838 2.33064436913 2.31425452232 5.9125123024 11.7759380341 17.4048480988 20.8416080475 20.8389759064 17.392156601 11.7609996796 5.89849805832 2.31376099586 2.29000258446 5.01764726639 9.67177009583 14.1854486465 16.7912445068 16.7892532349 14.1756229401 9.6595287323 5.00667619705 2.28969621658 2.26460313797 3.82103323936 6.6609582901 9.34832286835 10.9152612686 10.9143619537 9.34184932709 6.65330266953 3.81440496445 2.26449346542 
2.26465415955 3.82473015785 6.67076683044 9.36483764648 10.9352493286 10.9339981079 9.3589258194 6.66341972351 3.81819105148 2.2645471096 2.29008054733 5.02066326141 9.67913627625 14.1959753036 16.8047885895 16.8027381897 14.1860189438 9.66704177856 5.00975131989 2.28977394104 2.31431078911 5.91450214386 11.7803621292 17.4114170074 20.8505897522 20.8478488922 17.3986988068 11.7653856277 5.90048265457 2.31381726265 2.33130264282 6.44866800308 12.9711799622 19.1998291016 23.0332450867 23.0302009583 19.1856899261 12.9546451569 6.43288803101 2.33068037033 2.3405816555 6.71771717072 13.5591001511 20.0625190735 24.0604171753 24.0572547913 20.047750473 13.5418243408 6.70109415054 2.33988857269 2.34057497978 6.71750116348 13.558631897 20.0618400574 24.0596141815 24.0564517975 20.0470676422 13.5413599014 6.70088100433 2.33988189697 2.33126616478 6.44755887985 12.9687547684 19.1962299347 23.0289268494 23.0258808136 19.1821174622 12.9522390366 6.43179321289 2.33064484596 2.31425476074 5.91253137589 11.7759799957 17.4049053192 20.84167099 20.8390445709 17.3922119141 11.7610406876 5.89851617813 2.31376099586 2.29000258446 5.01766109467 9.6718006134 14.1854896545 16.7912960052 16.7893028259 14.1756668091 9.65956115723 5.00669002533 2.289696455 2.26460313797 3.82104158401 6.66097736359 9.34835243225 10.9152984619 10.914399147 9.34187889099 6.65332269669 3.81441235542 2.26449346542 
2.26465415955 3.82473945618 6.6707906723 9.36487293243 10.9352912903 10.9340391159 9.3589630127 6.66344356537 3.81819987297 2.2645471096 2.29008054733 5.02067899704 9.67916870117 14.19602108 16.8048419952 16.8027877808 14.1860675812 9.66707706451 5.00976705551 2.28977417946 2.31431102753 5.91452264786 11.7804050446 17.4114780426 20.8506622314 20.8479213715 17.3987579346 11.7654304504 5.90050268173 2.31381750107 2.3313035965 6.44869232178 12.9712324142 19.1999015808 23.0333404541 23.0302963257 19.1857643127 12.9546966553 6.4329123497 2.33068132401 2.3405828476 6.71774196625 13.5591583252 20.0626029968 24.0605278015 24.0573635101 20.0478363037 13.5418796539 6.70112037659 2.33988952637 2.34057569504 6.71752691269 13.5586900711 20.0619239807 24.0597248077 24.0565643311 20.0471553802 13.5414152145 6.7009062767 2.33988237381 2.33126688004 6.44758272171 12.9688062668 19.1963043213 23.0290222168 23.0259742737 19.1821918488 12.9522895813 6.43181800842 2.33064579964 2.31425523758 5.91255140305 11.7760219574 17.4049682617 20.8417415619 20.8391132355 17.3922710419 11.7610855103 5.89853715897 2.31376171112 2.29000282288 5.01767587662 9.671833992 14.1855373383 16.7913513184 16.7893562317 14.1757125854 9.65959453583 5.00670528412 2.28969693184 2.26460337639 3.8210504055 6.66100025177 9.34838676453 10.9153413773 10.914440155 9.34191417694 6.65334558487 3.81442165375 2.26449346542 
