14.0178775787 13.8907632828 13.1808509827 12.1599617004 11.5917434692 11.5921916962 12.1621923447 13.183300972 13.8918962479 14.0178174973 22.0141181946 21.7933826447 20.9253616333 19.7528858185 19.0776081085 19.0781383514 19.7554569244 20.9282188416 21.7948932648 22.0140953064 30.0094089508 29.7804527283 29.0767097473 28.1455078125 27.5830821991 27.5835342407 28.1475849152 29.0789604187 29.7817630768 30.0094184875 38.0066795349 37.8532409668 37.4162826538 36.8517799377 36.5044784546 36.5047569275 36.8530540466 37.4176559448 37.8540649414 38.0066986084 46.0079574585 45.9539604187 45.8070602417 45.619682312 45.5038642883 45.5039558411 45.6201057434 45.8075218201 45.9542350769 46.0079650879 54.012046814 54.0663032532 54.2139587402 54.4022903442 54.518737793 54.5186462402 54.4018630981 54.2134857178 54.0660362244 54.0120315552 62.0133094788 62.1669578552 62.6046180725 63.1700592041 63.5179595947 63.5176773071 63.1687850952 62.6032562256 62.1661338806 62.0132904053 70.0105819702 70.2396392822 70.9439315796 71.8760604858 72.4387359619 72.438293457 71.8740081787 70.9416656494 70.2383270264 70.0105743408 78.0058746338 78.2264251709 79.0946807861 80.267578125 80.9430999756 80.9425582886 80.265045166 79.0918273926 78.2249145508 78.0059051514 86.0021362305 86.1289596558 86.8375320435 87.8563232422 88.4225692749 88.4223098755 87.8541107178 86.8351287842 86.127822876 86.0021896362 
14.0085048676 13.8291130066 13.0916528702 12.0038166046 11.3684034348 11.3689136505 12.0062999725 13.0941886902 13.8303432465 14.0084896088 22.0002002716 21.6868801117 20.7213802338 19.430524826 18.6807155609 18.6813049316 19.433391571 20.7245121002 21.6886138916 22.000246048 29.9922790527 29.6397628784 28.8294696808 27.8251533508 27.2098503113 27.2103500366 27.8274288177 28.8319282532 29.6413917542 29.9923667908 37.9937591553 37.7443466187 37.2416343689 36.6364021301 36.2593078613 36.2596054077 36.6377830505 37.2431221008 37.7453994751 37.9938430786 46.0030822754 45.9144973755 45.7448234558 45.5441856384 45.4188156128 45.4189186096 45.5446472168 45.7453231812 45.9148521423 46.0031242371 54.0169487 54.1059989929 54.2765464783 54.478225708 54.6042900085 54.6041908264 54.4777603149 54.2760429382 54.1056365967 54.0169143677 62.0262527466 62.2760047913 62.7795448303 63.3858070374 63.7635726929 63.7632713318 63.3844337463 62.7780685425 62.2749633789 62.0261611938 70.0277099609 70.380317688 71.1912460327 72.1966552734 72.8121948242 72.8116989136 72.1944122314 71.1887893677 70.3787078857 70.0276184082 78.0197753906 78.3328094482 79.2984390259 80.5898666382 81.3399200439 81.3393173218 80.5870513916 79.2953109741 78.3311004639 78.0197372437 86.0114974976 86.1905059814 86.9265213013 88.0117797852 88.6451034546 88.644859314 88.0093078613 86.9240722656 86.1893081665 86.0115203857 
14.0044288635 13.8036975861 13.0552654266 11.939078331 11.2572793961 11.2578496933 11.9416685104 13.0578403473 13.8049564362 14.0044364929 21.9952125549 21.6461429596 20.6325645447 19.2387485504 18.4024543762 18.4031181335 19.2419223785 20.6358776093 21.6479740143 21.9952812195 29.9868869781 29.5875759125 28.7013912201 27.6009216309 26.9230499268 26.9235954285 27.6034221649 28.7040786743 29.5893421173 29.9870071411 37.9883880615 37.6954116821 37.1351051331 36.4788513184 36.0676231384 36.0679550171 36.4803543091 37.1367225647 37.6966018677 37.9885025024 46.0008010864 45.8934059143 45.7039375305 45.4879264832 45.3519248962 45.3520431519 45.4884223938 45.7044677734 45.8938179016 46.0008506775 54.0192337036 54.1271934509 54.3176651001 54.534778595 54.6715660095 54.6714553833 54.5342826843 54.3171234131 54.1267852783 54.0191993713 62.0316238403 62.3249740601 62.8862075806 63.5435905457 63.9555664062 63.9552307129 63.5420837402 62.8845939636 62.3237991333 62.0315093994 70.0330963135 70.432510376 71.3192825317 72.4210128784 73.0991287231 73.0985946655 72.4185256958 71.3165893555 70.4307403564 70.0329818726 78.0247573853 78.3735122681 79.3871078491 80.7814788818 81.6179962158 81.6173171997 80.7783737183 79.3838119507 78.3717041016 78.0246887207 86.0155715942 86.2159042358 86.9628448486 88.0761489868 88.7556838989 88.7554321289 88.0735397339 86.9603805542 86.2146682739 86.0155563354 
14.002456665 13.7918262482 13.0396308899 11.9116668701 11.214053154 11.2146434784 11.9142980576 13.0422229767 13.7930965424 14.0024728775 21.9929847717 21.6279411316 20.5910587311 19.1437072754 18.246006012 18.2467384338 19.1470546722 20.594455719 21.6298160553 21.9930667877 29.984664917 29.5656013489 28.6439380646 27.46626091 26.7309303284 26.7315292358 27.4689788818 28.6467666626 29.5674419403 29.9847946167 37.9867515564 37.6769638062 37.0815315247 36.3775405884 35.9338760376 35.9342346191 36.3791618347 37.0832710266 37.6782150269 37.9868736267 46.0001144409 45.8857460022 45.6822433472 45.4507408142 45.3046722412 45.3047904968 45.4512710571 45.6828231812 45.886177063 46.0001716614 54.0199203491 54.1349029541 54.3394584656 54.5721511841 54.7190704346 54.7189407349 54.5716209412 54.3388671875 54.1344566345 54.0198707581 62.0332603455 62.3434448242 62.9398155212 63.6450042725 64.0894851685 64.0891265869 63.6433868408 62.9380874634 62.3422012329 62.0331420898 70.0353240967 70.4544677734 71.3766937256 72.5556945801 73.291267395 73.2906799316 72.5530090332 71.3738632202 70.4526367188 70.035194397 78.0269927979 78.391708374 79.428565979 80.876373291 81.7742156982 81.7734680176 80.8731002808 79.4251708984 78.3898468018 78.0269088745 86.0175323486 86.2277603149 86.9784698486 88.1033630371 88.7986755371 88.7984008789 88.1007080078 86.9759674072 86.226524353 86.0175247192 
14.0015125275 13.7861995697 13.0325403214 11.9001865387 11.1967716217 11.1973686218 11.9028301239 13.0351343155 13.7874727249 14.0015335083 21.9919204712 21.619310379 20.5714550018 19.0991420746 18.1721496582 18.1729164124 19.1025676727 20.5748939514 21.6212081909 21.9920024872 29.9836616516 29.5552463531 28.615776062 27.3956108093 26.6177978516 26.6184310913 27.3984565735 28.6186771393 29.5571212769 29.9837932587 37.9859771729 37.6682739258 37.0558280945 36.3188018799 35.8496856689 35.8500671387 36.320514679 37.0576324463 37.6695556641 37.9860954285 45.9998283386 45.8822212219 45.6710014343 45.4282989502 45.2741279602 45.2742385864 45.4288597107 45.6716003418 45.8826675415 45.9998817444 54.0202140808 54.1384353638 54.3507652283 54.5946960449 54.7498016357 54.7496643066 54.5941352844 54.3501548767 54.1379852295 54.020160675 62.034034729 62.352142334 62.9655380249 63.7037887573 64.1737670898 64.1733856201 63.7020835876 62.9637374878 62.3508644104 62.0339126587 70.0363388062 70.4648284912 71.404876709 72.6263427734 73.4043426514 73.4037475586 72.6235275269 71.4019546509 70.4629592896 70.0362091064 78.0280532837 78.4003219604 79.4481277466 80.9208679199 81.84790802 81.8471221924 80.9175262451 79.4447021484 78.3984527588 78.0279693604 86.0184783936 86.2333831787 86.9855422974 88.1147460938 88.8158493042 88.8155670166 88.1120681763 86.9830551147 86.2321395874 86.0184555054 
14.0010757446 13.7836236954 13.0294284821 11.8953676224 11.1899518967 11.1905527115 11.8980169296 13.0320262909 13.7848987579 14.0010995865 21.9914283752 21.6153450012 20.5625667572 19.0792179108 18.140045166 18.1408309937 19.0826778412 20.5660266876 21.6172485352 21.9915142059 29.9832077026 29.5504627228 28.6022453308 27.3626556396 26.5596694946 26.5603256226 27.3655757904 28.6051769257 29.5523529053 29.9833431244 37.9856262207 37.6642532349 37.0437927246 36.2877120972 35.8023948669 35.8027954102 36.2894744873 37.0456161499 37.6655502319 37.985748291 45.9996910095 45.8805961609 45.6658363342 45.4160194397 45.2563247681 45.2564506531 45.4165992737 45.6664466858 45.8810539246 45.9997406006 54.0203475952 54.1400604248 54.3559455872 54.6070327759 54.7677078247 54.7675628662 54.6064491272 54.3553276062 54.1396064758 54.0202941895 62.0343933105 62.3561668396 62.9775886536 63.7349205017 64.2210922241 64.2206954956 63.7331428528 62.9757499695 62.3548812866 62.0342750549 70.036781311 70.4696121216 71.4183959961 72.6592712402 73.4624023438 73.4617767334 72.6563949585 71.4154510498 70.4677276611 70.0366439819 78.0285491943 78.4042892456 79.4569854736 80.9407653809 81.8799362183 81.8791275024 80.9373855591 79.4535598755 78.4024047852 78.0284729004 86.0189056396 86.2359619141 86.9886322021 88.1195297241 88.8226165771 88.8223495483 88.1168441772 86.9861679077 86.234703064 86.0188827515 
14.0008773804 13.7824373245 13.028014183 11.893283844 11.187122345 11.1877250671 11.8959350586 13.0306129456 13.7837152481 14.0009002686 21.9911956787 21.6135025024 20.5584888458 19.0702457428 18.1261329651 18.1269226074 19.0737228394 20.5619544983 21.6154155731 21.9912872314 29.9829921722 29.5482139587 28.5959835052 27.3474998474 26.531999588 26.5326690674 27.350446701 28.5989379883 29.5501098633 29.9831314087 37.985458374 37.6623382568 37.0379753113 36.2721405029 35.7775611877 35.777973175 36.2739334106 37.0398330688 37.6636428833 37.9855804443 45.9996299744 45.8798179626 45.6632957458 45.4095039368 45.2466278076 45.2467498779 45.4100952148 45.6639213562 45.8802833557 45.9996795654 54.0204162598 54.140838623 54.3584938049 54.6135864258 54.7774658203 54.7773284912 54.6129837036 54.3578681946 54.1403808594 54.0203704834 62.0345611572 62.358089447 62.9834060669 63.7504882812 64.2459259033 64.2455291748 63.7486915588 62.9815406799 62.3567848206 62.0344352722 70.0370025635 70.4718475342 71.4246368408 72.6744308472 73.4900283813 73.4893951416 72.6715164185 71.4216995239 70.4699707031 70.0368652344 78.0287780762 78.4061203003 79.4610595703 80.9497146606 81.8938140869 81.8930053711 80.9463195801 79.457611084 78.4042358398 78.0286941528 86.0191192627 86.2371368408 86.9900665283 88.1215896606 88.8254470825 88.8251495361 88.1189041138 86.9875793457 86.2358932495 86.0190811157 
