13.9382667542 21.7279720306 29.3556900024 37.1915130615 45.6295089722 54.3923950195 62.8286781311 70.6634216309 78.291267395 86.081451416 13.9002943039 21.5121059418 28.6116600037 36.2294692993 45.2093696594 54.8146438599 63.7910308838 71.4061965942 78.5059509277 86.1192855835 13.8790197372 21.3453025818 28.1600131989 35.6647949219 44.9289321899 55.0964851379 64.3556747437 71.8572845459 78.6719512939 86.1404418945 13.860455513 21.2487926483 27.9334335327 35.3983001709 44.8132171631 55.2127876282 64.6222610474 72.0836257935 78.7681274414 86.1589508057 13.8471260071 21.2032356262 27.8213386536 35.2797393799 44.7665786743 55.2596588135 64.7409210205 72.1956100464 78.8134841919 86.1722106934 13.8471317291 21.2032604218 27.8214187622 35.279800415 44.7666320801 55.2596054077 64.7408599854 72.1955337524 78.8134689331 86.1721954346 13.860496521 21.2489547729 27.9338150024 35.3987731934 44.8134155273 55.2126235962 64.6218261719 72.0832748413 78.7679748535 86.1589050293 13.879067421 21.3456478119 28.1607837677 35.6657409668 44.9297523499 55.0957450867 64.3548126221 71.8566131592 78.6716308594 86.1404266357 13.9003715515 21.512670517 28.6134643555 36.2310791016 45.2103652954 54.8136520386 63.7896270752 71.4043655396 78.5053863525 86.1191864014 13.938419342 21.7287101746 29.3578548431 37.1947898865 45.6309928894 54.3910446167 62.8253211975 70.6611175537 78.2904891968 86.0812759399 
13.9382381439 21.7278862 29.3555278778 37.1913223267 45.629447937 54.3924484253 62.8288726807 70.6635818481 78.2913513184 86.0814819336 13.9002571106 21.5119991302 28.6112937927 36.2288360596 45.2090492249 54.8149642944 63.7916717529 71.4065628052 78.5060577393 86.1193237305 13.8789691925 21.3450927734 28.1592922211 35.6634254456 44.9276809692 55.0977478027 64.3570556641 71.8580169678 78.672164917 86.1405029297 13.8603897095 21.248456955 27.9322071075 35.3951797485 44.8100357056 55.2159881592 64.6253738403 72.0848312378 78.7684555054 86.1590118408 13.8470563889 21.2028141022 27.8197593689 35.2747077942 44.7620429993 55.2642173767 64.7459259033 72.1971969604 78.8138961792 86.1722793579 13.8470621109 21.2028369904 27.8198394775 35.2747650146 44.7621040344 55.2641716003 64.7458877563 72.1971054077 78.8138809204 86.1722717285 13.8604316711 21.2486190796 27.932592392 35.3956642151 44.8102264404 55.2158088684 64.6249313354 72.0844955444 78.7683105469 86.1589660645 13.8790130615 21.3454341888 28.1600704193 35.6643753052 44.9285163879 55.0969810486 64.3561782837 71.8573455811 78.6718521118 86.1404647827 13.9003334045 21.5125617981 28.6131000519 36.2304458618 45.2100486755 54.8139686584 63.7902641296 71.4047317505 78.5054855347 86.1192321777 13.9383897781 21.7286243439 29.3576908112 37.1945991516 45.6309318542 54.3911170959 62.8255119324 70.6612701416 78.2905731201 86.0813140869 
13.9382371902 21.7278862 29.3555183411 37.1913146973 45.6294403076 54.3924484253 62.8288803101 70.6635894775 78.2913513184 86.0814819336 13.9002561569 21.5119953156 28.611284256 36.2288208008 45.2090492249 54.8149642944 63.791683197 71.406578064 78.5060653687 86.1193237305 13.8789672852 21.345085144 28.1592731476 35.6633987427 44.9276657104 55.0977630615 64.3570785522 71.8580474854 78.6721801758 86.1405181885 13.8603897095 21.2484474182 27.932182312 35.3951416016 44.8100166321 55.2160110474 64.6254119873 72.084854126 78.7684631348 86.1590194702 13.8470525742 21.2028026581 27.8197288513 35.2746620178 44.7620201111 55.2642364502 64.7459716797 72.197227478 78.813911438 86.1722793579 13.8470611572 21.2028255463 27.8198051453 35.274723053 44.7620773315 55.2641944885 64.7459335327 72.1971511841 78.8138961792 86.1722717285 13.8604297638 21.2486095428 27.9325675964 35.3956298828 44.8102149963 55.2158355713 64.6249694824 72.084526062 78.7683258057 86.1589660645 13.8790140152 21.3454322815 28.1600475311 35.664352417 44.9285011292 55.0970001221 64.3562088013 71.8573455811 78.6718521118 86.1404724121 13.9003334045 21.5125579834 28.6130905151 36.2304344177 45.2100486755 54.8139648438 63.7902832031 71.4047393799 78.5054855347 86.1192321777 13.9383897781 21.7286262512 29.3576850891 37.1945915222 45.6309318542 54.39112854 62.8255119324 70.661277771 78.2905731201 86.0813140869 
13.9382371902 21.7278862 29.3555107117 37.1913146973 45.6294403076 54.3924560547 62.8288803101 70.6635971069 78.2913513184 86.0814819336 13.9002561569 21.5119895935 28.6112728119 36.228805542 45.2090377808 54.8149719238 63.7916946411 71.4065856934 78.5060653687 86.1193237305 13.8789653778 21.345079422 28.1592540741 35.6633834839 44.927646637 55.0977859497 64.357093811 71.8580551147 78.6721801758 86.1405181885 13.8603878021 21.2484378815 27.9321632385 35.3951148987 44.8099975586 55.2160339355 64.6254425049 72.0848999023 78.7684783936 86.1590194702 13.8470525742 21.2027893066 27.8197059631 35.2746200562 44.7620010376 55.2642593384 64.7460098267 72.1972427368 78.8139266968 86.1722793579 13.8470611572 21.2028160095 27.8197803497 35.2746810913 44.7620658875 55.2642021179 64.7459716797 72.1971817017 78.813911438 86.1722717285 13.8604297638 21.2485980988 27.9325389862 35.3955955505 44.8101882935 55.2158508301 64.625 72.0845489502 78.7683334351 86.1589660645 13.8790121078 21.3454265594 28.160030365 35.6643333435 44.9284973145 55.0970115662 64.3562240601 71.8573608398 78.6718597412 86.1404724121 13.9003334045 21.5125579834 28.6130809784 36.2304153442 45.2100410461 54.8139762878 63.7902908325 71.4047470093 78.5055007935 86.1192321777 13.9383888245 21.7286224365 29.3576812744 37.1945838928 45.6309318542 54.39112854 62.8255310059 70.661277771 78.2905731201 86.0813140869 
13.9382371902 21.7278823853 29.3555107117 37.1913032532 45.6294403076 54.3924636841 62.8288841248 70.6636047363 78.2913513184 86.0814819336 13.9002552032 21.5119857788 28.6112613678 36.2287940979 45.2090301514 54.8149757385 63.7917060852 71.4066009521 78.506072998 86.1193161011 13.8789653778 21.3450717926 28.159236908 35.663356781 44.9276313782 55.0977973938 64.3571243286 71.8580780029 78.6721878052 86.1405181885 13.8603858948 21.2484302521 27.932138443 35.3950805664 44.8099784851 55.216053009 64.6254730225 72.0849151611 78.7684707642 86.1590194702 13.8470525742 21.2027835846 27.8196716309 35.2745780945 44.7619819641 55.2642784119 64.746055603 72.1972732544 78.8139419556 86.1722793579 13.8470611572 21.2028045654 27.8197517395 35.2746391296 44.7620391846 55.2642288208 64.7460174561 72.1972045898 78.813911438 86.1722717285 13.8604288101 21.2485942841 27.9325122833 35.395565033 44.8101730347 55.2158813477 64.625038147 72.084564209 78.7683410645 86.1589660645 13.8790121078 21.3454170227 28.1600093842 35.6643066406 44.9284744263 55.097026825 64.3562469482 71.8573913574 78.6718673706 86.1404800415 13.9003334045 21.5125522614 28.6130695343 36.2304077148 45.2100334167 54.8139877319 63.7903060913 71.4047622681 78.5055084229 86.1192321777 13.9383888245 21.7286205292 29.3576774597 37.1945838928 45.6309242249 54.39112854 62.8255271912 70.661277771 78.2905731201 86.0813140869 
13.9382390976 21.7278785706 29.3555049896 37.1912956238 45.6294326782 54.3924636841 62.8288955688 70.6636047363 78.2913665771 86.0814819336 13.9002542496 21.5119819641 28.6112518311 36.2287826538 45.2090263367 54.8149833679 63.7917137146 71.4066085815 78.506072998 86.1193161011 13.8789672852 21.3450641632 28.1592235565 35.6633377075 44.9276161194 55.0978088379 64.3571395874 71.8581085205 78.6721878052 86.1405181885 13.8603858948 21.2484207153 27.9321136475 35.3950500488 44.8099517822 55.2160644531 64.6255187988 72.0849304199 78.7684936523 86.1590194702 13.8470516205 21.2027702332 27.8196468353 35.2745361328 44.7619667053 55.2642974854 64.7461013794 72.1972961426 78.813949585 86.1722793579 13.8470592499 21.2027950287 27.8197250366 35.274597168 44.7620353699 55.2642478943 64.7460479736 72.1972198486 78.8139190674 86.1722717285 13.8604288101 21.2485809326 27.9324932098 35.3955345154 44.8101539612 55.2159004211 64.6250686646 72.0845947266 78.7683486938 86.1589660645 13.8790102005 21.3454113007 28.159992218 35.6642913818 44.9284553528 55.0970458984 64.3562698364 71.8573989868 78.6718673706 86.1404800415 13.9003314972 21.5125465393 28.6130580902 36.2303962708 45.2100257874 54.8139839172 63.7903137207 71.4047698975 78.5055007935 86.1192321777 13.9383888245 21.7286167145 29.3576717377 37.1945724487 45.6309242249 54.39112854 62.8255348206 70.6612930298 78.2905731201 86.0813140869 
13.9382390976 21.7278785706 29.3555030823 37.1912879944 45.6294326782 54.3924636841 62.8289031982 70.6636123657 78.2913589478 86.0814743042 13.9002542496 21.5119781494 28.6112442017 36.2287750244 45.2090187073 54.814994812 63.7917251587 71.4066238403 78.5060806274 86.1193161011 13.8789672852 21.3450603485 28.1592025757 35.6633148193 44.9276123047 55.0978279114 64.3571624756 71.8581085205 78.6721954346 86.1405181885 13.8603858948 21.2484111786 27.9320869446 35.3950195312 44.8099327087 55.2160873413 64.625541687 72.0849533081 78.7685089111 86.1590194702 13.8470506668 21.2027587891 27.8196163177 35.2744903564 44.7619438171 55.2643127441 64.7461395264 72.1973266602 78.8139572144 86.1722793579 13.8470573425 21.2027835846 27.8196907043 35.2745513916 44.7620010376 55.2642631531 64.7460861206 72.1972579956 78.8139343262 86.1722793579 13.8604278564 21.2485733032 27.9324684143 35.3955001831 44.8101348877 55.2159233093 64.6250915527 72.0846176147 78.7683639526 86.1589660645 13.8790102005 21.3454055786 28.1599750519 35.6642684937 44.9284477234 55.0970497131 64.3562850952 71.8574295044 78.671875 86.1404800415 13.9003324509 21.512544632 28.6130466461 36.2303771973 45.2100219727 54.8139953613 63.7903289795 71.4047927856 78.5055007935 86.1192321777 13.9383888245 21.7286186218 29.3576660156 37.1945724487 45.6309242249 54.3911361694 62.8255386353 70.6612854004 78.2905731201 86.0813140869 
