2.26518201828 4.02344989777 7.11858797073 9.88785552979 11.3562660217 11.3551244736 9.88211727142 7.11074972153 4.01621103287 2.26506185532 2.29149007797 5.22607755661 10.0746278763 14.4181051254 16.712600708 16.7108306885 14.4091567993 10.0623893738 5.21454048157 2.29116177559 2.31533145905 6.07662820816 12.0567884445 17.3668880463 20.2281570435 20.2259349823 17.3558654785 12.0418424606 6.0621881485 2.31481838226 2.33101344109 6.56634521484 13.1446771622 18.9088439941 22.0329399109 22.0305213928 18.8968734741 13.1283922195 6.55028915405 2.33037996292 2.33885097504 6.80717420578 13.6631727219 19.6297550201 22.868188858 22.8656997681 19.6173744202 13.6462869644 6.79034376144 2.33815741539 2.33884501457 6.80698919296 13.662779808 19.6292037964 22.8675613403 22.8650665283 19.6168212891 13.6458940506 6.79015922546 2.33815193176 2.33098196983 6.56538295746 13.1425762177 18.9058513641 22.0294799805 22.0270652771 18.8938941956 13.1263055801 6.54933643341 2.33034873009 2.31528115273 6.07494163513 12.0529756546 17.3613910675 20.2210693359 20.2188854218 17.3504199982 12.0380649567 6.0605173111 2.31476831436 2.2914185524 5.22349596024 10.0684394836 14.4090061188 16.7015972137 16.699848175 14.4001550674 10.0562419891 5.21199226379 2.29109168053 2.26513075829 4.01991605759 7.10952234268 9.87320423126 11.3384132385 11.3374919891 9.86749458313 7.10181760788 4.01272726059 2.26501131058 
2.26530718803 3.90078687668 6.86247158051 9.58204174042 11.0549192429 11.0537633896 9.57633972168 6.85486745834 3.89396095276 2.26519370079 2.29041171074 5.09036636353 9.81841945648 14.1538438797 16.51445961 16.512594223 14.1447658539 9.80635452271 5.07922697067 2.29010057449 2.31396818161 5.95687913895 11.8418970108 17.2143363953 20.2539672852 20.2515525818 17.2028503418 11.8270616531 5.94275712967 2.31347465515 2.33029747009 6.46794605255 12.9814481735 18.8952407837 22.2488594055 22.2461967468 18.8825817108 12.9651250839 6.45214223862 2.32967948914 2.33903837204 6.7220993042 13.5387210846 19.6970024109 23.1838760376 23.1811161041 19.6838417053 13.5216999054 6.7054848671 2.33835482597 2.33903217316 6.7219042778 13.5382995605 19.6963939667 23.1831665039 23.1804141998 19.6832351685 13.5212783813 6.70529079437 2.33834862709 2.33026313782 6.4669380188 12.9792175293 18.8919715881 22.2450199127 22.2423591614 18.8793315887 12.9629096985 6.45114469528 2.3296456337 2.31391763687 5.95514202118 11.8379840851 17.2084293365 20.2463741302 20.2440166473 17.1969909668 11.8231964111 5.94104003906 2.31342434883 2.29034280777 5.08777809143 9.81214237213 14.1445760727 16.5027656555 16.5009346008 14.1356277466 9.80014419556 5.07668447495 2.29003429413 2.26526021957 3.89742302895 6.85371208191 9.56740951538 11.037238121 11.036315918 9.56171894073 6.84630537033 3.89066910744 2.26514673233 
2.26530909538 3.87803649902 6.81439161301 9.52303123474 10.9940729141 10.9929161072 9.51734447479 6.80683374405 3.8712875843 2.26519680023 2.29017710686 5.06446075439 9.76862621307 14.0985832214 16.4635753632 16.4616985321 14.0894975662 9.75660037994 5.05339813232 2.28986907005 2.31364345551 5.93375301361 11.7992954254 17.1727542877 20.2380752563 20.235616684 17.1612262726 11.7844905853 5.91969347 2.31315398216 2.330098629 6.44991016388 12.9503822327 18.8838291168 22.292301178 22.2895698547 18.8710403442 12.9340734482 6.43415164948 2.32948327065 2.33894443512 6.70814418793 13.5163269043 19.7099647522 23.2655677795 23.2627334595 19.6966228485 13.499297142 6.69156360626 2.33826303482 2.33893799782 6.70794677734 13.5158967972 19.7093391418 23.2648353577 23.2620010376 19.6959991455 13.4988737106 6.69136571884 2.33825659752 2.33006381989 6.44889116287 12.9481287003 18.8804893494 22.2883338928 22.2856063843 18.8677215576 12.9318370819 6.43314266205 2.32944917679 2.31359362602 5.93200540543 11.7953681946 17.1667919159 20.230386734 20.22797966 17.1553115845 11.7806053162 5.91796541214 2.31310367584 2.29010891914 5.0618724823 9.76233863831 14.0893011093 16.4518032074 16.4499645233 14.0803480148 9.75038719177 5.05085849762 2.28980350494 2.2652630806 3.87470650673 6.80569553375 9.50841140747 10.9764318466 10.9755058289 9.50273227692 6.79834604263 3.86803436279 2.26515054703 
2.26530885696 3.87288570404 6.80348825455 9.50959587097 10.980096817 10.9789390564 9.50391101837 6.79593992233 3.86615467072 2.26519727707 2.29012203217 5.05855941772 9.75724697113 14.0857639313 16.4514007568 16.4495258331 14.0766773224 9.7452287674 5.04751396179 2.2898144722 2.31356930733 5.92849063873 11.7895698547 17.1628112793 20.2320823669 20.2296218872 17.1512775421 11.774772644 5.91444587708 2.31308078766 2.33005142212 6.44594573975 12.9435472488 18.8809299469 22.3023090363 22.2995624542 18.8681144714 12.9272413254 6.43019866943 2.32943701744 2.33893823624 6.70526218414 13.5120019913 19.7139549255 23.2877483368 23.2848892212 19.7005653381 13.4949703217 6.68868970871 2.33825731277 2.33893203735 6.70506286621 13.5115699768 19.7133216858 23.2869987488 23.2841453552 19.6999340057 13.4945402145 6.68848991394 2.33825063705 2.33001685143 6.44492387772 12.9412879944 18.877571106 22.2983016968 22.2955551147 18.864774704 12.9249954224 6.42918682098 2.32940268517 2.31351947784 5.92674016953 11.7856349945 17.1568374634 20.2243709564 20.2219619751 17.1453533173 11.7708826065 5.91271686554 2.31303048134 2.29005384445 5.05597066879 9.75095653534 14.0764770508 16.4396114349 16.4377746582 14.0675268173 9.7390127182 5.0449757576 2.28974914551 2.26526260376 3.86956334114 6.79480648041 9.4949798584 10.9624633789 10.9615373611 9.48930358887 6.78747034073 3.86290979385 2.26515054703 
2.26530861855 3.87132692337 6.80019140244 9.50553226471 10.9758672714 10.9747085571 9.49984931946 6.7926440239 3.86460137367 2.26519680023 2.29010486603 5.0567741394 9.75380516052 14.0818738937 16.4476795197 16.4458007812 14.0727853775 9.74178791046 5.04573392868 2.28979825974 2.31354784966 5.92690515518 11.7866516113 17.1597919464 20.2300605774 20.227596283 17.1482601166 11.7718572617 5.91286468506 2.31305956841 2.33003735542 6.44477844238 12.9415435791 18.8800754547 22.3053760529 22.3026294708 18.8672542572 12.9252376556 6.42903423309 2.32942342758 2.33893895149 6.70444917679 13.5108385086 19.715511322 23.2952461243 23.2923774719 19.7021026611 13.4938058853 6.68787765503 2.33825850487 2.33893251419 6.70425033569 13.5104055405 19.7148742676 23.2944889069 23.2916259766 19.7014713287 13.4933786392 6.68767786026 2.33825135231 2.33000254631 6.44375514984 12.9392786026 18.8767089844 22.3013553619 22.2986068726 18.8639068604 12.9229898453 6.42802143097 2.32938885689 2.31349730492 5.92515420914 11.7827148438 17.1538181305 20.2223396301 20.2199268341 17.1423301697 11.7679643631 5.9111328125 2.31300902367 2.29003691673 5.05418586731 9.74751186371 14.0725860596 16.4358844757 16.434047699 14.0636329651 9.73557472229 5.04319620132 2.28973245621 2.26526212692 3.86800694466 6.79151153564 9.49091815948 10.958234787 10.9573106766 9.48524284363 6.78418159485 3.861358881 2.26515030861 
2.26530861855 3.87075424194 6.79898023605 9.50404453278 10.9743156433 10.97315979 9.4983625412 6.79143476486 3.86403083801 2.26519656181 2.29009890556 5.05611944199 9.75254440308 14.0804491043 16.4463119507 16.4444332123 14.0713605881 9.74053096771 5.04508209229 2.28979253769 2.31354022026 5.92632722855 11.7855949402 17.1586990356 20.2292900085 20.2268218994 17.1471652985 11.7707996368 5.91228818893 2.31305170059 2.33003234863 6.44436454773 12.9408369064 18.8798007965 22.3065509796 22.3037967682 18.8669757843 12.924533844 6.42862176895 2.32941818237 2.33894014359 6.70417547226 13.510471344 19.7162284851 23.2982902527 23.2954235077 19.7028179169 13.493437767 6.68760299683 2.33825945854 2.33893370628 6.70397520065 13.5100355148 19.715593338 23.2975349426 23.2946643829 19.7021846771 13.4930095673 6.68740463257 2.33825325966 2.32999753952 6.44334077835 12.938574791 18.8764266968 22.302520752 22.2997684479 18.8636264801 12.9222831726 6.42760753632 2.3293838501 2.31348991394 5.9245762825 11.7816572189 17.1527175903 20.2215614319 20.2191524506 17.1412334442 11.766907692 5.91055727005 2.31300139427 2.29003095627 5.05353212357 9.74625301361 14.0711574554 16.4345169067 16.4326782227 14.0622081757 9.73431396484 5.04254436493 2.28972625732 2.26526260376 3.86743545532 6.79030370712 9.48942947388 10.9566841125 10.9557619095 9.48375415802 6.78297281265 3.86078906059 2.26515030861 
2.26530838013 3.87051200867 6.79847240448 9.50342273712 10.9736690521 10.9725122452 9.49773979187 6.79092788696 3.86379003525 2.26519656181 2.29009604454 5.05584669113 9.7520198822 14.0798578262 16.4457435608 16.4438667297 14.07076931 9.74000549316 5.04480886459 2.28978943825 2.31353712082 5.92608976364 11.7851629257 17.1582584381 20.2289733887 20.2265071869 17.1467227936 11.7703676224 5.91205120087 2.31304860115 2.3300306797 6.44420051575 12.9405651093 18.8797245026 22.307094574 22.3043441772 18.866897583 12.9242601395 6.42845869064 2.32941651344 2.33894181252 6.70407485962 13.5103530884 19.7166194916 23.2997322083 23.2968597412 19.7032089233 13.4933185577 6.68750286102 2.33826112747 2.33893489838 6.70387554169 13.5099191666 19.7159862518 23.2989768982 23.2961082458 19.7025718689 13.4928913116 6.68730449677 2.33825469017 2.32999563217 6.44317722321 12.9383001328 18.8763542175 22.3030643463 22.3003082275 18.8635482788 12.9220123291 6.42744445801 2.32938194275 2.3134868145 5.92433786392 11.7812242508 17.1522769928 20.2212429047 20.2188339233 17.1407871246 11.7664718628 5.91031885147 2.31299901009 2.29002833366 5.0532579422 9.74573040009 14.070567131 16.4339485168 16.4321117401 14.0616168976 9.73379230499 5.04227113724 2.28972411156 2.26526260376 3.86719369888 6.78979492188 9.48880767822 10.9560413361 10.955116272 9.48313236237 6.78246593475 3.8605492115 2.26515054703 
