1.0 1.00000011921 0.996265590191 1.04972922802 1.09842741489 1.09840869904 1.04966568947 1.00000023842 1.0 1.0 0.999999940395 1.00118470192 1.07961213589 1.16974484921 1.22453451157 1.22452008724 1.16968262196 1.03476440907 1.00116372108 1.0 1.0 1.05390310287 1.15741443634 1.23269975185 1.2647844553 1.26477241516 1.23264861107 1.10210895538 1.0538289547 1.00000011921 1.0 1.08696198463 1.18504214287 1.245834589 1.27178525925 1.27177774906 1.24579429626 1.13559520245 1.0868960619 1.00000011921 1.0 1.11219668388 1.20240914822 1.25424933434 1.27505159378 1.27504706383 1.25421822071 1.16178488731 1.11213350296 1.00000011921 1.0 1.11218833923 1.20240318775 1.25424158573 1.27506518364 1.27506005764 1.25420939922 1.16177940369 1.11212527752 1.00000011921 1.0 1.08692169189 1.18501317501 1.24579238892 1.27178907394 1.27178025246 1.24575066566 1.13556015491 1.08685612679 1.0 1.0 1.03587830067 1.1327059269 1.22065615654 1.2607717514 1.26076447964 1.22059869766 1.08240389824 1.03580403328 1.00000011921 1.0 1.00116419792 1.0795378685 1.16971468925 1.22454559803 1.2245118618 1.16966927052 1.03469634056 1.00114369392 1.00000011921 1.0 1.00000011921 0.996276140213 1.04963183403 1.09825861454 1.0982915163 1.04955279827 1.00000011921 1.0 0.999999940395 
1.0 1.00000011921 0.996265590191 1.04972922802 1.09842741489 1.09840869904 1.04966568947 1.00000023842 1.0 1.0 0.999999940395 1.00118470192 1.07961213589 1.16980373859 1.24566423893 1.2456496954 1.16974127293 1.03476440907 1.00116372108 1.0 1.0 1.05390310287 1.15938556194 1.26227891445 1.35286784172 1.35285818577 1.26222443581 1.10210895538 1.0538289547 1.00000011921 1.0 1.08696198463 1.19549930096 1.2929661274 1.37471187115 1.37470173836 1.2929224968 1.13559520245 1.0868960619 1.00000011921 1.0 1.11219668388 1.22729480267 1.32139110565 1.39042472839 1.39041864872 1.32135438919 1.1626367569 1.11213350296 1.00000011921 1.0 1.11218833923 1.22728669643 1.32137274742 1.39048814774 1.39047777653 1.32133126259 1.16263198853 1.11212527752 1.00000011921 1.0 1.08692169189 1.19546604156 1.29289114475 1.37477385998 1.37475764751 1.29284262657 1.13556015491 1.08685612679 1.0 1.0 1.03587830067 1.1327059269 1.22994947433 1.3201789856 1.32017660141 1.22988653183 1.08240389824 1.03580403328 1.00000011921 1.0 1.00116419792 1.0795378685 1.16977536678 1.24570643902 1.24565815926 1.16973078251 1.03469634056 1.00114369392 1.00000011921 1.0 1.00000011921 0.996276140213 1.04963183403 1.09825861454 1.0982915163 1.04955279827 1.00000011921 1.0 0.999999940395 
1.0 1.00000011921 0.996265590191 1.04972922802 1.09842741489 1.09840869904 1.04966568947 1.00000023842 1.0 1.0 0.999999940395 1.00118470192 1.07961213589 1.16980373859 1.24566423893 1.2456496954 1.16974127293 1.03476440907 1.00116372108 1.0 1.0 1.05390310287 1.15938556194 1.26227891445 1.35748243332 1.35747385025 1.26222443581 1.10210895538 1.0538289547 1.00000011921 1.0 1.08696198463 1.19549930096 1.29296791553 1.38381159306 1.38380336761 1.29292440414 1.13559520245 1.0868960619 1.00000011921 1.0 1.11219668388 1.22729480267 1.32480239868 1.406270504 1.4062666893 1.32476866245 1.1626367569 1.11213350296 1.00000011921 1.0 1.11218833923 1.22728669643 1.3247834444 1.40636777878 1.40635800362 1.32474398613 1.16263198853 1.11212527752 1.00000011921 1.0 1.08692169189 1.19546604156 1.29289293289 1.38391137123 1.3838956356 1.29284441471 1.13556015491 1.08685612679 1.0 1.0 1.03587830067 1.1327059269 1.22994947433 1.3201789856 1.32017660141 1.22988653183 1.08240389824 1.03580403328 1.00000011921 1.0 1.00116419792 1.0795378685 1.16977536678 1.24570643902 1.24565815926 1.16973078251 1.03469634056 1.00114369392 1.00000011921 1.0 1.00000011921 0.996276140213 1.04963183403 1.09825861454 1.0982915163 1.04955279827 1.00000011921 1.0 0.999999940395 
1.0 1.00000011921 0.996265590191 1.04972922802 1.09842741489 1.09840869904 1.04966568947 1.00000023842 1.0 1.0 0.999999940395 1.00118470192 1.07961213589 1.16980373859 1.24566423893 1.2456496954 1.16974127293 1.03476440907 1.00116372108 1.0 1.0 1.05390310287 1.15938556194 1.26227891445 1.35748243332 1.35747385025 1.26222443581 1.10210895538 1.0538289547 1.00000011921 1.0 1.08696198463 1.19549930096 1.29296791553 1.3839918375 1.38398385048 1.29292440414 1.13559520245 1.0868960619 1.00000011921 1.0 1.11219668388 1.22729480267 1.32490634918 1.40731394291 1.407310009 1.32487285137 1.1626367569 1.11213350296 1.00000011921 1.0 1.11218833923 1.22728669643 1.32488822937 1.40741813183 1.40740847588 1.32484865189 1.16263198853 1.11212527752 1.00000011921 1.0 1.08692169189 1.19546604156 1.29289293289 1.38409686089 1.38408124447 1.29284441471 1.13556015491 1.08685612679 1.0 1.0 1.03587830067 1.1327059269 1.22994947433 1.3201789856 1.32017660141 1.22988653183 1.08240389824 1.03580403328 1.00000011921 1.0 1.00116419792 1.0795378685 1.16977536678 1.24570643902 1.24565815926 1.16973078251 1.03469634056 1.00114369392 1.00000011921 1.0 1.00000011921 0.996276140213 1.04963183403 1.09825861454 1.0982915163 1.04955279827 1.00000011921 1.0 0.999999940395 
1.0 1.00000011921 0.996265590191 1.04972922802 1.09842741489 1.09840869904 1.04966568947 1.00000023842 1.0 1.0 0.999999940395 1.00118470192 1.07961213589 1.16980373859 1.24566423893 1.2456496954 1.16974127293 1.03476440907 1.00116372108 1.0 1.0 1.05390310287 1.15938556194 1.26227891445 1.35748243332 1.35747385025 1.26222443581 1.10210895538 1.0538289547 1.00000011921 1.0 1.08696198463 1.19549930096 1.29296791553 1.3839918375 1.38398396969 1.29292440414 1.13559520245 1.0868960619 1.00000011921 1.0 1.11219668388 1.22729480267 1.32491719723 1.40735781193 1.4073536396 1.32488369942 1.1626367569 1.11213350296 1.00000011921 1.0 1.11218833923 1.22728669643 1.32489907742 1.40746283531 1.40745329857 1.32485949993 1.16263198853 1.11212527752 1.00000011921 1.0 1.08692169189 1.19546604156 1.29289293289 1.38409733772 1.38408148289 1.29284441471 1.13556015491 1.08685612679 1.0 1.0 1.03587830067 1.1327059269 1.22994947433 1.3201789856 1.32017660141 1.22988653183 1.08240389824 1.03580403328 1.00000011921 1.0 1.00116419792 1.0795378685 1.16977536678 1.24570643902 1.24565815926 1.16973078251 1.03469634056 1.00114369392 1.00000011921 1.0 1.00000011921 0.996276140213 1.04963183403 1.09825861454 1.0982915163 1.04955279827 1.00000011921 1.0 0.999999940395 
1.0 1.00000011921 0.996265590191 1.04972922802 1.09842741489 1.09840869904 1.04966568947 1.00000023842 1.0 1.0 0.999999940395 1.00118470192 1.07961213589 1.16980373859 1.24566423893 1.2456496954 1.16974127293 1.03476440907 1.00116372108 1.0 1.0 1.05390310287 1.15938556194 1.26227891445 1.35748243332 1.35747385025 1.26222443581 1.10210895538 1.0538289547 1.00000011921 1.0 1.08696198463 1.19549930096 1.29296791553 1.38399600983 1.38398814201 1.29292440414 1.13559520245 1.0868960619 1.00000011921 1.0 1.11219668388 1.22729480267 1.32492518425 1.40736711025 1.40736305714 1.32489168644 1.1626367569 1.11213350296 1.00000011921 1.0 1.11218833923 1.22728669643 1.32490706444 1.40747249126 1.40746283531 1.32486760616 1.16263198853 1.11212527752 1.00000011921 1.0 1.08692169189 1.19546604156 1.29289293289 1.38410198689 1.38408613205 1.29284441471 1.13556015491 1.08685612679 1.0 1.0 1.03587830067 1.1327059269 1.22994947433 1.3201789856 1.32017660141 1.22988653183 1.08240389824 1.03580403328 1.00000011921 1.0 1.00116419792 1.0795378685 1.16977536678 1.24570643902 1.24565815926 1.16973078251 1.03469634056 1.00114369392 1.00000011921 1.0 1.00000011921 0.996276140213 1.04963183403 1.09825861454 1.0982915163 1.04955279827 1.00000011921 1.0 0.999999940395 
1.0 1.00000011921 0.996265590191 1.04972922802 1.09842741489 1.09840869904 1.04966568947 1.00000023842 1.0 1.0 0.999999940395 1.00118470192 1.07961213589 1.16980373859 1.24566423893 1.2456496954 1.16974127293 1.03476440907 1.00116372108 1.0 1.0 1.05390310287 1.15938556194 1.26227891445 1.35748243332 1.35747385025 1.26222443581 1.10210895538 1.0538289547 1.00000011921 1.0 1.08696198463 1.19549930096 1.29296791553 1.38400268555 1.38399481773 1.29292440414 1.13559520245 1.0868960619 1.00000011921 1.0 1.11219668388 1.22729480267 1.32493281364 1.40737640858 1.40737223625 1.32489931583 1.1626367569 1.11213350296 1.00000011921 1.0 1.11218833923 1.22728669643 1.32491469383 1.40748143196 1.40747189522 1.32487535477 1.16263198853 1.11212527752 1.00000011921 1.0 1.08692169189 1.19546604156 1.29289293289 1.38410890102 1.38409304619 1.29284441471 1.13556015491 1.08685612679 1.0 1.0 1.03587830067 1.1327059269 1.22994947433 1.3201789856 1.32017660141 1.22988653183 1.08240389824 1.03580403328 1.00000011921 1.0 1.00116419792 1.0795378685 1.16977536678 1.24570643902 1.24565815926 1.16973078251 1.03469634056 1.00114369392 1.00000011921 1.0 1.00000011921 0.996276140213 1.04963183403 1.09825861454 1.0982915163 1.04955279827 1.00000011921 1.0 0.999999940395 
