13.9363584518 21.7082157135 29.2933578491 37.1790962219 45.6458396912 54.3759803772 62.8413581848 70.7257232666 78.3109207153 86.0833435059 13.8992023468 21.4785327911 28.5474319458 36.3743247986 45.3203468323 54.7031021118 63.6467552185 71.4706497192 78.5394134521 86.1203460693 13.8790473938 21.3109874725 28.0876464844 35.8973579407 45.1205444336 54.9038925171 64.1240539551 71.9299545288 78.7061309814 86.1404266357 13.8633995056 21.2152271271 27.8817672729 35.7022628784 45.039730072 54.9851303101 64.3192901611 72.1356964111 78.8015441895 86.1560058594 13.853512764 21.1722679138 27.7988967896 35.6212654114 45.0064048767 55.0186157227 64.4003677368 72.2185134888 78.8443450928 86.1658477783 13.853521347 21.1722927094 27.7989578247 35.6213226318 45.0064315796 55.0185775757 64.4002914429 72.218460083 78.8443222046 86.1658477783 13.8634338379 21.2153987885 27.8821086884 35.7026290894 45.0398597717 54.9849853516 64.3189315796 72.1353530884 78.8013763428 86.1559677124 13.8790864944 21.3113079071 28.0884208679 35.8981285095 45.1210174561 54.9034233093 64.1232910156 71.9291915894 78.7058105469 86.1404037476 13.8992681503 21.479019165 28.5489559174 36.3758163452 45.3210525513 54.7023544312 63.6453056335 71.4691238403 78.5389251709 86.1202850342 13.9364967346 21.7089004517 29.2953147888 37.1816940308 45.6470146179 54.3748435974 62.8387718201 70.7238464355 78.3102645874 86.0831985474 
13.9348907471 21.7060165405 29.2939186096 37.1735687256 45.6400489807 54.3817977905 62.8468589783 70.7251358032 78.3131408691 86.0848083496 13.8965759277 21.474149704 28.5321826935 36.320640564 45.278175354 54.7454872131 63.7003288269 71.4858169556 78.5437850952 86.1229705811 13.8746500015 21.2950878143 28.0352916718 35.7576675415 45.0265579224 54.9983673096 64.2635345459 71.9821548462 78.7219848633 86.1448135376 13.8569383621 21.1808700562 27.7692222595 35.4807510376 44.9134216309 55.1120758057 64.5406646729 72.2479553223 78.8357849121 86.1624450684 13.8455076218 21.1225414276 27.6386928558 35.3572158813 44.8659439087 55.159778595 64.6643295288 72.3783874512 78.8938903809 86.1738433838 13.8455162048 21.1225833893 27.638792038 35.35729599 44.8659896851 55.1597213745 64.6642532349 72.3782958984 78.8938446045 86.173828125 13.8569755554 21.1810874939 27.7697124481 35.4812583923 44.9136123657 55.1118659973 64.5401535034 72.247467041 78.8355560303 86.1624145508 13.8746957779 21.2954406738 28.0361747742 35.7586860657 45.0271072388 54.9977989197 64.2625274658 71.981262207 78.7216262817 86.1447601318 13.8966436386 21.474647522 28.5337810516 36.322265625 45.2790222168 54.7445983887 63.6987533569 71.4842300415 78.5433120728 86.1229019165 13.9350252151 21.7066650391 29.2957935333 37.176235199 45.6412086487 54.380695343 62.8441886902 70.7233810425 78.3125152588 86.0846633911 
13.9348297119 21.7060470581 29.2944068909 37.1739120483 45.6400680542 54.3817863464 62.8465156555 70.7246551514 78.3131103516 86.0848693848 13.8964529037 21.4742431641 28.532245636 36.3189811707 45.2769165039 54.7467536926 63.7019920349 71.485748291 78.5436935425 86.1231002808 13.8744115829 21.2945079803 28.0331268311 35.7511253357 45.0205726624 55.0043830872 64.2700653076 71.9843063354 78.7225570679 86.1450500488 13.8565502167 21.1788902283 27.762336731 35.4621696472 44.8983535767 55.1272125244 64.5592041016 72.2548141479 78.8377532959 86.1628341675 13.8449735641 21.1192913055 27.6274223328 35.3275604248 44.8451080322 55.1807174683 64.693939209 72.3895950317 78.8971252441 86.174369812 13.8449859619 21.1193332672 27.6275272369 35.3276519775 44.845161438 55.1806564331 64.6938476562 72.3895111084 78.8970794678 86.1743545532 13.8565864563 21.1791133881 27.7628421783 35.4627189636 44.8985671997 55.1269798279 64.5586471558 72.2543258667 78.8375244141 86.1627960205 13.8744573593 21.2948627472 28.0340232849 35.752166748 45.0211639404 55.003780365 64.26902771 71.9834136963 78.7222061157 86.1449966431 13.8965206146 21.4747390747 28.5338439941 36.3206176758 45.2777748108 54.7458534241 63.7003974915 71.484161377 78.5432128906 86.1230392456 13.93496418 21.7066917419 29.2962779999 37.176574707 45.6412162781 54.3806915283 62.8438453674 70.7228775024 78.3124923706 86.0847320557 
13.9348278046 21.7060508728 29.2944297791 37.1739273071 45.6400680542 54.3817863464 62.8465003967 70.7246398926 78.3131103516 86.0848846436 13.8964509964 21.4742527008 28.5322608948 36.3189430237 45.2768821716 54.7467842102 63.7020301819 71.485748291 78.5436859131 86.1231002808 13.8744020462 21.2944869995 28.0330410004 35.7509155273 45.0204353333 55.004524231 64.2702713013 71.9843826294 78.7225799561 86.1450576782 13.8565330505 21.1788024902 27.7620334625 35.4614105225 44.8976745605 55.1278991699 64.559967041 72.2551116943 78.8378295898 86.1628646851 13.844950676 21.1191425323 27.6268920898 35.3259849548 44.8438034058 55.1820220947 64.6955032349 72.3901367188 78.8972702026 86.1743850708 13.8449611664 21.1191825867 27.6269989014 35.3260765076 44.8438529968 55.181968689 64.6954116821 72.390045166 78.8972320557 86.1743621826 13.8565702438 21.179019928 27.7625370026 35.4619598389 44.897895813 55.1276664734 64.5594100952 72.2546157837 78.8376235962 86.1628112793 13.8744468689 21.2948436737 28.0339393616 35.7519645691 45.0210266113 55.0039100647 64.269241333 71.983505249 78.7222213745 86.1450195312 13.8965177536 21.4747524261 28.5338611603 36.3205795288 45.2777366638 54.7458877563 63.7004356384 71.4841537476 78.5432052612 86.123046875 13.934961319 21.7066955566 29.2963027954 37.1766014099 45.6412239075 54.3806877136 62.8438224792 70.7228622437 78.3124923706 86.0847396851 
13.9348278046 21.7060470581 29.294424057 37.1739234924 45.6400642395 54.3817863464 62.8465118408 70.7246322632 78.3131103516 86.0848846436 13.8964500427 21.4742488861 28.532251358 36.3189315796 45.2768783569 54.7467842102 63.7020378113 71.4857406616 78.5436935425 86.1231002808 13.8744029999 21.2944812775 28.0330257416 35.7508964539 45.0204277039 55.0045318604 64.2702941895 71.9843978882 78.7225875854 86.1450576782 13.8565301895 21.1787910461 27.7619972229 35.4613647461 44.897644043 55.1279220581 64.5600128174 72.2551422119 78.8378448486 86.1628646851 13.8449478149 21.1191272736 27.6268501282 35.3259086609 44.8437461853 55.1820869446 64.6955871582 72.3901824951 78.8972854614 86.1743850708 13.844959259 21.1191654205 27.6269493103 35.3259887695 44.8437957764 55.1820297241 64.6954956055 72.3900756836 78.8972473145 86.1743621826 13.8565683365 21.1790103912 27.7625083923 35.4619140625 44.8978614807 55.1276931763 64.559463501 72.2546463013 78.8376235962 86.1628112793 13.8744468689 21.294839859 28.0339164734 35.7519454956 45.0210266113 55.0039138794 64.2692565918 71.9835205078 78.7222366333 86.1450195312 13.8965158463 21.4747447968 28.5338535309 36.3205680847 45.2777366638 54.7458953857 63.7004470825 71.484161377 78.5432052612 86.1230392456 13.9349594116 21.7066936493 29.2962989807 37.1765937805 45.6412162781 54.3806915283 62.8438301086 70.722869873 78.3125 86.0847396851 
13.9348278046 21.7060470581 29.294424057 37.1739120483 45.6400604248 54.3817939758 62.8465156555 70.7246322632 78.3131103516 86.0848770142 13.8964481354 21.4742431641 28.5322437286 36.3189239502 45.2768707275 54.7467956543 63.7020492554 71.4857559204 78.5437011719 86.1231002808 13.8744020462 21.2944736481 28.0330104828 35.7508811951 45.0204200745 55.004535675 64.2703094482 71.984413147 78.7225952148 86.1450576782 13.8565292358 21.1787834167 27.7619800568 35.4613342285 44.8976325989 55.1279373169 64.560043335 72.2551651001 78.8378601074 86.1628646851 13.8449487686 21.1191158295 27.6268215179 35.3258628845 44.8437309265 55.1820983887 64.6956253052 72.3902206421 78.8973007202 86.1743774414 13.844959259 21.1191577911 27.6269245148 35.3259506226 44.8437805176 55.1820449829 64.6955413818 72.3901138306 78.8972549438 86.174369812 13.8565673828 21.1790027618 27.7624874115 35.4618873596 44.8978500366 55.1277084351 64.5594940186 72.2546768188 78.8376312256 86.1628112793 13.8744468689 21.2948284149 28.0339012146 35.7519226074 45.0210227966 55.0039253235 64.2692642212 71.9835357666 78.7222366333 86.1450195312 13.8965158463 21.4747447968 28.5338420868 36.3205566406 45.2777328491 54.7459030151 63.7004508972 71.4841766357 78.5432052612 86.1230392456 13.9349594116 21.7066898346 29.2962970734 37.1765899658 45.6412124634 54.3806915283 62.8438339233 70.7228775024 78.3125 86.0847396851 
13.9348258972 21.7060432434 29.294418335 37.1739120483 45.6400604248 54.3817901611 62.8465156555 70.7246322632 78.3131103516 86.0848770142 13.8964481354 21.4742393494 28.5322303772 36.3189125061 45.2768707275 54.7467956543 63.7020606995 71.4857635498 78.5437011719 86.1231002808 13.8744010925 21.2944698334 28.032995224 35.7508659363 45.0204124451 55.004535675 64.270324707 71.9844284058 78.7225875854 86.1450500488 13.8565273285 21.1787719727 27.7619533539 35.4613037109 44.8976173401 55.127948761 64.5600738525 72.2551956177 78.8378601074 86.1628646851 13.8449468613 21.119102478 27.626783371 35.3258209229 44.843711853 55.1821174622 64.6956787109 72.3902435303 78.8973083496 86.1743774414 13.8449573517 21.1191444397 27.6268901825 35.3259086609 44.8437652588 55.1820602417 64.6955795288 72.3901443481 78.8972702026 86.1743774414 13.8565673828 21.1789932251 27.762462616 35.461856842 44.8978347778 55.1277236938 64.5595245361 72.254699707 78.8376464844 86.1628189087 13.8744468689 21.2948246002 28.0338897705 35.7519073486 45.0210151672 55.0039329529 64.2692871094 71.983543396 78.7222366333 86.1450195312 13.8965148926 21.4747390747 28.5338306427 36.3205490112 45.2777290344 54.7458992004 63.700466156 71.4841766357 78.54322052 86.1230392456 13.9349594116 21.7066879272 29.296289444 37.176574707 45.6412124634 54.380695343 62.843837738 70.722869873 78.3125 86.0847396851 
