14.0021371841 13.7890148163 13.0397062302 11.8829402924 11.1566953659 11.1573104858 11.8856773376 13.0423164368 13.7902860641 14.002155304 21.9906539917 21.6146869659 20.5489253998 19.0274429321 18.0620822906 18.0628852844 19.031003952 20.5524616241 21.6165885925 21.9907474518 29.981470108 29.5284328461 28.5653076172 27.3040962219 26.4779834747 26.4786624908 27.3070888519 28.5682811737 29.5303688049 29.9816150665 37.9832763672 37.6459159851 37.0146026611 36.2447166443 35.7449035645 35.7453155518 36.2465286255 37.0164642334 37.6472511292 37.9834098816 45.9988212585 45.8739280701 45.6550331116 45.4001693726 45.2357254028 45.2358627319 45.4007644653 45.6556549072 45.8743896484 45.998878479 54.021232605 54.1467819214 54.3668327332 54.6229934692 54.7884597778 54.788318634 54.6223983765 54.366191864 54.1463088989 54.0211715698 62.0367431641 62.3745307922 63.0068283081 63.7779846191 64.2786941528 64.2782745361 63.7761688232 63.0049591064 62.373210907 62.0366020203 70.038520813 70.4916305542 71.4553146362 72.7179031372 73.5441131592 73.5434799194 72.7149505615 71.4523468018 70.4897003174 70.0383682251 78.0293121338 78.4048995972 79.4705352783 80.9925308228 81.957901001 81.9570846558 80.9890670776 79.467048645 78.4030227661 78.0292282104 86.017868042 86.2305755615 86.9783859253 88.1317825317 88.8556213379 88.8553390503 88.1290054321 86.9759140015 86.2293243408 86.0178375244 
14.0018177032 13.7872190475 13.0379476547 11.8808174133 11.1541585922 11.1547765732 11.8835544586 13.0405578613 13.7884931564 14.0018348694 21.9902896881 21.6119289398 20.5432624817 19.0150814056 18.042881012 18.0436935425 19.018661499 20.5468082428 21.6138381958 21.9903869629 29.9811306 29.5250511169 28.5563144684 27.2823410034 26.4378700256 26.4385681152 27.2853755951 28.559299469 29.5269966125 29.9812755585 37.9830169678 37.6430244446 37.0059738159 36.2210693359 35.706035614 35.7064590454 36.2229270935 37.0078582764 37.6443634033 37.9831542969 45.9987182617 45.8727378845 45.6512069702 45.389831543 45.2201805115 45.2203063965 45.3904418945 45.6518478394 45.8732185364 45.9987754822 54.0213317871 54.1479682922 54.3706703186 54.6333961487 54.8041419983 54.8039855957 54.6327781677 54.3700294495 54.1474914551 54.021270752 62.0370025635 62.3774337769 63.0154724121 63.8016433716 64.3175735474 64.3171386719 63.799785614 63.0135879517 62.3761024475 62.0368690491 70.0388641357 70.4949951172 71.4643249512 72.7396392822 73.5841598511 73.5835113525 72.7366409302 71.4613342285 70.4930648804 70.0387115479 78.0296707153 78.407661438 79.4761810303 81.0048675537 81.9770507812 81.9762268066 81.0013885498 79.4726638794 78.4057769775 78.029586792 86.0181655884 86.2323760986 86.9801559448 88.1338806152 88.8581390381 88.8578491211 88.1310958862 86.9776763916 86.2311325073 86.0181655884 
14.0018081665 13.7871513367 13.0378713608 11.8807163239 11.1540365219 11.1546535492 11.8834524155 13.04047966 13.7884254456 14.0018234253 21.9902801514 21.6118202209 20.5430393219 19.0146274567 18.0422134399 18.0430259705 19.01820755 20.546585083 21.6137313843 21.9903755188 29.9811153412 29.5249156952 28.5559558868 27.2815494537 26.4365386963 26.4372406006 27.2845840454 28.5589427948 29.5268650055 29.9812602997 37.9830093384 37.6429138184 37.0056190491 36.2200622559 35.7042007446 35.7046279907 36.2219200134 37.0074996948 37.6442527771 37.9831428528 45.998714447 45.8726997375 45.651058197 45.3893051147 45.219379425 45.2195091248 45.389919281 45.6516876221 45.87317276 45.9987678528 54.0213317871 54.1480255127 54.3708305359 54.6339263916 54.8049583435 54.8048019409 54.6333045959 54.3701782227 54.1475372314 54.0212783813 62.0370101929 62.3775482178 63.0158233643 63.8026504517 64.3194046021 64.318977356 63.8007926941 63.0139389038 62.376209259 62.0368766785 70.0388793945 70.4951324463 71.4646606445 72.7404174805 73.5854873657 73.5848312378 72.7374343872 71.4616775513 70.4932022095 70.0387268066 78.0296936035 78.4077529907 79.4764099121 81.0053253174 81.977722168 81.976890564 81.0018386841 79.4728851318 78.4058685303 78.0296020508 86.0181884766 86.2324371338 86.9802246094 88.1339797974 88.8582382202 88.857963562 88.1312026978 86.9777603149 86.2312011719 86.0181808472 
14.0018062592 13.7871465683 13.037856102 11.8806877136 11.1540031433 11.1546192169 11.8834247589 13.0404634476 13.7884168625 14.0018224716 21.9902801514 21.6118087769 20.5430049896 19.0145568848 18.0421218872 18.0429344177 19.0181407928 20.5465507507 21.6137180328 21.9903736115 29.9811172485 29.5249023438 28.5559139252 27.2814426422 26.4363765717 26.437078476 27.2844810486 28.5588989258 29.5268554688 29.9812660217 37.9830093384 37.6428947449 37.0055656433 36.2199287415 35.7039642334 35.7043914795 36.221786499 37.0074539185 37.6442375183 37.9831428528 45.998714447 45.8726959229 45.6510314941 45.3892326355 45.2192611694 45.2194023132 45.3898468018 45.6516647339 45.8731651306 45.9987716675 54.0213317871 54.1480178833 54.3708496094 54.6339912415 54.8050689697 54.8049125671 54.6333770752 54.3702011108 54.1475486755 54.0212783813 62.0370101929 62.3775520325 63.0158691406 63.8027763367 64.3196411133 64.3192214966 63.8009185791 63.0139923096 62.3762245178 62.0368766785 70.0388793945 70.4951629639 71.4647140503 72.740524292 73.5856552124 73.5849761963 72.7375335693 71.4617233276 70.4932174683 70.0387268066 78.0296936035 78.4077835083 79.4764480591 81.0053863525 81.9778060913 81.9769821167 81.0019073486 79.4729232788 78.4058914185 78.0296020508 86.018196106 86.2324447632 86.9802322388 88.1340026855 88.8582763672 88.8580169678 88.1312255859 86.9777679443 86.2311935425 86.0181808472 
14.0018062592 13.7871417999 13.0378456116 11.8806667328 11.1539745331 11.1545906067 11.8834056854 13.0404548645 13.7884120941 14.0018224716 21.9902801514 21.6118030548 20.5429897308 19.0145263672 18.0420799255 18.0428943634 19.0181083679 20.5465316772 21.6137123108 21.9903736115 29.9811172485 29.5248966217 28.555891037 27.2814025879 26.4363193512 26.4370212555 27.2844352722 28.5588798523 29.5268440247 29.9812660217 37.9830055237 37.6428909302 37.0055503845 36.2198829651 35.7038993835 35.7043228149 36.2217407227 37.0074310303 37.6442298889 37.9831428528 45.998714447 45.8726844788 45.6510238647 45.3892097473 45.2192382812 45.219367981 45.3898239136 45.6516571045 45.8731651306 45.9987716675 54.0213317871 54.1480293274 54.3708534241 54.6340255737 54.8050918579 54.80493927 54.6333999634 54.3702163696 54.1475448608 54.0212783813 62.0370101929 62.3775672913 63.0158882141 63.8028259277 64.3197174072 64.3192901611 63.8009643555 63.0140075684 62.3762321472 62.0368766785 70.0388793945 70.4951629639 71.4647521973 72.740562439 73.5857009888 73.5850448608 72.7375717163 71.4617462158 70.4932250977 70.0387268066 78.0296936035 78.4077758789 79.4764633179 81.0054168701 81.9778518677 81.9770202637 81.0019302368 79.4729385376 78.4058990479 78.0296020508 86.018196106 86.2324447632 86.9802474976 88.1340179443 88.8583068848 88.8580245972 88.1312484741 86.9777755737 86.2312088013 86.0181808472 
14.0018053055 13.7871398926 13.0378389359 11.8806467056 11.1539478302 11.1545658112 11.8833847046 13.0404443741 13.7884111404 14.0018234253 21.9902801514 21.6118011475 20.542974472 19.0145015717 18.0420455933 18.0428581238 19.018081665 20.5465202332 21.6137084961 21.9903755188 29.9811172485 29.524887085 28.5558738708 27.281370163 26.4362716675 26.4369754791 27.284406662 28.5588645935 29.5268363953 29.981262207 37.983001709 37.6428833008 37.005531311 36.2198524475 35.7038536072 35.7042770386 36.2217102051 37.0074157715 37.6442260742 37.9831352234 45.998714447 45.8726844788 45.6510162354 45.3891944885 45.2192192078 45.2193527222 45.3898086548 45.6516609192 45.8731575012 45.9987716675 54.0213317871 54.1480293274 54.3708572388 54.6340370178 54.8051147461 54.8049697876 54.6334075928 54.3702201843 54.1475486755 54.0212783813 62.0370101929 62.3775672913 63.0159072876 63.8028564453 64.3197631836 64.3193283081 63.800994873 63.0140228271 62.3762397766 62.0368766785 70.0388793945 70.4951553345 71.4647521973 72.7406082153 73.5857620239 73.5850982666 72.7376098633 71.4617767334 70.4932327271 70.0387420654 78.0296936035 78.4077835083 79.4764785767 81.0054473877 81.9778747559 81.9770507812 81.001953125 79.4729614258 78.4058990479 78.0296096802 86.018196106 86.232460022 86.9802474976 88.1340484619 88.8583297729 88.8580474854 88.1312637329 86.9777908325 86.2312088013 86.0181808472 
14.0018053055 13.7871379852 13.0378274918 11.8806295395 11.1539258957 11.1545410156 11.8833665848 13.0404396057 13.7884092331 14.0018224716 21.9902801514 21.6117973328 20.542963028 19.0144748688 18.042011261 18.0428237915 19.0180587769 20.5465068817 21.6137084961 21.9903755188 29.9811172485 29.524887085 28.5558567047 27.2813434601 26.4362277985 26.4369297028 27.2843761444 28.55884552 29.5268363953 29.981262207 37.983001709 37.6428794861 37.0055198669 36.2198181152 35.7038078308 35.7042388916 36.2216796875 37.0074119568 37.6442222595 37.9831352234 45.998714447 45.8726806641 45.6510124207 45.3891868591 45.2191963196 45.2193374634 45.3897972107 45.6516532898 45.8731575012 45.9987716675 54.0213317871 54.1480293274 54.3708686829 54.6340408325 54.8051338196 54.804977417 54.6334228516 54.3702278137 54.1475486755 54.0212783813 62.0370101929 62.377571106 63.0159072876 63.8028907776 64.3197860718 64.3193664551 63.8010406494 63.0140342712 62.3762397766 62.0368766785 70.0388793945 70.4951705933 71.4647750854 72.7406311035 73.5857849121 73.5851364136 72.7376403809 71.4617767334 70.4932327271 70.0387420654 78.0296936035 78.4077835083 79.4764862061 81.0054702759 81.9779052734 81.9770889282 81.001991272 79.4729690552 78.4058990479 78.0296096802 86.018196106 86.2324523926 86.980255127 88.1340637207 88.8583526611 88.8580856323 88.1312866211 86.9777984619 86.2312088013 86.0181808472 
