14.0028781891 13.7906036377 13.0266828537 11.8989200592 11.2291374207 11.2297019958 11.9014701843 13.0293159485 13.7918834686 14.0028877258 21.9923381805 21.6252384186 20.5899162292 19.1972045898 18.3640441895 18.3647136688 19.200345993 20.5932617188 21.6271209717 21.9924201965 29.9843215942 29.5638160706 28.659318924 27.5491046906 26.8787784576 26.879327774 27.5516014099 28.6620445251 29.5656414032 29.9844532013 37.9869003296 37.6809654236 37.1027259827 36.4422225952 36.0368423462 36.0371742249 36.4437065125 37.1043930054 37.6821899414 37.9870147705 46.0002746582 45.8883781433 45.6922798157 45.4750328064 45.34116745 45.3412780762 45.4755172729 45.6928291321 45.8888015747 46.0003242493 54.0197677612 54.1322441101 54.3293609619 54.547706604 54.6823387146 54.682220459 54.5472183228 54.3288040161 54.1318206787 54.0197181702 62.0331230164 62.3394508362 62.9186172485 63.580242157 63.9863471985 63.9860267639 63.5787620544 62.9169464111 62.3382339478 62.0330085754 70.0356750488 70.4562683105 71.3613510132 72.4728088379 73.1433944702 73.1428604126 72.4703521729 71.3586196899 70.4544525146 70.0355453491 78.027633667 78.3944015503 79.4297409058 80.8229522705 81.6563110352 81.6556243896 80.8198547363 79.4264068604 78.3925247192 78.027557373 86.0171203613 86.2289886475 86.9914016724 88.1163482666 88.7841186523 88.7837982178 88.1137924194 86.9888534546 86.2277297974 86.0170974731 
14.0007247925 13.7792291641 13.0178155899 11.8868265152 11.2054462433 11.206029892 11.8893995285 13.0204467773 13.7805099487 14.0007448196 21.9899845123 21.607624054 20.5524806976 19.1082878113 18.2113437653 18.2120952606 19.1116008759 20.5559005737 21.6095428467 21.9900798798 29.9821777344 29.5422477722 28.5996646881 27.3943538666 26.6180343628 26.6186847687 27.3971576691 28.6025524139 29.5441417694 29.9823188782 37.9852752686 37.6625213623 37.045791626 36.3011550903 35.8243026733 35.8246994019 36.3028831482 37.0475959778 37.6638183594 37.9854011536 45.9996414185 45.8808174133 45.6672477722 45.4185066223 45.2611083984 45.2612304688 45.4190673828 45.6678619385 45.881275177 45.9997024536 54.020401001 54.1398353577 54.354511261 54.6045265198 54.7628936768 54.7627410889 54.6039428711 54.35389328 54.139377594 54.0203514099 62.034740448 62.3579025269 62.9755935669 63.7214164734 64.1990814209 64.1986846924 63.7196922302 62.9737739563 62.3566169739 62.034614563 70.0378112793 70.4778366089 71.4209899902 72.6275253296 73.4039611816 73.4033203125 72.6247558594 71.4181060791 70.4759521484 70.0376663208 78.0299987793 78.4119949341 79.4671020508 80.9116821289 81.8086013794 81.8078384399 80.9084472656 79.463684082 78.4100952148 78.0298919678 86.0192718506 86.2403411865 87.0002365112 88.1282424927 88.8075866699 88.807258606 88.1256408691 86.997718811 86.2390975952 86.0192489624 
14.0007076263 13.7791519165 13.017824173 11.8869142532 11.205534935 11.2061157227 11.8894853592 13.0204496384 13.7804336548 14.0007295609 21.9899654388 21.6075077057 20.5522766113 19.1078395844 18.2106246948 18.2113723755 19.1111545563 20.5557022095 21.6094245911 21.9900608063 29.9821586609 29.5420913696 28.5992450714 27.3933200836 26.6163139343 26.6169700623 27.3961277008 28.6021366119 29.5439910889 29.9822998047 37.9852600098 37.6623878479 37.0453414917 36.2997016907 35.8209762573 35.8213729858 36.3014373779 37.0471496582 37.663684845 37.9853820801 45.9996376038 45.8807601929 45.6670455933 45.4176673889 45.2592086792 45.2593460083 45.4182357788 45.6676521301 45.8812179565 45.9996910095 54.0204086304 54.1398925781 54.3547172546 54.6053581238 54.7648086548 54.7646560669 54.6047821045 54.3541069031 54.1394348145 54.0203552246 62.0347480774 62.358039856 62.9760437012 63.7228622437 64.2023925781 64.2019958496 63.7211341858 62.9742164612 62.3567466736 62.0346298218 70.0378341675 70.4779968262 71.4213867188 72.6285476685 73.405670166 73.4050292969 72.6257781982 71.4185180664 70.4761047363 70.037689209 78.0300140381 78.412109375 79.467300415 80.9121246338 81.8093109131 81.8085632324 80.9088897705 79.4638900757 78.4102096558 78.0299072266 86.0192871094 86.2404327393 87.0002288818 88.1281509399 88.8074874878 88.8071746826 88.1255569458 86.997718811 86.2391586304 86.0192642212 
14.0007076263 13.7791500092 13.0178155899 11.8868980408 11.2055120468 11.2060928345 11.8894691467 13.0204439163 13.7804317474 14.0007295609 21.9899654388 21.6075057983 20.5522651672 19.1078205109 18.2105998993 18.2113513947 19.1111354828 20.5556945801 21.6094207764 21.9900608063 29.9821586609 29.5420913696 28.599237442 27.3933048248 26.6162872314 26.616941452 27.3961086273 28.6021251678 29.5439910889 29.9822998047 37.9852600098 37.6623916626 37.0453338623 36.2996788025 35.820941925 35.8213424683 36.3014144897 37.0471420288 37.6636886597 37.9853820801 45.9996376038 45.8807563782 45.6670455933 45.4176559448 45.2591972351 45.2593269348 45.41822052 45.6676483154 45.8812179565 45.9996910095 54.0204086304 54.1398925781 54.354724884 54.6053733826 54.7648124695 54.7646789551 54.6047897339 54.3540992737 54.1394386292 54.0203552246 62.0347480774 62.358039856 62.9760398865 63.7228927612 64.2024307251 64.2020339966 63.7211494446 62.9742240906 62.356754303 62.0346298218 70.0378341675 70.4779968262 71.4214019775 72.628578186 73.4056854248 73.4050750732 72.625793457 71.4185180664 70.4761047363 70.037689209 78.0300140381 78.4121170044 79.4673156738 80.9121398926 81.8093414307 81.8085784912 80.9089126587 79.4639053345 78.4102096558 78.0299072266 86.0192871094 86.2404327393 87.0002441406 88.1281661987 88.8075180054 88.807182312 88.125579834 86.9977340698 86.2391662598 86.0192642212 
14.0007076263 13.7791481018 13.0178060532 11.886879921 11.2054901123 11.2060718536 11.8894519806 13.0204343796 13.7804317474 14.0007295609 21.9899654388 21.6075019836 20.5522556305 19.10779953 18.2105770111 18.2113265991 19.1111125946 20.555683136 21.6094169617 21.9900608063 29.9821586609 29.5420875549 28.59923172 27.3932800293 26.6162605286 26.6169128418 27.3960895538 28.6021156311 29.5439853668 29.9822998047 37.9852600098 37.6623840332 37.0453262329 36.2996635437 35.8209075928 35.8213043213 36.3013916016 37.0471382141 37.6636810303 37.9853820801 45.9996376038 45.8807640076 45.6670341492 45.4176483154 45.259185791 45.2593154907 45.41822052 45.6676521301 45.8812141418 45.9996910095 54.0204086304 54.1398925781 54.354724884 54.6053886414 54.764831543 54.7646942139 54.6047935486 54.3541069031 54.1394386292 54.0203552246 62.0347480774 62.3580436707 62.9760513306 63.72290802 64.2024688721 64.2020645142 63.7211837769 62.9742393494 62.356754303 62.0346298218 70.0378341675 70.4779968262 71.4214248657 72.6285934448 73.4057312012 73.4050979614 72.6258239746 71.418548584 70.4761047363 70.037689209 78.0300140381 78.4121246338 79.4673156738 80.9121704102 81.8093719482 81.8086090088 80.9089355469 79.4639129639 78.4102172852 78.0299072266 86.0192871094 86.2404327393 87.00025177 88.1281814575 88.8075256348 88.8072128296 88.1256027222 86.9977264404 86.2391662598 86.0192642212 
14.0007076263 13.7791500092 13.0177984238 11.8868618011 11.2054672241 11.2060480118 11.8894348145 13.0204257965 13.7804298401 14.0007295609 21.9899654388 21.6075000763 20.5522460938 19.1077766418 18.2105464935 18.2112998962 19.1110916138 20.5556716919 21.6094169617 21.9900608063 29.9821586609 29.5420875549 28.5992107391 27.3932571411 26.6162319183 26.6168842316 27.3960647583 28.6021022797 29.5439815521 29.9822998047 37.9852600098 37.6623840332 37.0453186035 36.2996368408 35.8208732605 35.8212738037 36.3013687134 37.04712677 37.6636810303 37.9853820801 45.9996376038 45.8807640076 45.6670379639 45.417640686 45.2591705322 45.2593002319 45.4182090759 45.6676483154 45.8812141418 45.9996910095 54.0204086304 54.1398925781 54.3547325134 54.6053886414 54.7648468018 54.7647018433 54.6047973633 54.3541145325 54.1394424438 54.0203552246 62.0347480774 62.3580474854 62.9760627747 63.7229270935 64.202507019 64.2020950317 63.721206665 62.9742431641 62.3567581177 62.0346298218 70.0378341675 70.4780044556 71.4214401245 72.6286239624 73.4057540894 73.4051208496 72.6258392334 71.418548584 70.4761123657 70.037689209 78.0300140381 78.4121170044 79.4673309326 80.9121780396 81.8093948364 81.8086242676 80.9089508057 79.4639129639 78.4102172852 78.0299072266 86.0192871094 86.2404251099 87.0002593994 88.1282043457 88.8075561523 88.8072357178 88.125617981 86.9977340698 86.2391662598 86.0192642212 
14.0007076263 13.7791471481 13.0177898407 11.886844635 11.2054443359 11.2060260773 11.889415741 13.0204191208 13.7804279327 14.0007295609 21.9899654388 21.6074962616 20.5522346497 19.1077575684 18.2105236053 18.2112731934 19.1110706329 20.5556621552 21.6094150543 21.9900608063 29.9821586609 29.5420837402 28.5992088318 27.3932342529 26.6162052155 26.6168556213 27.3960399628 28.6020870209 29.5439777374 29.9822998047 37.9852600098 37.6623802185 37.0453033447 36.2996139526 35.8208351135 35.8212356567 36.3013420105 37.0471153259 37.6636734009 37.9853820801 45.9996376038 45.8807640076 45.6670379639 45.4176292419 45.2591629028 45.2592849731 45.4181976318 45.667640686 45.8812179565 45.9996910095 54.0204086304 54.1398925781 54.3547325134 54.6054039001 54.7648582458 54.7647171021 54.6048126221 54.3541221619 54.1394424438 54.0203552246 62.0347480774 62.3580513 62.9760627747 63.7229614258 64.2025375366 64.2021331787 63.7212257385 62.9742546082 62.3567581177 62.0346298218 70.0378341675 70.4779968262 71.4214477539 72.6286392212 73.4057693481 73.4051437378 72.625869751 71.418548584 70.4761123657 70.037689209 78.0300140381 78.4121246338 79.4673538208 80.9122085571 81.809425354 81.8086547852 80.9089660645 79.4639358521 78.4102172852 78.0299072266 86.0192947388 86.2404251099 87.0002593994 88.1282196045 88.8075637817 88.807258606 88.1256256104 86.9977493286 86.2391662598 86.0192642212 
