13.9352588654 21.7064781189 29.2925109863 37.169380188 45.6394577026 54.3824005127 62.8510437012 70.7265396118 78.3126602173 86.0844345093 13.897236824 21.4756507874 28.5363636017 36.3408126831 45.2978477478 54.7257156372 63.6801986694 71.4816665649 78.5422668457 86.1222991943 13.8762931824 21.3028430939 28.0729141235 35.8428993225 45.0899429321 54.9346542358 64.1784362793 71.9446258545 78.7142715454 86.1431732178 13.8599071503 21.2032585144 27.8505477905 35.6406478882 45.0077972412 55.0172271729 64.3808746338 72.1668548584 78.8134994507 86.1594848633 13.8494920731 21.1573295593 27.7566795349 35.5582695007 44.97448349 55.0506858826 64.4633178711 72.2606658936 78.8592529297 86.1698532104 13.8495016098 21.1573581696 27.7567481995 35.5583190918 44.9745178223 55.0506591797 64.4632720947 72.2605895996 78.8592147827 86.1698532104 13.8599405289 21.2034358978 27.8509311676 35.6410179138 45.0079269409 55.0170822144 64.3805084229 72.1664581299 78.8133239746 86.1594543457 13.8763370514 21.3031692505 28.0737113953 35.8437080383 45.0904083252 54.9341926575 64.1776428223 71.943862915 78.7139434814 86.1431350708 13.8973045349 21.476146698 28.5378952026 36.3423347473 45.2985954285 54.7249259949 63.678730011 71.4801483154 78.5417938232 86.1222457886 13.9353961945 21.7071495056 29.2944450378 37.172039032 45.640663147 54.3812408447 62.8483734131 70.7247161865 78.3120269775 86.084312439 
13.9343671799 21.7054862976 29.2939758301 37.1678695679 45.6368675232 54.3850021362 62.8525428772 70.7250823975 78.3136749268 86.0853271484 13.8956537247 21.4741001129 28.5296211243 36.3103256226 45.2722625732 54.7514266968 63.7106399536 71.4883728027 78.543838501 86.1238937378 13.8736305237 21.2944297791 28.0418186188 35.7505455017 45.017742157 55.0072288513 64.270614624 71.9756088257 78.7226486206 86.1458206177 13.8558034897 21.1828746796 27.7818851471 35.4702568054 44.8982124329 55.1273498535 64.551071167 72.2352828979 78.8338012695 86.1635665894 13.8443145752 21.1266803741 27.653547287 35.3403587341 44.8470535278 55.1787567139 64.6810684204 72.3635101318 78.8897857666 86.1750183105 13.8443250656 21.1267166138 27.6536388397 35.3404464722 44.8471069336 55.1786880493 64.6809844971 72.3634185791 78.8897476196 86.1750030518 13.8558425903 21.1830844879 27.7823677063 35.4707870483 44.8984184265 55.1271324158 64.5505218506 72.2348098755 78.8335876465 86.1635437012 13.8736743927 21.2947826385 28.042678833 35.7515640259 45.0183448792 55.0066070557 64.2696075439 71.9747848511 78.7222976685 86.1457824707 13.8957195282 21.4745998383 28.5312023163 36.3119392395 45.273109436 54.7505340576 63.7090606689 71.4867935181 78.5433502197 86.1238174438 13.9344987869 21.7061290741 29.2958450317 37.1705780029 45.6380348206 54.3838882446 62.8498268127 70.7233200073 78.3130645752 86.0851974487 
13.9343643188 21.7055015564 29.294052124 37.1679496765 45.6368942261 54.384979248 62.8524551392 70.7249984741 78.313659668 86.0853347778 13.8956460953 21.4741401672 28.529712677 36.3103065491 45.2722244263 54.7514648438 63.710647583 71.4882736206 78.5437927246 86.1239013672 13.8736143112 21.2944335938 28.0417804718 35.7502670288 45.0175209045 55.0074462891 64.2708816528 71.9756546021 78.7226486206 86.1458435059 13.8557786942 21.1827812195 27.78150177 35.4690170288 44.8969039917 55.1286697388 64.5522994995 72.2356643677 78.8338928223 86.1636047363 13.8442792892 21.126493454 27.6528377533 35.3377914429 44.8442230225 55.181602478 64.6836166382 72.3642196655 78.8899765015 86.1750564575 13.8442897797 21.1265354156 27.6529331207 35.3378829956 44.8442764282 55.1815414429 64.6835327148 72.3641204834 78.8899307251 86.1750335693 13.8558158875 21.1829929352 27.7819900513 35.4695587158 44.8971176147 55.128452301 64.5517578125 72.2351913452 78.8336791992 86.1635665894 13.8736619949 21.2947864532 28.0426368713 35.7512893677 45.0181274414 55.0068244934 64.2698669434 71.974822998 78.7222976685 86.1457977295 13.8957138062 21.4746379852 28.5312976837 36.3119277954 45.2730751038 54.7505683899 63.7090682983 71.4867019653 78.5433120728 86.1238327026 13.9344978333 21.7061443329 29.295923233 37.1706581116 45.6380577087 54.3838653564 62.8497467041 70.7232513428 78.3130493164 86.0851974487 
13.9343633652 21.7055015564 29.2940483093 37.1679420471 45.636882782 54.384979248 62.8524703979 70.7249984741 78.313659668 86.0853347778 13.8956460953 21.4741363525 28.5297050476 36.3102989197 45.2722167969 54.7514686584 63.710647583 71.4882888794 78.543800354 86.1239089966 13.8736152649 21.2944316864 28.0417613983 35.75025177 45.0175170898 55.0074501038 64.2708892822 71.9756774902 78.72265625 86.1458435059 13.8557777405 21.1827716827 27.7814826965 35.4689903259 44.8968887329 55.1286849976 64.5523223877 72.2356872559 78.8339004517 86.1636047363 13.8442802429 21.1264858246 27.6528110504 35.3377571106 44.844203949 55.1816253662 64.6836547852 72.3642501831 78.8899765015 86.1750564575 13.8442897797 21.1265277863 27.6529006958 35.3378448486 44.84425354 55.1815605164 64.6835784912 72.364151001 78.8899383545 86.1750335693 13.8558149338 21.1829814911 27.7819671631 35.4695320129 44.897102356 55.128452301 64.5517883301 72.2352142334 78.8337020874 86.1635665894 13.8736610413 21.2947788239 28.0426216125 35.7512702942 45.0181274414 55.0068397522 64.2698898315 71.9748382568 78.7223052979 86.1457977295 13.8957128525 21.4746360779 28.5312919617 36.3119163513 45.2730636597 54.750579834 63.7090835571 71.4867172241 78.5433120728 86.1238327026 13.9344987869 21.7061424255 29.2959213257 37.1706504822 45.6380653381 54.3838653564 62.8497505188 70.7232513428 78.3130569458 86.0852050781 
13.9343633652 21.7054977417 29.2940444946 37.1679382324 45.636882782 54.3849716187 62.8524703979 70.7250137329 78.313659668 86.0853347778 13.8956460953 21.4741287231 28.5296916962 36.3102836609 45.2722129822 54.7514801025 63.7106628418 71.4882965088 78.543800354 86.1239089966 13.8736133575 21.2944259644 28.0417499542 35.7502326965 45.0175056458 55.0074615479 64.2709197998 71.9757003784 78.7226638794 86.1458435059 13.8557767868 21.1827659607 27.7814598083 35.468963623 44.8968849182 55.1287002563 64.5523529053 72.2357025146 78.8339004517 86.1636047363 13.8442773819 21.1264762878 27.6527786255 35.3377189636 44.8441886902 55.1816368103 64.6837081909 72.3642730713 78.8899841309 86.1750564575 13.8442878723 21.1265144348 27.652879715 35.3378067017 44.8442420959 55.1815795898 64.6836166382 72.3641815186 78.8899612427 86.1750411987 13.8558130264 21.182975769 27.7819423676 35.4695053101 44.8970947266 55.1284637451 64.5518035889 72.2352294922 78.8337020874 86.1635665894 13.8736600876 21.2947750092 28.0426044464 35.7512588501 45.0181236267 55.0068359375 64.2698974609 71.9748458862 78.7223129272 86.1457977295 13.8957118988 21.4746322632 28.5312767029 36.3119049072 45.2730674744 54.7505874634 63.7090911865 71.4867248535 78.5433120728 86.1238327026 13.9344987869 21.7061405182 29.2959136963 37.1706466675 45.6380577087 54.3838691711 62.8497543335 70.7232513428 78.3130569458 86.0852050781 
13.9343633652 21.7054977417 29.2940368652 37.167930603 45.6368789673 54.384979248 62.8524856567 70.7250137329 78.313659668 86.0853347778 13.8956480026 21.4741268158 28.5296897888 36.3102798462 45.2722091675 54.7514801025 63.7106704712 71.4883041382 78.5438079834 86.1239089966 13.8736152649 21.294418335 28.0417346954 35.7502212524 45.0175056458 55.0074615479 64.2709274292 71.9757156372 78.7226638794 86.1458435059 13.8557758331 21.182756424 27.7814369202 35.4689407349 44.8968734741 55.128704071 64.5523757935 72.2357254028 78.8339309692 86.1636047363 13.8442754745 21.1264648438 27.65275383 35.337677002 44.8441810608 55.1816558838 64.6837310791 72.3642959595 78.8899993896 86.1750564575 13.844285965 21.1265029907 27.6528549194 35.3377685547 44.8442268372 55.1815948486 64.6836624146 72.3642044067 78.8899612427 86.1750411987 13.8558139801 21.1829662323 27.7819252014 35.4694786072 44.8970832825 55.1284790039 64.5518264771 72.2352523804 78.8337173462 86.1635665894 13.8736619949 21.2947711945 28.042591095 35.7512397766 45.0181121826 55.0068435669 64.2699279785 71.9748687744 78.7223129272 86.1457977295 13.8957128525 21.4746284485 28.5312709808 36.3119010925 45.2730674744 54.7505874634 63.7091026306 71.4867401123 78.5433197021 86.1238327026 13.9344978333 21.7061405182 29.2959060669 37.1706428528 45.638053894 54.3838691711 62.8497657776 70.7232589722 78.3130569458 86.0852050781 
13.9343633652 21.705493927 29.2940349579 37.1679229736 45.6368789673 54.3849830627 62.8524856567 70.7250289917 78.3136672974 86.0853347778 13.8956489563 21.4741230011 28.5296726227 36.3102684021 45.2722053528 54.7514801025 63.7106819153 71.488319397 78.5438079834 86.1239089966 13.8736133575 21.2944107056 28.0417118073 35.7501983643 45.0174980164 55.0074691772 64.270942688 71.9757156372 78.7226638794 86.1458435059 13.8557758331 21.1827468872 27.781414032 35.468914032 44.8968582153 55.1287078857 64.552406311 72.235748291 78.8339233398 86.1636047363 13.8442745209 21.1264572144 27.6527309418 35.337638855 44.8441581726 55.1816673279 64.6837768555 72.3643188477 78.890007019 86.1750564575 13.8442869186 21.1264953613 27.6528244019 35.337726593 44.8442077637 55.181602478 64.6836929321 72.3642425537 78.8899688721 86.1750411987 13.8558120728 21.1829566956 27.7819004059 35.4694519043 44.8970680237 55.1284866333 64.5518722534 72.2352752686 78.8337097168 86.1635665894 13.8736600876 21.2947635651 28.0425777435 35.7512245178 45.0181121826 55.0068473816 64.2699432373 71.9748840332 78.7223205566 86.1457977295 13.8957138062 21.4746265411 28.5312595367 36.311882019 45.273059845 54.7505912781 63.70911026 71.4867324829 78.5433273315 86.1238327026 13.9344978333 21.7061367035 29.2959041595 37.1706314087 45.6380577087 54.3838768005 62.8497619629 70.7232589722 78.3130569458 86.0852050781 
