13.93957901 21.7289009094 29.3538150787 37.2023086548 45.642162323 54.3796768188 62.817943573 70.6652908325 78.2903137207 86.0801315308 13.9024858475 21.5062065125 28.6098709106 36.3118209839 45.2665481567 54.7571716309 63.7089080811 71.4080963135 78.5118331909 86.1170806885 13.8815984726 21.3410415649 28.1594028473 35.8032531738 45.0392074585 54.985660553 64.2176589966 71.8580932617 78.6761932373 86.1378936768 13.864988327 21.2469863892 27.9448432922 35.5955734253 44.9527282715 55.0725708008 64.425491333 72.0724639893 78.7698898315 86.1544189453 13.8531341553 21.2039661407 27.8522319794 35.5092430115 44.9177894592 55.1076889038 64.5119018555 72.1650009155 78.8127441406 86.1662216187 13.853143692 21.2039928436 27.8522911072 35.5093078613 44.9178237915 55.1076507568 64.5118560791 72.1649780273 78.8127288818 86.1662063599 13.8650255203 21.2471446991 27.9452037811 35.5959587097 44.9528808594 55.0724334717 64.4251403809 72.0721282959 78.7697525024 86.1543884277 13.8816328049 21.3413314819 28.160112381 35.8040657043 45.0397987366 54.9851112366 64.2169036865 71.8574447632 78.6759338379 86.1378555298 13.902551651 21.5067100525 28.6114349365 36.3133354187 45.2673912048 54.7563247681 63.70753479 71.4065475464 78.5113449097 86.1170120239 13.9397230148 21.7296333313 29.3559589386 37.2053146362 45.6435775757 54.3783531189 62.8148765564 70.6630630493 78.2895507812 86.0799865723 
13.9377384186 21.7232093811 29.3427257538 37.1882133484 45.6352233887 54.3866500854 62.8320236206 70.6763763428 78.296005249 86.0819702148 13.8998012543 21.4983978271 28.5847434998 36.2574005127 45.2292404175 54.794670105 63.7632637024 71.4331436157 78.5196304321 86.119758606 13.8778486252 21.3257541656 28.107591629 35.6815376282 44.9566688538 55.068611145 64.3391952515 71.9097518921 78.6914367676 86.1416244507 13.8600120544 21.220790863 27.8582782745 35.4087982178 44.8419876099 55.1838684082 64.6120986938 72.158782959 78.7959976196 86.1593780518 13.847319603 21.1689529419 27.7359046936 35.2883605957 44.7950019836 55.2310829163 64.7326583862 72.2810516357 78.847618103 86.1720199585 13.8473300934 21.1689853668 27.7360019684 35.2884216309 44.7950592041 55.2310371399 64.7325973511 72.2809677124 78.8475952148 86.1719970703 13.8600502014 21.2209720612 27.8587207794 35.409286499 44.8421859741 55.1836891174 64.6116485596 72.1583709717 78.7958297729 86.1593475342 13.8778848648 21.3260555267 28.1083583832 35.6825447083 44.9573554993 55.0679702759 64.3382568359 71.9090576172 78.6911468506 86.1415710449 13.8998699188 21.498916626 28.5863704681 36.2589912415 45.2301940918 54.7937088013 63.7618293762 71.4315261841 78.5191192627 86.1196899414 13.9378833771 21.7239437103 29.34491539 37.1913032532 45.6366081238 54.3853721619 62.8288803101 70.6740722656 78.2952346802 86.081817627 
13.9376068115 21.7228546143 29.3420963287 37.1874465942 45.6349105835 54.3869628906 62.8328018188 70.6770019531 78.2963562012 86.0821151733 13.8996124268 21.4979457855 28.5831642151 36.2540588379 45.2273292542 54.7965888977 63.7666091919 71.4347305298 78.5200805664 86.1199493408 13.8775663376 21.3246917725 28.1038799286 35.6727600098 44.9497146606 55.0755958557 64.3479690552 71.9134368896 78.6924819946 86.1419219971 13.8596429825 21.218788147 27.851190567 35.3907203674 44.828792572 55.1971321106 64.6301422119 72.1658554077 78.797996521 86.1597518921 13.8468647003 21.166179657 27.7261943817 35.2635536194 44.7785682678 55.2476005554 64.7574157715 72.2907333374 78.8503723145 86.1724777222 13.8468723297 21.1662120819 27.7262897491 35.2636299133 44.7786331177 55.2475585938 64.7573471069 72.2906570435 78.8503570557 86.172454834 13.8596782684 21.2189693451 27.8516387939 35.3912315369 44.8289985657 55.196937561 64.6296539307 72.165435791 78.7978286743 86.1597213745 13.8776035309 21.3249988556 28.1046600342 35.673789978 44.9504470825 55.074924469 64.3469924927 71.912727356 78.6922149658 86.1418609619 13.8996810913 21.4984703064 28.5848007202 36.2556533813 45.2282943726 54.7956199646 63.7651634216 71.4330825806 78.5195541382 86.1198806763 13.9377565384 21.7235851288 29.3442840576 37.1905479431 45.6362953186 54.3856887817 62.8296318054 70.6747055054 78.2956008911 86.0819320679 
13.9375896454 21.7228012085 29.3420066833 37.1873474121 45.6348724365 54.3870162964 62.8329124451 70.6770706177 78.2963943481 86.0821228027 13.8995857239 21.4978847504 28.582950592 36.2536048889 45.2270851135 54.796836853 63.7670593262 71.4349441528 78.5201416016 86.119972229 13.8775262833 21.3245391846 28.1033592224 35.6716423035 44.9487495422 55.0765647888 64.3490829468 71.9139556885 78.6926498413 86.141960144 13.859588623 21.2185001373 27.8501758575 35.3881607056 44.8267974854 55.1991386414 64.6327056885 72.1668777466 78.7982788086 86.1598129272 13.8468008041 21.1657810211 27.7247829437 35.2597312927 44.7759475708 55.2502403259 64.7612457275 72.292137146 78.8507766724 86.1725234985 13.8468093872 21.1658153534 27.7248783112 35.2597999573 44.7760009766 55.2501869202 64.761177063 72.2920455933 78.8507461548 86.1725158691 13.8596258163 21.2186832428 27.8506259918 35.388671875 44.827003479 55.1989402771 64.6322097778 72.1664428711 78.7981109619 86.1597900391 13.8775644302 21.3248462677 28.1041431427 35.6726760864 44.9494819641 55.0758895874 64.3481140137 71.9132614136 78.6923522949 86.1419067383 13.8996543884 21.4984054565 28.5845870972 36.2552032471 45.2280464172 54.7958717346 63.7656135559 71.4332962036 78.5196228027 86.1198959351 13.9377384186 21.7235374451 29.3441982269 37.1904411316 45.6362609863 54.385723114 62.8297348022 70.6747894287 78.2956466675 86.0819702148 
13.9375858307 21.7227935791 29.3419837952 37.1873130798 45.6348571777 54.3870162964 62.8329238892 70.6771011353 78.2964172363 86.0821304321 13.8995800018 21.4978656769 28.582901001 36.2535095215 45.2270355225 54.7968864441 63.7671470642 71.4349899292 78.5201568604 86.1199874878 13.8775205612 21.3245048523 28.1032428741 35.6714172363 44.9485435486 55.0767745972 64.349319458 71.9140701294 78.6926803589 86.141960144 13.8595781326 21.2184333801 27.8499469757 35.3876113892 44.8263549805 55.1995811462 64.6332550049 72.167098999 78.7983398438 86.159828186 13.846786499 21.1656932831 27.7244701385 35.2588500977 44.7753486633 55.2508392334 64.7621078491 72.29246521 78.8508605957 86.1725311279 13.8467960358 21.165725708 27.724565506 35.2589187622 44.7754058838 55.2507896423 64.7620544434 72.2923812866 78.8508453369 86.1725311279 13.8596143723 21.2186164856 27.85039711 35.388130188 44.8265724182 55.1993865967 64.6327667236 72.1666793823 78.7981872559 86.1597824097 13.8775577545 21.3248119354 28.1040210724 35.6724510193 44.9492835999 55.0760917664 64.3483352661 71.9133758545 78.6923904419 86.1419219971 13.8996486664 21.4983921051 28.5845355988 36.2551116943 45.2279968262 54.7959213257 63.7657089233 71.4333496094 78.5196380615 86.1199111938 13.9377336502 21.723526001 29.3441810608 37.1904182434 45.6362419128 54.3857383728 62.8297653198 70.6748123169 78.2956542969 86.0819778442 
13.9375839233 21.7227916718 29.3419780731 37.1873054504 45.6348495483 54.3870239258 62.8329391479 70.6771087646 78.2964248657 86.0821304321 13.8995790482 21.4978599548 28.5828781128 36.2534751892 45.2270240784 54.7969017029 63.7671890259 71.4350204468 78.5201644897 86.1199951172 13.8775167465 21.3244895935 28.1031970978 35.6713447571 44.9484825134 55.0768432617 64.349395752 71.9141082764 78.6926803589 86.141960144 13.8595743179 21.2184066772 27.8498649597 35.3874359131 44.8262252808 55.1997070312 64.633430481 72.167175293 78.7983703613 86.159828186 13.8467817307 21.1656608582 27.7243537903 35.2585678101 44.7751617432 55.2510223389 64.7623977661 72.2925567627 78.8508987427 86.1725463867 13.8467922211 21.1656913757 27.7244529724 35.2586479187 44.7752227783 55.2509689331 64.7623291016 72.2924728394 78.8508758545 86.1725387573 13.8596134186 21.2185916901 27.8503170013 35.3879547119 44.8264350891 55.1995201111 64.6329269409 72.1667556763 78.7982025146 86.1597824097 13.8775539398 21.3247966766 28.1039772034 35.6723747253 44.9492263794 55.0761528015 64.3484115601 71.9134216309 78.6924133301 86.1419219971 13.8996486664 21.4983863831 28.5845184326 36.2550735474 45.227973938 54.7959327698 63.7657470703 71.4333724976 78.5196533203 86.1199188232 13.9377326965 21.7235240936 29.3441677094 37.190410614 45.6362342834 54.3857421875 62.8297729492 70.6748199463 78.2956619263 86.0819778442 
13.9375839233 21.7227859497 29.3419742584 37.187297821 45.634853363 54.3870162964 62.832950592 70.6771316528 78.2964248657 86.0821380615 13.8995780945 21.4978561401 28.582862854 36.2534561157 45.2270050049 54.7969055176 63.7672042847 71.4350204468 78.5201721191 86.1199951172 13.8775129318 21.3244819641 28.1031703949 35.6713027954 44.9484519958 55.0768737793 64.3494262695 71.9141387939 78.6926956177 86.1419677734 13.8595724106 21.2183952332 27.8498287201 35.3873558044 44.826171875 55.1997642517 64.6334991455 72.1672210693 78.7983856201 86.159828186 13.8467798233 21.1656417847 27.7243003845 35.2584495544 44.775100708 55.2510986328 64.762512207 72.2926254272 78.8509140015 86.1725540161 13.8467884064 21.1656761169 27.724395752 35.2585220337 44.7751464844 55.2510452271 64.7624511719 72.2925262451 78.8508911133 86.1725463867 13.8596096039 21.2185764313 27.8502693176 35.3878746033 44.826385498 55.1995697021 64.6330108643 72.1668014526 78.798210144 86.1597824097 13.8775529861 21.3247890472 28.1039447784 35.6723403931 44.9491958618 55.0761833191 64.3484420776 71.913444519 78.6924133301 86.1419219971 13.899646759 21.4983825684 28.5845031738 36.2550582886 45.227973938 54.7959442139 63.7657585144 71.433380127 78.5196533203 86.1199188232 13.9377317429 21.7235183716 29.3441638947 37.1903991699 45.6362266541 54.3857498169 62.8297843933 70.6748199463 78.2956619263 86.0819778442 
