1.0 1.00000011921 0.998118340969 1.04315268993 1.09819757938 1.09817922115 1.04309523106 1.00000023842 1.0 1.0 0.999999940395 1.00003194809 1.079844594 1.17265129089 1.24529457092 1.24528229237 1.17259085178 1.02520883083 1.00003111362 1.0 1.0 1.05099320412 1.16308987141 1.26234066486 1.34958946705 1.34958183765 1.26229250431 1.10271346569 1.05091834068 1.00000011921 1.0 1.08697855473 1.1991622448 1.29196953773 1.37483549118 1.37482750416 1.29192709923 1.138438344 1.08691120148 1.00000011921 1.0 1.11394238472 1.22859740257 1.32015514374 1.3934545517 1.393450737 1.32012295723 1.16568279266 1.11387753487 1.00000011921 1.0 1.11393332481 1.22859060764 1.32013714314 1.39352285862 1.3935148716 1.32010006905 1.16567766666 1.11386847496 1.00000011921 1.0 1.08693647385 1.19913220406 1.29190087318 1.37490701675 1.37489318848 1.29185461998 1.13840436935 1.08686959743 1.0 1.0 1.02739489079 1.13642454147 1.23335945606 1.3166230917 1.31662023067 1.23330318928 1.07861196995 1.02732157707 1.00000011921 1.0 1.00003111362 1.07976841927 1.17260837555 1.24531435966 1.24527311325 1.17256188393 1.02514028549 1.00003051758 1.00000011921 1.0 1.00000011921 0.998130440712 1.04303908348 1.09805190563 1.09808576107 1.04296040535 1.00000011921 1.0 0.999999940395 
1.0 1.00000011921 0.998118340969 1.04315268993 1.09819757938 1.09817922115 1.04309523106 1.00000023842 1.0 1.0 0.999999940395 1.00003194809 1.079844594 1.17265129089 1.24529457092 1.24528229237 1.17259085178 1.02520883083 1.00003111362 1.0 1.0 1.05099320412 1.16308987141 1.26234066486 1.34966754913 1.34966039658 1.26229250431 1.10271346569 1.05091834068 1.00000011921 1.0 1.08697855473 1.1991622448 1.29196953773 1.37651765347 1.37651097775 1.29192709923 1.138438344 1.08691120148 1.00000011921 1.0 1.11394238472 1.22859740257 1.32016670704 1.39906811714 1.39906573296 1.32013428211 1.16568279266 1.11387753487 1.00000011921 1.0 1.11393332481 1.22859060764 1.32014858723 1.39916133881 1.39915347099 1.32011139393 1.16567766666 1.11386847496 1.00000011921 1.0 1.08693647385 1.19913220406 1.29190087318 1.37660837173 1.37659525871 1.29185461998 1.13840436935 1.08686959743 1.0 1.0 1.02739489079 1.13642454147 1.23335945606 1.3166230917 1.31662023067 1.23330318928 1.07861196995 1.02732157707 1.00000011921 1.0 1.00003111362 1.07976841927 1.17260837555 1.24531435966 1.24527311325 1.17256188393 1.02514028549 1.00003051758 1.00000011921 1.0 1.00000011921 0.998130440712 1.04303908348 1.09805190563 1.09808576107 1.04296040535 1.00000011921 1.0 0.999999940395 
1.0 1.00000011921 0.998118340969 1.04315268993 1.09819757938 1.09817922115 1.04309523106 1.00000023842 1.0 1.0 0.999999940395 1.00003194809 1.079844594 1.17265129089 1.24529457092 1.24528229237 1.17259085178 1.02520883083 1.00003111362 1.0 1.0 1.05099320412 1.16308987141 1.26234066486 1.34966754913 1.34966039658 1.26229250431 1.10271346569 1.05091834068 1.00000011921 1.0 1.08697855473 1.1991622448 1.29196953773 1.37651765347 1.37651097775 1.29192709923 1.138438344 1.08691120148 1.00000011921 1.0 1.11394238472 1.22859740257 1.32016670704 1.39907729626 1.39907443523 1.32013428211 1.16568279266 1.11387753487 1.00000011921 1.0 1.11393332481 1.22859060764 1.32014858723 1.39917016029 1.39916288853 1.32011139393 1.16567766666 1.11386847496 1.00000011921 1.0 1.08693647385 1.19913220406 1.29190087318 1.37660837173 1.37659525871 1.29185461998 1.13840436935 1.08686959743 1.0 1.0 1.02739489079 1.13642454147 1.23335945606 1.3166230917 1.31662023067 1.23330318928 1.07861196995 1.02732157707 1.00000011921 1.0 1.00003111362 1.07976841927 1.17260837555 1.24531435966 1.24527311325 1.17256188393 1.02514028549 1.00003051758 1.00000011921 1.0 1.00000011921 0.998130440712 1.04303908348 1.09805190563 1.09808576107 1.04296040535 1.00000011921 1.0 0.999999940395 
1.0 1.00000011921 0.998118340969 1.04315268993 1.09819757938 1.09817922115 1.04309523106 1.00000023842 1.0 1.0 0.999999940395 1.00003194809 1.079844594 1.17265129089 1.24529457092 1.24528229237 1.17259085178 1.02520883083 1.00003111362 1.0 1.0 1.05099320412 1.16308987141 1.26234066486 1.34966754913 1.34966039658 1.26229250431 1.10271346569 1.05091834068 1.00000011921 1.0 1.08697855473 1.1991622448 1.29196953773 1.37651765347 1.37651097775 1.29192709923 1.138438344 1.08691120148 1.00000011921 1.0 1.11394238472 1.22859740257 1.32016670704 1.39908564091 1.39908337593 1.32013428211 1.16568279266 1.11387753487 1.00000011921 1.0 1.11393332481 1.22859060764 1.32014858723 1.39917910099 1.3991714716 1.32011139393 1.16567766666 1.11386847496 1.00000011921 1.0 1.08693647385 1.19913220406 1.29190087318 1.37660837173 1.37659525871 1.29185461998 1.13840436935 1.08686959743 1.0 1.0 1.02739489079 1.13642454147 1.23335945606 1.3166230917 1.31662023067 1.23330318928 1.07861196995 1.02732157707 1.00000011921 1.0 1.00003111362 1.07976841927 1.17260837555 1.24531435966 1.24527311325 1.17256188393 1.02514028549 1.00003051758 1.00000011921 1.0 1.00000011921 0.998130440712 1.04303908348 1.09805190563 1.09808576107 1.04296040535 1.00000011921 1.0 0.999999940395 
1.0 1.00000011921 0.998118340969 1.04315268993 1.09819757938 1.09817922115 1.04309523106 1.00000023842 1.0 1.0 0.999999940395 1.00003194809 1.079844594 1.17265129089 1.24529457092 1.24528229237 1.17259085178 1.02520883083 1.00003111362 1.0 1.0 1.05099320412 1.16308987141 1.26234066486 1.34966754913 1.34966039658 1.26229250431 1.10271346569 1.05091834068 1.00000011921 1.0 1.08697855473 1.1991622448 1.29196953773 1.37651765347 1.37651097775 1.29192709923 1.138438344 1.08691120148 1.00000011921 1.0 1.11394238472 1.22859740257 1.32016670704 1.39909446239 1.399091959 1.32013428211 1.16568279266 1.11387753487 1.00000011921 1.0 1.11393332481 1.22859060764 1.32014858723 1.39918768406 1.39918017387 1.32011139393 1.16567766666 1.11386847496 1.00000011921 1.0 1.08693647385 1.19913220406 1.29190087318 1.37660837173 1.37659525871 1.29185461998 1.13840436935 1.08686959743 1.0 1.0 1.02739489079 1.13642454147 1.23335945606 1.3166230917 1.31662023067 1.23330318928 1.07861196995 1.02732157707 1.00000011921 1.0 1.00003111362 1.07976841927 1.17260837555 1.24531435966 1.24527311325 1.17256188393 1.02514028549 1.00003051758 1.00000011921 1.0 1.00000011921 0.998130440712 1.04303908348 1.09805190563 1.09808576107 1.04296040535 1.00000011921 1.0 0.999999940395 
1.0 1.00000011921 0.998118340969 1.04315268993 1.09819757938 1.09817922115 1.04309523106 1.00000023842 1.0 1.0 0.999999940395 1.00003194809 1.079844594 1.17265129089 1.24529457092 1.24528229237 1.17259085178 1.02520883083 1.00003111362 1.0 1.0 1.05099320412 1.16308987141 1.26234066486 1.34966754913 1.34966039658 1.26229250431 1.10271346569 1.05091834068 1.00000011921 1.0 1.08697855473 1.1991622448 1.29196953773 1.37651765347 1.37651097775 1.29192709923 1.138438344 1.08691120148 1.00000011921 1.0 1.11394238472 1.22859740257 1.32016670704 1.39910304546 1.39910030365 1.32013428211 1.16568279266 1.11387753487 1.00000011921 1.0 1.11393332481 1.22859060764 1.32014858723 1.39919614792 1.39918839931 1.32011139393 1.16567766666 1.11386847496 1.00000011921 1.0 1.08693647385 1.19913220406 1.29190087318 1.37660837173 1.37659525871 1.29185461998 1.13840436935 1.08686959743 1.0 1.0 1.02739489079 1.13642454147 1.23335945606 1.3166230917 1.31662023067 1.23330318928 1.07861196995 1.02732157707 1.00000011921 1.0 1.00003111362 1.07976841927 1.17260837555 1.24531435966 1.24527311325 1.17256188393 1.02514028549 1.00003051758 1.00000011921 1.0 1.00000011921 0.998130440712 1.04303908348 1.09805190563 1.09808576107 1.04296040535 1.00000011921 1.0 0.999999940395 
1.0 1.00000011921 0.998118340969 1.04315268993 1.09819757938 1.09817922115 1.04309523106 1.00000023842 1.0 1.0 0.999999940395 1.00003194809 1.079844594 1.17265129089 1.24529457092 1.24528229237 1.17259085178 1.02520883083 1.00003111362 1.0 1.0 1.05099320412 1.16308987141 1.26234066486 1.34966754913 1.34966039658 1.26229250431 1.10271346569 1.05091834068 1.00000011921 1.0 1.08697855473 1.1991622448 1.29196953773 1.37651765347 1.37651097775 1.29192709923 1.138438344 1.08691120148 1.00000011921 1.0 1.11394238472 1.22859740257 1.32016670704 1.3991111517 1.3991086483 1.32013428211 1.16568279266 1.11387753487 1.00000011921 1.0 1.11393332481 1.22859060764 1.32014858723 1.39920437336 1.39919674397 1.32011139393 1.16567766666 1.11386847496 1.00000011921 1.0 1.08693647385 1.19913220406 1.29190087318 1.37660837173 1.37659525871 1.29185461998 1.13840436935 1.08686959743 1.0 1.0 1.02739489079 1.13642454147 1.23335945606 1.3166230917 1.31662023067 1.23330318928 1.07861196995 1.02732157707 1.00000011921 1.0 1.00003111362 1.07976841927 1.17260837555 1.24531435966 1.24527311325 1.17256188393 1.02514028549 1.00003051758 1.00000011921 1.0 1.00000011921 0.998130440712 1.04303908348 1.09805190563 1.09808576107 1.04296040535 1.00000011921 1.0 0.999999940395 
