1.0 1.00000011921 1.00000023842 1.02803862095 1.09322631359 1.0931994915 1.02795505524 1.00000023842 1.0 1.0 0.999999940395 1.001111269 1.07804179192 1.19098138809 1.29028308392 1.29025399685 1.19086551666 1.03567004204 1.00109279156 1.0 1.0 1.06739664078 1.16573703289 1.28757798672 1.41455340385 1.41452789307 1.28747045994 1.11784386635 1.06733071804 1.00000011921 1.0 1.10502481461 1.20427656174 1.3172621727 1.4311517477 1.43112277985 1.31717133522 1.15585017204 1.10496520996 1.00000011921 1.0 1.13245069981 1.23672199249 1.34826207161 1.44984507561 1.44982051849 1.34818720818 1.1851798296 1.13239121437 1.00000011921 1.0 1.13243961334 1.23670852184 1.34824109077 1.45003736019 1.4500015974 1.34815716743 1.18517148495 1.1323800087 1.00000011921 1.0 1.10497415066 1.20423388481 1.31715416908 1.43136715889 1.4313198328 1.31705760956 1.15580451488 1.10491454601 1.0 1.0 1.04525017738 1.13687396049 1.25087404251 1.36834621429 1.36834192276 1.25074923038 1.09465360641 1.0451798439 1.00000011921 1.0 1.00108516216 1.07793748379 1.19100940228 1.29048717022 1.29038882256 1.19097554684 1.03557705879 1.00106680393 1.00000011921 1.0 1.00000011921 1.00000011921 1.02789866924 1.09286534786 1.09294629097 1.02774608135 1.00000011921 1.0 0.999999940395 
1.0 1.00000011921 1.00000023842 1.02803862095 1.09322631359 1.0931994915 1.02795505524 1.00000023842 1.0 1.0 0.999999940395 1.001111269 1.07804179192 1.19098138809 1.29028308392 1.29025399685 1.19086551666 1.03567004204 1.00109279156 1.0 1.0 1.06739664078 1.16573703289 1.28757798672 1.41543459892 1.41540920734 1.28747045994 1.11784386635 1.06733071804 1.00000011921 1.0 1.10502481461 1.20427656174 1.3172621727 1.43260121346 1.43257331848 1.31717133522 1.15585017204 1.10496520996 1.00000011921 1.0 1.13245069981 1.23672199249 1.34826207161 1.45312714577 1.45310354233 1.34818720818 1.1851798296 1.13239121437 1.00000011921 1.0 1.13243961334 1.23670852184 1.34824109077 1.45336544514 1.4533290863 1.34815716743 1.18517148495 1.1323800087 1.00000011921 1.0 1.10497415066 1.20423388481 1.31715416908 1.43285667896 1.43280947208 1.31705760956 1.15580451488 1.10491454601 1.0 1.0 1.04525017738 1.13687396049 1.25087404251 1.36834621429 1.36834192276 1.25074923038 1.09465360641 1.0451798439 1.00000011921 1.0 1.00108516216 1.07793748379 1.19100940228 1.29048717022 1.29038882256 1.19097554684 1.03557705879 1.00106680393 1.00000011921 1.0 1.00000011921 1.00000011921 1.02789866924 1.09286534786 1.09294629097 1.02774608135 1.00000011921 1.0 0.999999940395 
1.0 1.00000011921 1.00000023842 1.02803862095 1.09322631359 1.0931994915 1.02795505524 1.00000023842 1.0 1.0 0.999999940395 1.001111269 1.07804179192 1.19098138809 1.29028308392 1.29025399685 1.19086551666 1.03567004204 1.00109279156 1.0 1.0 1.06739664078 1.16573703289 1.28757798672 1.41544175148 1.41541659832 1.28747045994 1.11784386635 1.06733071804 1.00000011921 1.0 1.10502481461 1.20427656174 1.3172621727 1.43260729313 1.43257915974 1.31717133522 1.15585017204 1.10496520996 1.00000011921 1.0 1.13245069981 1.23672199249 1.34826207161 1.45313811302 1.45311450958 1.34818720818 1.1851798296 1.13239121437 1.00000011921 1.0 1.13243961334 1.23670852184 1.34824109077 1.45337688923 1.4533405304 1.34815716743 1.18517148495 1.1323800087 1.00000011921 1.0 1.10497415066 1.20423388481 1.31715416908 1.4328635931 1.43281638622 1.31705760956 1.15580451488 1.10491454601 1.0 1.0 1.04525017738 1.13687396049 1.25087404251 1.36834621429 1.36834192276 1.25074923038 1.09465360641 1.0451798439 1.00000011921 1.0 1.00108516216 1.07793748379 1.19100940228 1.29048717022 1.29038882256 1.19097554684 1.03557705879 1.00106680393 1.00000011921 1.0 1.00000011921 1.00000011921 1.02789866924 1.09286534786 1.09294629097 1.02774608135 1.00000011921 1.0 0.999999940395 
1.0 1.00000011921 1.00000023842 1.02803862095 1.09322631359 1.0931994915 1.02795505524 1.00000023842 1.0 1.0 0.999999940395 1.001111269 1.07804179192 1.19098138809 1.29028308392 1.29025399685 1.19086551666 1.03567004204 1.00109279156 1.0 1.0 1.06739664078 1.16573703289 1.28757798672 1.41544938087 1.41542422771 1.28747045994 1.11784386635 1.06733071804 1.00000011921 1.0 1.10502481461 1.20427656174 1.3172621727 1.43261492252 1.43258714676 1.31717133522 1.15585017204 1.10496520996 1.00000011921 1.0 1.13245069981 1.23672199249 1.34826207161 1.45314657688 1.45312297344 1.34818720818 1.1851798296 1.13239121437 1.00000011921 1.0 1.13243961334 1.23670852184 1.34824109077 1.45338571072 1.45334911346 1.34815716743 1.18517148495 1.1323800087 1.00000011921 1.0 1.10497415066 1.20423388481 1.31715416908 1.43287158012 1.43282425404 1.31705760956 1.15580451488 1.10491454601 1.0 1.0 1.04525017738 1.13687396049 1.25087404251 1.36834621429 1.36834192276 1.25074923038 1.09465360641 1.0451798439 1.00000011921 1.0 1.00108516216 1.07793748379 1.19100940228 1.29048717022 1.29038882256 1.19097554684 1.03557705879 1.00106680393 1.00000011921 1.0 1.00000011921 1.00000011921 1.02789866924 1.09286534786 1.09294629097 1.02774608135 1.00000011921 1.0 0.999999940395 
1.0 1.00000011921 1.00000023842 1.02803862095 1.09322631359 1.0931994915 1.02795505524 1.00000023842 1.0 1.0 0.999999940395 1.001111269 1.07804179192 1.19098138809 1.29028308392 1.29025399685 1.19086551666 1.03567004204 1.00109279156 1.0 1.0 1.06739664078 1.16573703289 1.28757798672 1.41545724869 1.41543197632 1.28747045994 1.11784386635 1.06733071804 1.00000011921 1.0 1.10502481461 1.20427656174 1.3172621727 1.43262279034 1.43259477615 1.31717133522 1.15585017204 1.10496520996 1.00000011921 1.0 1.13245069981 1.23672199249 1.34826207161 1.45315527916 1.45313167572 1.34818720818 1.1851798296 1.13239121437 1.00000011921 1.0 1.13243961334 1.23670852184 1.34824109077 1.45339417458 1.45335769653 1.34815716743 1.18517148495 1.1323800087 1.00000011921 1.0 1.10497415066 1.20423388481 1.31715416908 1.43287920952 1.43283212185 1.31705760956 1.15580451488 1.10491454601 1.0 1.0 1.04525017738 1.13687396049 1.25087404251 1.36834621429 1.36834192276 1.25074923038 1.09465360641 1.0451798439 1.00000011921 1.0 1.00108516216 1.07793748379 1.19100940228 1.29048717022 1.29038882256 1.19097554684 1.03557705879 1.00106680393 1.00000011921 1.0 1.00000011921 1.00000011921 1.02789866924 1.09286534786 1.09294629097 1.02774608135 1.00000011921 1.0 0.999999940395 
1.0 1.00000011921 1.00000023842 1.02803862095 1.09322631359 1.0931994915 1.02795505524 1.00000023842 1.0 1.0 0.999999940395 1.001111269 1.07804179192 1.19098138809 1.29028308392 1.29025399685 1.19086551666 1.03567004204 1.00109279156 1.0 1.0 1.06739664078 1.16573703289 1.28757798672 1.41546499729 1.41543972492 1.28747045994 1.11784386635 1.06733071804 1.00000011921 1.0 1.10502481461 1.20427656174 1.3172621727 1.43263065815 1.43260276318 1.31717133522 1.15585017204 1.10496520996 1.00000011921 1.0 1.13245069981 1.23672199249 1.34826207161 1.45316374302 1.45313990116 1.34818720818 1.1851798296 1.13239121437 1.00000011921 1.0 1.13243961334 1.23670852184 1.34824109077 1.45340251923 1.45336616039 1.34815716743 1.18517148495 1.1323800087 1.00000011921 1.0 1.10497415066 1.20423388481 1.31715416908 1.43288731575 1.43283998966 1.31705760956 1.15580451488 1.10491454601 1.0 1.0 1.04525017738 1.13687396049 1.25087404251 1.36834621429 1.36834192276 1.25074923038 1.09465360641 1.0451798439 1.00000011921 1.0 1.00108516216 1.07793748379 1.19100940228 1.29048717022 1.29038882256 1.19097554684 1.03557705879 1.00106680393 1.00000011921 1.0 1.00000011921 1.00000011921 1.02789866924 1.09286534786 1.09294629097 1.02774608135 1.00000011921 1.0 0.999999940395 
1.0 1.00000011921 1.00000023842 1.02803862095 1.09322631359 1.0931994915 1.02795505524 1.00000023842 1.0 1.0 0.999999940395 1.001111269 1.07804179192 1.19098138809 1.29028308392 1.29025399685 1.19086551666 1.03567004204 1.00109279156 1.0 1.0 1.06739664078 1.16573703289 1.28757798672 1.41547262669 1.4154471159 1.28747045994 1.11784386635 1.06733071804 1.00000011921 1.0 1.10502481461 1.20427656174 1.3172621727 1.43263852596 1.43261063099 1.31717133522 1.15585017204 1.10496520996 1.00000011921 1.0 1.13245069981 1.23672199249 1.34826207161 1.4531724453 1.45314872265 1.34818720818 1.1851798296 1.13239121437 1.00000011921 1.0 1.13243961334 1.23670852184 1.34824109077 1.45341134071 1.45337498188 1.34815716743 1.18517148495 1.1323800087 1.00000011921 1.0 1.10497415066 1.20423388481 1.31715416908 1.43289506435 1.43284773827 1.31705760956 1.15580451488 1.10491454601 1.0 1.0 1.04525017738 1.13687396049 1.25087404251 1.36834621429 1.36834192276 1.25074923038 1.09465360641 1.0451798439 1.00000011921 1.0 1.00108516216 1.07793748379 1.19100940228 1.29048717022 1.29038882256 1.19097554684 1.03557705879 1.00106680393 1.00000011921 1.0 1.00000011921 1.00000011921 1.02789866924 1.09286534786 1.09294629097 1.02774608135 1.00000011921 1.0 0.999999940395 
