2.26495075226 3.90797495842 6.8386759758 9.57151508331 11.1581077576 11.1568555832 9.56552410126 6.83119153976 3.90115785599 2.2648370266 2.29080510139 5.1139421463 9.85949039459 14.3813209534 16.9675483704 16.9655342102 14.3714313507 9.8472776413 5.10274505615 2.29048752785 2.31521654129 6.00659132004 11.9468603134 17.5629291534 20.8913078308 20.8887252808 17.5504016876 11.9317836761 5.99231004715 2.31471037865 2.33228158951 6.53304290771 13.1224603653 19.2878112793 22.9278793335 22.9250602722 19.2741165161 13.1058568954 6.51703548431 2.33164572716 2.34147334099 6.79584646225 13.6991624832 20.1043319702 23.8737449646 23.8708400726 20.0901451111 13.6818447113 6.77901649475 2.34076690674 2.34146595001 6.79563617706 13.6987028122 20.1036834717 23.8730125427 23.8701057434 20.0895023346 13.681391716 6.77880764008 2.34075975418 2.33224582672 6.53197622299 13.1200847626 19.2843532562 22.9238452911 22.9210262299 19.2706813812 13.1035060883 6.5159869194 2.33161091805 2.31516289711 6.00472688675 11.9427051544 17.5566444397 20.8828048706 20.8803215027 17.5441608429 11.9276943207 5.99046373367 2.31465673447 2.29072952271 5.11106157303 9.85248661041 14.3710660934 16.9545516968 16.9525794983 14.3613176346 9.84019565582 5.09983110428 2.29041290283 2.26489830017 3.90427231789 6.82891607285 9.55525875092 11.1381826401 11.1372842789 9.548828125 6.82118415833 3.89738821983 2.26478219032 
2.26517009735 3.837641716 6.69878721237 9.40417289734 10.9756574631 10.9744110107 9.39824295044 6.69140863419 3.83105611801 2.26505923271 2.29023814201 5.03303813934 9.71239376068 14.2207183838 16.8142623901 16.8122177124 14.2108211517 9.70027256012 5.02207183838 2.28993010521 2.31416010857 5.92814540863 11.8067035675 17.422328949 20.8340988159 20.8313865662 17.4096946716 11.7917222977 5.91407203674 2.31366753578 2.33122706413 6.45966100693 12.9904251099 19.1987190247 22.9903640747 22.9873638153 19.1846809387 12.9738922119 6.44384527206 2.3306043148 2.34044408798 6.72656488419 13.5736875534 20.0530891418 24.0011558533 23.998046875 20.038444519 13.5564212799 6.70991420746 2.33975148201 2.34043693542 6.7263507843 13.5732250214 20.0524177551 24.000371933 23.9972610474 20.037776947 13.5559597015 6.7097029686 2.33974432945 2.33119130135 6.4585852623 12.9880361557 19.1951560974 22.9861106873 22.9831104279 19.1811485291 12.9715299606 6.44278717041 2.33057022095 2.31410717964 5.92626094818 11.8025312424 17.4159011841 20.8252887726 20.8226852417 17.4033031464 11.7876148224 5.91220569611 2.31361532211 2.29016423225 5.03011417389 9.70528030396 14.2103977203 16.8009357452 16.7989463806 14.2006454468 9.69305706024 5.01910305023 2.28985691071 2.26511979103 3.83396553993 6.68897914886 9.38774871826 10.9557933807 10.9548883438 9.38129806519 6.68130731583 3.82729840279 2.26500654221 
2.26518654823 3.83164620399 6.68681144714 9.38988113403 10.9598331451 10.9585838318 9.38395595551 6.6794424057 3.82508063316 2.26507520676 2.29018449783 5.02609300613 9.69970989227 14.2066898346 16.7999572754 16.7979164124 14.1967945099 9.68759918213 5.01514720917 2.28987765312 2.31406927109 5.92142295837 11.7946853638 17.4091720581 20.8242053986 20.8214817047 17.3965339661 11.7797107697 5.90736722946 2.3135778904 2.3311252594 6.45343542099 12.9792232513 19.1889705658 22.9949588776 22.99193573 19.1749172211 12.9626989365 6.43763589859 2.33050370216 2.34036111832 6.72073364258 13.5631904602 20.0473022461 24.0159358978 24.0127983093 20.032623291 13.5459289551 6.7040977478 2.33966898918 2.34035420418 6.72051954269 13.5627269745 20.0466308594 24.0151405334 24.0120067596 20.0319519043 13.5454711914 6.70388650894 2.33966231346 2.33108949661 6.45235681534 12.9768295288 19.1853981018 22.9906711578 22.9876499176 19.17137146 12.9603328705 6.43657588959 2.33046913147 2.314016819 5.91953706741 11.7905044556 17.4027328491 20.815372467 20.8127536774 17.3901309967 11.7756004333 5.90550088882 2.31352567673 2.29011082649 5.02316570282 9.6925868988 14.1963634491 16.7866077423 16.7846221924 14.1866102219 9.68037033081 5.01217365265 2.28980445862 2.26513624191 3.82797288895 6.67699861526 9.37344551086 10.9399814606 10.9390764236 9.36699295044 6.66933250427 3.82132482529 2.26502323151 
2.265188694 3.83082699776 6.68517827988 9.3879404068 10.9576826096 10.9564361572 9.38201522827 6.67780971527 3.82426381111 2.26507806778 2.29017758369 5.02514839172 9.69799137115 14.204788208 16.7980155945 16.7959728241 14.194893837 9.68588066101 5.01420497894 2.28987121582 2.31405735016 5.92051649094 11.7930707932 17.4074115753 20.8227844238 20.82006073 17.3947753906 11.7780981064 5.90646266937 2.31356620789 2.33111166954 6.45260286331 12.9777364731 19.1876525879 22.9955673218 22.9925422668 19.1735973358 12.9612159729 6.43680620193 2.33049058914 2.34034943581 6.7199587822 13.5618009567 20.0465431213 24.0183906555 24.015247345 20.0318527222 13.5445423126 6.70332574844 2.33965754509 2.34034204483 6.71974372864 13.5613384247 20.0458679199 24.0175952911 24.0144519806 20.0311832428 13.5440807343 6.70311307907 2.33965086937 2.33107590675 6.45152521133 12.9753446579 19.1840782166 22.9912776947 22.9882507324 19.1700515747 12.9588489532 6.43574571609 2.33045625687 2.31400418282 5.91862916946 11.7888946533 17.4009723663 20.8139476776 20.8113288879 17.3883705139 11.7739868164 5.90459537506 2.31351327896 2.29010391235 5.02222061157 9.69086742401 14.1944627762 16.7846622467 16.7826728821 14.184709549 9.67865085602 5.01123189926 2.28979825974 2.2651386261 3.82715511322 6.67536640167 9.37150001526 10.9378347397 10.9369277954 9.36505031586 6.66770076752 3.82050824165 2.26502537727 
2.26518940926 3.83066773415 6.68486499786 9.38757228851 10.9572782516 10.9560308456 9.38164806366 6.67749547958 3.82410526276 2.26507854462 2.29017615318 5.02496910095 9.69767093658 14.2044401169 16.7976589203 16.7956161499 14.1945438385 9.68555831909 5.01402616501 2.28986954689 2.31405544281 5.92034816742 11.7927770615 17.4071025848 20.8225345612 20.8198127747 17.3944664001 11.7778081894 5.9062962532 2.3135638237 2.33110952377 6.45245361328 12.9774770737 19.1874351501 22.9957466125 22.9927177429 19.1733798981 12.9609575272 6.4366569519 2.33048820496 2.34034729004 6.71982145309 13.5615625381 20.0464477539 24.0190296173 24.0158863068 20.0317592621 13.544303894 6.70318889618 2.33965611458 2.34034013748 6.71960783005 13.5611019135 20.0457725525 24.0182342529 24.0150947571 20.0310878754 13.5438451767 6.70297765732 2.33964920044 2.3310739994 6.45137548447 12.9750843048 19.1838626862 22.9914550781 22.9884262085 19.169834137 12.9585905075 6.4355969429 2.33045387268 2.31400251389 5.91846132278 11.788602829 17.4006633759 20.8136978149 20.8110771179 17.3880615234 11.7736949921 5.90442657471 2.31351113319 2.29010248184 5.02204036713 9.69054412842 14.194111824 16.7843055725 16.7823181152 14.1843585968 9.67832756042 5.01105213165 2.28979659081 2.26513934135 3.82699513435 6.67505311966 9.371134758 10.9374313354 10.9365234375 9.3646812439 6.66738843918 3.8203496933 2.26502609253 
2.26518917084 3.83063173294 6.68479824066 9.38749885559 10.957201004 10.955953598 9.38157558441 6.67742919922 3.82406949997 2.26507878304 2.2901763916 5.02493286133 9.69760894775 14.2043809891 16.7976016998 16.7955608368 14.194483757 9.68549823761 5.01398897171 2.28986930847 2.31405472755 5.92031812668 11.7927303314 17.4070625305 20.822517395 20.8197956085 17.3944263458 11.7777614594 5.90626525879 2.31356358528 2.33110952377 6.4524307251 12.9774446487 19.1874313354 22.9958572388 22.9928340912 19.1733760834 12.9609231949 6.4366350174 2.33048844337 2.34034729004 6.71980524063 13.561542511 20.0464801788 24.0192947388 24.0161514282 20.0317955017 13.5442790985 6.70317173004 2.33965587616 2.3403403759 6.71959066391 13.5610771179 20.0458068848 24.0184993744 24.0153541565 20.0311183929 13.5438194275 6.70296096802 2.33964920044 2.3310739994 6.45135259628 12.9750537872 19.1838588715 22.991563797 22.9885349274 19.1698303223 12.9585580826 6.43557405472 2.33045387268 2.31400227547 5.91843128204 11.7885541916 17.4006252289 20.8136806488 20.8110618591 17.3880214691 11.773648262 5.9043970108 2.31351113319 2.29010248184 5.02200365067 9.69048309326 14.1940526962 16.7842502594 16.7822589874 14.184299469 9.67826652527 5.01101493835 2.28979611397 2.26513934135 3.82695937157 6.67498445511 9.3710603714 10.9373521805 10.9364461899 9.36460876465 6.66731929779 3.82031393051 2.26502633095 
2.26518940926 3.83062744141 6.68479156494 9.38749980927 10.9572029114 10.9559555054 9.38157463074 6.6774225235 3.82406425476 2.26507902145 2.29017663002 5.02493095398 9.6976146698 14.2043943405 16.797618866 16.7955780029 14.1944999695 9.68550205231 5.01398801804 2.28986930847 2.31405544281 5.92032194138 11.7927484512 17.4070911407 20.8225593567 20.8198375702 17.3944587708 11.7777776718 5.90627002716 2.3135638237 2.33110976219 6.45244073868 12.9774703979 19.1874809265 22.9959545135 22.992931366 19.1734256744 12.9609489441 6.43664264679 2.33048868179 2.34034800529 6.71981620789 13.5615730286 20.0465507507 24.0194568634 24.0163116455 20.0318622589 13.5443096161 6.70318412781 2.33965611458 2.34034061432 6.71960353851 13.5611085892 20.045879364 24.0186576843 24.0155162811 20.0311927795 13.5438508987 6.70297336578 2.33964943886 2.33107423782 6.45136213303 12.9750785828 19.1839065552 22.9916610718 22.9886341095 19.1698818207 12.9585828781 6.43558359146 2.3304541111 2.31400251389 5.91843605042 11.7885704041 17.4006519318 20.8137207031 20.8111000061 17.3880500793 11.7736644745 5.90440130234 2.31351089478 2.29010248184 5.02200222015 9.69048786163 14.1940670013 16.7842674255 16.7822780609 14.1843137741 9.67826843262 5.01101493835 2.28979682922 2.26513910294 3.8269546032 6.67497825623 9.37106132507 10.9373559952 10.9364480972 9.36460876465 6.66731309891 3.82030844688 2.26502633095 
