0.98127835989 1.01147019863 1.04696333408 1.11397862434 1.18922817707 1.18920946121 1.11390709877 1.03211045265 1.01142883301 0.981332182884 0.972297310829 1.05439937115 1.17478728294 1.28715932369 1.37621498108 1.37619280815 1.28708875179 1.10764586926 1.05433225632 0.972357869148 0.969841718674 1.1419801712 1.27737939358 1.38923752308 1.45768737793 1.45766854286 1.38916611671 1.20641160011 1.14190232754 0.96988338232 0.968467831612 1.18505597115 1.31858205795 1.41405379772 1.47255504131 1.47253763676 1.41398227215 1.2472512722 1.18498384953 0.968500316143 0.967234909534 1.21827363968 1.34860312939 1.43217968941 1.48079586029 1.48078393936 1.43211424351 1.28054237366 1.21820151806 0.96726411581 0.967236816883 1.21826446056 1.34859514236 1.43216609955 1.48083221912 1.48081791401 1.43209767342 1.28053808212 1.21819221973 0.96726590395 0.968471229076 1.18500983715 1.31854510307 1.41398262978 1.47257626057 1.47255551815 1.41390800476 1.24721753597 1.18493855 0.968503773212 0.970356941223 1.11290383339 1.24312543869 1.35863494873 1.44394433498 1.44393646717 1.35855674744 1.17468881607 1.1128360033 0.970400393009 0.972304105759 1.05431568623 1.17468237877 1.28715193272 1.37625813484 1.37619948387 1.28710746765 1.1075565815 1.05425035954 0.97236430645 0.981305599213 1.01142716408 1.04692149162 1.11380028725 1.18905246258 1.18911707401 1.11368668079 1.03208971024 1.01138675213 0.981358110905 
0.981156826019 1.00659966469 1.03966832161 1.10382807255 1.17806279659 1.17804265022 1.10376214981 1.02492713928 1.00656414032 0.981210231781 0.972087442875 1.04782021046 1.16685044765 1.2780777216 1.37123513222 1.37121915817 1.27800583839 1.09984958172 1.04775846004 0.97214782238 0.969385206699 1.13465678692 1.26933240891 1.38842427731 1.49590647221 1.49589550495 1.38835728168 1.19879305363 1.13458049297 0.969427466393 0.967700541019 1.17765140533 1.31218206882 1.42190241814 1.52320230007 1.52319169044 1.42185080051 1.24151706696 1.17758107185 0.967734456062 0.966260671616 1.21121490002 1.34869074821 1.45588696003 1.5464015007 1.54639470577 1.45584642887 1.27684187889 1.21114122868 0.966291606426 0.966262698174 1.21120524406 1.34868121147 1.45586597919 1.54650962353 1.54649627209 1.45581889153 1.27683866024 1.21113181114 0.96629357338 0.967704474926 1.17760574818 1.31214308739 1.42181944847 1.52331650257 1.52329647541 1.4217621088 1.24148142338 1.17753624916 0.967738330364 0.969932198524 1.10553073883 1.23448038101 1.34751784801 1.45476222038 1.45476198196 1.34744989872 1.1666790247 1.10546541214 0.969976186752 0.972094416618 1.04773902893 1.1667419672 1.27808654308 1.37128949165 1.37123203278 1.27804374695 1.0997594595 1.04767906666 0.972154378891 0.981183469296 1.00656116009 1.03963589668 1.10363817215 1.17790150642 1.17796862125 1.10352563858 1.02491462231 1.00652658939 0.981235265732 
0.981157004833 1.00655913353 1.03960597515 1.10373818874 1.17795872688 1.17793881893 1.10367202759 1.0248670578 1.00652372837 0.98121035099 0.972087562084 1.04776263237 1.16677713394 1.27799236774 1.3711476326 1.37113142014 1.27792048454 1.09977912903 1.04770088196 0.972148001194 0.969383299351 1.13459002972 1.26925754547 1.38832736015 1.49578130245 1.49577045441 1.3882600069 1.19872176647 1.13451385498 0.969425439835 0.96769630909 1.17758405209 1.31211435795 1.42182314396 1.52335083485 1.52334058285 1.42177140713 1.24145710468 1.17751371861 0.967730164528 0.966254472733 1.21115100384 1.34862935543 1.45590114594 1.5479798317 1.54797363281 1.45586061478 1.27679741383 1.21107757092 0.966285526752 0.966256737709 1.21114146709 1.3486199379 1.45588099957 1.54810380936 1.54809081554 1.45583367348 1.27679419518 1.21106815338 0.96628755331 0.967700242996 1.17753815651 1.31207537651 1.42174005508 1.52347314358 1.52345347404 1.42168271542 1.24142146111 1.1774687767 0.967734098434 0.969930648804 1.10546433926 1.23440182209 1.34741687775 1.45466089249 1.45466053486 1.34734892845 1.16660356522 1.10539901257 0.969974458218 0.972094535828 1.04768133163 1.1666687727 1.27800154686 1.37120139599 1.37114417553 1.27795863152 1.09968900681 1.04762172699 0.972154378891 0.981183469296 1.00652074814 1.03957366943 1.10354793072 1.17779767513 1.17786502838 1.10343551636 1.02485454082 1.00648641586 0.981235265732 
0.981157064438 1.00655949116 1.0396065712 1.10373961926 1.17796087265 1.17794084549 1.1036734581 1.02486765385 1.006524086 0.98121035099 0.972087442875 1.04776334763 1.16677844524 1.27799379826 1.37114906311 1.37113296986 1.27792191505 1.09978032112 1.04770183563 0.97214782238 0.969383299351 1.13459122181 1.26925945282 1.38832938671 1.4957832098 1.49577212334 1.38826215267 1.19872331619 1.13451504707 0.969425499439 0.967696130276 1.17758572102 1.31211614609 1.42182552814 1.52335321903 1.52334284782 1.42177379131 1.24145889282 1.17751526833 0.967729926109 0.966254353523 1.21115279198 1.34863173962 1.45590543747 1.54798936844 1.54798328876 1.4558647871 1.27679955959 1.21107912064 0.966285288334 0.966256380081 1.21114337444 1.34862220287 1.4558852911 1.54811322689 1.5481004715 1.45583796501 1.27679646015 1.21106982231 0.966287255287 0.967700064182 1.17753994465 1.31207728386 1.42174267769 1.52347576618 1.52345597744 1.4216850996 1.24142348766 1.17747020721 0.967733919621 0.969930648804 1.10546541214 1.23440337181 1.34741866589 1.45466315746 1.45466256142 1.3473508358 1.16660499573 1.10539996624 0.969974339008 0.972094357014 1.04768204689 1.16666996479 1.27800297737 1.37120294571 1.37114572525 1.27795994282 1.09969007969 1.04762256145 0.972154140472 0.9811835289 1.00652098656 1.03957426548 1.10354948044 1.17779970169 1.17786693573 1.10343694687 1.02485501766 1.00648677349 0.981235146523 
0.981156826019 1.00655996799 1.03960728645 1.10374116898 1.17796254158 1.17794239521 1.10367488861 1.02486813068 1.00652432442 0.981210231781 0.972087204456 1.0477643013 1.16677963734 1.27799534798 1.37115073204 1.37113428116 1.27792358398 1.099781394 1.04770255089 0.972147762775 0.969383060932 1.1345924139 1.26926088333 1.38833129406 1.49578499794 1.49577403069 1.38826429844 1.19872462749 1.13451647758 0.969425201416 0.967695891857 1.17758703232 1.31211817265 1.4218275547 1.52335548401 1.52334523201 1.4217761755 1.24146068096 1.17751693726 0.9677298069 0.966254115105 1.21115458012 1.3486341238 1.45590949059 1.54799842834 1.54799258709 1.45586884022 1.27680146694 1.21108114719 0.966285169125 0.966256141663 1.21114516258 1.34862458706 1.45588946342 1.54812252522 1.5481095314 1.45584213734 1.2767983675 1.21107161045 0.966287136078 0.967699944973 1.17754137516 1.31207942963 1.42174470425 1.52347791195 1.52345824242 1.42168736458 1.24142491817 1.17747187614 0.967733681202 0.969930529594 1.10546660423 1.23440504074 1.34742069244 1.45466482639 1.45466434956 1.34735298157 1.16660642624 1.10540127754 0.969974339008 0.972094297409 1.04768300056 1.1666713953 1.27800440788 1.37120473385 1.37114751339 1.27796149254 1.09969103336 1.0476231575 0.972154021263 0.981183409691 1.00652134418 1.03957509995 1.10355091095 1.17780137062 1.17786872387 1.10343837738 1.02485597134 1.00648701191 0.981235206127 
0.98115670681 1.00656020641 1.03960800171 1.10374259949 1.17796421051 1.17794418335 1.10367631912 1.02486884594 1.00652480125 0.981210112572 0.972087144852 1.04776501656 1.16678059101 1.27799654007 1.37115252018 1.37113618851 1.27792489529 1.09978222847 1.04770326614 0.972147703171 0.969382822514 1.134593606 1.26926255226 1.38833332062 1.49578690529 1.49577593803 1.38826644421 1.1987259388 1.13451755047 0.969424962997 0.967695772648 1.17758870125 1.31212007999 1.42182993889 1.52335774899 1.52334749699 1.42177820206 1.2414624691 1.17751836777 0.967729628086 0.966253995895 1.21115636826 1.34863615036 1.45591378212 1.54800796509 1.54800200462 1.45587277412 1.27680337429 1.21108257771 0.966284871101 0.966255962849 1.21114706993 1.34862673283 1.45589339733 1.54813170433 1.54811871052 1.45584607124 1.27680051327 1.21107339859 0.966287016869 0.967699706554 1.17754292488 1.31208097935 1.42174708843 1.52348041534 1.52346086502 1.42168962955 1.24142670631 1.17747330666 0.967733502388 0.96993035078 1.10546779633 1.23440635204 1.34742259979 1.45466673374 1.4546662569 1.34735476971 1.16660737991 1.10540246964 0.96997410059 0.9720941782 1.04768371582 1.16667258739 1.27800583839 1.37120616436 1.3711489439 1.27796280384 1.09969198704 1.04762399197 0.972154080868 0.981183409691 1.00652182102 1.03957593441 1.10355222225 1.17780315876 1.17787027359 1.10343980789 1.02485656738 1.00648748875 0.981235027313 
0.98115670681 1.00656068325 1.03960883617 1.10374379158 1.17796611786 1.17794585228 1.10367774963 1.0248695612 1.00652527809 0.981210052967 0.972087025642 1.0477656126 1.16678190231 1.277998209 1.3711540699 1.37113761902 1.2779263258 1.09978342056 1.04770410061 0.972147464752 0.969382822514 1.1345949173 1.26926422119 1.38833546638 1.49578845501 1.49577772617 1.38826835155 1.19872736931 1.13451886177 0.969424843788 0.967695593834 1.17759013176 1.31212198734 1.42183208466 1.52336061001 1.52335047722 1.42178058624 1.24146413803 1.17751979828 0.967729568481 0.966253757477 1.21115815639 1.34863865376 1.45591771603 1.54801690578 1.54801094532 1.45587718487 1.27680552006 1.21108436584 0.966284632683 0.966255784035 1.21114861965 1.3486289978 1.45589756966 1.54814112186 1.54812800884 1.45585024357 1.27680242062 1.21107518673 0.966286659241 0.96769952774 1.17754435539 1.31208312511 1.42174935341 1.52348339558 1.52346396446 1.42169201374 1.24142861366 1.17747485638 0.967733383179 0.969930171967 1.10546886921 1.23440778255 1.34742450714 1.45466864109 1.45466816425 1.34735655785 1.16660881042 1.10540342331 0.969974040985 0.972093939781 1.04768443108 1.16667366028 1.27800726891 1.37120759487 1.37115049362 1.27796435356 1.09969317913 1.04762482643 0.972153902054 0.981183409691 1.00652229786 1.03957664967 1.10355377197 1.17780482769 1.17787218094 1.10344111919 1.02485716343 1.00648772717 0.981234908104 
