1.0 1.00000011921 0.998913764954 1.04832792282 1.09282815456 1.09281134605 1.04824781418 1.00000023842 1.0 1.0 0.999999940395 1.00438332558 1.07615792751 1.12325596809 1.13659799099 1.13659071922 1.12321734428 1.04075658321 1.00433158875 1.0 1.0 1.0592083931 1.10860824585 1.13760721684 1.14631128311 1.14630639553 1.13758420944 1.09358561039 1.05913794041 1.00000011921 1.0 1.08440053463 1.11879396439 1.14089143276 1.14797890186 1.14797616005 1.14087438583 1.10851967335 1.08434140682 1.00000011921 1.0 1.09736931324 1.12411272526 1.14292645454 1.14868724346 1.14868569374 1.14291334152 1.11597621441 1.09731578827 1.00000011921 1.0 1.09736394882 1.12410950661 1.14292430878 1.14869225025 1.14869022369 1.14291071892 1.11597299576 1.09731042385 1.00000011921 1.0 1.08436846733 1.11877846718 1.14087712765 1.14797842503 1.14797508717 1.14085972309 1.10849964619 1.08430969715 1.0 1.0 1.04295802116 1.10461890697 1.13659441471 1.14627349377 1.14627099037 1.13657057285 1.08523845673 1.04288649559 1.00000011921 1.0 1.0043336153 1.07609272003 1.12323892117 1.13661301136 1.13659989834 1.12320554256 1.0406819582 1.00428259373 1.00000011921 1.0 1.00000011921 0.998894870281 1.04823172092 1.09265935421 1.0926836729 1.04813230038 1.00000011921 1.0 0.999999940395 
1.0 1.00000011921 0.998913764954 1.04832792282 1.09930992126 1.09928750992 1.04824781418 1.00000023842 1.0 1.0 0.999999940395 1.00438332558 1.08148503304 1.17718398571 1.23195874691 1.23194169998 1.17711174488 1.04075658321 1.00433158875 1.0 1.0 1.05979788303 1.15995693207 1.2365295887 1.26745903492 1.26744699478 1.23646581173 1.10784256458 1.05972671509 1.00000011921 1.0 1.09311485291 1.18779909611 1.2481290102 1.27301287651 1.27300512791 1.248077631 1.14183795452 1.09305155277 1.00000011921 1.0 1.1185246706 1.20500588417 1.25590670109 1.27572953701 1.27572500706 1.25586521626 1.16868293285 1.11846399307 1.00000011921 1.0 1.11851620674 1.20499897003 1.2559005022 1.27574574947 1.27574014664 1.25585794449 1.16867721081 1.11845541 1.00000011921 1.0 1.09307289124 1.18776834011 1.2480866909 1.27301812172 1.27300858498 1.24803411961 1.14180016518 1.09301042557 1.0 1.0 1.04295802116 1.13398468494 1.22494471073 1.26426672935 1.26426148415 1.22487187386 1.08845198154 1.04288649559 1.00000011921 1.0 1.0043336153 1.08140182495 1.1771709919 1.23199474812 1.23195374012 1.17712378502 1.0406819582 1.00428259373 1.00000011921 1.0 1.00000011921 0.998894870281 1.04823172092 1.09908115864 1.09912526608 1.04813230038 1.00000011921 1.0 0.999999940395 
1.0 1.00000011921 0.998913764954 1.04832792282 1.09930992126 1.09928750992 1.04824781418 1.00000023842 1.0 1.0 0.999999940395 1.00438332558 1.08148503304 1.17743301392 1.26049876213 1.26047730446 1.17736065388 1.04075658321 1.00433158875 1.0 1.0 1.05979788303 1.16162633896 1.27046430111 1.34167361259 1.34165525436 1.27039396763 1.10784256458 1.05972671509 1.00000011921 1.0 1.09311485291 1.19790005684 1.29438829422 1.3537530899 1.35373878479 1.29432189465 1.14183795452 1.09305155277 1.00000011921 1.0 1.1185246706 1.22982168198 1.31387281418 1.36117827892 1.36116802692 1.31381285191 1.16949987411 1.11846399307 1.00000011921 1.0 1.11851620674 1.22981321812 1.31385946274 1.36121892929 1.36120605469 1.31379652023 1.16949474812 1.11845541 1.00000011921 1.0 1.09307289124 1.19786500931 1.29431557655 1.35378313065 1.35376441479 1.29424619675 1.14180016518 1.09301042557 1.0 1.0 1.04295802116 1.13398468494 1.2362691164 1.32565808296 1.32565188408 1.23618876934 1.08845198154 1.04288649559 1.00000011921 1.0 1.0043336153 1.08140182495 1.17742478848 1.26059150696 1.2605253458 1.17737936974 1.0406819582 1.00428259373 1.00000011921 1.0 1.00000011921 0.998894870281 1.04823172092 1.09908115864 1.09912526608 1.04813230038 1.00000011921 1.0 0.999999940395 
1.0 1.00000011921 0.998913764954 1.04832792282 1.09930992126 1.09928750992 1.04824781418 1.00000023842 1.0 1.0 0.999999940395 1.00438332558 1.08148503304 1.17743301392 1.2606818676 1.26066052914 1.17736065388 1.04075658321 1.00433158875 1.0 1.0 1.05979788303 1.16162633896 1.27184009552 1.37124109268 1.37122476101 1.27177131176 1.10784256458 1.05972671509 1.00000011921 1.0 1.09311485291 1.19790005684 1.30074071884 1.38957881927 1.38956236839 1.30068361759 1.14183795452 1.09305155277 1.00000011921 1.0 1.1185246706 1.23025429249 1.33023285866 1.40392446518 1.40391278267 1.33018362522 1.16949987411 1.11846399307 1.00000011921 1.0 1.11851620674 1.23024559021 1.33021402359 1.40400242805 1.40398550034 1.3301589489 1.16949474812 1.11845541 1.00000011921 1.0 1.09307289124 1.19786500931 1.30065572262 1.38965439796 1.38962948322 1.30059373379 1.14180016518 1.09301042557 1.0 1.0 1.04295802116 1.13398468494 1.2362691164 1.33696389198 1.33695876598 1.23618876934 1.08845198154 1.04288649559 1.00000011921 1.0 1.0043336153 1.08140182495 1.17742478848 1.26077651978 1.26070964336 1.17737936974 1.0406819582 1.00428259373 1.00000011921 1.0 1.00000011921 0.998894870281 1.04823172092 1.09908115864 1.09912526608 1.04813230038 1.00000011921 1.0 0.999999940395 
1.0 1.00000011921 0.998913764954 1.04832792282 1.09930992126 1.09928750992 1.04824781418 1.00000023842 1.0 1.0 0.999999940395 1.00438332558 1.08148503304 1.17743301392 1.2606818676 1.26066052914 1.17736065388 1.04075658321 1.00433158875 1.0 1.0 1.05979788303 1.16162633896 1.27184009552 1.37794017792 1.37792551517 1.27177131176 1.10784256458 1.05972671509 1.00000011921 1.0 1.09311485291 1.19790005684 1.30074071884 1.39958262444 1.39956760406 1.30068361759 1.14183795452 1.09305155277 1.00000011921 1.0 1.1185246706 1.23025429249 1.33288061619 1.41921186447 1.41920101643 1.33283519745 1.16949987411 1.11846399307 1.00000011921 1.0 1.11851620674 1.23024559021 1.33286011219 1.41932332516 1.41930568218 1.33280849457 1.16949474812 1.11845541 1.00000011921 1.0 1.09307289124 1.19786500931 1.30065572262 1.39969885349 1.39967310429 1.30059373379 1.14180016518 1.09301042557 1.0 1.0 1.04295802116 1.13398468494 1.2362691164 1.33696269989 1.3369576931 1.23618876934 1.08845198154 1.04288649559 1.00000011921 1.0 1.0043336153 1.08140182495 1.17742478848 1.26077651978 1.26070964336 1.17737936974 1.0406819582 1.00428259373 1.00000011921 1.0 1.00000011921 0.998894870281 1.04823172092 1.09908115864 1.09912526608 1.04813230038 1.00000011921 1.0 0.999999940395 
1.0 1.00000011921 0.998913764954 1.04832792282 1.09930992126 1.09928750992 1.04824781418 1.00000023842 1.0 1.0 0.999999940395 1.00438332558 1.08148503304 1.17743301392 1.2606818676 1.26066052914 1.17736065388 1.04075658321 1.00433158875 1.0 1.0 1.05979788303 1.16162633896 1.27184009552 1.37847459316 1.37846004963 1.27177131176 1.10784256458 1.05972671509 1.00000011921 1.0 1.09311485291 1.19790005684 1.30074071884 1.40130853653 1.40129435062 1.30068361759 1.14183795452 1.09305155277 1.00000011921 1.0 1.1185246706 1.23025429249 1.33311188221 1.42325782776 1.42324781418 1.33306694031 1.16949987411 1.11846399307 1.00000011921 1.0 1.11851620674 1.23024559021 1.3330925703 1.4233891964 1.42337155342 1.33304059505 1.16949474812 1.11845541 1.00000011921 1.0 1.09307289124 1.19786500931 1.30065572262 1.40144562721 1.40141963959 1.30059373379 1.14180016518 1.09301042557 1.0 1.0 1.04295802116 1.13398468494 1.2362691164 1.33696269989 1.3369576931 1.23618876934 1.08845198154 1.04288649559 1.00000011921 1.0 1.0043336153 1.08140182495 1.17742478848 1.26077651978 1.26070964336 1.17737936974 1.0406819582 1.00428259373 1.00000011921 1.0 1.00000011921 0.998894870281 1.04823172092 1.09908115864 1.09912526608 1.04813230038 1.00000011921 1.0 0.999999940395 
1.0 1.00000011921 0.998913764954 1.04832792282 1.09930992126 1.09928750992 1.04824781418 1.00000023842 1.0 1.0 0.999999940395 1.00438332558 1.08148503304 1.17743301392 1.2606818676 1.26066052914 1.17736065388 1.04075658321 1.00433158875 1.0 1.0 1.05979788303 1.16162633896 1.27184009552 1.37847459316 1.37846004963 1.27177131176 1.10784256458 1.05972671509 1.00000011921 1.0 1.09311485291 1.19790005684 1.30074071884 1.40144383907 1.40142989159 1.30068361759 1.14183795452 1.09305155277 1.00000011921 1.0 1.1185246706 1.23025429249 1.33313083649 1.42405962944 1.42404973507 1.33308589458 1.16949987411 1.11846399307 1.00000011921 1.0 1.11851620674 1.23024559021 1.33311212063 1.42419993877 1.42418193817 1.33306026459 1.16949474812 1.11845541 1.00000011921 1.0 1.09307289124 1.19786500931 1.30065572262 1.40158772469 1.40156197548 1.30059373379 1.14180016518 1.09301042557 1.0 1.0 1.04295802116 1.13398468494 1.2362691164 1.33696269989 1.3369576931 1.23618876934 1.08845198154 1.04288649559 1.00000011921 1.0 1.0043336153 1.08140182495 1.17742478848 1.26077651978 1.26070964336 1.17737936974 1.0406819582 1.00428259373 1.00000011921 1.0 1.00000011921 0.998894870281 1.04823172092 1.09908115864 1.09912526608 1.04813230038 1.00000011921 1.0 0.999999940395 
