14.0037345886 13.8002099991 13.0596313477 11.9220876694 11.2018299103 11.2024250031 11.9248018265 13.0621967316 13.8014593124 14.0037441254 21.9937019348 21.6346511841 20.6045856476 19.1403274536 18.230638504 18.2313575745 19.1437587738 20.6079845428 21.6365089417 21.9937782288 29.9850997925 29.569065094 28.657333374 27.4897441864 26.7489624023 26.7495574951 27.4924678802 28.6601219177 29.5708866119 29.9852275848 37.9865341187 37.6803359985 37.097984314 36.4010543823 35.9534072876 35.9537658691 36.4026832581 37.0996818542 37.6815643311 37.9866485596 46.0001564026 45.8874473572 45.6894683838 45.4601707458 45.3124694824 45.3125839233 45.4606933594 45.6900138855 45.8878669739 46.0002098083 54.0198822021 54.1332054138 54.33228302 54.5628128052 54.7113990784 54.7112808228 54.5622634888 54.3317146301 54.1327667236 54.0198326111 62.0334777832 62.3400802612 62.9234275818 63.6216011047 64.0701141357 64.0697479248 63.6199798584 62.9217185974 62.3388442993 62.0333518982 70.0348892212 70.4510040283 71.3633575439 72.532371521 73.2734069824 73.2728500366 72.5296936035 71.3605651855 70.4491653442 70.0347671509 78.0262756348 78.3849411011 79.4150009155 80.8799591064 81.7898864746 81.7891616821 80.8766555786 79.4115905762 78.3830718994 78.0261917114 86.0162582397 86.2193222046 86.9581756592 88.0925979614 88.8104553223 88.8102493286 88.0897140503 86.9555511475 86.2180709839 86.016242981 
14.0006847382 13.7815227509 13.0341281891 11.8816356659 11.1468029022 11.1474199295 11.88438797 13.0367193222 13.7827911377 14.0007076263 21.9902496338 21.6066932678 20.542432785 19.0024852753 18.0064067841 18.0072288513 19.0061569214 20.5459632874 21.6086196899 21.9903450012 29.9817943573 29.5361824036 28.5720500946 27.2822551727 26.419052124 26.4197597504 27.2853527069 28.5750408173 29.538110733 29.9819412231 37.9840621948 37.6532554626 37.0209579468 36.230670929 35.7086410522 35.7090682983 36.2325553894 37.0228347778 37.6545791626 37.9841957092 45.9992103577 45.8765830994 45.6572723389 45.3953475952 45.2240104675 45.2241439819 45.3959617615 45.6579017639 45.8770484924 45.9992637634 54.0208435059 54.1441268921 54.3646278381 54.6279563904 54.8004112244 54.8002548218 54.6273193359 54.363986969 54.1436386108 54.0207862854 62.0359420776 62.3671836853 63.0005149841 63.7921447754 64.3151550293 64.3147354126 63.7902603149 62.9986228943 62.365852356 62.0358085632 70.0381851196 70.4838790894 71.4486236572 72.7398986816 73.6032028198 73.6025466919 72.7368621826 71.4456253052 70.4819412231 70.0380477905 78.0297317505 78.4128646851 79.4770507812 81.017616272 82.0137023926 82.012878418 81.0141067505 79.4735107422 78.4109344482 78.029624939 86.0193023682 86.2379837036 86.9835586548 88.1327056885 88.8651809692 88.8649597168 88.1297454834 86.9808807373 86.2366943359 86.0192871094 
14.0005569458 13.780755043 13.0331983566 11.8803520203 11.1453342438 11.1459512711 11.8831033707 13.0357885361 13.7820234299 14.000582695 21.9900989532 21.6055221558 20.5399303436 18.9972133636 17.9985160828 17.9993419647 19.0008945465 20.5434570312 21.6074504852 21.9901943207 29.9816532135 29.5347728729 28.5683040619 27.2735404968 26.4030914307 26.4038085938 27.2766551971 28.571308136 29.5367012024 29.9818000793 37.9839630127 37.6520843506 37.01745224 36.2207107544 35.6893920898 35.68983078 36.222618103 37.0193481445 37.6534118652 37.9840927124 45.9991607666 45.8761062622 45.6558303833 45.390712738 45.2160491943 45.2161865234 45.3913421631 45.6564674377 45.87657547 45.9992218018 54.0208816528 54.1445999146 54.3660850525 54.6326065063 54.8084640503 54.8083114624 54.6319656372 54.365436554 54.1441230774 54.0208320618 62.0360488892 62.3683586121 63.0040168762 63.8021087646 64.3343887329 64.3339538574 63.800201416 63.0021286011 62.3670272827 62.0359153748 70.0383300781 70.4852828979 71.4523773193 72.7486114502 73.6191253662 73.6184539795 72.7455673218 71.4493637085 70.4833374023 70.0381851196 78.029876709 78.4140319824 79.4795684814 81.0228881836 82.0215606689 82.0207290649 81.0193634033 79.4759979248 78.4121017456 78.0297775269 86.0194320679 86.2387619019 86.9844665527 88.133972168 88.8666381836 88.8664169312 88.1310119629 86.9817886353 86.237449646 86.0194091797 
14.0005540848 13.7807407379 13.0331754684 11.880317688 11.1452913284 11.1459102631 11.8830680847 13.0357685089 13.7820110321 14.000579834 21.9901008606 21.6055030823 20.5398788452 18.9971179962 17.9983844757 17.9992103577 19.0007991791 20.5434093475 21.6074295044 21.9901924133 29.9816570282 29.53474617 28.5682277679 27.2733821869 26.4028549194 26.4035739899 27.2765007019 28.5712375641 29.5366725922 29.9817962646 37.9839630127 37.6520614624 37.0173835754 36.2205162048 35.6889572144 35.6893997192 36.2224197388 37.0192756653 37.6533889771 37.9840927124 45.9991607666 45.8760986328 45.655796051 45.3906173706 45.2158470154 45.2159805298 45.3912353516 45.6564292908 45.8765678406 45.9992218018 54.0208854675 54.1446037292 54.3661155701 54.6327171326 54.8086891174 54.8085174561 54.632068634 54.3654670715 54.1441307068 54.0208320618 62.0360450745 62.3683738708 63.0041007996 63.8023071289 64.3348236084 64.3343887329 63.800403595 63.0021858215 62.3670463562 62.0359153748 70.0383377075 70.4853134155 71.4524688721 72.7487869263 73.619354248 73.6186981201 72.7457199097 71.449432373 70.4833755493 70.038192749 78.029876709 78.4140548706 79.479598999 81.0229873657 82.0216903687 82.020866394 81.0194625854 79.4760437012 78.4121246338 78.0297775269 86.0194320679 86.2387619019 86.9844818115 88.1340026855 88.8666915894 88.8664474487 88.1310577393 86.9818115234 86.2374801636 86.0194091797 
14.0005540848 13.7807388306 13.0331678391 11.8802995682 11.1452674866 11.1458854675 11.8830509186 13.0357608795 13.7820081711 14.000579834 21.9901008606 21.6054973602 20.5398693085 18.9970932007 17.9983558655 17.9991817474 19.0007762909 20.5433979034 21.6074295044 21.9901924133 29.9816532135 29.53474617 28.5682144165 27.2733592987 26.4028148651 26.4035358429 27.2764759064 28.5712223053 29.5366764069 29.9817962646 37.9839630127 37.6520614624 37.017375946 36.220489502 35.6889228821 35.6893577576 36.2224006653 37.0192718506 37.6533889771 37.9840927124 45.9991607666 45.8760986328 45.6557846069 45.3906059265 45.2158241272 45.2159614563 45.3912239075 45.6564292908 45.8765678406 45.9992218018 54.0208854675 54.1446075439 54.3661231995 54.6327285767 54.8086891174 54.8085327148 54.6320800781 54.3654632568 54.1441307068 54.0208320618 62.0360450745 62.3683738708 63.0041046143 63.8023223877 64.3348617554 64.3344268799 63.8004226685 63.0021972656 62.3670463562 62.0359153748 70.0383377075 70.4853210449 71.4524688721 72.7487945557 73.6194000244 73.6187286377 72.7457504272 71.4494476318 70.4833755493 70.038192749 78.029876709 78.4140548706 79.4796142578 81.0230026245 82.0217208862 82.0208969116 81.0194854736 79.47605896 78.4121246338 78.0297775269 86.0194320679 86.2387619019 86.9845046997 88.1340255737 88.8667068481 88.8664627075 88.1310501099 86.9818267822 86.2374801636 86.0194091797 
14.0005540848 13.7807388306 13.0331602097 11.8802833557 11.1452436447 11.145860672 11.8830347061 13.0357513428 13.7820091248 14.000579834 21.9901008606 21.6054973602 20.5398578644 18.9970760345 17.9983253479 17.9991531372 19.0007534027 20.5433883667 21.6074237823 21.9901924133 29.9816532135 29.5347423553 28.5682106018 27.2733325958 26.4027843475 26.4035053253 27.2764530182 28.5712146759 29.5366725922 29.9817962646 37.983959198 37.6520576477 37.0173683167 36.2204666138 35.6888885498 35.6893234253 36.2223739624 37.0192565918 37.6533813477 37.9840927124 45.9991607666 45.8760986328 45.6557884216 45.3905982971 45.2158126831 45.2159576416 45.3912200928 45.6564292908 45.8765678406 45.9992218018 54.0208854675 54.1446037292 54.3661270142 54.6327362061 54.8087043762 54.8085479736 54.6320991516 54.3654708862 54.1441307068 54.0208320618 62.0360450745 62.3683776855 63.004108429 63.8023529053 64.3348922729 64.3344573975 63.8004417419 63.002204895 62.3670501709 62.0359153748 70.0383377075 70.4853134155 71.4524841309 72.7488250732 73.6194381714 73.6187591553 72.7457733154 71.4494628906 70.4833755493 70.038192749 78.029876709 78.4140548706 79.479637146 81.0230255127 82.0217590332 82.0209197998 81.0195007324 79.4760665894 78.4121246338 78.0297775269 86.0194320679 86.2387619019 86.9845046997 88.1340408325 88.8667297363 88.8665008545 88.1310806274 86.9818267822 86.2374801636 86.0194091797 
14.0005540848 13.7807397842 13.0331544876 11.8802642822 11.1452159882 11.1458368301 11.883014679 13.0357456207 13.7820053101 14.000579834 21.9901008606 21.6054935455 20.5398464203 18.9970531464 17.998298645 17.9991264343 19.0007324219 20.54337883 21.607421875 21.9901924133 29.9816532135 29.534740448 28.568189621 27.2733058929 26.4027481079 26.403470993 27.276424408 28.5712013245 29.5366649628 29.9817962646 37.983959198 37.652053833 37.0173568726 36.220451355 35.6888504028 35.6892929077 36.2223587036 37.0192489624 37.653377533 37.9840927124 45.9991607666 45.8760986328 45.6557922363 45.3905906677 45.2158050537 45.2159385681 45.3912086487 45.6564292908 45.8765640259 45.9992218018 54.0208854675 54.1446037292 54.3661193848 54.6327438354 54.8087234497 54.8085632324 54.6320953369 54.3654747009 54.1441307068 54.0208320618 62.0360450745 62.3683853149 63.004119873 63.8023796082 64.3349304199 64.334487915 63.8004722595 63.0022201538 62.3670501709 62.0359153748 70.0383377075 70.4853134155 71.4524688721 72.7488555908 73.6194763184 73.6188049316 72.7457885742 71.4494857788 70.4833755493 70.038192749 78.029876709 78.4140625 79.479637146 81.0230484009 82.0217819214 82.0209503174 81.0195159912 79.4760818481 78.4121322632 78.0297775269 86.0194320679 86.2387619019 86.9844970703 88.1340713501 88.8667373657 88.8665237427 88.1311035156 86.981842041 86.2374801636 86.0194091797 
