2.2622358799 3.8127322197 6.6586098671 9.32965660095 10.8622093201 10.8609790802 9.32384204865 6.6512761116 3.80621266365 2.26214313507 2.28694272041 5.02307653427 9.64764213562 14.1455030441 16.7515487671 16.7494773865 14.1355733871 9.63563537598 5.01220941544 2.28665518761 2.3156478405 5.91734218597 11.7562294006 17.4160671234 20.8530139923 20.8502826691 17.4033241272 11.7412128448 5.90348958969 2.31514000893 2.33153772354 6.45007038116 12.993060112 19.2560005188 23.065662384 23.0626449585 19.2418823242 12.976398468 6.43436098099 2.3309109211 2.34081506729 6.7246723175 13.6077871323 20.1434116364 24.1027393341 24.0996284485 20.1287078857 13.5903549194 6.70804691315 2.34011936188 2.3408074379 6.72444868088 13.6073036194 20.1427268982 24.1019592285 24.0988445282 20.1280326843 13.5898809433 6.70782756805 2.34011173248 2.33150172234 6.44897079468 12.9905738831 19.252363205 23.0613574982 23.0583572388 19.2382984161 12.9739513397 6.43328285217 2.33087539673 2.31558918953 5.9155216217 11.7519807816 17.4095687866 20.8442440033 20.841632843 17.3969306946 11.7370710373 5.90171289444 2.31508040428 2.28685998917 5.0203294754 9.6410150528 14.1353063583 16.7381095886 16.7361698151 14.125664711 9.62917327881 5.00956535339 2.28657603264 2.26219820976 3.80944943428 6.64999055862 9.31429958344 10.8433208466 10.8424768448 9.30846691132 6.64310264587 3.80308246613 2.26210570335 
2.26214504242 3.79001235962 6.60725164413 9.2598361969 10.7820472717 10.7808218002 9.25406265259 6.59997558594 3.78357338905 2.26205396652 2.28651690483 4.99098968506 9.58063030243 14.060426712 16.6594085693 16.6573429108 14.0505218506 9.56869220734 4.98022508621 2.28623390198 2.31487703323 5.87972927094 11.6798877716 17.3164691925 20.7469520569 20.744222641 17.3037567139 11.6649541855 5.86598587036 2.31437563896 2.33053874969 6.40893173218 12.9097166061 19.146982193 22.956697464 22.953666687 19.1328983307 12.8931474686 6.39334058762 2.32992076874 2.33970427513 6.68162488937 13.5204133987 20.0300941467 23.9977016449 23.9945602417 20.015411377 13.5030784607 6.66512203217 2.33901810646 2.33969712257 6.68140411377 13.5199346542 20.0294132233 23.9969081879 23.9937744141 20.0147438049 13.5026092529 6.66490411758 2.33901047707 2.33050298691 6.40784263611 12.9072532654 19.143371582 22.9523925781 22.9493751526 19.1293392181 12.8907232285 6.39227247238 2.32988548279 2.3148188591 5.87792396545 11.6756744385 17.3100032806 20.7382202148 20.7356071472 17.2974014282 11.6608457565 5.86422491074 2.31431698799 2.28643512726 4.98826885223 9.57404136658 14.0502662659 16.6459732056 16.6440448761 14.0406570435 9.56227874756 4.97761201859 2.2861559391 2.26210808754 3.78678107262 6.59873819351 9.24452877045 10.7633056641 10.7624750137 9.23873138428 6.59193229675 3.78050231934 2.26201725006 
2.262144804 3.78997039795 6.60715389252 9.25970172882 10.7818927765 10.7806682587 9.25392913818 6.59987974167 3.78353190422 2.26205396652 2.28651595116 4.9909286499 9.58050251007 14.0602607727 16.6592254639 16.6571617126 14.0503559113 9.56856441498 4.98016309738 2.2862329483 2.31487560272 5.87965488434 11.6797389984 17.3162670135 20.7467346191 20.7440052032 17.3035564423 11.6648035049 5.86591243744 2.31437420845 2.33053660393 6.40884971619 12.9095478058 19.1467571259 22.9564533234 22.9534225464 19.1326713562 12.8929786682 6.39325904846 2.32991886139 2.33970165253 6.68153762817 13.5202350616 20.0298538208 23.9974441528 23.9943008423 20.0151767731 13.5029020309 6.6650352478 2.33901524544 2.33969426155 6.68131732941 13.5197544098 20.0291728973 23.9966526031 23.9935150146 20.014503479 13.5024290085 6.66481733322 2.3390083313 2.33050107956 6.40775918961 12.907084465 19.1431465149 22.9521522522 22.9491329193 19.1291122437 12.8905553818 6.39218902588 2.32988333702 2.31481695175 5.87785053253 11.6755218506 17.3098049164 20.7380027771 20.7353935242 17.2972011566 11.6606941223 5.86415147781 2.3143157959 2.286434412 4.98820781708 9.5739107132 14.0500993729 16.6457901001 16.6438617706 14.0404930115 9.56214904785 4.97755050659 2.28615474701 2.26210784912 3.78673911095 6.59864187241 9.24439430237 10.7631511688 10.7623205185 9.23859786987 6.59183597565 3.7804608345 2.26201725006 
2.262144804 3.78999304771 6.60720729828 9.25977516174 10.7819766998 10.7807512283 9.25400161743 6.59993124008 3.78355431557 2.2620537281 2.28651666641 4.99096155167 9.5805721283 14.0603504181 16.659324646 16.6572608948 14.0504465103 9.56863307953 4.98019647598 2.28623318672 2.31487631798 5.8796954155 11.6798200607 17.3163738251 20.7468547821 20.7441215515 17.3036651611 11.6648836136 5.86595201492 2.31437516212 2.3305375576 6.40889310837 12.9096403122 19.1468791962 22.9565849304 22.9535522461 19.1327934265 12.8930702209 6.39330244064 2.32991957664 2.33970308304 6.68158435822 13.5203285217 20.0299835205 23.9975833893 23.9944400787 20.0153064728 13.5029983521 6.66508245468 2.33901691437 2.33969593048 6.68136405945 13.5198526382 20.0293045044 23.9967861176 23.9936561584 20.0146312714 13.5025281906 6.66486406326 2.33900976181 2.33050203323 6.4078040123 12.9071750641 19.1432704926 22.9522819519 22.949262619 19.129234314 12.8906450272 6.39223480225 2.32988476753 2.31481814384 5.87789011002 11.6756010056 17.3099136353 20.738117218 20.7355079651 17.2973060608 11.6607780457 5.86419200897 2.31431651115 2.28643465042 4.98824071884 9.57398033142 14.0501899719 16.6458892822 16.6439590454 14.0405826569 9.56221866608 4.97758293152 2.28615546227 2.26210784912 3.78676152229 6.59869432449 9.24446487427 10.7632341385 10.7624053955 9.23867034912 6.59188890457 3.78048372269 2.26201725006 
2.26214504242 3.7900159359 6.60725975037 9.25984573364 10.7820568085 10.7808332443 9.25407028198 6.59998273849 3.78357744217 2.26205444336 2.28651714325 4.99099445343 9.58064174652 14.0604400635 16.6594257355 16.6573562622 14.0505361557 9.56870269775 4.98022985458 2.28623390198 2.31487727165 5.87973499298 11.6799039841 17.3164806366 20.7469711304 20.7442359924 17.30377388 11.6649656296 5.86599063873 2.3143761158 2.33053898811 6.40893745422 12.9097318649 19.1469993591 22.9567146301 22.9536838531 19.1329154968 12.8931598663 6.39334583282 2.3299202919 2.33970451355 6.68163108826 13.5204277039 20.0301132202 23.9977226257 23.9945774078 20.0154342651 13.5030927658 6.66512870789 2.3390185833 2.33969712257 6.68141126633 13.519947052 20.0294342041 23.9969272614 23.9937934875 20.0147628784 13.5026254654 6.6649107933 2.33901071548 2.33050322533 6.40784835815 12.9072675705 19.1433906555 22.9524116516 22.9493923187 19.1293563843 12.8907346725 6.39227771759 2.32988572121 2.31481909752 5.87793016434 11.6756839752 17.3100185394 20.7382316589 20.7356243134 17.2974147797 11.6608572006 5.86423063278 2.31431746483 2.28643536568 4.98827362061 9.57404994965 14.0502796173 16.6459846497 16.6440582275 14.0406703949 9.56228923798 4.97761583328 2.2861559391 2.26210808754 3.78678393364 6.59874582291 9.24453830719 10.7633171082 10.7624874115 9.23873901367 6.59194040298 3.78050541878 2.26201725006 
2.26214551926 3.79003810883 6.60731124878 9.25991821289 10.7821416855 10.780916214 9.25414466858 6.60003519058 3.78359889984 2.26205420494 2.28651762009 4.99102735519 9.58071231842 14.0605287552 16.6595230103 16.6574554443 14.0506248474 9.56877422333 4.98026275635 2.28623461723 2.31487822533 5.87977457047 11.679983139 17.3165931702 20.7470874786 20.7443523407 17.3038845062 11.6650457382 5.86603021622 2.31437683105 2.33053994179 6.40898275375 12.9098215103 19.1471214294 22.9568462372 22.9538135529 19.1330356598 12.8932495117 6.39339065552 2.32992172241 2.33970522881 6.68167829514 13.5205221176 20.0302429199 23.9978618622 23.9947185516 20.0155639648 13.5031900406 6.66517686844 2.33901929855 2.33969831467 6.68145704269 13.5200452805 20.0295600891 23.9970645905 23.9939308167 20.0148906708 13.5027208328 6.66495752335 2.33901190758 2.33050441742 6.40789318085 12.9073572159 19.1435108185 22.9525432587 22.9495258331 19.1294765472 12.8908281326 6.39232301712 2.32988667488 2.31481981277 5.87796926498 11.6757650375 17.3101291656 20.7383499146 20.7357406616 17.2975234985 11.6609382629 5.86427021027 2.3143184185 2.2864356041 4.98830604553 9.57412242889 14.0503692627 16.6460857391 16.6441555023 14.0407619476 9.5623588562 4.97764825821 2.28615641594 2.26210808754 3.78680634499 6.59879827499 9.24460983276 10.7634000778 10.7625703812 9.23881244659 6.59199237823 3.78052783012 2.26201725006 
2.26214528084 3.79006052017 6.60736227036 9.25999069214 10.7822256088 10.7810001373 9.25421524048 6.600086689 3.78362178802 2.26205420494 2.28651809692 4.99106025696 9.58078193665 14.0606193542 16.6596183777 16.6575527191 14.0507173538 9.56884288788 4.98029518127 2.28623485565 2.31487894058 5.87981367111 11.6800642014 17.3166999817 20.7472038269 20.744468689 17.3039894104 11.6651268005 5.86607027054 2.31437802315 2.33054113388 6.40902614594 12.9099121094 19.1472434998 22.9569759369 22.9539451599 19.1331558228 12.8933420181 6.39343500137 2.32992267609 2.33970689774 6.68172597885 13.5206203461 20.030374527 23.9980010986 23.9948539734 20.0156936646 13.5032873154 6.66522312164 2.33902072906 2.33969926834 6.68150520325 13.5201425552 20.0296897888 23.9972076416 23.9940719604 20.0150203705 13.5028162003 6.66500473022 2.33901309967 2.33050513268 6.4079375267 12.9074497223 19.1436328888 22.9526748657 22.9496536255 19.1295986176 12.8909158707 6.3923664093 2.32988762856 2.31482052803 5.87800884247 11.6758460999 17.3102378845 20.7384624481 20.7358570099 17.2976303101 11.6610183716 5.86431074142 2.3143184185 2.28643608093 4.9883389473 9.57419300079 14.0504608154 16.6461830139 16.6442527771 14.0408506393 9.56242752075 4.97768163681 2.28615689278 2.26210832596 3.78682899475 6.59884977341 9.24468231201 10.7634820938 10.7626523972 9.23888587952 6.59204339981 3.78055047989 2.26201725006 
