13.937379837 21.7242851257 29.3455753326 37.1855163574 45.6307449341 54.3911514282 62.8347053528 70.6735153198 78.2949371338 86.0823287964 13.8992519379 21.504983902 28.5992221832 36.2485198975 45.2220191956 54.8019180298 63.772064209 71.4186706543 78.5130462646 86.1203079224 13.8777112961 21.3356723785 28.1469459534 35.6913795471 44.9540710449 55.0712203979 64.3292312622 71.8704147339 78.6815719604 86.1417694092 13.8594417572 21.2391395569 27.9186344147 35.4367485046 44.8498077393 55.1760177612 64.5839920044 72.0984649658 78.7777633667 86.1599502563 13.8464193344 21.1936092377 27.8068790436 35.327507019 44.8088150024 55.2172050476 64.6933441162 72.2101211548 78.823097229 86.1729125977 13.8464279175 21.1936340332 27.8069591522 35.3275680542 44.8088684082 55.2171707153 64.6932983398 72.2100601196 78.8230743408 86.1729202271 13.8594837189 21.2393016815 27.9190254211 35.4371910095 44.8499794006 55.1758575439 64.5835800171 72.0981140137 78.7776107788 86.1599121094 13.8777589798 21.3360137939 28.1477279663 35.6923065186 44.9547615051 55.0705986023 64.3283691406 71.8696899414 78.6812591553 86.141708374 13.8993263245 21.5055541992 28.6009731293 36.2501068115 45.2229766846 54.8009719849 63.7706413269 71.4168930054 78.5124740601 86.1202316284 13.9375305176 21.725019455 29.3477306366 37.1886940002 45.6321907043 54.3898468018 62.8314590454 70.6712417603 78.2941589355 86.0821838379 
13.9371547699 21.7236423492 29.3444290161 37.184135437 45.6302757263 54.3916244507 62.8360977173 70.6746673584 78.2955780029 86.0825500488 13.8989362717 21.5041713715 28.5963954926 36.2431182861 45.2191772461 54.8047828674 63.7774543762 71.4215087891 78.5138626099 86.1206283569 13.8772706985 21.3340339661 28.1410675049 35.6786155701 44.9426002502 55.0827560425 64.3419570923 71.8762893677 78.6832046509 86.1421890259 13.8588962555 21.2364120483 27.9086170197 35.4088020325 44.8243217468 55.2016334534 64.6118850708 72.1084671021 78.7804641724 86.1604919434 13.8458061218 21.19008255 27.7937049866 35.2864074707 44.775352478 55.2508354187 64.7343673706 72.2232589722 78.8265914917 86.173538208 13.8458147049 21.1901073456 27.7937870026 35.2864685059 44.7754058838 55.2507858276 64.7342987061 72.2231903076 78.8265762329 86.1735153198 13.8589363098 21.236579895 27.9090175629 35.4092941284 44.8245201111 55.2014579773 64.6114196777 72.1081008911 78.7803192139 86.1604537964 13.8773202896 21.3343811035 28.1418590546 35.6795806885 44.9434051514 55.0820236206 64.3410797119 71.8755493164 78.6828918457 86.1421508789 13.8990125656 21.5047473907 28.5981636047 36.2447319031 45.2201499939 54.8038139343 63.7760238647 71.419708252 78.5132827759 86.120552063 13.9373064041 21.7243785858 29.3465919495 37.1873168945 45.6317100525 54.3903160095 62.8328323364 70.6723709106 78.2948074341 86.0823898315 
13.9371547699 21.7236404419 29.3444213867 37.1841278076 45.6302719116 54.3916320801 62.8360939026 70.6746749878 78.2955780029 86.0825500488 13.8989372253 21.5041694641 28.5963916779 36.243106842 45.2191696167 54.8047866821 63.777469635 71.4215164185 78.5138626099 86.1206283569 13.8772706985 21.3340244293 28.1410427094 35.6785926819 44.9425964355 55.0827636719 64.3419876099 71.8763046265 78.6832275391 86.1421890259 13.8588943481 21.2364044189 27.9085903168 35.4087677002 44.8243026733 55.2016525269 64.6119155884 72.1084899902 78.7804718018 86.1604919434 13.8458061218 21.1900730133 27.7936782837 35.2863616943 44.7753219604 55.250869751 64.7343978882 72.2232894897 78.8266143799 86.173538208 13.8458127975 21.1900978088 27.7937583923 35.2864303589 44.7753829956 55.2508163452 64.7343521118 72.2232208252 78.8265838623 86.1735153198 13.8589353561 21.2365722656 27.9089927673 35.4092597961 44.8245010376 55.2014694214 64.6114578247 72.1081237793 78.7803268433 86.1604537964 13.8773174286 21.3343753815 28.1418418884 35.679561615 44.9433937073 55.08203125 64.3411026001 71.8755645752 78.6828994751 86.1421508789 13.8990125656 21.5047416687 28.598154068 36.244720459 45.2201423645 54.8038215637 63.7760391235 71.419708252 78.5132827759 86.120552063 13.9373064041 21.7243728638 29.3465919495 37.1873168945 45.6317100525 54.3903160095 62.8328361511 70.6723861694 78.2948074341 86.0823898315 
13.9371547699 21.7236404419 29.344417572 37.1841239929 45.6302680969 54.3916320801 62.8361091614 70.6746826172 78.2955780029 86.0825500488 13.898935318 21.5041637421 28.5963745117 36.2430953979 45.2191696167 54.8047943115 63.7774848938 71.4215164185 78.5138626099 86.1206283569 13.8772706985 21.3340187073 28.1410312653 35.6785736084 44.9425773621 55.0827674866 64.3420028687 71.8763046265 78.6832351685 86.1422042847 13.8588943481 21.2363967896 27.9085674286 35.4087371826 44.8242874146 55.2016601562 64.6119537354 72.1085205078 78.7804870605 86.1604919434 13.8458042145 21.1900615692 27.7936458588 35.2863235474 44.7753105164 55.2508888245 64.7344436646 72.2233123779 78.8266296387 86.173538208 13.8458118439 21.1900863647 27.7937335968 35.2863845825 44.7753677368 55.2508354187 64.7343902588 72.2232437134 78.8265991211 86.1735153198 13.8589363098 21.2365608215 27.9089679718 35.4092330933 44.8244781494 55.2014846802 64.6114883423 72.1081390381 78.7803344727 86.1604614258 13.8773174286 21.3343658447 28.1418304443 35.6795387268 44.9433898926 55.0820388794 64.3411178589 71.8755950928 78.6829071045 86.1421508789 13.8990125656 21.5047397614 28.5981426239 36.2447052002 45.2201423645 54.8038253784 63.776058197 71.4197158813 78.5132827759 86.120552063 13.9373044968 21.7243728638 29.3465843201 37.1873092651 45.6317100525 54.3903160095 62.8328475952 70.6723861694 78.2948074341 86.0823898315 
13.9371547699 21.7236385345 29.3444137573 37.1841125488 45.6302642822 54.3916320801 62.8361129761 70.6746749878 78.2955780029 86.0825500488 13.898935318 21.5041618347 28.5963687897 36.2430839539 45.2191696167 54.8047904968 63.7774925232 71.4215316772 78.5138626099 86.1206283569 13.8772706985 21.3340148926 28.1410140991 35.6785545349 44.9425697327 55.0827865601 64.3420257568 71.8763275146 78.6832351685 86.1422042847 13.8588953018 21.2363910675 27.9085483551 35.4087104797 44.8242683411 55.2016830444 64.6119689941 72.1085357666 78.7804946899 86.1604919434 13.8458042145 21.1900520325 27.7936153412 35.2862815857 44.7752914429 55.2509002686 64.7344818115 72.2233428955 78.8266372681 86.1735305786 13.8458137512 21.190076828 27.7937030792 35.2863464355 44.7753448486 55.2508544922 64.7344360352 72.223274231 78.8266143799 86.1735229492 13.8589334488 21.2365531921 27.908946991 35.409198761 44.8244628906 55.2015075684 64.6115188599 72.1081619263 78.7803497314 86.1604614258 13.8773193359 21.3343601227 28.1418132782 35.679523468 44.9433784485 55.0820465088 64.3411331177 71.8756103516 78.6829147339 86.1421508789 13.8990125656 21.504737854 28.5981311798 36.2446975708 45.2201309204 54.8038330078 63.7760543823 71.4197311401 78.5132904053 86.120552063 13.9373044968 21.7243728638 29.3465766907 37.1873016357 45.6317100525 54.3903274536 62.8328514099 70.67237854 78.2948074341 86.0823898315 
13.9371547699 21.7236366272 29.3444099426 37.1841201782 45.6302604675 54.3916320801 62.8361129761 70.6746749878 78.2955780029 86.0825500488 13.8989343643 21.50415802 28.5963516235 36.2430725098 45.2191581726 54.8047981262 63.7775001526 71.421546936 78.5138778687 86.1206283569 13.8772687912 21.3340091705 28.1409988403 35.6785316467 44.942565918 55.0827865601 64.3420333862 71.8763504028 78.6832427979 86.1422042847 13.8588924408 21.2363796234 27.9085235596 35.4086799622 44.8242492676 55.2016983032 64.6119995117 72.1085510254 78.7805023193 86.1604919434 13.8458042145 21.1900424957 27.7935905457 35.286239624 44.7752685547 55.250919342 64.7345275879 72.2233734131 78.8266448975 86.173538208 13.8458118439 21.1900672913 27.7936782837 35.2863006592 44.7753334045 55.250869751 64.7344665527 72.2232971191 78.8266143799 86.1735229492 13.8589344025 21.2365474701 27.9089183807 35.4091720581 44.8244476318 55.2015190125 64.6115570068 72.1081848145 78.7803497314 86.1604614258 13.8773174286 21.3343544006 28.1417922974 35.6795082092 44.9433670044 55.0820541382 64.3411560059 71.8756256104 78.6829071045 86.1421508789 13.8990106583 21.5047340393 28.5981235504 36.2446861267 45.2201347351 54.8038291931 63.7760772705 71.4197387695 78.5132904053 86.1205444336 13.9373044968 21.7243728638 29.3465805054 37.187297821 45.6316986084 54.3903236389 62.8328475952 70.6723861694 78.2948150635 86.0823898315 
13.9371547699 21.7236328125 29.3444042206 37.1841049194 45.6302642822 54.3916320801 62.8361206055 70.6746902466 78.2955780029 86.0825500488 13.898935318 21.5041561127 28.5963459015 36.2430648804 45.2191581726 54.8048057556 63.777507782 71.421546936 78.513885498 86.1206283569 13.8772687912 21.3339996338 28.1409759521 35.6785163879 44.9425582886 55.0827941895 64.3420639038 71.876373291 78.6832427979 86.1422042847 13.8588924408 21.2363700867 27.9085025787 35.4086456299 44.8242263794 55.2017211914 64.6120452881 72.1085891724 78.7805175781 86.160484314 13.8458023071 21.1900310516 27.7935619354 35.2861976624 44.7752532959 55.2509384155 64.7345733643 72.2234039307 78.8266448975 86.173538208 13.8458099365 21.1900596619 27.7936458588 35.2862625122 44.7753067017 55.2508850098 64.7345199585 72.2233047485 78.8266448975 86.1735229492 13.8589315414 21.236536026 27.9089012146 35.4091453552 44.8244247437 55.2015533447 64.6115875244 72.108215332 78.7803573608 86.1604614258 13.8773174286 21.3343448639 28.1417713165 35.6794776917 44.943359375 55.0820617676 64.341178894 71.8756408691 78.6829147339 86.1421508789 13.8990106583 21.5047264099 28.598115921 36.2446746826 45.220123291 54.8038368225 63.7760848999 71.4197540283 78.5133056641 86.1205444336 13.9373044968 21.7243709564 29.346572876 37.1872940063 45.6317024231 54.3903312683 62.8328590393 70.6723861694 78.2948150635 86.0823898315 
