1.0 1.00000011921 0.996227443218 1.0523557663 1.09919857979 1.09918165207 1.05229794979 1.00000023842 1.0 1.0 0.999999940395 1.00094556808 1.07958865166 1.16429185867 1.20517539978 1.20516264439 1.16423416138 1.03411662579 1.00092720985 1.0 1.0 1.05264031887 1.15084266663 1.21190774441 1.23300909996 1.23299956322 1.21186935902 1.10039687157 1.05256617069 1.00000011921 1.0 1.08518850803 1.17375326157 1.22151172161 1.23792397976 1.23791861534 1.22148513794 1.13309705257 1.08512294292 1.00000011921 1.0 1.10992181301 1.18709409237 1.22683489323 1.23985826969 1.23985517025 1.22681558132 1.15542590618 1.10985946655 1.00000011921 1.0 1.10991370678 1.18708848953 1.22682905197 1.23986530304 1.23986160755 1.22680902481 1.15542006493 1.10985159874 1.00000011921 1.0 1.08514893055 1.17372643948 1.22148120403 1.23792302608 1.23791706562 1.22145318985 1.13306236267 1.08508348465 1.0 1.0 1.03456020355 1.13212859631 1.20567977428 1.23146808147 1.23146176338 1.20563745499 1.08136200905 1.03448534012 1.00000011921 1.0 1.00092816353 1.07951819897 1.16424512863 1.20516991615 1.20514440536 1.16419792175 1.03405058384 1.00091052055 1.00000011921 1.0 1.00000011921 0.996235013008 1.05226159096 1.09904694557 1.09907436371 1.05219054222 1.00000011921 1.0 0.999999940395 
1.0 1.00000011921 0.996227443218 1.0523557663 1.09919857979 1.09918165207 1.05229794979 1.00000023842 1.0 1.0 0.999999940395 1.00094556808 1.07958865166 1.16638493538 1.23843574524 1.23842358589 1.16632568836 1.03411662579 1.00092720985 1.0 1.0 1.05264031887 1.15772294998 1.25678825378 1.33681774139 1.33680844307 1.25673913956 1.10039687157 1.05256617069 1.00000011921 1.0 1.08518850803 1.19338059425 1.28718221188 1.35726070404 1.35725212097 1.28714227676 1.13312315941 1.08512294292 1.00000011921 1.0 1.10992181301 1.22473943233 1.31164550781 1.36991274357 1.36990749836 1.31161117554 1.15923595428 1.10985946655 1.00000011921 1.0 1.10991370678 1.22473156452 1.31162893772 1.36995565891 1.36994791031 1.31159055233 1.1592310667 1.10985159874 1.00000011921 1.0 1.08514893055 1.19334745407 1.28711390495 1.35730004311 1.35728740692 1.28706943989 1.13308846951 1.08508348465 1.0 1.0 1.03456020355 1.13224065304 1.2265188694 1.31103074551 1.31102716923 1.22646248341 1.08136200905 1.03448534012 1.00000011921 1.0 1.00092816353 1.07951819897 1.16634559631 1.23845887184 1.23841762543 1.16630005836 1.03405058384 1.00091052055 1.00000011921 1.0 1.00000011921 0.996235013008 1.05226159096 1.09904694557 1.09907436371 1.05219054222 1.00000011921 1.0 0.999999940395 
1.0 1.00000011921 0.996227443218 1.0523557663 1.09919857979 1.09918165207 1.05229794979 1.00000023842 1.0 1.0 0.999999940395 1.00094556808 1.07958865166 1.16638493538 1.23843574524 1.23842358589 1.16632568836 1.03411662579 1.00092720985 1.0 1.0 1.05264031887 1.15772294998 1.25678825378 1.34711408615 1.34710788727 1.25673913956 1.10039687157 1.05256617069 1.00000011921 1.0 1.08518850803 1.19338059425 1.28832125664 1.37398123741 1.37397515774 1.28828310966 1.13312315941 1.08512294292 1.00000011921 1.0 1.10992181301 1.22473943233 1.31938445568 1.39501678944 1.3950150013 1.31935501099 1.15923595428 1.10985946655 1.00000011921 1.0 1.10991370678 1.22473156452 1.31936526299 1.39509379864 1.39508736134 1.31933116913 1.1592310667 1.10985159874 1.00000011921 1.0 1.08514893055 1.19334745407 1.28825008869 1.37405872345 1.37404668331 1.28820693493 1.13308846951 1.08508348465 1.0 1.0 1.03456020355 1.13224065304 1.2265188694 1.31191241741 1.31191074848 1.22646248341 1.08136200905 1.03448534012 1.00000011921 1.0 1.00092816353 1.07951819897 1.16634559631 1.23845887184 1.23841762543 1.16630005836 1.03405058384 1.00091052055 1.00000011921 1.0 1.00000011921 0.996235013008 1.05226159096 1.09904694557 1.09907436371 1.05219054222 1.00000011921 1.0 0.999999940395 
1.0 1.00000011921 0.996227443218 1.0523557663 1.09919857979 1.09918165207 1.05229794979 1.00000023842 1.0 1.0 0.999999940395 1.00094556808 1.07958865166 1.16638493538 1.23843574524 1.23842358589 1.16632568836 1.03411662579 1.00092720985 1.0 1.0 1.05264031887 1.15772294998 1.25678825378 1.34734809399 1.34734201431 1.25673913956 1.10039687157 1.05256617069 1.00000011921 1.0 1.08518850803 1.19338059425 1.28832125664 1.3753323555 1.37532639503 1.28828310966 1.13312315941 1.08512294292 1.00000011921 1.0 1.10992181301 1.22473943233 1.3201611042 1.39830124378 1.39829957485 1.32013201714 1.15923595428 1.10985946655 1.00000011921 1.0 1.10991370678 1.22473156452 1.32014226913 1.39838826656 1.39838194847 1.32010817528 1.1592310667 1.10985159874 1.00000011921 1.0 1.08514893055 1.19334745407 1.28825008869 1.37542009354 1.37540793419 1.28820693493 1.13308846951 1.08508348465 1.0 1.0 1.03456020355 1.13224065304 1.2265188694 1.31191241741 1.31191074848 1.22646248341 1.08136200905 1.03448534012 1.00000011921 1.0 1.00092816353 1.07951819897 1.16634559631 1.23845887184 1.23841762543 1.16630005836 1.03405058384 1.00091052055 1.00000011921 1.0 1.00000011921 0.996235013008 1.05226159096 1.09904694557 1.09907436371 1.05219054222 1.00000011921 1.0 0.999999940395 
1.0 1.00000011921 0.996227443218 1.0523557663 1.09919857979 1.09918165207 1.05229794979 1.00000023842 1.0 1.0 0.999999940395 1.00094556808 1.07958865166 1.16638493538 1.23843574524 1.23842358589 1.16632568836 1.03411662579 1.00092720985 1.0 1.0 1.05264031887 1.15772294998 1.25678825378 1.34734809399 1.34734201431 1.25673913956 1.10039687157 1.05256617069 1.00000011921 1.0 1.08518850803 1.19338059425 1.28832125664 1.37543547153 1.37542998791 1.28828310966 1.13312315941 1.08512294292 1.00000011921 1.0 1.10992181301 1.22473943233 1.32027375698 1.39877104759 1.39876949787 1.3202445507 1.15923595428 1.10985946655 1.00000011921 1.0 1.10991370678 1.22473156452 1.32025527954 1.39886081219 1.39885449409 1.32022118568 1.1592310667 1.10985159874 1.00000011921 1.0 1.08514893055 1.19334745407 1.28825008869 1.37552571297 1.37551343441 1.28820693493 1.13308846951 1.08508348465 1.0 1.0 1.03456020355 1.13224065304 1.2265188694 1.31191241741 1.31191074848 1.22646248341 1.08136200905 1.03448534012 1.00000011921 1.0 1.00092816353 1.07951819897 1.16634559631 1.23845887184 1.23841762543 1.16630005836 1.03405058384 1.00091052055 1.00000011921 1.0 1.00000011921 0.996235013008 1.05226159096 1.09904694557 1.09907436371 1.05219054222 1.00000011921 1.0 0.999999940395 
1.0 1.00000011921 0.996227443218 1.0523557663 1.09919857979 1.09918165207 1.05229794979 1.00000023842 1.0 1.0 0.999999940395 1.00094556808 1.07958865166 1.16638493538 1.23843574524 1.23842358589 1.16632568836 1.03411662579 1.00092720985 1.0 1.0 1.05264031887 1.15772294998 1.25678825378 1.34734809399 1.34734201431 1.25673913956 1.10039687157 1.05256617069 1.00000011921 1.0 1.08518850803 1.19338059425 1.28832125664 1.37544465065 1.37543916702 1.28828310966 1.13312315941 1.08512294292 1.00000011921 1.0 1.10992181301 1.22473943233 1.32029891014 1.39885342121 1.3988519907 1.32027006149 1.15923595428 1.10985946655 1.00000011921 1.0 1.10991370678 1.22473156452 1.32028090954 1.39894402027 1.39893746376 1.32024669647 1.1592310667 1.10985159874 1.00000011921 1.0 1.08514893055 1.19334745407 1.28825008869 1.37553560734 1.37552332878 1.28820693493 1.13308846951 1.08508348465 1.0 1.0 1.03456020355 1.13224065304 1.2265188694 1.31191241741 1.31191074848 1.22646248341 1.08136200905 1.03448534012 1.00000011921 1.0 1.00092816353 1.07951819897 1.16634559631 1.23845887184 1.23841762543 1.16630005836 1.03405058384 1.00091052055 1.00000011921 1.0 1.00000011921 0.996235013008 1.05226159096 1.09904694557 1.09907436371 1.05219054222 1.00000011921 1.0 0.999999940395 
1.0 1.00000011921 0.996227443218 1.0523557663 1.09919857979 1.09918165207 1.05229794979 1.00000023842 1.0 1.0 0.999999940395 1.00094556808 1.07958865166 1.16638493538 1.23843574524 1.23842358589 1.16632568836 1.03411662579 1.00092720985 1.0 1.0 1.05264031887 1.15772294998 1.25678825378 1.34734809399 1.34734201431 1.25673913956 1.10039687157 1.05256617069 1.00000011921 1.0 1.08518850803 1.19338059425 1.28832125664 1.37544989586 1.37544417381 1.28828310966 1.13312315941 1.08512294292 1.00000011921 1.0 1.10992181301 1.22473943233 1.3203099966 1.39887547493 1.39887416363 1.32028090954 1.15923595428 1.10985946655 1.00000011921 1.0 1.10991370678 1.22473156452 1.32029187679 1.3989661932 1.39896011353 1.32025766373 1.1592310667 1.10985159874 1.00000011921 1.0 1.08514893055 1.19334745407 1.28825008869 1.37554073334 1.3755286932 1.28820693493 1.13308846951 1.08508348465 1.0 1.0 1.03456020355 1.13224065304 1.2265188694 1.31191241741 1.31191074848 1.22646248341 1.08136200905 1.03448534012 1.00000011921 1.0 1.00092816353 1.07951819897 1.16634559631 1.23845887184 1.23841762543 1.16630005836 1.03405058384 1.00091052055 1.00000011921 1.0 1.00000011921 0.996235013008 1.05226159096 1.09904694557 1.09907436371 1.05219054222 1.00000011921 1.0 0.999999940395 
