0.981746315956 1.00954008102 1.0396668911 1.08567893505 1.14715898037 1.14714992046 1.08563709259 1.03147792816 1.00950920582 0.981801867485 0.971672415733 1.04817318916 1.14664173126 1.27675008774 1.38820636272 1.38819563389 1.27670156956 1.08677089214 1.04810011387 0.971741735935 0.968279898167 1.1138279438 1.28341579437 1.41519665718 1.52018105984 1.52016568184 1.41514801979 1.19132125378 1.11373198032 0.968334853649 0.967673122883 1.16512656212 1.33271408081 1.45444214344 1.54613208771 1.54612016678 1.45439267159 1.24432623386 1.16504538059 0.967709720135 0.966260552406 1.20868933201 1.37660050392 1.48685956001 1.56367588043 1.56366705894 1.48681414127 1.28958189487 1.20860874653 0.966291546822 0.966260910034 1.20868134499 1.37659049034 1.48683857918 1.56374716759 1.56373417377 1.48678791523 1.28957867622 1.20860099792 0.966291844845 0.96767449379 1.16508460045 1.33266973495 1.45436012745 1.54620671272 1.54618787766 1.45430493355 1.24429130554 1.16500473022 0.967711150646 0.968732297421 1.08485043049 1.22898101807 1.36369740963 1.48178327084 1.48177576065 1.36364102364 1.13921284676 1.08477962017 0.968789339066 0.971677005291 1.04809057713 1.14651536942 1.27675819397 1.38821840286 1.38816356659 1.27674293518 1.08670866489 1.04801917076 0.97174590826 0.981777489185 1.00949966908 1.03964221478 1.08549821377 1.14711666107 1.1472145319 1.0854152441 1.0314552784 1.00946986675 0.981831431389 
0.981940567493 1.00703823566 1.03535676003 1.07868337631 1.13861858845 1.13860917091 1.07864570618 1.02744281292 1.0070104599 0.981995344162 0.971923649311 1.04393517971 1.1407777071 1.26977264881 1.38099169731 1.38097977638 1.26972126961 1.08132302761 1.04386615753 0.971992135048 0.968533873558 1.10812449455 1.27638864517 1.40655875206 1.51819252968 1.51817905903 1.40650761127 1.18494927883 1.10803282261 0.968588173389 0.967938661575 1.15865838528 1.32497572899 1.4462761879 1.55001842976 1.55000972748 1.44622516632 1.23747777939 1.15858066082 0.967974722385 0.966507136822 1.20179259777 1.36898267269 1.48315501213 1.57637679577 1.57637190819 1.48311030865 1.28291726112 1.20171558857 0.966537594795 0.966507434845 1.20178484917 1.3689725399 1.48313260078 1.57648050785 1.57646942139 1.48308205605 1.28291416168 1.20170795918 0.966538012028 0.967939913273 1.1586176157 1.32493329048 1.446195364 1.55012500286 1.55010795593 1.446138978 1.23744344711 1.15854120255 0.967975854874 0.968988358974 1.0793941021 1.22218823433 1.35510528088 1.47357773781 1.47357404232 1.35504603386 1.13305127621 1.07932722569 0.969044864178 0.97192800045 1.04385566711 1.14065003395 1.26979088783 1.38099420071 1.3809376955 1.26977491379 1.08126115799 1.04378855228 0.971995949745 0.981971204281 1.00700139999 1.0353397131 1.07849800587 1.13859319687 1.13869452477 1.07841539383 1.02742648125 1.00697493553 0.982024073601 
0.981945633888 1.00699865818 1.03528439999 1.07855939865 1.13846135139 1.13845181465 1.07852160931 1.02737641335 1.00697088242 0.982000470161 0.97193056345 1.04386091232 1.14067077637 1.26964366436 1.3808568716 1.38084483147 1.26959240437 1.08122575283 1.04379189014 0.971999049187 0.96854197979 1.10801792145 1.27625131607 1.40638804436 1.51802015305 1.51800680161 1.40633678436 1.18482601643 1.10792589188 0.968596458435 0.967948555946 1.15853261948 1.32481968403 1.44608557224 1.54982674122 1.54981827736 1.44603466988 1.2373380661 1.15845489502 0.967984437943 0.966517925262 1.20165419579 1.36881434917 1.48295378685 1.57617485523 1.57616972923 1.48290908337 1.28276562691 1.20157706738 0.966548323631 0.966518163681 1.20164632797 1.36880397797 1.48293149471 1.57627820969 1.57626724243 1.48288071156 1.28276240826 1.20156943798 0.966548740864 0.967949569225 1.15849196911 1.32477724552 1.44600522518 1.54993331432 1.54991662502 1.44594848156 1.23730373383 1.15841555595 0.96798568964 0.968996405602 1.07929348946 1.22205901146 1.35494112968 1.47340738773 1.47340381145 1.35488176346 1.13293504715 1.07922685146 0.969052970409 0.971934974194 1.04378163815 1.14054298401 1.2696621418 1.38085901737 1.38080275059 1.26964616776 1.08116364479 1.0437142849 0.972003042698 0.981976211071 1.00696194172 1.03526759148 1.07837378979 1.13843619823 1.13853776455 1.07829117775 1.02736020088 1.00693523884 0.982029139996 
0.981945753098 1.00699877739 1.0352845192 1.07855963707 1.13846170902 1.13845229149 1.07852196693 1.02737653255 1.00697088242 0.982000470161 0.97193056345 1.04386103153 1.14067077637 1.26964390278 1.38085711002 1.38084518909 1.26959264278 1.08122587204 1.04379212856 0.971999049187 0.96854197979 1.10801804066 1.27625155449 1.40638840199 1.51802062988 1.51800715923 1.40633702278 1.18482649326 1.10792613029 0.96859639883 0.967948377132 1.15853309631 1.32482004166 1.44608616829 1.54982686043 1.5498187542 1.44603526592 1.23733830452 1.15845525265 0.967984437943 0.966517925262 1.2016544342 1.36881434917 1.48295450211 1.57617509365 1.57617008686 1.4829095602 1.28276610374 1.20157730579 0.966548323631 0.966518163681 1.2016466856 1.36880421638 1.48293197155 1.57627880573 1.57626795769 1.48288118839 1.28276264668 1.20156979561 0.966548681259 0.967949509621 1.15849220753 1.32477724552 1.44600570202 1.54993391037 1.54991698265 1.44594907761 1.23730409145 1.15841591358 0.967985630035 0.968996405602 1.07929384708 1.22205924988 1.35494124889 1.47340762615 1.47340428829 1.35488200188 1.13293528557 1.07922708988 0.969052970409 0.971934974194 1.04378175735 1.14054334164 1.26966238022 1.380859375 1.38080298901 1.26964640617 1.081163764 1.04371452332 0.972003042698 0.981976211071 1.00696206093 1.0352678299 1.07837414742 1.13843679428 1.13853812218 1.0782917738 1.0273604393 1.00693547726 0.982029139996 
0.981945514679 1.00699961185 1.03528618813 1.07856225967 1.13846492767 1.13845551014 1.07852447033 1.02737784386 1.0069719553 0.982000350952 0.971930444241 1.04386258125 1.14067292213 1.26964664459 1.38085973263 1.38084793091 1.26959526539 1.08122801781 1.04379355907 0.971998870373 0.96854186058 1.10802030563 1.27625441551 1.40639197826 1.51802408695 1.5180106163 1.40634047985 1.18482887745 1.10792851448 0.968596339226 0.967948257923 1.15853559971 1.3248231411 1.44608986378 1.54983091354 1.5498226881 1.44603919983 1.23734116554 1.15845775604 0.967984139919 0.966517806053 1.20165717602 1.36881792545 1.48295855522 1.57617926598 1.57617413998 1.48291361332 1.28276908398 1.20158028603 0.966548085213 0.966517925262 1.20164942741 1.36880779266 1.48293602467 1.57628273964 1.57627177238 1.4828851223 1.28276586533 1.20157265663 0.966548442841 0.967949390411 1.15849483013 1.32478058338 1.44600939751 1.54993772507 1.54992091656 1.44595277309 1.23730683327 1.15841841698 0.967985451221 0.968996167183 1.07929587364 1.22206175327 1.35494434834 1.47341108322 1.47340750694 1.35488533974 1.13293743134 1.07922911644 0.969052672386 0.971934914589 1.04378318787 1.14054524899 1.26966500282 1.3808619976 1.3808054924 1.26964902878 1.08116579056 1.04371595383 0.972002863884 0.981976091862 1.00696289539 1.03526926041 1.07837665081 1.13843989372 1.13854110241 1.07829391956 1.0273617506 1.00693631172 0.982029020786 
0.981945514679 1.00700044632 1.03528773785 1.07856488228 1.13846838474 1.138458848 1.07852733135 1.02737939358 1.00697278976 0.982000231743 0.971930265427 1.04386425018 1.14067518711 1.26964938641 1.38086259365 1.38085079193 1.26959824562 1.08123004436 1.0437951088 0.971998691559 0.968541741371 1.10802257061 1.27625739574 1.40639555454 1.51802814007 1.518014431 1.40634429455 1.18483161926 1.10793077946 0.968596100807 0.967947900295 1.15853822231 1.32482659817 1.4460940361 1.54983520508 1.54982674122 1.44604313374 1.23734426498 1.15846061707 0.967984080315 0.966517448425 1.20166027546 1.36882150173 1.48296284676 1.57618367672 1.57617890835 1.48291826248 1.28277266026 1.20158326626 0.966547787189 0.966517567635 1.20165240765 1.36881136894 1.4829403162 1.5762873888 1.57627642155 1.48288977146 1.28276908398 1.20157551765 0.966548323631 0.967949211597 1.15849757195 1.32478415966 1.44601368904 1.5499420166 1.54992508888 1.44595694542 1.23730993271 1.15842103958 0.967985391617 0.968996047974 1.0792979002 1.2220646143 1.35494804382 1.4734146595 1.47341120243 1.35488903522 1.13294005394 1.07923138142 0.969052433968 0.97193467617 1.04378473759 1.14054763317 1.26966786385 1.38086521626 1.38080859184 1.2696518898 1.08116805553 1.04371750355 0.97200268507 0.981976032257 1.00696372986 1.03527081013 1.07837939262 1.13844335079 1.13854455948 1.0782968998 1.02736330032 1.00693714619 0.982028901577 
0.981945455074 1.00700139999 1.03528916836 1.0785677433 1.1384717226 1.13846230507 1.07852983475 1.02738070488 1.00697350502 0.982000112534 0.971930146217 1.04386591911 1.14067769051 1.26965212822 1.38086557388 1.38085377216 1.26960098743 1.08123219013 1.04379677773 0.97199857235 0.968541443348 1.1080249548 1.27626037598 1.40639925003 1.51803183556 1.5180182457 1.40634787083 1.18483436108 1.10793304443 0.968595981598 0.967947840691 1.15854096413 1.32482993603 1.44609832764 1.5498393774 1.54983091354 1.44604754448 1.23734724522 1.15846323967 0.967983663082 0.966517150402 1.20166313648 1.36882543564 1.4829672575 1.57618808746 1.57618284225 1.4829223156 1.28277599812 1.20158648491 0.96654766798 0.966517329216 1.20165538788 1.36881530285 1.48294484615 1.57629168034 1.57628071308 1.48289394379 1.28277242184 1.2015786171 0.966548085213 0.967948913574 1.15850031376 1.32478737831 1.44601798058 1.54994642735 1.54992926121 1.44596123695 1.23731315136 1.1584239006 0.967985033989 0.968995809555 1.07930016518 1.22206747532 1.35495173931 1.47341859341 1.47341489792 1.35489273071 1.13294255733 1.07923364639 0.969052374363 0.971934556961 1.04378652573 1.14055001736 1.26967072487 1.38086807728 1.38081157207 1.26965463161 1.08117008209 1.0437194109 0.972002506256 0.981975972652 1.00696444511 1.03527247906 1.07838213444 1.13844668865 1.13854801655 1.0782995224 1.02736461163 1.00693809986 0.982028841972 
