0.980966031551 1.00625276566 1.03717315197 1.09945499897 1.17842662334 1.17840564251 1.09939610958 1.02533793449 1.00621891022 0.981021285057 0.971847057343 1.04434227943 1.16714119911 1.2810614109 1.37244987488 1.37243485451 1.28098797798 1.09298431873 1.04427933693 0.971908271313 0.968977212906 1.13367247581 1.27244210243 1.38923788071 1.49067997932 1.49066960812 1.38917505741 1.19983291626 1.13359856606 0.969021320343 0.967689216137 1.17810058594 1.31542980671 1.42168056965 1.51768767834 1.51767814159 1.42162823677 1.24409544468 1.1780320406 0.967721581459 0.966169714928 1.21233463287 1.34989750385 1.45265495777 1.54077601433 1.54077088833 1.45261275768 1.27905213833 1.21226239204 0.966199040413 0.966171622276 1.21232426167 1.34988892078 1.45263528824 1.54088664055 1.54087543488 1.45258760452 1.27904868126 1.21225190163 0.966200947762 0.96769464016 1.17805325985 1.31539475918 1.42160332203 1.51779413223 1.51777648926 1.42154562473 1.24406123161 1.17798554897 0.967726945877 0.969669342041 1.10010397434 1.23786044121 1.35079944134 1.45328116417 1.45328104496 1.35073423386 1.16428673267 1.10004127026 0.969714462757 0.971854090691 1.04426419735 1.16703188419 1.28105962276 1.37248420715 1.37243163586 1.2810126543 1.09289848804 1.04420340061 0.971914768219 0.980994462967 1.00621402264 1.03714323044 1.09926354885 1.17827928066 1.17834615707 1.099157691 1.02532398701 1.00618135929 0.981048285961 
0.980966806412 1.00624656677 1.03716170788 1.09943509102 1.17840206623 1.17838120461 1.09937632084 1.02532756329 1.00621283054 0.981022059917 0.971848189831 1.04433071613 1.16712450981 1.28104150295 1.37242889404 1.37241375446 1.28096807003 1.09296941757 1.04426789284 0.971909284592 0.968978524208 1.13365578651 1.2724211216 1.38921153545 1.49065363407 1.49064290524 1.38914859295 1.19981372356 1.13358211517 0.969022452831 0.967690825462 1.17808127403 1.31540560722 1.42165136337 1.51765811443 1.5176486969 1.42159891129 1.2440738678 1.17801260948 0.967723071575 0.966171503067 1.21231353283 1.34987163544 1.45262432098 1.5407449007 1.5407397747 1.45258176327 1.27902889252 1.21224105358 0.966200709343 0.966173171997 1.2123029232 1.34986329079 1.45260453224 1.54085552692 1.54084455967 1.45255672932 1.27902543545 1.21223068237 0.966202437878 0.967696070671 1.17803382874 1.31537055969 1.42157399654 1.51776468754 1.51774704456 1.42151629925 1.24403953552 1.17796611786 0.967728495598 0.969670534134 1.10008823872 1.23784017563 1.35077381134 1.45325505733 1.45325469971 1.35070860386 1.16426873207 1.10002565384 0.969715833664 0.97185510397 1.04425275326 1.16701543331 1.2810395956 1.3724629879 1.37241065502 1.28099274635 1.09288370609 1.0441917181 0.971915721893 0.980995297432 1.00620782375 1.03713166714 1.0992436409 1.17825484276 1.17832183838 1.09913778305 1.02531349659 1.00617516041 0.981049060822 
0.980966567993 1.00624704361 1.03716289997 1.09943711758 1.17840456963 1.17838335037 1.09937846661 1.02532839775 1.00621342659 0.981022059917 0.971848070621 1.04433190823 1.16712629795 1.2810434103 1.37243080139 1.37241578102 1.28096985817 1.09297084808 1.04426896572 0.971909224987 0.968978226185 1.13365745544 1.27242314816 1.38921415806 1.49065601826 1.49064552784 1.38915133476 1.1998155117 1.13358366489 0.969022452831 0.967690587044 1.17808306217 1.31540799141 1.42165410519 1.51766085625 1.51765155792 1.42160177231 1.24407577515 1.17801439762 0.967722892761 0.966171264648 1.21231532097 1.34987425804 1.45262730122 1.54074800014 1.54074287415 1.4525847435 1.27903079987 1.21224308014 0.966200530529 0.966173112392 1.21230483055 1.34986579418 1.45260739326 1.54085862637 1.54084742069 1.45255982876 1.27902770042 1.21223258972 0.966202318668 0.967696070671 1.17803561687 1.31537294388 1.42157673836 1.51776742935 1.51774978638 1.42151916027 1.24404156208 1.17796778679 0.967728316784 0.969670534134 1.10008978844 1.23784208298 1.35077631474 1.45325744152 1.45325732231 1.35071098804 1.16427028179 1.10002708435 0.969715714455 0.971855044365 1.04425370693 1.16701674461 1.28104150295 1.37246501446 1.37241268158 1.28099453449 1.0928851366 1.04419279099 0.971915721893 0.980995178223 1.00620830059 1.03713285923 1.09924554825 1.17825722694 1.17832410336 1.09913980961 1.02531480789 1.00617587566 0.981049001217 
0.980966567993 1.00624752045 1.03716385365 1.09943890572 1.17840671539 1.17838597298 1.09938025475 1.02532947063 1.00621414185 0.981021940708 0.971847891808 1.0443328619 1.16712772846 1.28104531765 1.37243270874 1.37241780758 1.28097188473 1.09297227859 1.0442700386 0.971908986568 0.968978226185 1.13365888596 1.27242529392 1.38921630383 1.49065864086 1.49064803123 1.38915348053 1.19981729984 1.13358521461 0.969022154808 0.967690467834 1.17808485031 1.31541025639 1.42165696621 1.51766359806 1.51765429974 1.42160451412 1.24407792091 1.17801630497 0.967722654343 0.966171205044 1.21231746674 1.34987664223 1.45263016224 1.54075062275 1.54074573517 1.45258760452 1.27903318405 1.21224522591 0.966200351715 0.966172993183 1.21230697632 1.34986829758 1.45261025429 1.5408616066 1.54085028172 1.45256268978 1.2790299654 1.21223461628 0.966202139854 0.967695891857 1.17803740501 1.31537508965 1.42157959938 1.51777017117 1.51775240898 1.42152190208 1.24404346943 1.17796981335 0.96772813797 0.969670295715 1.10009121895 1.23784399033 1.3507784605 1.45325994492 1.45325994492 1.35071325302 1.16427206993 1.10002851486 0.969715416431 0.971854925156 1.04425489902 1.16701841354 1.2810434103 1.37246692181 1.37241458893 1.28099644184 1.09288656712 1.04419398308 0.971915483475 0.980995178223 1.00620889664 1.03713405132 1.09924733639 1.17825937271 1.17832660675 1.09914159775 1.02531540394 1.00617647171 0.981049001217 
0.980966567993 1.0062482357 1.03716504574 1.09944069386 1.17840909958 1.17838811874 1.09938216209 1.02533042431 1.00621461868 0.981021821499 0.971847891808 1.04433405399 1.16712927818 1.28104710579 1.37243461609 1.37241971493 1.28097367287 1.09297370911 1.0442712307 0.971909046173 0.968978106976 1.13366055489 1.27242696285 1.38921892643 1.49066126347 1.49065077305 1.38915610313 1.19981920719 1.13358664513 0.969021975994 0.967690348625 1.17808675766 1.31541264057 1.42165958881 1.51766645908 1.51765727997 1.42160713673 1.24408006668 1.17801809311 0.967722654343 0.96617102623 1.21231949329 1.34987926483 1.45263290405 1.5407538414 1.5407487154 1.45259070396 1.27903532982 1.21224713326 0.966200172901 0.96617269516 1.21230888367 1.34987068176 1.45261323452 1.54086458683 1.54085326195 1.4525655508 1.27903223038 1.21223664284 0.966202020645 0.967695713043 1.17803919315 1.31537759304 1.42158222198 1.51777291298 1.51775527 1.42152476311 1.24404573441 1.17797160149 0.967728018761 0.969670176506 1.10009264946 1.23784613609 1.35078084469 1.45326244831 1.4532623291 1.35071587563 1.16427373886 1.10003006458 0.969715356827 0.971854805946 1.04425597191 1.16702008247 1.28104519844 1.37246918678 1.37241649628 1.28099834919 1.09288787842 1.04419505596 0.971915602684 0.980994999409 1.00620961189 1.03713512421 1.09924912453 1.17826187611 1.17832863331 1.0991435051 1.02531659603 1.00617682934 0.981048882008 
0.980966448784 1.00624883175 1.03716623783 1.09944272041 1.17841148376 1.17839050293 1.09938395023 1.02533137798 1.00621509552 0.981021761894 0.971847891808 1.04433512688 1.16713094711 1.28104901314 1.37243676186 1.37242186069 1.28097569942 1.09297502041 1.04427218437 0.971908986568 0.968977928162 1.13366222382 1.2724288702 1.38922154903 1.49066364765 1.49065315723 1.38915848732 1.19982087612 1.13358843327 0.969021975994 0.967690229416 1.1780885458 1.31541490555 1.42166244984 1.51766932011 1.51765990257 1.42161023617 1.24408209324 1.17802000046 0.967722475529 0.966170907021 1.21232175827 1.34988164902 1.45263576508 1.54075670242 1.54075157642 1.45259344578 1.2790375948 1.21224915981 0.966200053692 0.96617269516 1.21231102943 1.34987318516 1.45261621475 1.54086744785 1.54085612297 1.45256853104 1.27903449535 1.21223855019 0.966201901436 0.967695653439 1.17804098129 1.31537973881 1.4215849638 1.51777565479 1.51775813103 1.4215272665 1.24404776096 1.17797338963 0.967727899551 0.969670176506 1.10009419918 1.23784780502 1.35078370571 1.45326495171 1.45326471329 1.35071825981 1.16427540779 1.10003149509 0.969715237617 0.971854686737 1.04425704479 1.16702163219 1.28104710579 1.37247109413 1.37241864204 1.28100013733 1.09288930893 1.04419612885 0.971915304661 0.980994939804 1.00621020794 1.03713607788 1.09925127029 1.17826414108 1.1783311367 1.09914553165 1.02531754971 1.0061776638 0.981048762798 
0.980966210365 1.0062494278 1.03716719151 1.09944450855 1.17841386795 1.1783926487 1.09938585758 1.02533245087 1.00621581078 0.98102158308 0.971847653389 1.04433619976 1.16713237762 1.2810510397 1.37243855 1.37242400646 1.28097748756 1.09297645092 1.04427337646 0.971908867359 0.968977928162 1.13366377354 1.27243125439 1.38922405243 1.49066615105 1.49065542221 1.38916099072 1.19982278347 1.13358998299 0.969021975994 0.967690169811 1.17809045315 1.31541717052 1.42166519165 1.51767218113 1.51766264439 1.42161273956 1.2440841198 1.17802190781 0.96772223711 0.966170787811 1.21232354641 1.34988415241 1.45263874531 1.54075980186 1.54075455666 1.4525963068 1.27903974056 1.21225118637 0.966199994087 0.966172337532 1.21231305599 1.34987568855 1.45261931419 1.54087018967 1.54085922241 1.45257139206 1.27903652191 1.21224069595 0.966201663017 0.967695474625 1.17804288864 1.31538200378 1.42158782482 1.51777851582 1.51776111126 1.42153000832 1.24404966831 1.17797529697 0.967727720737 0.969669938087 1.10009562969 1.23784971237 1.35078585148 1.45326733589 1.45326709747 1.350720644 1.16427707672 1.10003304482 0.969715237617 0.971854507923 1.04425823689 1.16702306271 1.28104901314 1.37247300148 1.37242054939 1.28100204468 1.09289073944 1.04419720173 0.971915245056 0.980995059013 1.00621080399 1.03713738918 1.09925305843 1.17826640606 1.17833340168 1.09914731979 1.02531838417 1.00617802143 0.981048762798 
