13.936504364 21.7058792114 29.2828941345 37.1811752319 45.6522521973 54.3695373535 62.8393440247 70.7361679077 78.3132629395 86.0831985474 13.899930954 21.4776630402 28.5484104156 36.4126853943 45.3468742371 54.6764373779 63.6084899902 71.4697189331 78.5402603149 86.1196060181 13.8807573318 21.3150844574 28.1018657684 35.9630470276 45.1608047485 54.8634376526 64.0584640503 71.9158325195 78.7020492554 86.1387176514 13.8659725189 21.2243309021 27.9162006378 35.7810935974 45.0844993591 54.9401321411 64.2405548096 72.1013565063 78.7924804688 86.1534423828 13.8573274612 21.1845092773 27.8414516449 35.70520401 45.0528640747 54.9719276428 64.3164978027 72.176071167 78.8321762085 86.1620483398 13.8573360443 21.1845321655 27.8415031433 35.7052612305 45.0528907776 54.9718971252 64.316444397 72.1760177612 78.8321456909 86.1620483398 13.8660030365 21.2244930267 27.9165039062 35.7814331055 45.0846328735 54.9400024414 64.2402114868 72.1010665894 78.7923126221 86.1534042358 13.8807954788 21.3153934479 28.102602005 35.9637527466 45.1612358093 54.8630027771 64.0577697754 71.9151153564 78.7017288208 86.1386871338 13.8999948502 21.478143692 28.5499000549 36.4141120911 45.3475151062 54.6757774353 63.6070899963 71.4682235718 78.5397872925 86.1195602417 13.9366407394 21.7065734863 29.2848854065 37.1836662292 45.6533813477 54.3684387207 62.8368644714 70.7342224121 78.3125762939 86.0830612183 
13.9346103668 21.7031936646 29.2845363617 37.1732559204 45.6429519653 54.3788795471 62.8472137451 70.7345046997 78.3159408569 86.0850906372 13.8964586258 21.4712429047 28.5277080536 36.3408203125 45.2922935486 54.731300354 63.6802062988 71.4903564453 78.5466918945 86.1230926514 13.8748493195 21.2928256989 28.0314102173 35.7877960205 45.0497894287 54.9750137329 64.233505249 71.9860687256 78.7242279053 86.1446228027 13.8574943542 21.1782722473 27.7674598694 35.5203361511 44.9427375793 55.082611084 64.5011978149 72.24974823 78.8383712769 86.1618881226 13.8467197418 21.1195659637 27.6389694214 35.403011322 44.8979644775 55.1275939941 64.618637085 72.3781661987 78.8968658447 86.1726226807 13.8467283249 21.1196060181 27.6390686035 35.4030914307 44.8980064392 55.1275482178 64.6185760498 72.3780517578 78.8968200684 86.1726226807 13.8575296402 21.1784896851 27.7679519653 35.5208282471 44.9429168701 55.0824127197 64.5007019043 72.2492828369 78.8381500244 86.1618499756 13.8748941422 21.293182373 28.0323028564 35.7887878418 45.0503082275 54.9744911194 64.2325210571 71.9851913452 78.7238693237 86.1445617676 13.8965272903 21.47174263 28.5292854309 36.3424339294 45.2931098938 54.7304420471 63.6786384583 71.4887619019 78.5461959839 86.1230316162 13.9347467422 21.7038555145 29.2864456177 37.1758422852 45.6440696716 54.3778152466 62.8446350098 70.7326965332 78.3153152466 86.0849685669 
13.9344968796 21.7032775879 29.285577774 37.1738815308 45.6428756714 54.3789672852 62.8465843201 70.7334747314 78.315864563 86.0852203369 13.8962287903 21.4713630676 28.5276947021 36.337436676 45.2896003723 54.7340011597 63.6835823059 71.4903564453 78.5465774536 86.1233291626 13.8743896484 21.2915706635 28.0269832611 35.774356842 45.0378952026 54.9869651794 64.246925354 71.9904632568 78.7254714966 86.1450653076 13.8567295074 21.174282074 27.753950119 35.4858512878 44.9173851013 55.1080932617 64.5356216431 72.2632369995 78.842338562 86.1626586914 13.8456668854 21.1131210327 27.6173877716 35.3519287109 44.8648452759 55.1608848572 64.6696777344 72.3996810913 78.9032897949 86.1736602783 13.8456773758 21.1131629944 27.6174888611 35.3520202637 44.8648872375 55.1608276367 64.6695785522 72.3995666504 78.9032440186 86.1736526489 13.8567676544 21.1745128632 27.7544612885 35.4864006042 44.9175987244 55.1078681946 64.5350723267 72.2627182007 78.8421173096 86.1626205444 13.8744373322 21.2919311523 28.0278911591 35.775390625 45.0384635925 54.9863967896 64.2458953857 71.9895706177 78.7251281738 86.1450271606 13.8962955475 21.4718647003 28.5292854309 36.3390579224 45.2904281616 54.7331390381 63.6819915771 71.4887542725 78.5460891724 86.1232681274 13.9346294403 21.7039337158 29.2874736786 37.1764640808 45.6439857483 54.3778953552 62.8439941406 70.7316589355 78.315246582 86.0850753784 
13.9344863892 21.7032966614 29.2857036591 37.1739730835 45.6428871155 54.378944397 62.8465003967 70.7333602905 78.3158493042 86.0852279663 13.8962097168 21.4713935852 28.5277557373 36.3372421265 45.2894363403 54.7341651917 63.6837768555 71.4902954102 78.5465393066 86.1233444214 13.8743495941 21.291475296 28.026632309 35.7734031677 45.0371589661 54.9877090454 64.2478713989 71.9908065796 78.7255783081 86.1451034546 13.8566551208 21.1738872528 27.7526187897 35.4825706482 44.9147148132 55.1107635498 64.5389022827 72.2645721436 78.8427352905 86.162727356 13.8455638885 21.1124458313 27.6150722504 35.3460006714 44.8606643677 55.1650810242 64.6756057739 72.4019851685 78.9039382935 86.1737670898 13.8455724716 21.112487793 27.6151809692 35.3460922241 44.8607139587 55.1650238037 64.6755065918 72.4018783569 78.9039077759 86.1737594604 13.8566942215 21.1741161346 27.7531375885 35.483127594 44.9149360657 55.1105384827 64.5383377075 72.2640533447 78.8425140381 86.1626815796 13.8743953705 21.2918319702 28.027545929 35.7744407654 45.0377349854 54.9871292114 64.2468414307 71.9899215698 78.7252349854 86.1450576782 13.8962755203 21.4718933105 28.5293521881 36.3388671875 45.2902603149 54.7333106995 63.6821899414 71.4886856079 78.5460510254 86.1232681274 13.9346218109 21.703950882 29.2875957489 37.1765594482 45.6439933777 54.3778877258 62.8439025879 70.7315597534 78.3152236938 86.0850906372 
13.9344863892 21.7032966614 29.2857151031 37.1739845276 45.6428871155 54.378944397 62.8464851379 70.7333450317 78.3158493042 86.0852279663 13.8962078094 21.4713973999 28.5277576447 36.3372192383 45.2894134521 54.7341918945 63.6838035583 71.4902877808 78.5465316772 86.1233444214 13.8743448257 21.2914581299 28.0265865326 35.7732887268 45.0370903015 54.98777771 64.2479858398 71.9908752441 78.7256011963 86.1451187134 13.8566455841 21.173828125 27.7524337769 35.4821662903 44.914390564 55.1110992432 64.53931427 72.2647628784 78.8427963257 86.1627349854 13.8455486298 21.1123523712 27.6147499084 35.3451881409 44.8600921631 55.1656532288 64.6764068604 72.4023132324 78.9040527344 86.1737747192 13.8455581665 21.1123943329 27.6148509979 35.3452758789 44.8601455688 55.1655960083 64.6763153076 72.4022140503 78.904006958 86.1737594604 13.8566856384 21.1740589142 27.7529506683 35.4827194214 44.9146156311 55.1108589172 64.5387420654 72.2642211914 78.8425674438 86.1626968384 13.8743906021 21.2918186188 28.0274906158 35.7743263245 45.0376663208 54.9871940613 64.2469482422 71.989982605 78.7252349854 86.1450653076 13.896273613 21.4718971252 28.5293521881 36.3388442993 45.2902450562 54.7333183289 63.6822090149 71.4886856079 78.5460510254 86.1232833862 13.9346208572 21.7039489746 29.2876052856 37.1765670776 45.6439933777 54.3778877258 62.8438987732 70.7315368652 78.3152236938 86.0850906372 
13.9344863892 21.7032966614 29.2857112885 37.1739768982 45.6428833008 54.3789520264 62.8464927673 70.7333450317 78.3158493042 86.0852279663 13.8962059021 21.4713935852 28.5277462006 36.3372039795 45.2894058228 54.7341918945 63.6838188171 71.4902954102 78.5465316772 86.1233444214 13.8743429184 21.2914524078 28.0265636444 35.7732582092 45.0370750427 54.9877929688 64.2480239868 71.9908905029 78.7256088257 86.1451187134 13.8566427231 21.1738128662 27.7523841858 35.4820861816 44.9143333435 55.1111488342 64.5393829346 72.264793396 78.8428115845 86.1627349854 13.8455457687 21.1123275757 27.6146736145 35.3450279236 44.8599891663 55.1657600403 64.6765670776 72.4023742676 78.9040756226 86.1737823486 13.8455562592 21.1123695374 27.6147785187 35.3451194763 44.8600463867 55.1657028198 64.6764755249 72.4022750854 78.9040374756 86.1737747192 13.8566818237 21.174041748 27.752904892 35.4826431274 44.9145545959 55.1109161377 64.5388259888 72.2642745972 78.842590332 86.1626968384 13.8743877411 21.2918109894 28.027469635 35.7742958069 45.037651062 54.9872131348 64.2469863892 71.9899902344 78.7252426147 86.1450653076 13.8962726593 21.4718952179 28.5293464661 36.3388290405 45.2902336121 54.733341217 63.682220459 71.4887008667 78.5460510254 86.1232833862 13.9346179962 21.7039489746 29.2876033783 37.1765632629 45.6439933777 54.3778839111 62.8439102173 70.7315444946 78.3152313232 86.0850906372 
13.9344844818 21.7032928467 29.2857074738 37.1739730835 45.6428833008 54.3789520264 62.846496582 70.7333602905 78.3158493042 86.0852279663 13.8962059021 21.4713897705 28.5277423859 36.3372001648 45.2893981934 54.7342033386 63.6838264465 71.4903030396 78.5465393066 86.1233444214 13.8743429184 21.2914409637 28.0265483856 35.7732429504 45.0370674133 54.9878082275 64.2480392456 71.9909057617 78.7256088257 86.1451187134 13.8566427231 21.1738014221 27.7523555756 35.4820480347 44.9143218994 55.1111679077 64.5394210815 72.2648162842 78.8428192139 86.1627502441 13.8455467224 21.1123142242 27.6146316528 35.3449630737 44.8599586487 55.1657905579 64.6766204834 72.4024124146 78.904083252 86.173789978 13.8455543518 21.1123561859 27.6147327423 35.3450584412 44.8600120544 55.1657333374 64.6765289307 72.4023132324 78.904045105 86.1737747192 13.8566799164 21.1740283966 27.7528705597 35.4826049805 44.9145393372 55.1109390259 64.5388565063 72.2643127441 78.842590332 86.1626968384 13.8743877411 21.2918071747 28.0274581909 35.7742881775 45.0376358032 54.9872207642 64.2469940186 71.9900131226 78.7252502441 86.1450653076 13.896270752 21.4718894958 28.5293312073 36.3388214111 45.2902336121 54.733341217 63.6822357178 71.4887084961 78.5460510254 86.1232833862 13.9346179962 21.7039470673 29.2876014709 37.1765594482 45.6439933777 54.3778877258 62.8439102173 70.731552124 78.3152313232 86.0850906372 
