2.26471829414 3.87554979324 6.79378271103 9.50695228577 11.028172493 11.026971817 9.50112533569 6.7862868309 3.86882209778 2.26460909843 2.29027342796 5.07464313507 9.78088188171 14.1964893341 16.6605072021 16.6585502625 14.1870594025 9.76878929138 5.06357002258 2.28996348381 2.31481552124 5.95513725281 11.8459100723 17.3315372467 20.5299358368 20.5273971558 17.3195514679 11.8309822083 5.94103002548 2.31431555748 2.33143639565 6.47821712494 13.0142440796 19.0633468628 22.5972385406 22.5944347382 19.0501098633 12.9977912903 6.46238040924 2.33081078529 2.34040737152 6.7401599884 13.5880632401 19.8920135498 23.5664844513 23.5635871887 19.8782501221 13.5708971024 6.72349405289 2.33971381187 2.34040021896 6.7399559021 13.5876245499 19.8913803101 23.5657501221 23.5628547668 19.877620697 13.5704603195 6.72329330444 2.33970689774 2.33140087128 6.47717475891 13.0119314194 19.0599555969 22.5932369232 22.5904388428 19.046749115 12.9955062866 6.46135473251 2.3307762146 2.31476283073 5.95334768295 11.841884613 17.3254241943 20.5218753815 20.5194168091 17.3135089874 11.8270263672 5.93926906586 2.31426334381 2.29020094872 5.07199382782 9.77440261841 14.1868515015 16.6481723785 16.646276474 14.1776046753 9.76242160797 5.06099033356 2.28989434242 2.26467251778 3.87219882011 6.78505039215 9.49192428589 11.0096893311 11.0087862015 9.48610591888 6.77785682678 3.86557769775 2.26456308365 
2.26473140717 3.85085511208 6.74221944809 9.44324398041 10.959897995 10.9586963654 9.43744087219 6.73476886749 3.84421133995 2.26462316513 2.29000902176 5.0457406044 9.72560119629 14.1339998245 16.5998382568 16.5978755951 14.1245660782 9.71354866028 5.0347533226 2.28970241547 2.31440639496 5.92777204514 11.7952594757 17.277841568 20.4974460602 20.4948654175 17.2658348083 11.7803697586 5.91373872757 2.31391119957 2.33107948303 6.45456171036 12.9715633392 19.0334014893 22.6225910187 22.6197185516 19.0200519562 12.9551420212 6.43878746033 2.33045840263 2.34014844894 6.71961832047 13.55215168 19.8832263947 23.6298427582 23.6268520355 19.8692836761 13.534995079 6.70300483704 2.33945894241 2.34014129639 6.7194108963 13.5517053604 19.8825778961 23.629076004 23.6260910034 19.868637085 13.5345554352 6.70280075073 2.33945202827 2.33104419708 6.45351171494 12.9692382812 19.0299491882 22.6184635162 22.6155929565 19.0166358948 12.9528398514 6.43775320053 2.33042359352 2.31435370445 5.92597675323 11.7912244797 17.2716884613 20.4892959595 20.4867973328 17.2597503662 11.7764053345 5.91197347641 2.3138589859 2.28993749619 5.04309606552 9.71911621094 14.1243505478 16.5874290466 16.5855312347 14.115111351 9.70718288422 5.03218173981 2.28963470459 2.26468658447 3.84754323959 6.73356103897 9.42822933197 10.9414634705 10.9405593872 9.42243003845 6.72643184662 3.84101200104 2.26457858086 
2.26473283768 3.84924840927 6.73887681961 9.43912506104 10.9554615021 10.9542608261 9.43332290649 6.73142814636 3.84260988235 2.26462459564 2.28999233246 5.04386901855 9.722032547 14.1299438477 16.5958309174 16.593870163 14.1205101013 9.70998191833 5.03288650513 2.28968596458 2.31438088417 5.92602396011 11.7920570374 17.274389267 20.4947795868 20.4922008514 17.2623786926 11.7771730423 5.91199636459 2.31388735771 2.33105707169 6.45311069489 12.9689779282 19.0315437317 22.6245231628 22.6216449738 19.0181903839 12.9525566101 6.43734025955 2.33043622971 2.34013700485 6.7184214592 13.5501527786 19.8833293915 23.6359386444 23.6329402924 19.8693714142 13.532998085 6.70181035995 2.33944797516 2.34013009071 6.71821451187 13.549706459 19.8826789856 23.6351642609 23.6321735382 19.8687267303 13.5325584412 6.70160531998 2.33944058418 2.3310213089 6.45205926895 12.9666500092 19.028087616 22.6203804016 22.6175060272 19.0147647858 12.9502544403 6.43630552292 2.33040118217 2.31432938576 5.92422771454 11.7880210876 17.2682323456 20.4866256714 20.4841213226 17.2562923431 11.7732067108 5.91022872925 2.31383442879 2.28992033005 5.04122447968 9.7155456543 14.1202907562 16.5834140778 16.5815181732 14.1110515594 9.7036151886 5.03031587601 2.28961777687 2.26468729973 3.84593963623 6.73022127151 9.42411136627 10.9370317459 10.936126709 9.41831207275 6.72309732437 3.83941483498 2.26457953453 
2.26473259926 3.84900641441 6.73837661743 9.4385137558 10.9548044205 10.9536056519 9.43271255493 6.73092937469 3.84236931801 2.26462459564 2.28998947144 5.04359149933 9.72150421143 14.1293506622 16.595249176 16.5932865143 14.1199159622 9.70945549011 5.03260946274 2.28968310356 2.31437778473 5.92576932907 11.7915973663 17.2739028931 20.4944000244 20.4918174744 17.2618942261 11.7767133713 5.91174221039 2.31388354301 2.33105421066 6.4529094696 12.9686288834 19.0313301086 22.6248931885 22.622013092 19.0179786682 12.9522066116 6.43713951111 2.33043336868 2.34013605118 6.71826553345 13.5499076843 19.88347435 23.63712883 23.6341323853 19.869512558 13.5327539444 6.70165538788 2.33944678307 2.34012889862 6.71805858612 13.5494651794 19.8828220367 23.6363601685 23.6333637238 19.8688659668 13.5323133469 6.70145177841 2.33943963051 2.33101844788 6.45185852051 12.9663038254 19.0278739929 22.6207466125 22.6178703308 19.0145530701 12.9499053955 6.4361038208 2.33039808273 2.31432557106 5.92397356033 11.787563324 17.2677440643 20.4862384796 20.4837379456 17.2558059692 11.7727470398 5.90997552872 2.31383109093 2.28991770744 5.04094552994 9.7150182724 14.1196975708 16.5828323364 16.5809345245 14.1104574203 9.70309066772 5.03003835678 2.28961515427 2.26468777657 3.84569787979 6.72972345352 9.42350196838 10.9363775253 10.9354724884 9.41770267487 6.7225985527 3.83917355537 2.26457977295 
2.26473283768 3.84895515442 6.73827457428 9.43839263916 10.9546775818 10.9534778595 9.43259239197 6.73082590103 3.8423178196 2.26462459564 2.28998923302 5.04353570938 9.72140312195 14.1292419434 16.5951442719 16.5931835175 14.119808197 9.70935726166 5.03255414963 2.28968334198 2.31437706947 5.9257235527 11.7915201187 17.2738304138 20.4943523407 20.491771698 17.2618198395 11.77663517 5.91169595718 2.31388306618 2.33105421066 6.45287847519 12.9685850143 19.0313358307 22.6250476837 22.6221656799 19.0179824829 12.9521627426 6.43710899353 2.33043336868 2.3401362896 6.71824932098 13.5498943329 19.8835811615 23.6375274658 23.6345252991 19.8696231842 13.532740593 6.70163822174 2.33944749832 2.34012937546 6.71804285049 13.5494499207 19.8829307556 23.6367549896 23.6337585449 19.8689727783 13.5322999954 6.7014336586 2.33944058418 2.33101820946 6.45182800293 12.9662561417 19.027879715 22.6208992004 22.618024826 19.0145587921 12.9498624802 6.4360742569 2.33039832115 2.31432509422 5.92392683029 11.7874860764 17.2676715851 20.4861946106 20.4836921692 17.25573349 11.7726688385 5.90992975235 2.31383037567 2.28991723061 5.04089069366 9.71491909027 14.1195888519 16.5827293396 16.5808315277 14.1103506088 9.70298957825 5.02998304367 2.28961467743 2.26468801498 3.84564614296 6.72962093353 9.42337989807 10.9362487793 10.935344696 9.41758155823 6.72249698639 3.8391225338 2.26458001137 
2.2647330761 3.84894561768 6.73825883865 9.43837833405 10.9546632767 10.9534645081 9.4325761795 6.73081064224 3.84230828285 2.26462459564 2.28998947144 5.04352807999 9.72139549255 14.1292390823 16.5951461792 16.5931835175 14.119805336 9.70934772491 5.03254747391 2.28968310356 2.31437754631 5.92572212219 11.7915229797 17.27384758 20.4943847656 20.4917984009 17.2618370056 11.7766389847 5.91169500351 2.31388354301 2.33105444908 6.45288515091 12.9686050415 19.0313892365 22.6251544952 22.6222763062 19.0180358887 12.9521818161 6.43711566925 2.3304336071 2.34013724327 6.71826124191 13.5499267578 19.8836784363 23.6377277374 23.6347312927 19.8697147369 13.5327730179 6.70165157318 2.33944797516 2.34013032913 6.71805477142 13.5494842529 19.883026123 23.6369571686 23.6339607239 19.8690681458 13.532333374 6.70144701004 2.33944106102 2.33101868629 6.45183515549 12.9662761688 19.0279312134 22.6210098267 22.6181354523 19.0146083832 12.9498815536 6.43607997894 2.33039855957 2.31432533264 5.92392492294 11.7874879837 17.2676887512 20.4862213135 20.4837245941 17.2557506561 11.7726736069 5.909927845 2.31383085251 2.28991723061 5.04088258743 9.71490955353 14.1195869446 16.5827312469 16.5808315277 14.1103477478 9.70298099518 5.02997589111 2.28961467743 2.2646882534 3.84563684464 6.72960329056 9.42336463928 10.9362354279 10.9353313446 9.41756629944 6.72248077393 3.83911275864 2.26458001137 
2.26473331451 3.84894824028 6.73826885223 9.43839550018 10.9546871185 10.9534854889 9.43259525299 6.73081922531 3.84231114388 2.26462483406 2.28998947144 5.04353523254 9.72141551971 14.1292695999 16.5951824188 16.5932216644 14.1198339462 9.7093667984 5.03255414963 2.28968334198 2.31437754631 5.92573451996 11.7915525436 17.273891449 20.4944400787 20.4918556213 17.261882782 11.7766675949 5.91170740128 2.31388354301 2.33105492592 6.45290327072 12.9686450958 19.0314559937 22.6252555847 22.6223754883 19.0181007385 12.9522209167 6.43713331223 2.33043408394 2.34013772011 6.71828365326 13.5499773026 19.883769989 23.6378726959 23.6348762512 19.869808197 13.5328226089 6.70167255402 2.33944869041 2.34013080597 6.71807670593 13.5495328903 19.8831176758 23.6371040344 23.6341094971 19.8691596985 13.5323848724 6.70146846771 2.33944177628 2.33101916313 6.45185232162 12.9663162231 19.0279998779 22.6211071014 22.6182327271 19.0146789551 12.949921608 6.43609809875 2.33039927483 2.31432580948 5.92393779755 11.7875165939 17.2677326202 20.4862785339 20.4837760925 17.2557926178 11.7727012634 5.90994024277 2.31383132935 2.28991770744 5.04089069366 9.71492862701 14.1196165085 16.5827636719 16.5808677673 14.1103754044 9.70299911499 5.02998352051 2.28961491585 2.26468801498 3.8456401825 6.72961425781 9.42338275909 10.9362564087 10.9353523254 9.41758441925 6.72248983383 3.83911561966 2.26457977295 
