14.0028305054 13.7923316956 13.0382575989 11.8931512833 11.1871623993 11.1877613068 11.8958129883 13.0408735275 13.7936038971 14.0028429031 21.9916877747 21.6226081848 20.5674800873 19.0887451172 18.1667976379 18.1675605774 19.0921554565 20.5709590912 21.62449646 21.9917736053 29.9825267792 29.5406150818 28.5941181183 27.3783168793 26.6055259705 26.6061611176 27.3811454773 28.5970172882 29.5425205231 29.9826698303 37.984336853 37.655418396 37.0374984741 36.3022651672 35.835105896 35.8354873657 36.3039703369 37.0393028259 37.6567230225 37.984462738 45.9992218018 45.8775138855 45.66431427 45.4215583801 45.2679214478 45.2680435181 45.4221115112 45.6649169922 45.8779754639 45.9992790222 54.0208206177 54.1431694031 54.3574867249 54.6014785767 54.7560348511 54.7559127808 54.6009216309 54.3568763733 54.1427116394 54.0207672119 62.0356750488 62.3650131226 62.9838943481 63.7203521729 64.1883544922 64.1879730225 63.7186508179 62.9821052551 62.3637123108 62.0355491638 70.0374603271 70.4794387817 71.4265136719 72.6436233521 73.416595459 73.4159927368 72.640838623 71.4236068726 70.4775390625 70.037322998 78.0282897949 78.3970031738 79.4520263672 80.9312515259 81.8532562256 81.8524703979 80.9279174805 79.4485778809 78.3951263428 78.0281982422 86.0171737671 86.2272644043 86.979850769 88.1218032837 88.8255462646 88.8252563477 88.1191101074 86.9773330688 86.2260131836 86.0171508789 
14.0020275116 13.7879524231 13.0343475342 11.8882341385 11.1798601151 11.1804656982 11.8908977509 13.0369634628 13.7892255783 14.0020456314 21.9907894135 21.6158294678 20.5533466339 19.0567741394 18.1148357391 18.1156253815 19.0602436066 20.5568504333 21.6177310944 21.9908809662 29.9817047119 29.5322914124 28.57122612 27.3218708038 26.5062217712 26.5068950653 27.3248119354 28.5741767883 29.5342216492 29.9818477631 37.9836921692 37.6482696533 37.0160102844 36.2465438843 35.7496528625 35.7500686646 36.248336792 37.0178794861 37.6496009827 37.983833313 45.9989814758 45.8745918274 45.6546325684 45.3987007141 45.2347869873 45.234916687 45.3992919922 45.6552619934 45.8750610352 45.9990310669 54.0210723877 54.1461029053 54.3672180176 54.6244506836 54.7893981934 54.7892456055 54.6238479614 54.3665809631 54.1456298828 54.0210113525 62.036315918 62.3721656799 63.0053901672 63.7761116028 64.2738571167 64.2734527588 63.7743148804 63.0035400391 62.3708534241 62.0361862183 70.0382843018 70.4877548218 71.4493942261 72.7000350952 73.5157775879 73.5151367188 72.6971282959 71.446434021 70.4858398438 70.0381317139 78.0291748047 78.4037628174 79.4661483765 80.9631500244 81.9050750732 81.9042739868 80.9597702026 79.462638855 78.4018859863 78.0290908813 86.0179595947 86.2316360474 86.9837646484 88.1266403198 88.8327865601 88.8324813843 88.1239395142 86.9812545776 86.2303924561 86.0179519653 
14.0019760132 13.787648201 13.034040451 11.8878526688 11.1793498993 11.1799583435 11.8905191422 13.036658287 13.7889184952 14.0019931793 21.9907264709 21.6153450012 20.552324295 19.0546035767 18.1115379333 18.1123275757 19.0580768585 20.5558338165 21.6172485352 21.9908180237 29.9816455841 29.5316829681 28.5695667267 27.3179836273 26.4993534088 26.500038147 27.320930481 28.5725326538 29.5336170197 29.9817905426 37.9836502075 37.647731781 37.0143318176 36.2418556213 35.7419471741 35.7423629761 36.2436599731 37.016204834 37.6490631104 37.9837837219 45.9989624023 45.8743667603 45.6538658142 45.3965034485 45.2315216064 45.2316551208 45.397102356 45.6544952393 45.8748397827 45.9990196228 54.0210876465 54.1463317871 54.3679847717 54.626663208 54.7926712036 54.7925300598 54.6260528564 54.3673400879 54.14585495 54.0210342407 62.0363616943 62.3727111816 63.0070762634 63.7808074951 64.2815704346 64.2811584473 63.7789916992 63.0052032471 62.3713798523 62.0362319946 70.0383453369 70.4883651733 71.4510498047 72.7039260864 73.522644043 73.5219726562 72.7010040283 71.4480743408 70.4864501953 70.038192749 78.0292434692 78.4042434692 79.4671630859 80.9653167725 81.9083709717 81.9075698853 80.9619293213 79.4636535645 78.4023742676 78.0291519165 86.0180130005 86.2319335938 86.9840621948 88.1270141602 88.8332901001 88.8329925537 88.1243209839 86.9815444946 86.2306976318 86.0179977417 
14.0019664764 13.7875967026 13.0339832306 11.8877735138 11.1792497635 11.1798553467 11.8904399872 13.0365991592 13.7888708115 14.0019836426 21.9907188416 21.6152629852 20.5521469116 19.0542449951 18.111000061 18.1117916107 19.0577163696 20.5556583405 21.6171665192 21.9908103943 29.9816379547 29.531578064 28.5692806244 27.3173446655 26.4982852936 26.4989700317 27.3202934265 28.5722465515 29.5335102081 29.9817810059 37.9836425781 37.6476364136 37.0140342712 36.2410163879 35.7405319214 35.7409553528 36.2428207397 37.0159034729 37.6489715576 37.9837760925 45.9989547729 45.8743247986 45.6537361145 45.3960838318 45.2309074402 45.2310333252 45.3966827393 45.6543655396 45.8748016357 45.9990158081 54.0210914612 54.1463623047 54.3681182861 54.6270828247 54.7933120728 54.7931632996 54.6264801025 54.3674812317 54.1458969116 54.0210380554 62.0363769531 62.3728103638 63.0073738098 63.7816352844 64.2829818726 64.2825622559 63.7798309326 63.0055007935 62.3714752197 62.0362434387 70.0383453369 70.4884796143 71.4513320923 72.7045669556 73.5236968994 73.5230331421 72.7016525269 71.4483718872 70.4865570068 70.0382080078 78.0292510986 78.404335022 79.467338562 80.965675354 81.9088973999 81.9080963135 80.9622802734 79.4638290405 78.4024505615 78.0291671753 86.0180358887 86.2320022583 86.98412323 88.1271057129 88.8333969116 88.8330917358 88.1243972778 86.981590271 86.2307510376 86.0180130005 
14.0019645691 13.7875823975 13.0339603424 11.8877410889 11.1792049408 11.1798124313 11.8904047012 13.0365791321 13.7888565063 14.0019836426 21.9907150269 21.6152381897 20.5520896912 19.0541343689 18.1108493805 18.1116390228 19.0576076508 20.5556030273 21.6171417236 21.9908065796 29.9816360474 29.5315475464 28.5692024231 27.3171596527 26.4980106354 26.4986915588 27.3201084137 28.5721664429 29.5334777832 29.9817790985 37.9836387634 37.6476097107 37.0139503479 36.2407798767 35.7401504517 35.7405586243 36.2425880432 37.0158195496 37.6489448547 37.9837722778 45.9989547729 45.8743171692 45.6536941528 45.3959655762 45.2307243347 45.2308616638 45.3965568542 45.6543235779 45.874786377 45.9990081787 54.0210876465 54.1463813782 54.3681526184 54.6272087097 54.7934913635 54.7933387756 54.6265983582 54.3675193787 54.145904541 54.0210380554 62.0363807678 62.3728294373 63.0074577332 63.7818717957 64.2833709717 64.2829437256 63.7800559998 63.0055923462 62.3715057373 62.0362434387 70.0383529663 70.4885025024 71.4514083862 72.7047576904 73.523979187 73.5233230591 72.7018280029 71.4484481812 70.4865875244 70.0382080078 78.0292510986 78.4043579102 79.4673919678 80.9657897949 81.909034729 81.908241272 80.9624099731 79.4638824463 78.4024734497 78.0291671753 86.0180282593 86.2320022583 86.9841461182 88.1271362305 88.8334350586 88.8331375122 88.1244354248 86.9816360474 86.230758667 86.0180282593 
14.0019645691 13.7875776291 13.033949852 11.887717247 11.1791744232 11.1797800064 11.890381813 13.0365667343 13.7888507843 14.0019817352 21.9907131195 21.6152305603 20.552066803 19.0540828705 18.1107807159 18.1115722656 19.0575561523 20.5555744171 21.6171321869 21.9908027649 29.9816322327 29.5315341949 28.5691680908 27.3170871735 26.4978942871 26.4985771179 27.3200321198 28.5721302032 29.5334682465 29.9817771912 37.9836349487 37.6475982666 37.0139122009 36.2406845093 35.7399864197 35.7404060364 36.2424926758 37.0157852173 37.6489295959 37.9837684631 45.9989547729 45.8743133545 45.6536750793 45.3959159851 45.2306632996 45.2307891846 45.3965110779 45.6543006897 45.874786377 45.9990081787 54.0210876465 54.1463775635 54.3681678772 54.6272583008 54.7935638428 54.7934112549 54.6266479492 54.3675422668 54.1459121704 54.0210380554 62.0363845825 62.3728370667 63.0074806213 63.7819747925 64.2835235596 64.2831039429 63.7801628113 63.0056190491 62.3715171814 62.0362472534 70.0383529663 70.4885177612 71.4514541626 72.704826355 73.5240783691 73.5234222412 72.7019042969 71.4484786987 70.4865951538 70.0382080078 78.0292510986 78.4043655396 79.4674224854 80.9658279419 81.9091186523 81.9083099365 80.9624481201 79.4639129639 78.4024810791 78.0291671753 86.0180358887 86.2320098877 86.9841461182 88.1271438599 88.8334655762 88.833152771 88.124458313 86.9816513062 86.2307662964 86.0180282593 
14.0019626617 13.7875747681 13.0339403152 11.8876962662 11.1791477203 11.1797533035 11.8903617859 13.0365552902 13.7888498306 14.0019807816 21.9907112122 21.6152248383 20.5520496368 19.0540504456 18.1107368469 18.1115283966 19.0575218201 20.5555553436 21.6171264648 21.9908027649 29.9816303253 29.5315265656 28.5691452026 27.3170375824 26.4978275299 26.4985103607 27.319984436 28.5721092224 29.5334625244 29.9817752838 37.9836349487 37.6475906372 37.0138969421 36.2406311035 35.7399101257 35.7403259277 36.2424354553 37.0157661438 37.6489257812 37.9837684631 45.9989547729 45.8743133545 45.65366745 45.3958892822 45.2306213379 45.230758667 45.3964805603 45.6543006897 45.8747825623 45.9990081787 54.0210876465 54.1463813782 54.368183136 54.627281189 54.793598175 54.7934494019 54.6266746521 54.3675575256 54.1459121704 54.0210380554 62.0363845825 62.3728485107 63.0075187683 63.7820281982 64.2836074829 64.2831878662 63.7802124023 63.0056533813 62.3715171814 62.0362472534 70.0383529663 70.4885253906 71.4514846802 72.7048721313 73.5241470337 73.5234985352 72.701965332 71.4485015869 70.4866027832 70.0382080078 78.0292510986 78.4043655396 79.4674301147 80.9658660889 81.9091644287 81.9083557129 80.9624938965 79.4639205933 78.4024887085 78.0291671753 86.0180358887 86.2320251465 86.984161377 88.127166748 88.8334960938 88.833190918 88.1244888306 86.9816589355 86.2307662964 86.0180282593 
