1.0 1.00000011921 0.999418318272 1.03584527969 1.09335374832 1.09332823753 1.03576278687 1.00000023842 1.0 1.0 0.999999940395 1.00046539307 1.0783611536 1.18031013012 1.26572918892 1.2657084465 1.18023681641 1.03043222427 1.00045573711 1.0 1.0 1.05609643459 1.16304326057 1.27580821514 1.37930107117 1.37928414345 1.27573907375 1.10711503029 1.05602324009 1.00000011921 1.0 1.09226441383 1.2003839016 1.30463683605 1.39842867851 1.39841163158 1.30457627773 1.14337086678 1.09219896793 1.00000011921 1.0 1.11946070194 1.23287606239 1.33503830433 1.41459512711 1.41458272934 1.33498740196 1.17242646217 1.11939668655 1.00000011921 1.0 1.11945128441 1.23286771774 1.33501923084 1.41468966007 1.41467094421 1.33496260643 1.17242240906 1.11938762665 1.00000011921 1.0 1.0922203064 1.20035004616 1.30455219746 1.3985247612 1.39849770069 1.30448758602 1.1433339119 1.09215557575 1.0 1.0 1.03474760056 1.13386499882 1.23915731907 1.34215772152 1.34215331078 1.23907709122 1.08362972736 1.03467559814 1.00000011921 1.0 1.00045502186 1.07827103138 1.18030500412 1.26582670212 1.26575863361 1.1802611351 1.03035616875 1.00044572353 1.00000011921 1.0 1.00000011921 0.999422729015 1.0357208252 1.09312188625 1.09317445755 1.0356041193 1.00000011921 1.0 0.999999940395 
1.0 1.00000011921 0.999418318272 1.03584527969 1.09335374832 1.09332823753 1.03576278687 1.00000023842 1.0 1.0 0.999999940395 1.00046539307 1.0783611536 1.18031013012 1.26572918892 1.2657084465 1.18023681641 1.03043222427 1.00045573711 1.0 1.0 1.05609643459 1.16304326057 1.27580821514 1.38472294807 1.38470709324 1.27573907375 1.10711503029 1.05602324009 1.00000011921 1.0 1.09226441383 1.2003839016 1.30463683605 1.40736937523 1.40735435486 1.30457627773 1.14337086678 1.09219896793 1.00000011921 1.0 1.11946070194 1.23287606239 1.33700847626 1.43014061451 1.43012952805 1.33696055412 1.17242646217 1.11939668655 1.00000011921 1.0 1.11945128441 1.23286771774 1.33698964119 1.43029117584 1.43027162552 1.33693480492 1.17242240906 1.11938762665 1.00000011921 1.0 1.0922203064 1.20035004616 1.30455219746 1.40752470493 1.40749669075 1.30448758602 1.1433339119 1.09215557575 1.0 1.0 1.03474760056 1.13386499882 1.23915731907 1.34215772152 1.34215331078 1.23907709122 1.08362972736 1.03467559814 1.00000011921 1.0 1.00045502186 1.07827103138 1.18030500412 1.26582670212 1.26575863361 1.1802611351 1.03035616875 1.00044572353 1.00000011921 1.0 1.00000011921 0.999422729015 1.0357208252 1.09312188625 1.09317445755 1.0356041193 1.00000011921 1.0 0.999999940395 
1.0 1.00000011921 0.999418318272 1.03584527969 1.09335374832 1.09332823753 1.03576278687 1.00000023842 1.0 1.0 0.999999940395 1.00046539307 1.0783611536 1.18031013012 1.26572918892 1.2657084465 1.18023681641 1.03043222427 1.00045573711 1.0 1.0 1.05609643459 1.16304326057 1.27580821514 1.38472294807 1.38470709324 1.27573907375 1.10711503029 1.05602324009 1.00000011921 1.0 1.09226441383 1.2003839016 1.30463683605 1.40737044811 1.40735518932 1.30457627773 1.14337086678 1.09219896793 1.00000011921 1.0 1.11946070194 1.23287606239 1.33700847626 1.43020951748 1.43019866943 1.33696055412 1.17242646217 1.11939668655 1.00000011921 1.0 1.11945128441 1.23286771774 1.33698964119 1.43036222458 1.43034267426 1.33693480492 1.17242240906 1.11938762665 1.00000011921 1.0 1.0922203064 1.20035004616 1.30455219746 1.40752589703 1.40749800205 1.30448758602 1.1433339119 1.09215557575 1.0 1.0 1.03474760056 1.13386499882 1.23915731907 1.34215772152 1.34215331078 1.23907709122 1.08362972736 1.03467559814 1.00000011921 1.0 1.00045502186 1.07827103138 1.18030500412 1.26582670212 1.26575863361 1.1802611351 1.03035616875 1.00044572353 1.00000011921 1.0 1.00000011921 0.999422729015 1.0357208252 1.09312188625 1.09317445755 1.0356041193 1.00000011921 1.0 0.999999940395 
1.0 1.00000011921 0.999418318272 1.03584527969 1.09335374832 1.09332823753 1.03576278687 1.00000023842 1.0 1.0 0.999999940395 1.00046539307 1.0783611536 1.18031013012 1.26572918892 1.2657084465 1.18023681641 1.03043222427 1.00045573711 1.0 1.0 1.05609643459 1.16304326057 1.27580821514 1.38472294807 1.38470709324 1.27573907375 1.10711503029 1.05602324009 1.00000011921 1.0 1.09226441383 1.2003839016 1.30463683605 1.40737628937 1.40736103058 1.30457627773 1.14337086678 1.09219896793 1.00000011921 1.0 1.11946070194 1.23287606239 1.33700859547 1.43021845818 1.43020737171 1.33696091175 1.17242646217 1.11939668655 1.00000011921 1.0 1.11945128441 1.23286771774 1.33698987961 1.43037104607 1.43035149574 1.33693492413 1.17242240906 1.11938762665 1.00000011921 1.0 1.0922203064 1.20035004616 1.30455219746 1.40753281116 1.40750467777 1.30448758602 1.1433339119 1.09215557575 1.0 1.0 1.03474760056 1.13386499882 1.23915731907 1.34215772152 1.34215331078 1.23907709122 1.08362972736 1.03467559814 1.00000011921 1.0 1.00045502186 1.07827103138 1.18030500412 1.26582670212 1.26575863361 1.1802611351 1.03035616875 1.00044572353 1.00000011921 1.0 1.00000011921 0.999422729015 1.0357208252 1.09312188625 1.09317445755 1.0356041193 1.00000011921 1.0 0.999999940395 
1.0 1.00000011921 0.999418318272 1.03584527969 1.09335374832 1.09332823753 1.03576278687 1.00000023842 1.0 1.0 0.999999940395 1.00046539307 1.0783611536 1.18031013012 1.26572918892 1.2657084465 1.18023681641 1.03043222427 1.00045573711 1.0 1.0 1.05609643459 1.16304326057 1.27580821514 1.38472294807 1.38470709324 1.27573907375 1.10711503029 1.05602324009 1.00000011921 1.0 1.09226441383 1.2003839016 1.30463683605 1.40738391876 1.40736877918 1.30457627773 1.14337086678 1.09219896793 1.00000011921 1.0 1.11946070194 1.23287606239 1.33700966835 1.43022739887 1.4302161932 1.33696210384 1.17242646217 1.11939668655 1.00000011921 1.0 1.11945128441 1.23286771774 1.3369910717 1.43037998676 1.43036019802 1.33693647385 1.17242240906 1.11938762665 1.00000011921 1.0 1.0922203064 1.20035004616 1.30455219746 1.40754020214 1.40751230717 1.30448758602 1.1433339119 1.09215557575 1.0 1.0 1.03474760056 1.13386499882 1.23915731907 1.34215772152 1.34215331078 1.23907709122 1.08362972736 1.03467559814 1.00000011921 1.0 1.00045502186 1.07827103138 1.18030500412 1.26582670212 1.26575863361 1.1802611351 1.03035616875 1.00044572353 1.00000011921 1.0 1.00000011921 0.999422729015 1.0357208252 1.09312188625 1.09317445755 1.0356041193 1.00000011921 1.0 0.999999940395 
1.0 1.00000011921 0.999418318272 1.03584527969 1.09335374832 1.09332823753 1.03576278687 1.00000023842 1.0 1.0 0.999999940395 1.00046539307 1.0783611536 1.18031013012 1.26572918892 1.2657084465 1.18023681641 1.03043222427 1.00045573711 1.0 1.0 1.05609643459 1.16304326057 1.27580821514 1.38472259045 1.38470685482 1.27573907375 1.10711503029 1.05602324009 1.00000011921 1.0 1.09226441383 1.2003839016 1.30463683605 1.40739130974 1.40737628937 1.30457627773 1.14337086678 1.09219896793 1.00000011921 1.0 1.11946070194 1.23287606239 1.33701241016 1.43023622036 1.43022525311 1.33696484566 1.17242646217 1.11939668655 1.00000011921 1.0 1.11945128441 1.23286771774 1.33699417114 1.43038892746 1.43036937714 1.33693921566 1.17242240906 1.11938762665 1.00000011921 1.0 1.0922203064 1.20035004616 1.30455219746 1.40754783154 1.40751969814 1.30448758602 1.1433339119 1.09215557575 1.0 1.0 1.03474760056 1.13386499882 1.23915731907 1.34215772152 1.34215331078 1.23907709122 1.08362972736 1.03467559814 1.00000011921 1.0 1.00045502186 1.07827103138 1.18030500412 1.26582670212 1.26575863361 1.1802611351 1.03035616875 1.00044572353 1.00000011921 1.0 1.00000011921 0.999422729015 1.0357208252 1.09312188625 1.09317445755 1.0356041193 1.00000011921 1.0 0.999999940395 
1.0 1.00000011921 0.999418318272 1.03584527969 1.09335374832 1.09332823753 1.03576278687 1.00000023842 1.0 1.0 0.999999940395 1.00046539307 1.0783611536 1.18031013012 1.26572918892 1.2657084465 1.18023681641 1.03043222427 1.00045573711 1.0 1.0 1.05609643459 1.16304326057 1.27580821514 1.38472163677 1.38470566273 1.27573907375 1.10711503029 1.05602324009 1.00000011921 1.0 1.09226441383 1.2003839016 1.30463683605 1.40739905834 1.40738368034 1.30457627773 1.14337086678 1.09219896793 1.00000011921 1.0 1.11946070194 1.23287606239 1.33701694012 1.43024528027 1.43023443222 1.33696937561 1.17242646217 1.11939668655 1.00000011921 1.0 1.11945128441 1.23286771774 1.33699893951 1.43039786816 1.43037831783 1.33694410324 1.17242240906 1.11938762665 1.00000011921 1.0 1.0922203064 1.20035004616 1.30455219746 1.40755522251 1.40752720833 1.30448758602 1.1433339119 1.09215557575 1.0 1.0 1.03474760056 1.13386499882 1.23915731907 1.34215772152 1.34215331078 1.23907709122 1.08362972736 1.03467559814 1.00000011921 1.0 1.00045502186 1.07827103138 1.18030500412 1.26582670212 1.26575863361 1.1802611351 1.03035616875 1.00044572353 1.00000011921 1.0 1.00000011921 0.999422729015 1.0357208252 1.09312188625 1.09317445755 1.0356041193 1.00000011921 1.0 0.999999940395 
