2.2654914856 3.921667099 6.87041950226 9.61908531189 11.2013664246 11.2001228333 9.61306381226 6.86289072037 3.91480112076 2.26537394524 2.29144001007 5.12965917587 9.90024185181 14.4044427872 16.9511184692 16.949131012 14.3946847916 9.88799476624 5.11840105057 2.29111790657 2.31561636925 6.02159309387 11.9825401306 17.5591964722 20.8127212524 20.8102016449 17.5468921661 11.967458725 6.0072479248 2.31510782242 2.3325817585 6.54433727264 13.1472883224 19.2562217712 22.8082199097 22.8054714203 19.2428150177 13.1307001114 6.5282831192 2.3319439888 2.34166121483 6.80385494232 13.7154016495 20.0558624268 23.7335720062 23.7307434082 20.0419845581 13.6981182098 6.78698968887 2.3409538269 2.34165382385 6.803647995 13.7149543762 20.0552330017 23.7328548431 23.7300281525 20.0413551331 13.6976766586 6.78678560257 2.34094691277 2.33254599571 6.54328536987 13.1449518204 19.2528381348 22.8042850494 22.8015346527 19.2394523621 13.1283855438 6.52724790573 2.33190917969 2.31556296349 6.01974344254 11.9784250259 17.5530166626 20.8044509888 20.8020191193 17.5407562256 11.9633998871 6.00541782379 2.31505489349 2.29136586189 5.12681007385 9.89332103729 14.3943405151 16.938419342 16.9364700317 14.3847122192 9.88101291656 5.11552762985 2.29104590416 2.265437603 3.91798520088 6.8607468605 9.60304927826 11.1817417145 11.1808242798 9.59665966034 6.85301446915 3.91106748581 2.26531863213 
2.26568436623 3.84089565277 6.70820474625 9.42301368713 10.9895935059 10.9883556366 9.41706466675 6.70080327988 3.83429765701 2.26557040215 2.29073739052 5.0365729332 9.72901725769 14.2168054581 16.7758159637 16.7737960815 14.207034111 9.71688175201 5.02558279037 2.29042720795 2.31438279152 5.93222570419 11.8217830658 17.4008560181 20.7540493011 20.7513751984 17.3884105682 11.8068065643 5.91812086105 2.3138897419 2.33141613007 6.4626994133 13.0006856918 19.1638965607 22.8927707672 22.8898124695 19.1500816345 12.9841747284 6.44685840607 2.33079385757 2.34058046341 6.72856616974 13.5803966522 20.0119991302 23.8963813782 23.8933105469 19.9975795746 13.5631532669 6.71189641953 2.33988809586 2.34057331085 6.72835636139 13.5799398422 20.0113372803 23.8955993652 23.8925323486 19.9969215393 13.5627031326 6.71168804169 2.33988118172 2.3313806057 6.46163034439 12.9983215332 19.1603736877 22.8885650635 22.8856010437 19.1465873718 12.9818344116 6.44580793381 2.3307595253 2.31433081627 5.930352211 11.8176374435 17.3944950104 20.745426178 20.74284935 17.3820877075 11.8027200699 5.91626405716 2.31383800507 2.29066514969 5.03367805481 9.72196960449 14.2066173553 16.7627315521 16.7607536316 14.1969738007 9.7097492218 5.02265119553 2.29035639763 2.26563286781 3.8372502327 6.69848680496 9.40678977966 10.9700241089 10.9690990448 9.40038490295 6.69083404541 3.83058404922 2.26551699638 
2.26569008827 3.83725976944 6.70080900192 9.41398429871 10.9796190262 10.9783821106 9.40803909302 6.69341373444 3.83067369461 2.26557588577 2.29070091248 5.03229856491 9.72101688385 14.2077054977 16.7664890289 16.7644672394 14.197933197 9.70888519287 5.02132034302 2.29039120674 2.3143222332 5.92810058594 11.8142318726 17.3923721313 20.7467002869 20.7440280914 17.3799228668 11.7992601395 5.91400623322 2.31383013725 2.33135557175 6.45898008347 12.9939222336 19.1574783325 22.8940944672 22.8911170959 19.1436576843 12.9774160385 6.44315052032 2.33073377609 2.34052371979 6.72518396378 13.574300766 20.0080051422 23.9068717957 23.9037742615 19.9935665131 13.5570611954 6.70852279663 2.33983206749 2.34051680565 6.72497320175 13.5738420486 20.0073394775 23.906085968 23.9029922485 19.9929103851 13.5566101074 6.70831394196 2.33982491493 2.3313202858 6.45791149139 12.9915552139 19.1539516449 22.8898601532 22.8868789673 19.1401576996 12.9750738144 6.44209861755 2.33069968224 2.31427001953 5.92622756958 11.8100814819 17.3860092163 20.7380580902 20.7354831696 17.3735961914 11.7951745987 5.91214942932 2.31377792358 2.29062891006 5.02940177917 9.71396255493 14.1975097656 16.7533912659 16.7514133453 14.1878681183 9.70174407959 5.01838779449 2.29032039642 2.26563882828 3.83361625671 6.69108915329 9.39775371552 10.960059166 10.9591312408 9.39134788513 6.6834397316 3.82696199417 2.26552319527 
2.26569008827 3.83721399307 6.7007188797 9.41387844086 10.9795084 10.9782676697 9.40793418884 6.69332361221 3.8306286335 2.26557612419 2.29070091248 5.03224754333 9.72092437744 14.2076053619 16.7663917542 16.7643699646 14.1978359222 9.70879554749 5.02127075195 2.2903907299 2.31432175636 5.92805576324 11.8141536713 17.3922920227 20.746635437 20.7439632416 17.3798427582 11.7991847992 5.91396188736 2.31382966042 2.33135533333 6.4589471817 12.9938669205 19.1574420929 22.8941516876 22.8911743164 19.14361763 12.9773578644 6.44311666489 2.33073329926 2.34052371979 6.72515869141 13.5742607117 20.0080165863 23.9071712494 23.9040775299 19.9935817719 13.5570240021 6.70849704742 2.33983182907 2.34051656723 6.72494745255 13.5738039017 20.0073547363 23.9063816071 23.9032917023 19.9929180145 13.5565738678 6.70828866959 2.3398244381 2.33131980896 6.45787715912 12.9914970398 19.1539134979 22.889913559 22.8869361877 19.1401195526 12.9750156403 6.44206428528 2.33069944382 2.31426906586 5.92618227005 11.8100042343 17.385925293 20.7379951477 20.7354164124 17.3735160828 11.7950954437 5.91210412979 2.31377768517 2.29062843323 5.0293507576 9.71387195587 14.1974105835 16.7532939911 16.7513160706 14.1877698898 9.7016544342 5.01833724976 2.290320158 2.2656390667 3.83357071877 6.69100046158 9.39764881134 10.9599437714 10.9590177536 9.39124298096 6.68335056305 3.82691550255 2.26552343369 
2.26569008827 3.83722496033 6.70074415207 9.41391563416 10.9795513153 10.978313446 9.40797233582 6.69334983826 3.83063864708 2.26557636261 2.29070091248 5.03226470947 9.72096061707 14.207654953 16.7664451599 16.7644233704 14.197883606 9.70883274078 5.02128696442 2.29039144516 2.3143222332 5.92807769775 11.814201355 17.3923549652 20.7467060089 20.7440319061 17.379907608 11.7992286682 5.91398382187 2.31383013725 2.33135604858 6.4589715004 12.9939203262 19.1575183868 22.894241333 22.8912658691 19.143693924 12.9774122238 6.44314098358 2.33073425293 2.34052443504 6.72518539429 13.5743188858 20.008102417 23.9072761536 23.9041805267 19.9936676025 13.5570812225 6.70852470398 2.33983230591 2.34051728249 6.72497558594 13.5738630295 20.0074329376 23.9064903259 23.9033966064 19.9930019379 13.5566272736 6.70831680298 2.33982563019 2.3313202858 6.45790290833 12.9915533066 19.1539878845 22.8900032043 22.8870258331 19.1401920319 12.975069046 6.44208908081 2.33069968224 2.31426978111 5.92620325089 11.810051918 17.3859882355 20.7380638123 20.7354850769 17.3735809326 11.7951402664 5.91212654114 2.313778162 2.29062891006 5.02936840057 9.71390914917 14.1974620819 16.7533493042 16.7513713837 14.1878213882 9.70169258118 5.01835393906 2.29032063484 2.2656390667 3.8335814476 6.69102478027 9.39768695831 10.9599895477 10.9590625763 9.3912820816 6.68337678909 3.82692670822 2.2655236721 
2.26569032669 3.83723568916 6.70077085495 9.41395378113 10.979596138 10.9783582687 9.40800952911 6.69337558746 3.83065032959 2.26557660103 2.29070115089 5.03228282928 9.72100067139 14.2077083588 16.766500473 16.7644805908 14.197936058 9.70886993408 5.02130460739 2.29039144516 2.31432294846 5.92809963226 11.8142442703 17.3924198151 20.7467765808 20.744102478 17.3799686432 11.7992773056 5.91400527954 2.31383037567 2.33135652542 6.45899820328 12.993973732 19.1575927734 22.8943309784 22.8913536072 19.1437702179 12.9774665833 6.44316673279 2.33073496819 2.34052491188 6.72521352768 13.5743780136 20.008184433 23.9073867798 23.9042930603 19.9937477112 13.557138443 6.70855236053 2.339833498 2.34051799774 6.72500276566 13.5739221573 20.007516861 23.9066009521 23.9035072327 19.9930839539 13.5566883087 6.70834493637 2.33982634544 2.33132100105 6.45792865753 12.9916086197 19.1540622711 22.8900928497 22.8871135712 19.1402702332 12.9751243591 6.44211483002 2.33070039749 2.31427025795 5.92622566223 11.8100996017 17.3860549927 20.7381362915 20.7355594635 17.3736438751 11.7951879501 5.91214895248 2.31377863884 2.29062891006 5.02938508987 9.71394729614 14.1975135803 16.7534046173 16.7514247894 14.1878728867 9.70173072815 5.01837110519 2.29032063484 2.2656390667 3.83359265327 6.69105148315 9.39772510529 10.9600372314 10.9591083527 9.3913192749 6.68340206146 3.82693791389 2.2655236721 
2.26569032669 3.83724617958 6.70079660416 9.41399288177 10.9796419144 10.9784030914 9.40804767609 6.69340085983 3.83066034317 2.26557660103 2.29070138931 5.03229951859 9.72103786469 14.2077560425 16.7665557861 16.7645359039 14.1979856491 9.70890903473 5.02132177353 2.290391922 2.31432342529 5.92812156677 11.8142929077 17.3924789429 20.7468452454 20.7441730499 17.3800315857 11.7993240356 5.91402721405 2.31383085251 2.3313574791 6.45902347565 12.9940271378 19.15766716 22.8944225311 22.8914432526 19.1438446045 12.977519989 6.44319295883 2.33073568344 2.34052586555 6.72524166107 13.5744361877 20.0082645416 23.9074897766 23.9043960571 19.9938297272 13.5571966171 6.70858049393 2.33983445168 2.34051895142 6.72502994537 13.5739803314 20.0076007843 23.906703949 23.9036140442 19.9931678772 13.5567455292 6.70837116241 2.33982753754 2.33132171631 6.4579539299 12.9916582108 19.1541404724 22.8901844025 22.8872032166 19.1403446198 12.9751777649 6.44214105606 2.33070111275 2.31427049637 5.92624759674 11.8101444244 17.3861160278 20.7382068634 20.7356281281 17.3737068176 11.7952346802 5.91216897964 2.31377863884 2.29062891006 5.02940273285 9.71398258209 14.1975650787 16.7534618378 16.7514839172 14.187921524 9.70176696777 5.01838731766 2.29032111168 2.26563930511 3.83360290527 6.6910777092 9.39776325226 10.9600801468 10.9591522217 9.39135742188 6.68342828751 3.82694816589 2.26552343369 
