13.9441184998 21.7371101379 29.3536376953 37.247959137 45.68409729 54.3375244141 62.7724494934 70.6655197144 78.2820892334 86.0756072998 13.9108047485 21.5229682922 28.6686992645 36.5318565369 45.3958740234 54.6272010803 63.4891777039 71.3495941162 78.4950942993 86.1087875366 13.8957796097 21.3799724579 28.3101539612 36.1243553162 45.2165870667 54.8073883057 63.89686203 71.7077484131 78.6374435425 86.1237335205 13.8870410919 21.3108348846 28.1582717896 35.9507369995 45.1403427124 54.8840179443 64.0705795288 71.8594436646 78.7063751221 86.1324462891 13.8811626434 21.2829990387 28.0898685455 35.8726806641 45.1068153381 54.9176864624 64.1486740112 71.927772522 78.7341079712 86.1383132935 13.8811664581 21.2830123901 28.0899181366 35.8727531433 45.1068458557 54.9176712036 64.1486129761 71.9277267456 78.7341003418 86.1382980347 13.8870601654 21.3109436035 28.158531189 35.9510955811 45.1404724121 54.8838806152 64.0702209473 71.8591918945 78.7062759399 86.1324310303 13.8958024979 21.3802165985 28.3106975555 36.1249809265 45.2170677185 54.8068962097 63.8962593079 71.7072067261 78.6371994019 86.1237258911 13.9108581543 21.5234031677 28.669965744 36.5331001282 45.3964004517 54.6266479492 63.4879608154 71.3483276367 78.4946670532 86.1087341309 13.9442529678 21.7377967834 29.3555793762 37.2503852844 45.6852874756 54.3363876343 62.77003479 70.6636428833 78.2814178467 86.0754699707 
13.9377403259 21.7190895081 29.3242168427 37.1925354004 45.6461791992 54.3756332397 62.8278083801 70.6948776245 78.3000793457 86.0819702148 13.9005832672 21.4913406372 28.584312439 36.3631286621 45.3066635132 54.7168579102 63.6578063965 71.4337463379 78.5266571045 86.1189804077 13.8801202774 21.3267250061 28.1409950256 35.892250061 45.1037483215 54.9207801819 64.1289596558 71.8766021729 78.6904983521 86.1393661499 13.8647766113 21.2379455566 27.9443454742 35.704120636 45.0243873596 55.0005569458 64.3172149658 72.0731124878 78.7789306641 86.1546325684 13.8543901443 21.1994895935 27.8671073914 35.6261978149 44.9917755127 55.0333137512 64.3951797485 72.1503143311 78.8172302246 86.1649627686 13.8544006348 21.1995124817 27.8671607971 35.626247406 44.9918022156 55.0332832336 64.3951339722 72.1502532959 78.8172149658 86.1649703979 13.8648099899 21.2380962372 27.9446582794 35.7044754028 45.0245056152 55.0004119873 64.3168563843 72.072807312 78.7787857056 86.1546020508 13.8801584244 21.3270225525 28.1417236328 35.8929901123 45.1042480469 54.9202690125 64.1282196045 71.8759078979 78.6902008057 86.1393280029 13.900645256 21.4918270111 28.5858001709 36.364616394 45.3073921204 54.7160797119 63.6563720703 71.4322662354 78.5261917114 86.1189117432 13.9378757477 21.7197475433 29.3260993958 37.1952590942 45.6474723816 54.3744125366 62.8250846863 70.6931304932 78.2994689941 86.0818481445 
13.9360284805 21.7143344879 29.3162250519 37.1795768738 45.6382980347 54.3835601807 62.8407478333 70.7028579712 78.3048400879 86.0836868286 13.8978862762 21.4837684631 28.5601100922 36.3036270142 45.2640228271 54.7597045898 63.7172279358 71.457862854 78.5342025757 86.1216659546 13.8760375977 21.3099021912 28.0870418549 35.7627258301 45.0263748169 54.998550415 64.2583084106 71.9303970337 78.7072525024 86.1434402466 13.8591899872 21.2073516846 27.8459911346 35.5261383057 44.93126297 55.0941352844 64.4951324463 72.1712112427 78.8094024658 86.1602020264 13.8477487564 21.1576023102 27.7331085205 35.4271392822 44.8928909302 55.1326789856 64.5942306519 72.284034729 78.8589630127 86.1715927124 13.8477592468 21.1576347351 27.7331924438 35.4272003174 44.8929367065 55.1326446533 64.5941696167 72.2839660645 78.8589248657 86.171585083 13.8592252731 21.2075366974 27.8464279175 35.5265655518 44.9314193726 55.0939598083 64.4947052002 72.1707992554 78.8092269897 86.1601638794 13.8760814667 21.3102226257 28.0878429413 35.7636566162 45.0269241333 54.9979972839 64.2574005127 71.9296340942 78.7069396973 86.1433944702 13.8979492188 21.4842586517 28.561662674 36.3052215576 45.2648696899 54.7588043213 63.7156791687 71.4563293457 78.5337524414 86.1216049194 13.9361600876 21.7149677277 29.3180503845 37.1823806763 45.639591217 54.3823547363 62.8379402161 70.7011871338 78.3042526245 86.0835418701 
13.9355659485 21.7132263184 29.3146400452 37.1772766113 45.6367340088 54.3851242065 62.8430480957 70.7044372559 78.3059539795 86.0841445923 13.8971681595 21.4822349548 28.5547332764 36.2896118164 45.2540435791 54.7697296143 63.7312164307 71.4632263184 78.5357437134 86.1223907471 13.8749074936 21.305606842 28.0720081329 35.7240066528 44.994808197 55.0302734375 64.2969818115 71.9453887939 78.7115249634 86.1445617676 13.8575553894 21.198595047 27.8164787292 35.4534492493 44.8839797974 55.1416549683 64.5677032471 72.200668335 78.8181304932 86.1618347168 13.8456945419 21.1451072693 27.6917572021 35.3344650269 44.8385276794 55.1873283386 64.6868209839 72.3252868652 78.8713989258 86.1736526489 13.8457050323 21.1451473236 27.6918430328 35.3345375061 44.8385696411 55.1872711182 64.6867446899 72.3251800537 78.8713760376 86.1736297607 13.857591629 21.1987915039 27.816942215 35.4539413452 44.8841629028 55.141456604 64.5672149658 72.2001953125 78.8179321289 86.1617965698 13.8749523163 21.3059387207 28.0728435516 35.7250137329 44.9954071045 55.0296592712 64.2959671021 71.9445877075 78.7112121582 86.1445083618 13.8972320557 21.4827251434 28.5563106537 36.2912368774 45.254940033 54.768787384 63.7296447754 71.4616622925 78.5352783203 86.1223220825 13.9356966019 21.713848114 29.316450119 37.180103302 45.6380081177 54.383934021 62.8402099609 70.702796936 78.3053741455 86.0840072632 
13.9354610443 21.7130050659 29.3143920898 37.1769256592 45.6365356445 54.3853302002 62.8433990479 70.7046737671 78.3061676025 86.0842437744 13.8970031738 21.4819717407 28.5537395477 36.2867736816 45.2523155212 54.7714767456 63.7340583801 71.4642105103 78.5360183716 86.1225509644 13.8746328354 21.3046531677 28.0686435699 35.7156867981 44.9874572754 55.037651062 64.305267334 71.9487304688 78.7124633789 86.1448364258 13.8571548462 21.196439743 27.8090267181 35.4337272644 44.8681335449 55.1575775146 64.587387085 72.2080917358 78.820274353 86.1622314453 13.8451824188 21.1419219971 27.6807670593 35.3053855896 44.8180809021 55.2078742981 64.7158584595 72.336227417 78.8745803833 86.1741485596 13.8451919556 21.141960144 27.6808662415 35.3054656982 44.8181343079 55.207824707 64.7157745361 72.3361358643 78.8745498657 86.1741485596 13.8571929932 21.1966400146 27.8094997406 35.4342498779 44.8683357239 55.1573562622 64.5868759155 72.207611084 78.8200836182 86.1621856689 13.8746776581 21.3049888611 28.0694828033 35.7167282104 44.9881057739 55.0369949341 64.3042373657 71.9479217529 78.7121505737 86.1447753906 13.89706707 21.482465744 28.5553131104 36.2884140015 45.2532157898 54.7705116272 63.7324676514 71.4626541138 78.5355377197 86.1224899292 13.9355926514 21.7136230469 29.316192627 37.1797561646 45.6378059387 54.3841362 62.840549469 70.7030563354 78.3056030273 86.0841140747 
13.9354419708 21.7129688263 29.3143615723 37.1768875122 45.6365089417 54.3853530884 62.8434524536 70.7047119141 78.3061904907 86.0842590332 13.8969717026 21.4819335938 28.5535984039 36.2863121033 45.2520370483 54.7717552185 63.7345123291 71.4643630981 78.5360412598 86.1225891113 13.874581337 21.304479599 28.0680274963 35.7143058777 44.9863548279 55.0387611389 64.3066558838 71.9493484497 78.7126541138 86.1448669434 13.8570756912 21.1960144043 27.8075561523 35.4298782349 44.8645515442 55.1611709595 64.5912475586 72.2095489502 78.8207092285 86.1623153687 13.8450832367 21.1412887573 27.6785259247 35.2986984253 44.8126564026 55.2133255005 64.7225189209 72.338470459 78.8752059937 86.1742630005 13.8450937271 21.1413288116 27.6786231995 35.2987861633 44.8127059937 55.2132568359 64.722442627 72.3383636475 78.8751678467 86.1742401123 13.8571119308 21.1962184906 27.8080406189 35.4304161072 44.8647689819 55.160949707 64.5906982422 72.2090759277 78.8205108643 86.1622695923 13.8746271133 21.3048171997 28.0688705444 35.71534729 44.9870147705 55.0381011963 64.3056106567 71.9485473633 78.7123260498 86.1448287964 13.8970355988 21.4824295044 28.5551719666 36.2879562378 45.2529296875 54.7707939148 63.732925415 71.4627990723 78.5355758667 86.1225128174 13.9355716705 21.7135868073 29.3161659241 37.1797142029 45.6377830505 54.3841629028 62.8405990601 70.7030715942 78.3056335449 86.0841293335 
13.9354391098 21.7129631042 29.3143558502 37.1768722534 45.6365089417 54.3853607178 62.8434448242 70.7047195435 78.3062133789 86.0842590332 13.8969669342 21.4819297791 28.553571701 36.2862510681 45.2519989014 54.7717895508 63.7345848083 71.4643783569 78.5360488892 86.1225967407 13.8745737076 21.3044528961 28.0679264069 35.7141113281 44.986240387 55.0388717651 64.3068389893 71.9494552612 78.7126846313 86.1448898315 13.8570623398 21.1959381104 27.8073120117 35.4292793274 44.8640174866 55.1617202759 64.5918426514 72.2098007202 78.8207778931 86.162322998 13.8450670242 21.1411762238 27.6781425476 35.2975387573 44.8116035461 55.2143936157 64.7236785889 72.3388519287 78.875328064 86.1742630005 13.8450756073 21.1412181854 27.6782360077 35.2976226807 44.8116531372 55.2143249512 64.7236022949 72.3387451172 78.8752822876 86.1742401123 13.8570995331 21.1961421967 27.8077907562 35.429813385 44.8642196655 55.1614952087 64.5913085938 72.2093200684 78.8205718994 86.1622848511 13.8746185303 21.3047866821 28.0687656403 35.7151565552 44.986907959 55.0382080078 64.305809021 71.9486541748 78.7123565674 86.1448364258 13.8970308304 21.4824256897 28.5551528931 36.2878990173 45.2528991699 54.7708396912 63.7329902649 71.4627990723 78.5355834961 86.1225280762 13.9355697632 21.7135829926 29.3161621094 37.1797142029 45.6377830505 54.3841705322 62.8406028748 70.7030715942 78.3056411743 86.0841293335 
