1.0 1.00000011921 0.997240185738 1.04157423973 1.09654688835 1.09652268887 1.04148495197 1.00000023842 1.0 1.0 0.999999940395 1.00282478333 1.08058357239 1.18188273907 1.25168335438 1.25166201591 1.18180179596 1.03846311569 1.00278747082 1.0 1.0 1.06085312366 1.1628125906 1.25501358509 1.29750108719 1.29748666286 1.25493371487 1.10995817184 1.06078195572 1.00000011921 1.0 1.09550905228 1.19604349136 1.26960635185 1.30403125286 1.30402064323 1.26953780651 1.14516830444 1.09544563293 1.00000011921 1.0 1.12174618244 1.21775639057 1.28013324738 1.30756425858 1.30755746365 1.28007614613 1.17385268211 1.12168431282 1.00000011921 1.0 1.12173652649 1.21774852276 1.28012597561 1.30758941174 1.30758106709 1.28006696701 1.17384624481 1.12167477608 1.00000011921 1.0 1.09546482563 1.19600832462 1.2695530653 1.30404520035 1.3040317297 1.26948285103 1.14512765408 1.09540200233 1.0 1.0 1.04255354404 1.13416469097 1.23659038544 1.29205024242 1.29204654694 1.23649942875 1.08901405334 1.04248201847 1.00000011921 1.0 1.00278568268 1.08049333096 1.18190681934 1.2517529726 1.2516977787 1.18187773228 1.03838348389 1.00274920464 1.00000011921 1.0 1.00000011921 0.997256100178 1.04146468639 1.09628617764 1.09634149075 1.04134523869 1.00000011921 1.0 0.999999940395 
1.0 1.00000011921 0.997240185738 1.04157423973 1.09654688835 1.09652268887 1.04148495197 1.00000023842 1.0 1.0 0.999999940395 1.00282478333 1.08058357239 1.18188273907 1.26988196373 1.26985740662 1.18180179596 1.03846311569 1.00278747082 1.0 1.0 1.06085312366 1.16281235218 1.2776184082 1.38810443878 1.38808584213 1.27754020691 1.10995817184 1.06078195572 1.00000011921 1.0 1.09550905228 1.19973039627 1.30607974529 1.40702497959 1.40700495243 1.30601322651 1.14516830444 1.09544563293 1.00000011921 1.0 1.12174618244 1.23249387741 1.33801198006 1.42436742783 1.42435264587 1.33795750141 1.17385268211 1.12168431282 1.00000011921 1.0 1.12173652649 1.23248362541 1.33799123764 1.42448222637 1.42446029186 1.33792924881 1.17384624481 1.12167477608 1.00000011921 1.0 1.09546482563 1.19969153404 1.30598855019 1.40714764595 1.40711677074 1.30591642857 1.14512765408 1.09540200233 1.0 1.0 1.04255354404 1.13416469097 1.24026465416 1.34720265865 1.34720027447 1.24017310143 1.08901405334 1.04248201847 1.00000011921 1.0 1.00278568268 1.08049333096 1.18190681934 1.27001214027 1.26993536949 1.18187773228 1.03838348389 1.00274920464 1.00000011921 1.0 1.00000011921 0.997256100178 1.04146468639 1.09628617764 1.09634149075 1.04134523869 1.00000011921 1.0 0.999999940395 
1.0 1.00000011921 0.997240185738 1.04157423973 1.09654688835 1.09652268887 1.04148495197 1.00000023842 1.0 1.0 0.999999940395 1.00282478333 1.08058357239 1.18188273907 1.26988196373 1.26985740662 1.18180179596 1.03846311569 1.00278747082 1.0 1.0 1.06085312366 1.16281235218 1.2776184082 1.39091563225 1.39089727402 1.27754020691 1.10995817184 1.06078195572 1.00000011921 1.0 1.09550905228 1.19973039627 1.30607974529 1.4121118784 1.41209423542 1.30601322651 1.14516830444 1.09544563293 1.00000011921 1.0 1.12174618244 1.23249387741 1.33852314949 1.43418693542 1.43417322636 1.33847033978 1.17385268211 1.12168431282 1.00000011921 1.0 1.12173652649 1.23248362541 1.3385027647 1.43435096741 1.43432784081 1.33844125271 1.17384624481 1.12167477608 1.00000011921 1.0 1.09546482563 1.19969153404 1.30598855019 1.41228747368 1.41225636005 1.30591642857 1.14512765408 1.09540200233 1.0 1.0 1.04255354404 1.13416469097 1.24026465416 1.34720265865 1.34720027447 1.24017310143 1.08901405334 1.04248201847 1.00000011921 1.0 1.00278568268 1.08049333096 1.18190681934 1.27001214027 1.26993536949 1.18187773228 1.03838348389 1.00274920464 1.00000011921 1.0 1.00000011921 0.997256100178 1.04146468639 1.09628617764 1.09634149075 1.04134523869 1.00000011921 1.0 0.999999940395 
1.0 1.00000011921 0.997240185738 1.04157423973 1.09654688835 1.09652268887 1.04148495197 1.00000023842 1.0 1.0 0.999999940395 1.00282478333 1.08058357239 1.18188273907 1.26988196373 1.26985740662 1.18180179596 1.03846311569 1.00278747082 1.0 1.0 1.06085312366 1.16281235218 1.2776184082 1.39091563225 1.39089727402 1.27754020691 1.10995817184 1.06078195572 1.00000011921 1.0 1.09550905228 1.19973039627 1.30607974529 1.41212034225 1.41210269928 1.30601322651 1.14516830444 1.09544563293 1.00000011921 1.0 1.12174618244 1.23249387741 1.33852314949 1.43442523479 1.43441140652 1.33847033978 1.17385268211 1.12168431282 1.00000011921 1.0 1.12173652649 1.23248362541 1.3385027647 1.43459522724 1.43457221985 1.33844125271 1.17384624481 1.12167477608 1.00000011921 1.0 1.09546482563 1.19969153404 1.30598855019 1.4122979641 1.41226673126 1.30591642857 1.14512765408 1.09540200233 1.0 1.0 1.04255354404 1.13416469097 1.24026465416 1.34720265865 1.34720027447 1.24017310143 1.08901405334 1.04248201847 1.00000011921 1.0 1.00278568268 1.08049333096 1.18190681934 1.27001214027 1.26993536949 1.18187773228 1.03838348389 1.00274920464 1.00000011921 1.0 1.00000011921 0.997256100178 1.04146468639 1.09628617764 1.09634149075 1.04134523869 1.00000011921 1.0 0.999999940395 
1.0 1.00000011921 0.997240185738 1.04157423973 1.09654688835 1.09652268887 1.04148495197 1.00000023842 1.0 1.0 0.999999940395 1.00282478333 1.08058357239 1.18188273907 1.26988196373 1.26985740662 1.18180179596 1.03846311569 1.00278747082 1.0 1.0 1.06085312366 1.16281235218 1.2776184082 1.39091563225 1.39089727402 1.27754020691 1.10995817184 1.06078195572 1.00000011921 1.0 1.09550905228 1.19973039627 1.30607974529 1.41212391853 1.41210603714 1.30601322651 1.14516830444 1.09544563293 1.00000011921 1.0 1.12174618244 1.23249387741 1.33852314949 1.43443477154 1.43442106247 1.33847033978 1.17385268211 1.12168431282 1.00000011921 1.0 1.12173652649 1.23248362541 1.3385027647 1.4346050024 1.43458211422 1.33844125271 1.17384624481 1.12167477608 1.00000011921 1.0 1.09546482563 1.19969153404 1.30598855019 1.41230213642 1.41227126122 1.30591642857 1.14512765408 1.09540200233 1.0 1.0 1.04255354404 1.13416469097 1.24026465416 1.34720265865 1.34720027447 1.24017310143 1.08901405334 1.04248201847 1.00000011921 1.0 1.00278568268 1.08049333096 1.18190681934 1.27001214027 1.26993536949 1.18187773228 1.03838348389 1.00274920464 1.00000011921 1.0 1.00000011921 0.997256100178 1.04146468639 1.09628617764 1.09634149075 1.04134523869 1.00000011921 1.0 0.999999940395 
1.0 1.00000011921 0.997240185738 1.04157423973 1.09654688835 1.09652268887 1.04148495197 1.00000023842 1.0 1.0 0.999999940395 1.00282478333 1.08058357239 1.18188273907 1.26988196373 1.26985740662 1.18180179596 1.03846311569 1.00278747082 1.0 1.0 1.06085312366 1.16281235218 1.2776184082 1.39091563225 1.39089727402 1.27754020691 1.10995817184 1.06078195572 1.00000011921 1.0 1.09550905228 1.19973039627 1.30607974529 1.41213011742 1.41211223602 1.30601322651 1.14516830444 1.09544563293 1.00000011921 1.0 1.12174618244 1.23249387741 1.33852314949 1.43444371223 1.43442988396 1.33847033978 1.17385268211 1.12168431282 1.00000011921 1.0 1.12173652649 1.23248362541 1.3385027647 1.4346139431 1.43459069729 1.33844125271 1.17384624481 1.12167477608 1.00000011921 1.0 1.09546482563 1.19969153404 1.30598855019 1.41230940819 1.41227829456 1.30591642857 1.14512765408 1.09540200233 1.0 1.0 1.04255354404 1.13416469097 1.24026465416 1.34720265865 1.34720027447 1.24017310143 1.08901405334 1.04248201847 1.00000011921 1.0 1.00278568268 1.08049333096 1.18190681934 1.27001214027 1.26993536949 1.18187773228 1.03838348389 1.00274920464 1.00000011921 1.0 1.00000011921 0.997256100178 1.04146468639 1.09628617764 1.09634149075 1.04134523869 1.00000011921 1.0 0.999999940395 
1.0 1.00000011921 0.997240185738 1.04157423973 1.09654688835 1.09652268887 1.04148495197 1.00000023842 1.0 1.0 0.999999940395 1.00282478333 1.08058357239 1.18188273907 1.26988196373 1.26985740662 1.18180179596 1.03846311569 1.00278747082 1.0 1.0 1.06085312366 1.16281235218 1.2776184082 1.39091444016 1.39089632034 1.27754020691 1.10995817184 1.06078195572 1.00000011921 1.0 1.09550905228 1.19973039627 1.30607974529 1.41213786602 1.41211998463 1.30601322651 1.14516830444 1.09544563293 1.00000011921 1.0 1.12174618244 1.23249387741 1.33852314949 1.43445241451 1.43443858624 1.33847033978 1.17385268211 1.12168431282 1.00000011921 1.0 1.12173652649 1.23248362541 1.3385027647 1.43462264538 1.43459963799 1.33844125271 1.17384624481 1.12167477608 1.00000011921 1.0 1.09546482563 1.19969153404 1.30598855019 1.41231703758 1.41228616238 1.30591642857 1.14512765408 1.09540200233 1.0 1.0 1.04255354404 1.13416469097 1.24026465416 1.34720265865 1.34720027447 1.24017310143 1.08901405334 1.04248201847 1.00000011921 1.0 1.00278568268 1.08049333096 1.18190681934 1.27001214027 1.26993536949 1.18187773228 1.03838348389 1.00274920464 1.00000011921 1.0 1.00000011921 0.997256100178 1.04146468639 1.09628617764 1.09634149075 1.04134523869 1.00000011921 1.0 0.999999940395 
