1.0 1.00000011921 1.00000023842 1.00130939484 1.05221772194 1.05220842361 1.00129592419 1.00000023842 1.0 1.0 0.999999940395 1.00000011921 1.05027389526 1.16606545448 1.26368606091 1.26367521286 1.16602218151 1.00005614758 1.0 1.0 1.0 1.01920974255 1.16941452026 1.28668558598 1.37565481663 1.37563920021 1.28664207458 1.08682143688 1.01912438869 1.00000011921 1.0 1.06444275379 1.21238791943 1.3206294775 1.39466297626 1.3946518898 1.32058310509 1.13335907459 1.06437337399 1.00000011921 1.0 1.1025878191 1.25109887123 1.347001791 1.40627276897 1.40626490116 1.34695959091 1.17314934731 1.10252094269 1.00000011921 1.0 1.10258066654 1.25108993053 1.34698426723 1.40632581711 1.40631473064 1.34693813324 1.17314553261 1.10251379013 1.00000011921 1.0 1.06440496445 1.21234953403 1.32055699825 1.39472019672 1.39470386505 1.3205063343 1.13332629204 1.06433641911 1.0 1.0 1.00007343292 1.12161946297 1.24263584614 1.34580600262 1.34579849243 1.24258184433 1.04185640812 1.00007212162 1.00000011921 1.0 1.0 1.05017006397 1.16606676579 1.26369857788 1.26364827156 1.16605210304 1.00005114079 1.0 1.00000011921 1.0 1.00000011921 1.00000011921 1.00125777721 1.05217969418 1.05226492882 1.00122690201 1.00000011921 1.0 0.999999940395 
1.0 1.00000011921 1.00000023842 1.00130939484 1.05221772194 1.05220842361 1.00129592419 1.00000023842 1.0 1.0 0.999999940395 1.00000011921 1.05027389526 1.16606545448 1.26368606091 1.26367521286 1.16602218151 1.00005614758 1.0 1.0 1.0 1.01920974255 1.16941452026 1.28668558598 1.38521778584 1.38520526886 1.28664207458 1.08682143688 1.01912438869 1.00000011921 1.0 1.06444275379 1.21238791943 1.32192873955 1.41358685493 1.41357815266 1.32188439369 1.13335907459 1.06437337399 1.00000011921 1.0 1.1025878191 1.25118637085 1.35410165787 1.4368288517 1.43682420254 1.35406339169 1.17314934731 1.10252094269 1.00000011921 1.0 1.10258066654 1.25117743015 1.35408139229 1.43691968918 1.4369096756 1.35403764248 1.17314553261 1.10251379013 1.00000011921 1.0 1.06440496445 1.21234953403 1.32185387611 1.41367805004 1.41366231441 1.32180440426 1.13332629204 1.06433641911 1.0 1.0 1.00007343292 1.12161946297 1.24263584614 1.34650206566 1.34649550915 1.24258184433 1.04185640812 1.00007212162 1.00000011921 1.0 1.0 1.05017006397 1.16606676579 1.26369857788 1.26364827156 1.16605210304 1.00005114079 1.0 1.00000011921 1.0 1.00000011921 1.00000011921 1.00125777721 1.05217969418 1.05226492882 1.00122690201 1.00000011921 1.0 0.999999940395 
1.0 1.00000011921 1.00000023842 1.00130939484 1.05221772194 1.05220842361 1.00129592419 1.00000023842 1.0 1.0 0.999999940395 1.00000011921 1.05027389526 1.16606545448 1.26368606091 1.26367521286 1.16602218151 1.00005614758 1.0 1.0 1.0 1.01920974255 1.16941452026 1.28668558598 1.38521778584 1.38520526886 1.28664207458 1.08682143688 1.01912438869 1.00000011921 1.0 1.06444275379 1.21238791943 1.32192873955 1.41358685493 1.41357815266 1.32188439369 1.13335907459 1.06437337399 1.00000011921 1.0 1.1025878191 1.25118637085 1.35410165787 1.4368288517 1.43682420254 1.35406339169 1.17314934731 1.10252094269 1.00000011921 1.0 1.10258066654 1.25117743015 1.35408139229 1.43691968918 1.4369096756 1.35403764248 1.17314553261 1.10251379013 1.00000011921 1.0 1.06440496445 1.21234953403 1.32185387611 1.41367805004 1.41366231441 1.32180440426 1.13332629204 1.06433641911 1.0 1.0 1.00007343292 1.12161946297 1.24263584614 1.34650206566 1.34649550915 1.24258184433 1.04185640812 1.00007212162 1.00000011921 1.0 1.0 1.05017006397 1.16606676579 1.26369857788 1.26364827156 1.16605210304 1.00005114079 1.0 1.00000011921 1.0 1.00000011921 1.00000011921 1.00125777721 1.05217969418 1.05226492882 1.00122690201 1.00000011921 1.0 0.999999940395 
1.0 1.00000011921 1.00000023842 1.00130939484 1.05221772194 1.05220842361 1.00129592419 1.00000023842 1.0 1.0 0.999999940395 1.00000011921 1.05027389526 1.16606545448 1.26368606091 1.26367521286 1.16602218151 1.00005614758 1.0 1.0 1.0 1.01920974255 1.16941452026 1.28668558598 1.38521778584 1.38520526886 1.28664207458 1.08682143688 1.01912438869 1.00000011921 1.0 1.06444275379 1.21238791943 1.32192873955 1.41358685493 1.41357815266 1.32188439369 1.13335907459 1.06437337399 1.00000011921 1.0 1.1025878191 1.25118637085 1.35410165787 1.4368288517 1.43682420254 1.35406339169 1.17314934731 1.10252094269 1.00000011921 1.0 1.10258066654 1.25117743015 1.35408139229 1.43691968918 1.4369096756 1.35403764248 1.17314553261 1.10251379013 1.00000011921 1.0 1.06440496445 1.21234953403 1.32185387611 1.41367805004 1.41366231441 1.32180440426 1.13332629204 1.06433641911 1.0 1.0 1.00007343292 1.12161946297 1.24263584614 1.34650206566 1.34649550915 1.24258184433 1.04185640812 1.00007212162 1.00000011921 1.0 1.0 1.05017006397 1.16606676579 1.26369857788 1.26364827156 1.16605210304 1.00005114079 1.0 1.00000011921 1.0 1.00000011921 1.00000011921 1.00125777721 1.05217969418 1.05226492882 1.00122690201 1.00000011921 1.0 0.999999940395 
1.0 1.00000011921 1.00000023842 1.00130939484 1.05221772194 1.05220842361 1.00129592419 1.00000023842 1.0 1.0 0.999999940395 1.00000011921 1.05027389526 1.16606545448 1.26368606091 1.26367521286 1.16602218151 1.00005614758 1.0 1.0 1.0 1.01920974255 1.16941452026 1.28668558598 1.38521778584 1.38520526886 1.28664207458 1.08682143688 1.01912438869 1.00000011921 1.0 1.06444275379 1.21238791943 1.32192873955 1.41358685493 1.41357815266 1.32188439369 1.13335907459 1.06437337399 1.00000011921 1.0 1.1025878191 1.25118637085 1.35410165787 1.4368288517 1.43682420254 1.35406339169 1.17314934731 1.10252094269 1.00000011921 1.0 1.10258066654 1.25117743015 1.35408139229 1.43691968918 1.4369096756 1.35403764248 1.17314553261 1.10251379013 1.00000011921 1.0 1.06440496445 1.21234953403 1.32185387611 1.41367805004 1.41366231441 1.32180440426 1.13332629204 1.06433641911 1.0 1.0 1.00007343292 1.12161946297 1.24263584614 1.34650206566 1.34649550915 1.24258184433 1.04185640812 1.00007212162 1.00000011921 1.0 1.0 1.05017006397 1.16606676579 1.26369857788 1.26364827156 1.16605210304 1.00005114079 1.0 1.00000011921 1.0 1.00000011921 1.00000011921 1.00125777721 1.05217969418 1.05226492882 1.00122690201 1.00000011921 1.0 0.999999940395 
1.0 1.00000011921 1.00000023842 1.00130939484 1.05221772194 1.05220842361 1.00129592419 1.00000023842 1.0 1.0 0.999999940395 1.00000011921 1.05027389526 1.16606545448 1.26368606091 1.26367521286 1.16602218151 1.00005614758 1.0 1.0 1.0 1.01920974255 1.16941452026 1.28668558598 1.38521778584 1.38520526886 1.28664207458 1.08682143688 1.01912438869 1.00000011921 1.0 1.06444275379 1.21238791943 1.32192873955 1.41358685493 1.41357815266 1.32188439369 1.13335907459 1.06437337399 1.00000011921 1.0 1.1025878191 1.25118637085 1.35410165787 1.4368288517 1.43682420254 1.35406339169 1.17314934731 1.10252094269 1.00000011921 1.0 1.10258066654 1.25117743015 1.35408139229 1.43691968918 1.4369096756 1.35403764248 1.17314553261 1.10251379013 1.00000011921 1.0 1.06440496445 1.21234953403 1.32185387611 1.41367805004 1.41366231441 1.32180440426 1.13332629204 1.06433641911 1.0 1.0 1.00007343292 1.12161946297 1.24263584614 1.34650206566 1.34649550915 1.24258184433 1.04185640812 1.00007212162 1.00000011921 1.0 1.0 1.05017006397 1.16606676579 1.26369857788 1.26364827156 1.16605210304 1.00005114079 1.0 1.00000011921 1.0 1.00000011921 1.00000011921 1.00125777721 1.05217969418 1.05226492882 1.00122690201 1.00000011921 1.0 0.999999940395 
1.0 1.00000011921 1.00000023842 1.00130939484 1.05221772194 1.05220842361 1.00129592419 1.00000023842 1.0 1.0 0.999999940395 1.00000011921 1.05027389526 1.16606545448 1.26368606091 1.26367521286 1.16602218151 1.00005614758 1.0 1.0 1.0 1.01920974255 1.16941452026 1.28668558598 1.38521778584 1.38520526886 1.28664207458 1.08682143688 1.01912438869 1.00000011921 1.0 1.06444275379 1.21238791943 1.32192873955 1.41358685493 1.41357815266 1.32188439369 1.13335907459 1.06437337399 1.00000011921 1.0 1.1025878191 1.25118637085 1.35410165787 1.4368288517 1.43682420254 1.35406339169 1.17314934731 1.10252094269 1.00000011921 1.0 1.10258066654 1.25117743015 1.35408139229 1.43691968918 1.4369096756 1.35403764248 1.17314553261 1.10251379013 1.00000011921 1.0 1.06440496445 1.21234953403 1.32185387611 1.41367805004 1.41366231441 1.32180440426 1.13332629204 1.06433641911 1.0 1.0 1.00007343292 1.12161946297 1.24263584614 1.34650206566 1.34649550915 1.24258184433 1.04185640812 1.00007212162 1.00000011921 1.0 1.0 1.05017006397 1.16606676579 1.26369857788 1.26364827156 1.16605210304 1.00005114079 1.0 1.00000011921 1.0 1.00000011921 1.00000011921 1.00125777721 1.05217969418 1.05226492882 1.00122690201 1.00000011921 1.0 0.999999940395 
