13.9406967163 21.7295780182 29.3646278381 37.2043647766 45.6348686218 54.387008667 62.8158416748 70.6544876099 78.2896499634 86.0790328979 13.9032058716 21.4959926605 28.5711898804 36.1997947693 45.2048225403 54.8191986084 63.8209266663 71.4465713501 78.5220870972 86.116355896 13.8785142899 21.3171443939 28.0120849609 35.5935630798 44.9268188477 55.0985946655 64.4273071289 72.0051269531 78.6997756958 86.1409683228 13.8610696793 21.1847038269 27.7435569763 35.3201522827 44.8141479492 55.2118263245 64.7008972168 72.2734375 78.831817627 86.1583328247 13.847363472 21.1181221008 27.6190013885 35.2039718628 44.7706413269 55.2555427551 64.8171920776 72.3979034424 78.8982086182 86.1719665527 13.8473777771 21.1181640625 27.6190814972 35.2040367126 44.770690918 55.2554931641 64.8171234131 72.3978347778 78.8981628418 86.1719665527 13.8611164093 21.1849517822 27.7440090179 35.3206253052 44.8143119812 55.2116394043 64.7004165649 72.2729949951 78.8315734863 86.1582794189 13.8785591125 21.3175106049 28.012966156 35.5946159363 44.9274711609 55.0979118347 64.4262619019 72.0042953491 78.699432373 86.1408996582 13.9032745361 21.4964523315 28.5730361938 36.201587677 45.2059249878 54.8179855347 63.8192138672 71.4447555542 78.5216674805 86.1162948608 13.9408254623 21.7301940918 29.3662986755 37.2075691223 45.6362037659 54.3857536316 62.8126144409 70.6530303955 78.2890930176 86.0789108276 
13.9408988953 21.7313861847 29.3701877594 37.2113800049 45.6381225586 54.3837356567 62.8088264465 70.6489334106 78.2878417969 86.0788345337 13.9034605026 21.5004920959 28.5831165314 36.2100944519 45.2085189819 54.8154907227 63.8106079102 71.4346618652 78.5176010132 86.1161117554 13.8788890839 21.3237342834 28.0283374786 35.6071205139 44.9300079346 55.0953903198 64.4137268066 71.9888687134 78.6932220459 86.1405944824 13.8615961075 21.192937851 27.7625179291 35.3313903809 44.8107948303 55.2152061462 64.6896133423 72.254486084 78.8236083984 86.1578063965 13.8479833603 21.1273155212 27.639295578 35.2104454041 44.7619094849 55.2643203735 64.8106307983 72.3776245117 78.8890457153 86.1713562012 13.8479957581 21.1273593903 27.6393795013 35.2105178833 44.7619628906 55.2642593384 64.8105621338 72.3775405884 78.8890075684 86.1713485718 13.8616409302 21.1931838989 27.762966156 35.3318786621 44.8109779358 55.2149848938 64.6891174316 72.2540512085 78.8233795166 86.1577606201 13.8789358139 21.324092865 28.0292072296 35.6081695557 44.930683136 55.0946922302 64.4126815796 71.988067627 78.6928787231 86.1405334473 13.9035282135 21.5009384155 28.584941864 36.2118873596 45.2096328735 54.8142623901 63.8089065552 71.4328765869 78.5171966553 86.1160583496 13.9410257339 21.7319831848 29.3718223572 37.2145843506 45.6394348145 54.3825187683 62.8055953979 70.6475372314 78.287322998 86.078704834 
13.9408979416 21.7313919067 29.3701992035 37.2113990784 45.638130188 54.3837356567 62.8087997437 70.6489181519 78.2878417969 86.0788345337 13.90346241 21.5005016327 28.5831356049 36.2101211548 45.2085342407 54.8154754639 63.8105812073 71.4346313477 78.5175933838 86.1161117554 13.8788909912 21.3237457275 28.028383255 35.6071624756 44.9300308228 55.095375061 64.4136886597 71.9888305664 78.6932067871 86.1405944824 13.8615970612 21.1929588318 27.7625732422 35.3314361572 44.8108139038 55.2151870728 64.6895675659 72.2544326782 78.8235778809 86.1578063965 13.8479862213 21.1273403168 27.6393470764 35.2104988098 44.7619285583 55.2642974854 64.8105773926 72.3775787354 78.8890304565 86.1713562012 13.8479976654 21.1273803711 27.6394329071 35.2105636597 44.7619781494 55.2642364502 64.8105010986 72.3774871826 78.8889846802 86.1713485718 13.8616428375 21.1931991577 27.7630119324 35.3319282532 44.8109970093 55.2149658203 64.6890716553 72.2539978027 78.8233566284 86.1577606201 13.8789377213 21.3241100311 28.0292568207 35.6082115173 44.9306983948 55.0946731567 64.4126434326 71.9880371094 78.6928634644 86.1405334473 13.9035282135 21.5009460449 28.5849704742 36.2119140625 45.2096481323 54.8142471313 63.8088760376 71.4328384399 78.5171813965 86.1160583496 13.9410247803 21.7319908142 29.3718395233 37.2146034241 45.6394424438 54.3825111389 62.8055801392 70.6475296021 78.2873153687 86.078704834 
13.9408988953 21.7313899994 29.3701934814 37.211391449 45.6381225586 54.3837280273 62.8088150024 70.6489334106 78.2878417969 86.0788345337 13.9034605026 21.5004959106 28.5831222534 36.210105896 45.2085227966 54.815486908 63.8105964661 71.4346466064 78.5175933838 86.1161117554 13.8788900375 21.3237380981 28.0283584595 35.6071357727 44.9300117493 55.0953826904 64.4137115479 71.988861084 78.6932144165 86.1405944824 13.8615970612 21.192949295 27.7625427246 35.331413269 44.810798645 55.2151985168 64.6895828247 72.2544555664 78.8236083984 86.1578063965 13.8479852676 21.1273269653 27.6393203735 35.2104721069 44.7619132996 55.2643203735 64.8106079102 72.3775939941 78.8890457153 86.1713562012 13.8479976654 21.127368927 27.6394023895 35.2105407715 44.7619667053 55.264251709 64.810546875 72.3775177002 78.888999939 86.1713485718 13.8616428375 21.1931877136 27.7629852295 35.3319015503 44.8109893799 55.214969635 64.6890945435 72.2540283203 78.8233642578 86.1577606201 13.8789367676 21.3241024017 28.0292339325 35.6081886292 44.9306945801 55.0946846008 64.4126586914 71.9880523682 78.6928710938 86.1405334473 13.9035282135 21.5009422302 28.5849533081 36.2118988037 45.2096443176 54.8142547607 63.8088874817 71.4328536987 78.5172042847 86.1160583496 13.9410257339 21.7319850922 29.3718261719 37.21459198 45.6394348145 54.3825187683 62.8055877686 70.6475372314 78.2873153687 86.078704834 
13.9408988953 21.7313861847 29.3701839447 37.2113800049 45.6381225586 54.3837356567 62.8088226318 70.64894104 78.2878417969 86.0788345337 13.9034585953 21.5004882812 28.5831127167 36.2100944519 45.2085189819 54.8154907227 63.8106079102 71.4346618652 78.5176010132 86.1161117554 13.8788881302 21.3237304688 28.0283374786 35.6071205139 44.9300079346 55.0953979492 64.413734436 71.9888763428 78.6932220459 86.1405944824 13.8615951538 21.1929359436 27.7625160217 35.3313865662 44.8107948303 55.2152099609 64.6896133423 72.2544784546 78.8236160278 86.1578063965 13.8479833603 21.1273117065 27.639289856 35.2104454041 44.7619094849 55.2643203735 64.8106384277 72.3776245117 78.8890533447 86.1713562012 13.8479967117 21.1273555756 27.6393756866 35.2105140686 44.7619590759 55.2642669678 64.8105621338 72.3775558472 78.8890075684 86.1713485718 13.8616409302 21.1931781769 27.7629566193 35.3318786621 44.8109779358 55.2149848938 64.6891174316 72.2540512085 78.8233795166 86.1577606201 13.8789358139 21.324092865 28.0292110443 35.6081619263 44.930683136 55.0946884155 64.4126815796 71.988067627 78.6928863525 86.1405334473 13.9035282135 21.5009365082 28.584941864 36.2118835449 45.2096290588 54.8142623901 63.8089141846 71.4328842163 78.5171966553 86.1160507202 13.9410257339 21.7319831848 29.3718204498 37.2145843506 45.6394309998 54.3825263977 62.8055992126 70.6475372314 78.287322998 86.078704834 
13.9408979416 21.73138237 29.370174408 37.2113761902 45.6381225586 54.3837356567 62.8088188171 70.64894104 78.2878417969 86.0788345337 13.903459549 21.5004844666 28.5830974579 36.2100791931 45.2085113525 54.8154945374 63.8106307983 71.4346847534 78.517616272 86.1161117554 13.8788881302 21.3237190247 28.0283107758 35.6070976257 44.9299964905 55.0954017639 64.4137496948 71.9888916016 78.6932296753 86.1405944824 13.8615961075 21.1929264069 27.7624893188 35.3313598633 44.8107833862 55.215221405 64.6896438599 72.2545013428 78.8236236572 86.1577987671 13.8479833603 21.1273021698 27.639257431 35.2104148865 44.7619018555 55.2643318176 64.8106765747 72.3776626587 78.8890762329 86.1713562012 13.8479957581 21.1273422241 27.6393432617 35.210483551 44.7619476318 55.2642784119 64.8105926514 72.3775787354 78.8890228271 86.1713485718 13.8616390228 21.1931648254 27.7629299164 35.3318481445 44.8109703064 55.2150001526 64.6891403198 72.2540817261 78.8233947754 86.1577606201 13.8789339066 21.3240814209 28.0291881561 35.6081466675 44.9306755066 55.0947036743 64.4127044678 71.9880981445 78.6928939819 86.1405410767 13.9035282135 21.5009307861 28.5849266052 36.2118682861 45.2096290588 54.8142585754 63.8089294434 71.4328842163 78.5172119141 86.1160507202 13.9410247803 21.7319831848 29.3718147278 37.2145767212 45.6394233704 54.3825263977 62.8055992126 70.6475372314 78.287322998 86.078704834 
13.9408969879 21.73138237 29.3701667786 37.2113609314 45.6381149292 54.3837394714 62.8088378906 70.6489486694 78.2878570557 86.0788345337 13.903459549 21.5004825592 28.5830764771 36.2100639343 45.2085037231 54.8154983521 63.8106460571 71.4346847534 78.5176086426 86.1161270142 13.8788881302 21.3237113953 28.028295517 35.6070747375 44.9299888611 55.095413208 64.413772583 71.9889221191 78.6932373047 86.1405944824 13.8615932465 21.1929149628 27.7624607086 35.3313369751 44.8107757568 55.2152252197 64.689666748 72.2545394897 78.8236312866 86.1578063965 13.8479824066 21.1272888184 27.6392288208 35.2103881836 44.7618904114 55.2643432617 64.8106994629 72.3777008057 78.8890838623 86.1713638306 13.8479957581 21.12733078 27.6393127441 35.2104530334 44.7619400024 55.2642822266 64.8106231689 72.3776016235 78.8890304565 86.1713485718 13.8616390228 21.193157196 27.7629051208 35.3318252563 44.8109550476 55.2150039673 64.6891708374 72.2541122437 78.8234024048 86.1577606201 13.8789329529 21.3240756989 28.0291614532 35.6081237793 44.9306716919 55.0947036743 64.4127197266 71.9881057739 78.6928939819 86.1405410767 13.9035263062 21.5009269714 28.5849113464 36.211856842 45.2096252441 54.8142776489 63.8089332581 71.4328994751 78.5172119141 86.1160507202 13.9410257339 21.7319793701 29.3718090057 37.2145652771 45.6394195557 54.3825187683 62.8056182861 70.6475524902 78.2873153687 86.078704834 
