13.9369487762 21.7175674438 29.3306236267 37.1802177429 45.6341934204 54.3876838684 62.8400650024 70.6884536743 78.3016281128 86.0827636719 13.8984260559 21.4888515472 28.5551567078 36.2730522156 45.2453231812 54.7785072327 63.7477760315 71.4627609253 78.5291442871 86.121131897 13.8761091232 21.3121414185 28.066110611 35.7041664124 44.9824371338 55.0427055359 64.3167648315 71.9512481689 78.7049484253 86.1433486938 13.8578310013 21.2019786835 27.813955307 35.4328269958 44.8692398071 55.1564788818 64.5882873535 72.2031478882 78.8147277832 86.1615524292 13.8451023102 21.1481018066 27.6910820007 35.3127670288 44.8227729797 55.203163147 64.7084579468 72.3259048462 78.8683929443 86.1742248535 13.8451137543 21.1481380463 27.6911735535 35.3128395081 44.8228187561 55.2031021118 64.7083969116 72.3258285522 78.8683624268 86.1742095947 13.8578720093 21.2021808624 27.8144111633 35.4333229065 44.8694229126 55.1562728882 64.5877838135 72.2027130127 78.8145294189 86.1615219116 13.8761548996 21.3124847412 28.0669345856 35.7051849365 44.9830627441 55.0420761108 64.3157730103 71.9504547119 78.7046127319 86.1433258057 13.8984928131 21.4893341064 28.5567970276 36.2746925354 45.2462463379 54.7775192261 63.7461853027 71.4611282349 78.528678894 86.1210632324 13.9370794296 21.7181911469 29.3323974609 37.183139801 45.6354789734 54.3864974976 62.8371238708 70.6868667603 78.3010635376 86.0826263428 
13.9368610382 21.717458725 29.3306770325 37.1802635193 45.6341934204 54.3876800537 62.8400192261 70.6884002686 78.3017272949 86.0828399658 13.8982858658 21.4888515472 28.554901123 36.2710647583 45.2439842224 54.7798461914 63.7497406006 71.4630126953 78.5291366577 86.1212615967 13.8758859634 21.3116340637 28.063911438 35.6975708008 44.9761924744 55.0489730835 64.3233566284 71.9534454346 78.7054595947 86.1435852051 13.85750103 21.2004947662 27.8082542419 35.4155197144 44.8542823792 55.171497345 64.6055603027 72.2088394165 78.8162002563 86.1618881226 13.8446826935 21.1457672119 27.6822414398 35.2856407166 44.8024139404 55.223613739 64.7355270386 72.3347244263 78.8707351685 86.1746444702 13.8446941376 21.1458034515 27.6823387146 35.2857246399 44.8024749756 55.2235565186 64.735458374 72.3346328735 78.8706893921 86.1746368408 13.857542038 21.2006988525 27.8087177277 35.416053772 44.8544883728 55.1712722778 64.6050262451 72.2083740234 78.8160018921 86.1618423462 13.8759317398 21.3119831085 28.0647449493 35.6986198425 44.9768753052 55.048286438 64.3223190308 71.9526443481 78.705116272 86.1435317993 13.898355484 21.4893360138 28.5565452576 36.2727279663 45.2449226379 54.7788505554 63.7481498718 71.4613723755 78.5286712646 86.1212234497 13.9369916916 21.7180786133 29.3324451447 37.1831893921 45.635471344 54.3865013123 62.8370666504 70.6868057251 78.3011703491 86.0827102661 
13.9368619919 21.717458725 29.3306713104 37.1802597046 45.6341896057 54.3876800537 62.8400230408 70.6884078979 78.3017349243 86.0828399658 13.8982868195 21.4888458252 28.5548877716 36.2710533142 45.2439842224 54.7798500061 63.7497520447 71.4630203247 78.5291442871 86.1212615967 13.8758831024 21.3116283417 28.0638999939 35.6975517273 44.9761772156 55.048992157 64.323387146 71.9534683228 78.7054672241 86.1435852051 13.8574972153 21.2004852295 27.808221817 35.4154510498 44.8542404175 55.171546936 64.6056213379 72.2088699341 78.8162155151 86.1618881226 13.8446817398 21.1457519531 27.6821899414 35.2855262756 44.8023223877 55.2237129211 64.7356643677 72.3347854614 78.8707351685 86.1746520996 13.8446903229 21.1457901001 27.6822872162 35.2856025696 44.8023681641 55.2236480713 64.7355651855 72.3346786499 78.8706970215 86.1746444702 13.8575401306 21.2006893158 27.8086833954 35.4159812927 44.8544464111 55.1713180542 64.6050796509 72.208404541 78.8160095215 86.1618423462 13.8759298325 21.3119754791 28.0647220612 35.6985969543 44.9768600464 55.0483016968 64.3223571777 71.9526596069 78.705116272 86.1435394287 13.8983535767 21.4893341064 28.5565414429 36.2727165222 45.2449150085 54.7788543701 63.7481536865 71.4613876343 78.5286865234 86.1212234497 13.9369916916 21.7180786133 29.3324451447 37.1831932068 45.6354751587 54.386505127 62.8370780945 70.6868057251 78.3011779785 86.0827102661 
13.9368619919 21.7174568176 29.330663681 37.1802520752 45.6341896057 54.3876876831 62.8400344849 70.6884078979 78.3017349243 86.0828399658 13.8982868195 21.4888420105 28.5548801422 36.2710418701 45.2439727783 54.7798576355 63.7497634888 71.4630355835 78.5291442871 86.1212615967 13.8758840561 21.3116226196 28.0638809204 35.6975288391 44.9761772156 55.048992157 64.3234024048 71.9534683228 78.7054748535 86.1435852051 13.8574972153 21.2004737854 27.8081951141 35.4154205322 44.854221344 55.1715621948 64.6056518555 72.2088928223 78.8162231445 86.1618881226 13.8446817398 21.1457424164 27.6821613312 35.2854804993 44.8022994995 55.2237319946 64.7356872559 72.334815979 78.8707580566 86.1746520996 13.8446903229 21.1457767487 27.6822605133 35.2855606079 44.80235672 55.2236709595 64.7356109619 72.3347167969 78.8707122803 86.1746444702 13.8575401306 21.2006797791 27.8086566925 35.4159545898 44.8544273376 55.1713294983 64.6051101685 72.2084350586 78.8160247803 86.161857605 13.8759298325 21.3119697571 28.0647068024 35.6985740662 44.9768562317 55.0483093262 64.3223648071 71.9526901245 78.7051315308 86.1435394287 13.8983535767 21.4893283844 28.5565242767 36.2727088928 45.2449150085 54.7788619995 63.7481689453 71.4613952637 78.5286865234 86.1212234497 13.9369907379 21.7180747986 29.3324451447 37.1831855774 45.6354675293 54.386505127 62.8370857239 70.6868209839 78.3011779785 86.0827102661 
13.9368619919 21.7174530029 29.330663681 37.1802444458 45.6341896057 54.3876914978 62.8400421143 70.6884155273 78.3017349243 86.0828399658 13.8982868195 21.4888381958 28.5548667908 36.2710342407 45.2439727783 54.7798614502 63.7497787476 71.4630279541 78.5291519165 86.1212615967 13.8758840561 21.3116149902 28.0638656616 35.6975135803 44.9761619568 55.048992157 64.323425293 71.9534912109 78.7054748535 86.1435852051 13.8574972153 21.2004680634 27.808172226 35.4153938293 44.8541984558 55.1715812683 64.605682373 72.2089233398 78.8162307739 86.1618881226 13.8446788788 21.1457309723 27.6821346283 35.2854423523 44.802280426 55.2237472534 64.7357406616 72.3348236084 78.870765686 86.1746520996 13.8446884155 21.1457653046 27.6822338104 35.2855224609 44.8023414612 55.2236824036 64.7356491089 72.3347320557 78.8707275391 86.1746444702 13.8575382233 21.2006702423 27.8086338043 35.4159240723 44.8544082642 55.1713562012 64.605140686 72.2084503174 78.8160400391 86.161857605 13.8759279251 21.311964035 28.0646953583 35.6985588074 44.976852417 55.0483207703 64.3223953247 71.9526977539 78.7051315308 86.1435394287 13.8983545303 21.4893245697 28.5565185547 36.272693634 45.2449035645 54.7788658142 63.7481803894 71.4614105225 78.5286941528 86.1212234497 13.9369907379 21.7180767059 29.3324356079 37.183177948 45.6354675293 54.3865013123 62.8370857239 70.6868133545 78.3011779785 86.0827102661 
13.9368619919 21.7174530029 29.3306541443 37.1802406311 45.634185791 54.3876953125 62.8400497437 70.6884078979 78.3017425537 86.0828399658 13.8982868195 21.4888362885 28.5548534393 36.2710227966 45.2439689636 54.7798576355 63.749786377 71.4630584717 78.5291595459 86.1212615967 13.8758821487 21.3116073608 28.0638484955 35.6974945068 44.9761581421 55.0490074158 64.3234405518 71.9535140991 78.7054824829 86.1435852051 13.8574962616 21.2004566193 27.8081493378 35.4153671265 44.8541870117 55.1715965271 64.6057052612 72.2089538574 78.8162460327 86.1618881226 13.8446788788 21.1457195282 27.6821079254 35.2854042053 44.8022651672 55.2237663269 64.7357711792 72.3348464966 78.870765686 86.1746520996 13.8446884155 21.1457557678 27.6822032928 35.2854804993 44.8023223877 55.2237014771 64.7356948853 72.3347549438 78.8707275391 86.1746444702 13.8575382233 21.2006626129 27.8086128235 35.4158973694 44.854385376 55.17137146 64.6051712036 72.208480835 78.8160400391 86.161857605 13.8759288788 21.3119564056 28.0646743774 35.6985359192 44.9768371582 55.0483207703 64.3224105835 71.9527282715 78.7051467896 86.1435394287 13.898352623 21.489320755 28.5565071106 36.2726821899 45.2449073792 54.7788734436 63.7481880188 71.4614105225 78.5286941528 86.1212234497 13.9369907379 21.7180709839 29.3324279785 37.1831703186 45.6354675293 54.386505127 62.8371047974 70.6868286133 78.3011779785 86.0827102661 
13.9368610382 21.7174530029 29.3306522369 37.1802330017 45.6341781616 54.3876953125 62.8400497437 70.6884231567 78.3017425537 86.0828399658 13.8982849121 21.4888343811 28.5548439026 36.2710151672 45.2439613342 54.7798690796 63.7498016357 71.4630661011 78.5291595459 86.1212615967 13.8758840561 21.3116054535 28.0638313293 35.6974754333 44.9761543274 55.0490150452 64.3234634399 71.9535293579 78.7054901123 86.1435852051 13.8574953079 21.2004508972 27.8081302643 35.4153366089 44.8541679382 55.1716156006 64.6057357788 72.2089614868 78.8162612915 86.1618881226 13.8446769714 21.1457099915 27.6820793152 35.2853622437 44.8022422791 55.2237892151 64.7358169556 72.3348922729 78.8707733154 86.1746520996 13.8446884155 21.1457443237 27.68217659 35.2854423523 44.8022994995 55.2237167358 64.7357177734 72.3347930908 78.8707427979 86.1746444702 13.8575382233 21.2006549835 27.8085861206 35.4158668518 44.8543777466 55.1713829041 64.6052017212 72.2085113525 78.8160552979 86.161857605 13.8759279251 21.3119506836 28.0646572113 35.6985206604 44.9768333435 55.048324585 64.3224258423 71.9527435303 78.7051467896 86.1435394287 13.8983516693 21.4893169403 28.5564994812 36.2726745605 45.2448921204 54.7788734436 63.7481994629 71.46144104 78.5287017822 86.1212234497 13.9369907379 21.7180709839 29.3324279785 37.1831665039 45.6354675293 54.3865127563 62.837097168 70.6868362427 78.3011779785 86.0827102661 
