1.0 1.00000011921 0.998654007912 1.03973698616 1.09754133224 1.09751617908 1.03964412212 1.00000023842 1.0 1.0 0.999999940395 1.00161170959 1.08208942413 1.18458425999 1.27217543125 1.27215003967 1.18450081348 1.03753697872 1.00158679485 1.0 1.0 1.06225800514 1.1648774147 1.27908337116 1.36738216877 1.36735975742 1.27900397778 1.1123021841 1.06218791008 1.00000011921 1.0 1.09763920307 1.20152044296 1.30640673637 1.38025486469 1.38023614883 1.30633366108 1.1478266716 1.09757661819 1.00000011921 1.0 1.1240748167 1.23351550102 1.33058905602 1.38899075985 1.38897693157 1.33052170277 1.17628324032 1.12401366234 1.00000011921 1.0 1.12406516075 1.2335050106 1.33057379723 1.38904857635 1.38903164864 1.3305015564 1.17627692223 1.12400388718 1.00000011921 1.0 1.09759414196 1.20148169994 1.30632066727 1.38030648232 1.38028180599 1.30624294281 1.14778518677 1.09753167629 1.0 1.0 1.0425965786 1.13637721539 1.24272882938 1.34524452686 1.34523916245 1.24263441563 1.09070122242 1.04252505302 1.00000011921 1.0 1.00158298016 1.08199882507 1.1846075058 1.27230572701 1.27222847939 1.18457734585 1.03745472431 1.00155889988 1.00000011921 1.0 1.00000011921 0.998663723469 1.03961491585 1.09727227688 1.09732997417 1.03948664665 1.00000011921 1.0 0.999999940395 
1.0 1.00000011921 0.998654007912 1.03973698616 1.09754133224 1.09751617908 1.03964412212 1.00000023842 1.0 1.0 0.999999940395 1.00161170959 1.08208942413 1.18458425999 1.27217543125 1.27215003967 1.18450081348 1.03753697872 1.00158679485 1.0 1.0 1.06225800514 1.1648774147 1.27908337116 1.39106452465 1.39104545116 1.27900397778 1.1123021841 1.06218791008 1.00000011921 1.0 1.09763920307 1.20152044296 1.30704116821 1.41187739372 1.41185939312 1.30697178841 1.1478266716 1.09757661819 1.00000011921 1.0 1.1240748167 1.23351550102 1.33806824684 1.43377971649 1.43376553059 1.33801317215 1.17628324032 1.12401366234 1.00000011921 1.0 1.12406516075 1.2335050106 1.33804786205 1.43395090103 1.4339274168 1.33798491955 1.17627692223 1.12400388718 1.00000011921 1.0 1.09759414196 1.20148169994 1.30695080757 1.4120541811 1.41202270985 1.30687570572 1.14778518677 1.09753167629 1.0 1.0 1.0425965786 1.13637721539 1.24272882938 1.34856712818 1.34856390953 1.24263441563 1.09070122242 1.04252505302 1.00000011921 1.0 1.00158298016 1.08199882507 1.1846075058 1.27230572701 1.27222847939 1.18457734585 1.03745472431 1.00155889988 1.00000011921 1.0 1.00000011921 0.998663723469 1.03961491585 1.09727227688 1.09732997417 1.03948664665 1.00000011921 1.0 0.999999940395 
1.0 1.00000011921 0.998654007912 1.03973698616 1.09754133224 1.09751617908 1.03964412212 1.00000023842 1.0 1.0 0.999999940395 1.00161170959 1.08208942413 1.18458425999 1.27217543125 1.27215003967 1.18450081348 1.03753697872 1.00158679485 1.0 1.0 1.06225800514 1.1648774147 1.27908337116 1.39106452465 1.39104545116 1.27900397778 1.1123021841 1.06218791008 1.00000011921 1.0 1.09763920307 1.20152044296 1.30704116821 1.41187739372 1.41185939312 1.30697178841 1.1478266716 1.09757661819 1.00000011921 1.0 1.1240748167 1.23351550102 1.33806824684 1.43379068375 1.43377649784 1.33801317215 1.17628324032 1.12401366234 1.00000011921 1.0 1.12406516075 1.2335050106 1.33804786205 1.43396294117 1.43393921852 1.33798491955 1.17627692223 1.12400388718 1.00000011921 1.0 1.09759414196 1.20148169994 1.30695080757 1.4120541811 1.41202270985 1.30687570572 1.14778518677 1.09753167629 1.0 1.0 1.0425965786 1.13637721539 1.24272882938 1.34856712818 1.34856390953 1.24263441563 1.09070122242 1.04252505302 1.00000011921 1.0 1.00158298016 1.08199882507 1.1846075058 1.27230572701 1.27222847939 1.18457734585 1.03745472431 1.00155889988 1.00000011921 1.0 1.00000011921 0.998663723469 1.03961491585 1.09727227688 1.09732997417 1.03948664665 1.00000011921 1.0 0.999999940395 
1.0 1.00000011921 0.998654007912 1.03973698616 1.09754133224 1.09751617908 1.03964412212 1.00000023842 1.0 1.0 0.999999940395 1.00161170959 1.08208942413 1.18458425999 1.27217543125 1.27215003967 1.18450081348 1.03753697872 1.00158679485 1.0 1.0 1.06225800514 1.1648774147 1.27908337116 1.39106452465 1.39104545116 1.27900397778 1.1123021841 1.06218791008 1.00000011921 1.0 1.09763920307 1.20152044296 1.30704116821 1.41187739372 1.41185939312 1.30697178841 1.1478266716 1.09757661819 1.00000011921 1.0 1.1240748167 1.23351550102 1.33806824684 1.43379938602 1.43378531933 1.33801317215 1.17628324032 1.12401366234 1.00000011921 1.0 1.12406516075 1.2335050106 1.33804786205 1.43397140503 1.43394780159 1.33798491955 1.17627692223 1.12400388718 1.00000011921 1.0 1.09759414196 1.20148169994 1.30695080757 1.4120541811 1.41202270985 1.30687570572 1.14778518677 1.09753167629 1.0 1.0 1.0425965786 1.13637721539 1.24272882938 1.34856712818 1.34856390953 1.24263441563 1.09070122242 1.04252505302 1.00000011921 1.0 1.00158298016 1.08199882507 1.1846075058 1.27230572701 1.27222847939 1.18457734585 1.03745472431 1.00155889988 1.00000011921 1.0 1.00000011921 0.998663723469 1.03961491585 1.09727227688 1.09732997417 1.03948664665 1.00000011921 1.0 0.999999940395 
1.0 1.00000011921 0.998654007912 1.03973698616 1.09754133224 1.09751617908 1.03964412212 1.00000023842 1.0 1.0 0.999999940395 1.00161170959 1.08208942413 1.18458425999 1.27217543125 1.27215003967 1.18450081348 1.03753697872 1.00158679485 1.0 1.0 1.06225800514 1.1648774147 1.27908337116 1.39106452465 1.39104545116 1.27900397778 1.1123021841 1.06218791008 1.00000011921 1.0 1.09763920307 1.20152044296 1.30704116821 1.41187751293 1.41185963154 1.30697178841 1.1478266716 1.09757661819 1.00000011921 1.0 1.1240748167 1.23351550102 1.33806824684 1.4338080883 1.4337939024 1.33801317215 1.17628324032 1.12401366234 1.00000011921 1.0 1.12406516075 1.2335050106 1.33804786205 1.4339799881 1.43395638466 1.33798491955 1.17627692223 1.12400388718 1.00000011921 1.0 1.09759414196 1.20148169994 1.30695080757 1.41205561161 1.41202390194 1.30687570572 1.14778518677 1.09753167629 1.0 1.0 1.0425965786 1.13637721539 1.24272882938 1.34856712818 1.34856390953 1.24263441563 1.09070122242 1.04252505302 1.00000011921 1.0 1.00158298016 1.08199882507 1.1846075058 1.27230572701 1.27222847939 1.18457734585 1.03745472431 1.00155889988 1.00000011921 1.0 1.00000011921 0.998663723469 1.03961491585 1.09727227688 1.09732997417 1.03948664665 1.00000011921 1.0 0.999999940395 
1.0 1.00000011921 0.998654007912 1.03973698616 1.09754133224 1.09751617908 1.03964412212 1.00000023842 1.0 1.0 0.999999940395 1.00161170959 1.08208942413 1.18458425999 1.27217543125 1.27215003967 1.18450081348 1.03753697872 1.00158679485 1.0 1.0 1.06225800514 1.1648774147 1.27908337116 1.39106452465 1.39104545116 1.27900397778 1.1123021841 1.06218791008 1.00000011921 1.0 1.09763920307 1.20152044296 1.30704116821 1.41188097 1.41186285019 1.30697178841 1.1478266716 1.09757661819 1.00000011921 1.0 1.1240748167 1.23351550102 1.33806824684 1.433817029 1.43380248547 1.33801317215 1.17628324032 1.12401366234 1.00000011921 1.0 1.12406516075 1.2335050106 1.33804786205 1.43398869038 1.43396508694 1.33798491955 1.17627692223 1.12400388718 1.00000011921 1.0 1.09759414196 1.20148169994 1.30695080757 1.4120593071 1.41202771664 1.30687570572 1.14778518677 1.09753167629 1.0 1.0 1.0425965786 1.13637721539 1.24272882938 1.34856712818 1.34856390953 1.24263441563 1.09070122242 1.04252505302 1.00000011921 1.0 1.00158298016 1.08199882507 1.1846075058 1.27230572701 1.27222847939 1.18457734585 1.03745472431 1.00155889988 1.00000011921 1.0 1.00000011921 0.998663723469 1.03961491585 1.09727227688 1.09732997417 1.03948664665 1.00000011921 1.0 0.999999940395 
1.0 1.00000011921 0.998654007912 1.03973698616 1.09754133224 1.09751617908 1.03964412212 1.00000023842 1.0 1.0 0.999999940395 1.00161170959 1.08208942413 1.18458425999 1.27217543125 1.27215003967 1.18450081348 1.03753697872 1.00158679485 1.0 1.0 1.06225800514 1.1648774147 1.27908337116 1.39106452465 1.39104545116 1.27900397778 1.1123021841 1.06218791008 1.00000011921 1.0 1.09763920307 1.20152044296 1.30704116821 1.41188538074 1.41186714172 1.30697178841 1.1478266716 1.09757661819 1.00000011921 1.0 1.1240748167 1.23351550102 1.33806824684 1.43382537365 1.43381118774 1.33801317215 1.17628324032 1.12401366234 1.00000011921 1.0 1.12406516075 1.2335050106 1.33804786205 1.43399763107 1.43397402763 1.33798491955 1.17627692223 1.12400388718 1.00000011921 1.0 1.09759414196 1.20148169994 1.30695080757 1.41206383705 1.41203224659 1.30687570572 1.14778518677 1.09753167629 1.0 1.0 1.0425965786 1.13637721539 1.24272882938 1.34856712818 1.34856390953 1.24263441563 1.09070122242 1.04252505302 1.00000011921 1.0 1.00158298016 1.08199882507 1.1846075058 1.27230572701 1.27222847939 1.18457734585 1.03745472431 1.00155889988 1.00000011921 1.0 1.00000011921 0.998663723469 1.03961491585 1.09727227688 1.09732997417 1.03948664665 1.00000011921 1.0 0.999999940395 
