1.0 1.00000011921 0.996790230274 1.0468275547 1.10117018223 1.1011493206 1.04675531387 1.00000023842 1.0 1.0 0.999999940395 1.00060558319 1.08313918114 1.17717075348 1.25441944599 1.25440168381 1.17710244656 1.03428697586 1.0005928278 1.0 1.0 1.05792570114 1.16391718388 1.26794826984 1.34848868847 1.34847283363 1.26788806915 1.10793673992 1.05785322189 1.00000011921 1.0 1.09259045124 1.19939088821 1.29626297951 1.36371457577 1.36370110512 1.29620981216 1.14231526852 1.09252607822 1.00000011921 1.0 1.11831331253 1.22966241837 1.31945300102 1.37295544147 1.37294614315 1.31940495968 1.16912412643 1.11825144291 1.00000011921 1.0 1.11830449104 1.22965443134 1.31943774223 1.37299752235 1.37298536301 1.31938588619 1.16911911964 1.11824274063 1.00000011921 1.0 1.09254813194 1.19935774803 1.29618883133 1.36374998093 1.36373186111 1.29613184929 1.1422791481 1.09248435497 1.0 1.0 1.03743112087 1.13728117943 1.23621690273 1.32626652718 1.32625937462 1.23614561558 1.08686852455 1.03735744953 1.00000011921 1.0 1.00059247017 1.08305895329 1.17714631557 1.25447595119 1.25442111492 1.17709839344 1.03421115875 1.0005800724 1.00000011921 1.0 1.00000011921 0.996810555458 1.04671692848 1.10099112988 1.10102725029 1.04662191868 1.00000011921 1.0 0.999999940395 
1.0 1.00000011921 0.996790230274 1.0468275547 1.10117018223 1.1011493206 1.04675531387 1.00000023842 1.0 1.0 0.999999940395 1.00060558319 1.08313918114 1.17717075348 1.25441944599 1.25440168381 1.17710244656 1.03428697586 1.0005928278 1.0 1.0 1.05792570114 1.16391718388 1.26794826984 1.3646235466 1.36461234093 1.26788806915 1.10793673992 1.05785322189 1.00000011921 1.0 1.09259045124 1.19939088821 1.29665899277 1.38904047012 1.38903009892 1.29660785198 1.14231526852 1.09252607822 1.00000011921 1.0 1.11831331253 1.22966241837 1.32622563839 1.41146588326 1.41145944595 1.32618677616 1.16912412643 1.11825144291 1.00000011921 1.0 1.11830449104 1.22965443134 1.32620680332 1.41158425808 1.41157138348 1.32616174221 1.16911911964 1.11824274063 1.00000011921 1.0 1.09254813194 1.19935774803 1.29658198357 1.38915753365 1.38913750648 1.29652667046 1.1422791481 1.09248435497 1.0 1.0 1.03743112087 1.13728117943 1.23621690273 1.32765114307 1.32764673233 1.23614561558 1.08686852455 1.03735744953 1.00000011921 1.0 1.00059247017 1.08305895329 1.17714631557 1.25447595119 1.25442111492 1.17709839344 1.03421115875 1.0005800724 1.00000011921 1.0 1.00000011921 0.996810555458 1.04671692848 1.10099112988 1.10102725029 1.04662191868 1.00000011921 1.0 0.999999940395 
1.0 1.00000011921 0.996790230274 1.0468275547 1.10117018223 1.1011493206 1.04675531387 1.00000023842 1.0 1.0 0.999999940395 1.00060558319 1.08313918114 1.17717075348 1.25441944599 1.25440168381 1.17710244656 1.03428697586 1.0005928278 1.0 1.0 1.05792570114 1.16391718388 1.26794826984 1.3646235466 1.36461234093 1.26788806915 1.10793673992 1.05785322189 1.00000011921 1.0 1.09259045124 1.19939088821 1.29665899277 1.38904047012 1.38903009892 1.29660785198 1.14231526852 1.09252607822 1.00000011921 1.0 1.11831331253 1.22966241837 1.32622563839 1.41147553921 1.41146934032 1.32618677616 1.16912412643 1.11825144291 1.00000011921 1.0 1.11830449104 1.22965443134 1.32620680332 1.41159462929 1.41158151627 1.32616174221 1.16911911964 1.11824274063 1.00000011921 1.0 1.09254813194 1.19935774803 1.29658198357 1.38915753365 1.38913750648 1.29652667046 1.1422791481 1.09248435497 1.0 1.0 1.03743112087 1.13728117943 1.23621690273 1.32765114307 1.32764673233 1.23614561558 1.08686852455 1.03735744953 1.00000011921 1.0 1.00059247017 1.08305895329 1.17714631557 1.25447595119 1.25442111492 1.17709839344 1.03421115875 1.0005800724 1.00000011921 1.0 1.00000011921 0.996810555458 1.04671692848 1.10099112988 1.10102725029 1.04662191868 1.00000011921 1.0 0.999999940395 
1.0 1.00000011921 0.996790230274 1.0468275547 1.10117018223 1.1011493206 1.04675531387 1.00000023842 1.0 1.0 0.999999940395 1.00060558319 1.08313918114 1.17717075348 1.25441944599 1.25440168381 1.17710244656 1.03428697586 1.0005928278 1.0 1.0 1.05792570114 1.16391718388 1.26794826984 1.3646235466 1.36461234093 1.26788806915 1.10793673992 1.05785322189 1.00000011921 1.0 1.09259045124 1.19939088821 1.29665899277 1.38904047012 1.38903009892 1.29660785198 1.14231526852 1.09252607822 1.00000011921 1.0 1.11831331253 1.22966241837 1.32622563839 1.41148436069 1.41147816181 1.32618677616 1.16912412643 1.11825144291 1.00000011921 1.0 1.11830449104 1.22965443134 1.32620680332 1.41160345078 1.41159033775 1.32616174221 1.16911911964 1.11824274063 1.00000011921 1.0 1.09254813194 1.19935774803 1.29658198357 1.38915753365 1.38913750648 1.29652667046 1.1422791481 1.09248435497 1.0 1.0 1.03743112087 1.13728117943 1.23621690273 1.32765114307 1.32764673233 1.23614561558 1.08686852455 1.03735744953 1.00000011921 1.0 1.00059247017 1.08305895329 1.17714631557 1.25447595119 1.25442111492 1.17709839344 1.03421115875 1.0005800724 1.00000011921 1.0 1.00000011921 0.996810555458 1.04671692848 1.10099112988 1.10102725029 1.04662191868 1.00000011921 1.0 0.999999940395 
1.0 1.00000011921 0.996790230274 1.0468275547 1.10117018223 1.1011493206 1.04675531387 1.00000023842 1.0 1.0 0.999999940395 1.00060558319 1.08313918114 1.17717075348 1.25441944599 1.25440168381 1.17710244656 1.03428697586 1.0005928278 1.0 1.0 1.05792570114 1.16391718388 1.26794826984 1.3646235466 1.36461234093 1.26788806915 1.10793673992 1.05785322189 1.00000011921 1.0 1.09259045124 1.19939088821 1.29665899277 1.38904047012 1.38903009892 1.29660785198 1.14231526852 1.09252607822 1.00000011921 1.0 1.11831331253 1.22966241837 1.32622563839 1.41149294376 1.41148662567 1.32618677616 1.16912412643 1.11825144291 1.00000011921 1.0 1.11830449104 1.22965443134 1.32620680332 1.41161203384 1.41159880161 1.32616174221 1.16911911964 1.11824274063 1.00000011921 1.0 1.09254813194 1.19935774803 1.29658198357 1.38915753365 1.38913750648 1.29652667046 1.1422791481 1.09248435497 1.0 1.0 1.03743112087 1.13728117943 1.23621690273 1.32765114307 1.32764673233 1.23614561558 1.08686852455 1.03735744953 1.00000011921 1.0 1.00059247017 1.08305895329 1.17714631557 1.25447595119 1.25442111492 1.17709839344 1.03421115875 1.0005800724 1.00000011921 1.0 1.00000011921 0.996810555458 1.04671692848 1.10099112988 1.10102725029 1.04662191868 1.00000011921 1.0 0.999999940395 
1.0 1.00000011921 0.996790230274 1.0468275547 1.10117018223 1.1011493206 1.04675531387 1.00000023842 1.0 1.0 0.999999940395 1.00060558319 1.08313918114 1.17717075348 1.25441944599 1.25440168381 1.17710244656 1.03428697586 1.0005928278 1.0 1.0 1.05792570114 1.16391718388 1.26794826984 1.3646235466 1.36461234093 1.26788806915 1.10793673992 1.05785322189 1.00000011921 1.0 1.09259045124 1.19939088821 1.29665899277 1.38904047012 1.38903009892 1.29660785198 1.14231526852 1.09252607822 1.00000011921 1.0 1.11831331253 1.22966241837 1.32622563839 1.41150140762 1.41149485111 1.32618677616 1.16912412643 1.11825144291 1.00000011921 1.0 1.11830449104 1.22965443134 1.32620680332 1.41162037849 1.41160726547 1.32616174221 1.16911911964 1.11824274063 1.00000011921 1.0 1.09254813194 1.19935774803 1.29658198357 1.38915753365 1.38913750648 1.29652667046 1.1422791481 1.09248435497 1.0 1.0 1.03743112087 1.13728117943 1.23621690273 1.32765114307 1.32764673233 1.23614561558 1.08686852455 1.03735744953 1.00000011921 1.0 1.00059247017 1.08305895329 1.17714631557 1.25447595119 1.25442111492 1.17709839344 1.03421115875 1.0005800724 1.00000011921 1.0 1.00000011921 0.996810555458 1.04671692848 1.10099112988 1.10102725029 1.04662191868 1.00000011921 1.0 0.999999940395 
1.0 1.00000011921 0.996790230274 1.0468275547 1.10117018223 1.1011493206 1.04675531387 1.00000023842 1.0 1.0 0.999999940395 1.00060558319 1.08313918114 1.17717075348 1.25441944599 1.25440168381 1.17710244656 1.03428697586 1.0005928278 1.0 1.0 1.05792570114 1.16391718388 1.26794826984 1.3646235466 1.36461234093 1.26788806915 1.10793673992 1.05785322189 1.00000011921 1.0 1.09259045124 1.19939088821 1.29665899277 1.38904047012 1.38903009892 1.29660785198 1.14231526852 1.09252607822 1.00000011921 1.0 1.11831331253 1.22966241837 1.32622563839 1.41150963306 1.41150343418 1.32618677616 1.16912412643 1.11825144291 1.00000011921 1.0 1.11830449104 1.22965443134 1.32620680332 1.41162872314 1.41161549091 1.32616174221 1.16911911964 1.11824274063 1.00000011921 1.0 1.09254813194 1.19935774803 1.29658198357 1.38915765285 1.38913786411 1.29652667046 1.1422791481 1.09248435497 1.0 1.0 1.03743112087 1.13728117943 1.23621690273 1.32765114307 1.32764673233 1.23614561558 1.08686852455 1.03735744953 1.00000011921 1.0 1.00059247017 1.08305895329 1.17714631557 1.25447595119 1.25442111492 1.17709839344 1.03421115875 1.0005800724 1.00000011921 1.0 1.00000011921 0.996810555458 1.04671692848 1.10099112988 1.10102725029 1.04662191868 1.00000011921 1.0 0.999999940395 
