14.0026931763 13.7938699722 13.0568618774 11.9007139206 11.1363115311 11.1369552612 11.9035167694 13.0594291687 13.7951231003 14.0027084351 21.9920978546 21.6212787628 20.5691795349 18.9840373993 17.9387321472 17.9395599365 18.9879264832 20.5727157593 21.6231689453 21.9921855927 29.9826831818 29.5434188843 28.5895061493 27.2864665985 26.4138431549 26.4145374298 27.2896575928 28.5924873352 29.5453262329 29.9828262329 37.9839935303 37.6555557251 37.0317230225 36.2489242554 35.7254714966 35.7258834839 36.2508163452 37.0335655212 37.6568603516 37.9841270447 45.9992103577 45.8771781921 45.6618843079 45.4042282104 45.2328262329 45.2329559326 45.4048423767 45.6625099182 45.8776473999 45.9992637634 54.0208396912 54.1435470581 54.3600387573 54.6191444397 54.7916603088 54.7915115356 54.6185073853 54.359413147 54.1430740356 54.0207862854 62.0360107422 62.3648872375 62.9897880554 63.7740135193 64.2985153198 64.2980957031 63.7721176147 62.9879379272 62.3635787964 62.0358772278 70.0373077393 70.4766159058 71.4311981201 72.7359313965 73.6086883545 73.6080551147 72.7328186035 71.4281921387 70.4747009277 70.0371551514 78.0278701782 78.3982467651 79.4502029419 81.0361633301 82.0817260742 82.0809020996 81.0324707031 79.4466323853 78.3963470459 78.0277786255 86.0173034668 86.2256317139 86.9608764648 88.1134338379 88.8749694824 88.8748474121 88.1103820801 86.9581832886 86.2243652344 86.017288208 
14.0011386871 13.7837572098 13.041185379 11.8747224808 11.1058454514 11.1064949036 11.8775520325 13.0437707901 13.7850246429 14.0011634827 21.9903030396 21.6061916351 20.5350704193 18.9133586884 17.831817627 17.8326892853 18.9173526764 20.5386753082 21.6081218719 21.9903964996 29.9809818268 29.5261192322 28.5451869965 27.1848335266 26.2419204712 26.2426776886 27.1882095337 28.5482730865 29.5280742645 29.9811306 37.9826965332 37.6416931152 36.9949111938 36.1621932983 35.5943641663 35.5948257446 36.1642303467 36.9968528748 37.6430397034 37.982837677 45.9987220764 45.8717536926 45.6467018127 45.3710479736 45.1854171753 45.1855659485 45.3717079163 45.6473503113 45.8722267151 45.9987792969 54.0213241577 54.1489944458 54.3753089905 54.6524734497 54.8394241333 54.8392562866 54.6517982483 54.3746452332 54.1485099792 54.021270752 62.0373077393 62.3787727356 63.0266418457 63.8608169556 64.4297180176 64.4292678833 63.8587799072 63.0246925354 62.3774108887 62.0371742249 70.0390090942 70.4939193726 71.4755020142 72.8375930786 73.7804870605 73.7797927856 72.8343048096 71.4724197388 70.4919509888 70.0388565063 78.0296630859 78.4133224487 79.4842605591 81.1067733765 82.1884231567 82.1875610352 81.1029968262 79.4806289673 78.4113769531 78.0295791626 86.0188598633 86.2357406616 86.9764709473 88.139251709 88.9053039551 88.9051971436 88.1361618042 86.9737548828 86.2344360352 86.0188217163 
14.0010738373 13.7833213806 13.0405111313 11.8736352921 11.1046390533 11.1052894592 11.8764648438 13.0431013107 13.7845897675 14.0010948181 21.9902229309 21.6055355072 20.53358078 18.9103679657 17.8275432587 17.828414917 18.9143638611 20.5371932983 21.607465744 21.990316391 29.9809036255 29.5253429413 28.5432167053 27.1804504395 26.2337799072 26.2345466614 27.1838417053 28.5462989807 29.527305603 29.9810523987 37.9826431274 37.6410713196 36.9931983948 36.1577110291 35.5861968994 35.5866584778 36.1597633362 36.9951438904 37.6424217224 37.9827804565 45.9987030029 45.8715057373 45.646030426 45.3691177368 45.1823692322 45.1825141907 45.3697814941 45.6466712952 45.8719902039 45.9987640381 54.0213546753 54.1492385864 54.3759880066 54.6544265747 54.8425292969 54.8423538208 54.6537399292 54.3753318787 54.1487579346 54.0212974548 62.0373687744 62.3793983459 63.0283508301 63.8653030396 64.4378890991 64.4374389648 63.8632583618 63.0264053345 62.3780326843 62.0372314453 70.0390701294 70.4946899414 71.4774627686 72.8419723511 73.7886047363 73.7879180908 72.8386688232 71.4744033813 70.4927139282 70.0389251709 78.0297470093 78.4139785767 79.4857330322 81.1097640991 82.1926879883 82.1918182373 81.1059799194 79.4821090698 78.4120330811 78.0296554565 86.0189208984 86.2361602783 86.977142334 88.1403503418 88.9065093994 88.9063949585 88.1372375488 86.9744186401 86.23487854 86.0188903809 
14.0010690689 13.7832899094 13.0404567719 11.8735437393 11.1045303345 11.1051807404 11.8763713837 13.0430431366 13.7845563889 14.0010929108 21.9902210236 21.6054859161 20.5334625244 18.9101371765 17.8272209167 17.8280906677 18.9141330719 20.5370731354 21.6074123383 21.9903144836 29.9808979034 29.5252857208 28.5430622101 27.1801166534 26.2331867218 26.2339553833 27.1835041046 28.5461444855 29.5272445679 29.9810447693 37.9826393127 37.6410217285 36.9930534363 36.1573295593 35.5854568481 35.5859222412 36.1593818665 36.9949989319 37.6423683167 37.9827766418 45.9986991882 45.8714828491 45.6459693909 45.3689498901 45.1820907593 45.1822395325 45.3696136475 45.6466178894 45.871963501 45.998752594 54.0213546753 54.1492652893 54.3760566711 54.6545944214 54.8428077698 54.842628479 54.6539154053 54.3753852844 54.1487731934 54.0213012695 62.0373764038 62.3794364929 63.0284957886 63.8656806946 64.438621521 64.4381637573 63.8636360168 63.0265464783 62.3780822754 62.0372390747 70.0390853882 70.494758606 71.4776229858 72.842300415 73.7891845703 73.7884979248 72.8390045166 71.4745330811 70.4927902222 70.0389328003 78.0297546387 78.414024353 79.4858551025 81.109992981 82.1930084229 82.1921463013 81.1062011719 79.4822158813 78.4120788574 78.0296554565 86.0189208984 86.2361984253 86.9772033691 88.1404418945 88.9066314697 88.9065093994 88.1373214722 86.9744796753 86.2348937988 86.0188903809 
14.0010681152 13.7832841873 13.0404434204 11.8735160828 11.1044940948 11.1051435471 11.8763437271 13.0430316925 13.7845535278 14.0010900497 21.9902191162 21.6054801941 20.5334377289 18.9100894928 17.8271560669 17.8280277252 18.9140872955 20.5370502472 21.6074066162 21.9903144836 29.9808979034 29.5252742767 28.5430259705 27.180059433 26.2330913544 26.2338562012 27.1834449768 28.5461120605 29.5272331238 29.9810466766 37.9826393127 37.6410102844 36.9930305481 36.1572647095 35.5853385925 35.5858001709 36.1593132019 36.994972229 37.642364502 37.9827766418 45.9986953735 45.8714790344 45.6459541321 45.3689231873 45.1820487976 45.1821975708 45.3695907593 45.6466064453 45.871963501 45.998752594 54.0213546753 54.1492652893 54.3760719299 54.654624939 54.8428497314 54.8426742554 54.6539344788 54.3754005432 54.1487808228 54.0213012695 62.0373764038 62.3794403076 63.0285110474 63.8657493591 64.4387359619 64.4382781982 63.8637008667 63.0265731812 62.3780937195 62.0372390747 70.0390853882 70.4947662354 71.477645874 72.8423614502 73.7892913818 73.7885894775 72.8390731812 71.4745788574 70.4927902222 70.0389328003 78.0297546387 78.4140319824 79.4858856201 81.1100311279 82.193069458 82.1922073364 81.106262207 79.4822463989 78.4120864868 78.0296554565 86.0189208984 86.2362136841 86.9772033691 88.1404647827 88.9066772461 88.9065322876 88.1373672485 86.9744873047 86.2349014282 86.0188903809 
14.0010681152 13.783285141 13.0404338837 11.8734951019 11.1044664383 11.1051168442 11.8763246536 13.0430240631 13.7845506668 14.0010900497 21.9902191162 21.605474472 20.5334243774 18.9100627899 17.8271179199 17.8279914856 18.9140605927 20.5370330811 21.6074047089 21.9903144836 29.9808959961 29.525270462 28.5430145264 27.1800308228 26.2330417633 26.2338066101 27.1834163666 28.5460987091 29.5272293091 29.9810466766 37.9826393127 37.6410102844 36.9930152893 36.1572418213 35.5852966309 35.5857620239 36.159286499 36.9949645996 37.6423568726 37.9827766418 45.9986953735 45.8714752197 45.6459541321 45.3689041138 45.1820373535 45.1821861267 45.3695793152 45.6466064453 45.8719558716 45.998752594 54.0213546753 54.149269104 54.3760681152 54.6546325684 54.8428649902 54.8426971436 54.6539497375 54.3754005432 54.1487731934 54.0213012695 62.0373764038 62.379447937 63.0285301208 63.8657722473 64.4387817383 64.4383239746 63.8637275696 63.0265731812 62.3781013489 62.0372390747 70.0390853882 70.4947662354 71.4776687622 72.8423995972 73.7893371582 73.7886505127 72.8390960693 71.4745941162 70.4927902222 70.0389328003 78.0297546387 78.4140319824 79.4858779907 81.1100616455 82.1930999756 82.1922531128 81.1062774658 79.4822540283 78.4120941162 78.0296554565 86.0189208984 86.2362060547 86.9772186279 88.1404800415 88.9067001343 88.9065704346 88.1373748779 86.9745025635 86.2349014282 86.0188903809 
14.0010681152 13.7832832336 13.0404281616 11.8734779358 11.1044387817 11.1050891876 11.8763065338 13.0430145264 13.7845506668 14.0010900497 21.9902191162 21.6054706573 20.5334148407 18.910036087 17.8270835876 17.8279571533 18.9140357971 20.5370254517 21.6073989868 21.9903144836 29.9808959961 29.5252666473 28.5429992676 27.1800003052 26.2329959869 26.2337646484 27.1833820343 28.5460891724 29.5272274017 29.9810466766 37.9826393127 37.6410064697 36.9930114746 36.1572113037 35.5852622986 35.5857276917 36.1592636108 36.9949569702 37.6423530579 37.9827766418 45.9986953735 45.8714752197 45.6459465027 45.3689041138 45.1820297241 45.1821746826 45.3695640564 45.6466026306 45.8719558716 45.998752594 54.0213546753 54.149269104 54.3760757446 54.6546401978 54.8428840637 54.8427009583 54.6539535522 54.3754005432 54.1487731934 54.0213012695 62.0373764038 62.3794593811 63.0285415649 63.8657913208 64.4388198853 64.4383544922 63.8637542725 63.0265922546 62.3780975342 62.0372390747 70.0390853882 70.4947738647 71.4776763916 72.8424301147 73.789390564 73.7886962891 72.8391265869 71.474609375 70.4927978516 70.0389328003 78.0297546387 78.4140319824 79.4859085083 81.1100845337 82.1931381226 82.1922912598 81.1063079834 79.4822616577 78.4121017456 78.0296554565 86.0189208984 86.2362136841 86.9772262573 88.1404953003 88.9067306519 88.9065933228 88.1373977661 86.9745101929 86.2349014282 86.0188903809 
