2.26518201828 3.87302398682 6.7895026207 9.50800895691 11.0322380066 11.0310354233 9.50217056274 6.78199958801 3.86630511284 2.2650706768 2.29092621803 5.07153320312 9.78385066986 14.2030067444 16.6659221649 16.6639671326 14.1935768127 9.77173805237 5.06045818329 2.29061245918 2.31493020058 5.95321846008 11.8531475067 17.3369693756 20.5313243866 20.5287837982 17.3250007629 11.8382091522 5.9390873909 2.31443166733 2.33160018921 6.47714710236 13.0199756622 19.0639572144 22.5927200317 22.5899238586 19.0507354736 13.0035228729 6.46128892899 2.33097529411 2.34053683281 6.73915338516 13.5914316177 19.8889484406 23.5571289062 23.5542392731 19.8751945496 13.57426548 6.72246932983 2.33984446526 2.34052991867 6.73894882202 13.5909967422 19.8883171082 23.5564002991 23.5535125732 19.8745689392 13.5738334656 6.72226715088 2.33983707428 2.33156442642 6.47610616684 13.0176725388 19.0605773926 22.5887413025 22.5859489441 19.0473861694 13.0012483597 6.46026229858 2.33094000816 2.31487870216 5.95142507553 11.8491210938 17.3308734894 20.5232944489 20.5208320618 17.318977356 11.8342494965 5.9373216629 2.31438088417 2.29085469246 5.06888771057 9.77735710144 14.1933698654 16.6536121368 16.6517181396 14.1841249466 9.76535415649 5.05788230896 2.29054450989 2.26513504982 3.86967349052 6.78077125549 9.49296951294 11.0137376785 11.0128240585 9.48713874817 6.7735710144 3.86306118965 2.26502346992 
2.26518130302 3.85251235962 6.7462644577 9.45405292511 10.9741725922 10.9729700089 9.44823360443 6.73880195618 3.84586310387 2.26507091522 2.29068899155 5.04719305038 9.73677444458 14.1487264633 16.6120185852 16.6100616455 14.139295578 9.72469806671 5.0361905098 2.29037857056 2.31456947327 5.92984008789 11.8092937469 17.2883758545 20.4953460693 20.4927806854 17.2763957977 11.7943906784 5.9157743454 2.31407499313 2.33125782013 6.45672082901 12.9823865891 19.0328063965 22.6061038971 22.6032409668 19.0195178986 12.9659605026 6.4409160614 2.33063626289 2.34028100967 6.72129440308 13.5597600937 19.8757572174 23.6075344086 23.6045532227 19.8618717194 13.5426130295 6.70465707779 2.33959150314 2.34027433395 6.72108840942 13.5593204498 19.8751144409 23.6067714691 23.6037940979 19.8612308502 13.5421743393 6.70445251465 2.33958482742 2.33122205734 6.45567131042 12.9800710678 19.0293827057 22.6020011902 22.5991439819 19.0161247253 12.9636697769 6.43988227844 2.33060121536 2.31451773643 5.92804431915 11.8052625656 17.2822475433 20.4872398376 20.484752655 17.2703399658 11.7904243469 5.91400623322 2.3140232563 2.29061794281 5.04455137253 9.73027420044 14.1390838623 16.5996513367 16.5977592468 14.1298427582 9.71831417084 5.03362131119 2.2903110981 2.26513504982 3.84919548035 6.737596035 9.43902587891 10.9557151794 10.9548015594 9.4332113266 6.73045063019 3.84265804291 2.26502490044 
2.26518154144 3.85238981247 6.74600744247 9.45373344421 10.9738302231 10.9726238251 9.44791316986 6.73854494095 3.84574079514 2.2650706768 2.29068756104 5.04704761505 9.73649406433 14.148399353 16.6116924286 16.6097316742 14.1389703751 9.72441864014 5.03604507446 2.29037714005 2.31456708908 5.92970466614 11.8090372086 17.2880764008 20.4950771332 20.4925098419 17.2761001587 11.7941322327 5.91563844681 2.31407284737 2.33125591278 6.45660972595 12.9821853638 19.0326347351 22.6061286926 22.6032714844 19.0193443298 12.965760231 6.44080591202 2.33063483238 2.34027981758 6.72120761871 13.5596151352 19.8757324219 23.6081142426 23.6051330566 19.8618450165 13.5424633026 6.70456838608 2.33959054947 2.34027290344 6.72100114822 13.5591726303 19.875087738 23.6073513031 23.6043739319 19.8612060547 13.5420274734 6.70436620712 2.33958363533 2.33122038841 6.4555606842 12.9798717499 19.029209137 22.6020259857 22.5991668701 19.0159511566 12.963467598 6.43977212906 2.33059978485 2.31451559067 5.92790651321 11.8050050735 17.2819499969 20.4869689941 20.4844837189 17.2700424194 11.7901678085 5.91387081146 2.31402111053 2.29061675072 5.04440641403 9.72999477386 14.1387557983 16.5993213654 16.5974273682 14.1295185089 9.71803569794 5.03347682953 2.29030990601 2.26513528824 3.84907341003 6.73733949661 9.43870830536 10.9553699493 10.954457283 9.43289375305 6.73019266129 3.8425359726 2.26502490044 
2.26518154144 3.85239982605 6.74603223801 9.45376968384 10.9738702774 10.9726676941 9.44795131683 6.73857116699 3.84575200081 2.26507091522 2.29068756104 5.04706382751 9.73653030396 14.1484498978 16.611743927 16.6097869873 14.1390209198 9.72445583344 5.03606176376 2.29037761688 2.31456780434 5.92972612381 11.8090791702 17.2881393433 20.4951400757 20.4925765991 17.2761611938 11.794175148 5.91565942764 2.3140733242 2.33125662804 6.45663452148 12.9822368622 19.0327072144 22.6062164307 22.6033554077 19.0194187164 12.9658126831 6.44083118439 2.33063554764 2.34028100967 6.72123384476 13.5596704483 19.8758201599 23.6082191467 23.6052436829 19.8619289398 13.5425186157 6.70459508896 2.33959126472 2.34027385712 6.72102737427 13.5592279434 19.8751735687 23.6074638367 23.6044845581 19.861289978 13.5420856476 6.70439195633 2.33958435059 2.33122110367 6.45558595657 12.979924202 19.0292835236 22.6021137238 22.5992584229 19.0160255432 12.9635210037 6.43979692459 2.33060026169 2.3145160675 5.92792797089 11.8050489426 17.2820110321 20.487039566 20.4845523834 17.2701015472 11.7902135849 5.91389036179 2.31402182579 2.29061675072 5.04442310333 9.73003101349 14.1388034821 16.5993766785 16.5974788666 14.129565239 9.71807193756 5.03349399567 2.29030990601 2.26513528824 3.84908390045 6.73736572266 9.43874454498 10.9554109573 10.9545001984 9.43292999268 6.73022031784 3.84254646301 2.26502490044 
2.26518201828 3.85241127014 6.7460603714 9.45380973816 10.9739141464 10.9727096558 9.44798851013 6.73859786987 3.84576225281 2.26507091522 2.29068803787 5.04708051682 9.73656654358 14.1484975815 16.6117954254 16.6098384857 14.1390695572 9.72449016571 5.03607797623 2.2903778553 2.31456804276 5.92974615097 11.8091259003 17.2881984711 20.4952125549 20.4926433563 17.276222229 11.7942209244 5.91568088531 2.31407356262 2.33125710487 6.45665979385 12.9822893143 19.032781601 22.606306076 22.6034431458 19.0194911957 12.9658632278 6.44085502625 2.33063626289 2.34028124809 6.72126102448 13.5597295761 19.8759040833 23.6083316803 23.6053543091 19.8620185852 13.5425777435 6.70462369919 2.33959197998 2.34027433395 6.72105550766 13.5592870712 19.8752613068 23.6075668335 23.6045970917 19.8613777161 13.5421438217 6.70441961288 2.33958530426 2.33122158051 6.45561075211 12.9799747467 19.0293579102 22.6022014618 22.5993423462 19.0160980225 12.9635734558 6.43982124329 2.33060073853 2.31451654434 5.92794895172 11.8050937653 17.2820720673 20.4871063232 20.4846172333 17.270160675 11.7902574539 5.91391134262 2.31402206421 2.29061722755 5.04443979263 9.73006629944 14.1388530731 16.5994300842 16.5975341797 14.1296138763 9.71810722351 5.03351020813 2.29031062126 2.26513528824 3.84909439087 6.73739147186 9.43878269196 10.9554548264 10.9545431137 9.43296813965 6.73024702072 3.84255719185 2.26502513885 
2.26518201828 3.85242128372 6.74608469009 9.45384407043 10.9739551544 10.9727525711 9.44802570343 6.73862266541 3.84577274323 2.26507115364 2.29068803787 5.04709672928 9.7366027832 14.1485443115 16.6118488312 16.6098899841 14.1391153336 9.72452545166 5.03609418869 2.2903778553 2.31456851959 5.92976665497 11.8091688156 17.2882575989 20.4952735901 20.4927082062 17.2762794495 11.7942638397 5.91570138931 2.31407403946 2.33125782013 6.45668315887 12.9823417664 19.0328540802 22.6063938141 22.6035308838 19.0195636749 12.9659137726 6.44087934494 2.33063673973 2.34028244019 6.72128868103 13.5597820282 19.8759880066 23.6084403992 23.605463028 19.8621025085 13.542634964 6.70465040207 2.33959317207 2.34027481079 6.7210817337 13.5593423843 19.8753433228 23.6076793671 23.6047058105 19.8614616394 13.5421981812 6.70444631577 2.33958625793 2.33122229576 6.45563459396 12.9800252914 19.0294303894 22.6022891998 22.5994319916 19.0161705017 12.9636240005 6.43984603882 2.3306016922 2.3145172596 5.92796993256 11.8051357269 17.2821311951 20.4871692657 20.4846858978 17.2702217102 11.7903003693 5.91393136978 2.31402254105 2.29061746597 5.04445552826 9.73010349274 14.1388988495 16.59948349 16.5975875854 14.1296625137 9.71814441681 5.03352642059 2.29031038284 2.26513576508 3.84910488129 6.73741674423 9.43881893158 10.9554948807 10.9545841217 9.43300437927 6.73027086258 3.84256696701 2.26502513885 
2.26518201828 3.85243201256 6.7461104393 9.45388221741 10.9739971161 10.9727935791 9.44806098938 6.73864889145 3.84578299522 2.26507115364 2.29068851471 5.04711341858 9.73663806915 14.1485948563 16.6119022369 16.6099433899 14.1391649246 9.72456359863 5.03610992432 2.29037809372 2.31456899643 5.9297876358 11.809214592 17.2883224487 20.495344162 20.4927768707 17.276342392 11.7943077087 5.91572189331 2.31407499313 2.33125853539 6.45670843124 12.9823932648 19.0329265594 22.6064834595 22.6036205292 19.0196380615 12.9659671783 6.44090270996 2.33063745499 2.34028315544 6.72131443024 13.5598402023 19.8760738373 23.6085510254 23.6055774689 19.8621902466 13.5426912308 6.70467662811 2.33959364891 2.3402762413 6.72110939026 13.5594005585 19.8754310608 23.6077899933 23.6048164368 19.8615474701 13.5422544479 6.70447349548 2.33958673477 2.3312227726 6.4556593895 12.9800777435 19.0295028687 22.6023788452 22.599521637 19.0162448883 12.9636774063 6.43987035751 2.33060216904 2.31451773643 5.92799091339 11.8051815033 17.2821922302 20.4872398376 20.4847507477 17.2702846527 11.790345192 5.91395235062 2.31402277946 2.29061770439 5.04447174072 9.73013877869 14.1389484406 16.5995349884 16.5976390839 14.1297111511 9.71817970276 5.03354263306 2.29031085968 2.26513576508 3.8491153717 6.7374420166 9.43885612488 10.9555368423 10.9546260834 9.4330406189 6.73029708862 3.84257817268 2.26502513885 
