13.9393138885 21.7264099121 29.348192215 37.198890686 45.642616272 54.3792266846 62.8213653564 70.6709060669 78.2927932739 86.080406189 13.9020318985 21.500125885 28.5932369232 36.3161735535 45.2719764709 54.7517127991 63.7046279907 71.4247436523 78.5178909302 86.1175308228 13.8809700012 21.3322906494 28.1314945221 35.802154541 45.0444412231 54.9803924561 64.2188644409 71.8859786987 78.6848907471 86.1385192871 13.864440918 21.2348327637 27.9108600616 35.5880126953 44.9555587769 55.0697250366 64.4331588745 72.1064376831 78.7819900513 86.1549758911 13.8528442383 21.1896305084 27.8154678345 35.498374939 44.9194564819 55.1059989929 64.5228729248 72.2017822266 78.8270187378 86.166519165 13.8528518677 21.1896572113 27.8155345917 35.4984397888 44.9194984436 55.1059570312 64.522819519 72.2017059326 78.8269882202 86.1664962769 13.8644781113 21.235004425 27.9112319946 35.5884094238 44.9557151794 55.0695762634 64.4327774048 72.1060943604 78.7818450928 86.1549224854 13.8810071945 21.3325939178 28.1322479248 35.8029975891 45.0450134277 54.9798583984 64.2180557251 71.8852767944 78.6846160889 86.1384887695 13.9020986557 21.5006389618 28.594827652 36.3177108765 45.2728157043 54.750869751 63.703212738 71.4231338501 78.5173950195 86.1174697876 13.939458847 21.7271442413 29.3503322601 37.201839447 45.6439781189 54.3779525757 62.8183708191 70.6687088013 78.2920455933 86.0802612305 
13.9377279282 21.7218589783 29.3398952484 37.1879844666 45.6367874146 54.3850746155 62.8322792053 70.6791992188 78.2973480225 86.0819854736 13.8996372223 21.493850708 28.5729007721 36.2679824829 45.2378082275 54.7860565186 63.7527618408 71.445022583 78.5241622925 86.1199188232 13.8775014877 21.3186225891 28.0852279663 35.6904716492 44.9689750671 55.0562324524 64.330368042 71.9321212769 78.6985092163 86.1419754028 13.8597002029 21.2098751068 27.8287754059 35.4152107239 44.8537445068 55.1720542908 64.6058197021 72.1883010864 78.806854248 86.1596908569 13.8472156525 21.1553726196 27.7027282715 35.2933769226 44.8061065674 55.2199249268 64.7277603149 72.314239502 78.8611450195 86.17212677 13.8472251892 21.1554069519 27.7028217316 35.2934455872 44.8061599731 55.219871521 64.7276992798 72.3141555786 78.861114502 86.1721115112 13.8597373962 21.2100658417 27.8292331696 35.4157142639 44.8539466858 55.1718635559 64.6053390503 72.1878662109 78.806678772 86.1596679688 13.8775405884 21.3189430237 28.0860385895 35.6914978027 44.9696426392 55.0556182861 64.3293991089 71.9313735962 78.6982192993 86.1419296265 13.8997068405 21.4943790436 28.5745582581 36.2695922852 45.2387504578 54.7851066589 63.751285553 71.4433517456 78.5236206055 86.1198577881 13.9378738403 21.7225952148 29.3420581818 37.1910057068 45.6381340027 54.3838348389 62.8291816711 70.6769485474 78.296585083 86.0818252563 
13.9375915527 21.7215213776 29.3393707275 37.1873245239 45.6364746094 54.3853874207 62.8329353333 70.679725647 78.2976837158 86.0821228027 13.899433136 21.4934310913 28.5713977814 36.2643966675 45.2355804443 54.7882957458 63.7563438416 71.4465179443 78.5245895386 86.1201248169 13.8771867752 21.3174743652 28.0811748505 35.6805038452 44.9611091614 55.0641441345 64.3403244019 71.9361572266 78.6996688843 86.1423034668 13.8592624664 21.2075195312 27.8205375671 35.3946304321 44.8394927979 55.1863746643 64.6263580322 72.1964950562 78.8091964722 86.1601409912 13.8466615677 21.1520042419 27.6911258698 35.2654457092 44.7885131836 55.2376022339 64.7556610107 72.3258056641 78.8644943237 86.1726837158 13.8466720581 21.1520442963 27.6912250519 35.2655181885 44.7885742188 55.2375488281 64.755607605 72.3257293701 78.8644714355 86.1726760864 13.8592987061 21.2077159882 27.8210067749 35.3951568604 44.8396987915 55.1861724854 64.6258621216 72.1960754395 78.8090209961 86.1600875854 13.8772258759 21.3177967072 28.0819892883 35.681552887 44.961807251 55.0634994507 64.3393325806 71.9354171753 78.6993637085 86.1422576904 13.8995037079 21.4939632416 28.5730648041 36.2660140991 45.236530304 54.7873420715 63.7548599243 71.4448242188 78.5240402222 86.1200637817 13.9377374649 21.7222537994 29.3415374756 37.1903457642 45.6378135681 54.3841552734 62.8298454285 70.6774597168 78.296913147 86.0819549561 
13.9375677109 21.7214584351 29.3392753601 37.1872062683 45.636428833 54.3854370117 62.8330535889 70.6798171997 78.297744751 86.0821456909 13.8993968964 21.4933586121 28.5711364746 36.26379776 45.2352371216 54.7886428833 63.756942749 71.4467773438 78.5246505737 86.1201553345 13.8771295547 21.3172683716 28.0804634094 35.6788444519 44.9597663879 55.065486908 64.3419799805 71.9368743896 78.6998672485 86.1423492432 13.8591842651 21.2070884705 27.8190345764 35.3908729553 44.8367729187 55.1891059875 64.6301193237 72.1980133057 78.8096389771 86.160194397 13.8465614319 21.1513767242 27.6889438629 35.2599563599 44.7849731445 55.2411613464 64.7611465454 72.3279876709 78.8651199341 86.1727828979 13.8465709686 21.1514186859 27.689043045 35.2600326538 44.785030365 55.2411117554 64.7610778809 72.3279037476 78.8650894165 86.1727752686 13.8592224121 21.2072868347 27.8194961548 35.3914031982 44.8369789124 55.1889038086 64.6296081543 72.1975708008 78.8094482422 86.1601486206 13.8771686554 21.3175926208 28.0812797546 35.6798973083 44.960483551 55.0648384094 64.3409805298 71.9361190796 78.6995697021 86.1423187256 13.8994665146 21.4938907623 28.572807312 36.265411377 45.2361869812 54.787689209 63.7554626465 71.4450912476 78.5241165161 86.1200942993 13.9377155304 21.7221984863 29.3414516449 37.1902389526 45.6377677917 54.3842086792 62.82995224 70.6775588989 78.2969894409 86.0820007324 
13.9375610352 21.721446991 29.3392543793 37.187171936 45.6364135742 54.3854484558 62.8330841064 70.6798477173 78.2977676392 86.0821609497 13.8993883133 21.4933395386 28.5710735321 36.2636375427 45.2351493835 54.7887268066 63.7570915222 71.4468460083 78.5246734619 86.1201782227 13.877114296 21.3172130585 28.0802726746 35.678440094 44.9594306946 55.0658226013 64.3423995972 71.9370498657 78.6999206543 86.142364502 13.8591632843 21.2069664001 27.8186206818 35.3898849487 44.8360443115 55.1898345947 64.6311035156 72.1984176636 78.8097457886 86.1602172852 13.8465366364 21.1512107849 27.6883449554 35.2584342957 44.7839889526 55.2421455383 64.7626571655 72.3285751343 78.8652954102 86.1728057861 13.8465461731 21.1512470245 27.6884460449 35.2585105896 44.7840538025 55.2420921326 64.762588501 72.3284835815 78.8652496338 86.1727981567 13.8592004776 21.2071647644 27.8190879822 35.3904190063 44.8362617493 55.1896362305 64.6305923462 72.1979827881 78.8095703125 86.1601791382 13.877155304 21.317533493 28.0810871124 35.6794929504 44.9601325989 55.0651741028 64.3413848877 71.9363174438 78.6996154785 86.1423339844 13.8994579315 21.4938697815 28.5727462769 36.2652549744 45.2360992432 54.7877731323 63.7556152344 71.4451522827 78.5241394043 86.1201095581 13.9377088547 21.7221851349 29.3414230347 37.1902084351 45.6377563477 54.3842163086 62.8299865723 70.6775741577 78.2969970703 86.0820007324 
13.9375591278 21.7214431763 29.3392410278 37.1871604919 45.6364135742 54.3854522705 62.8331031799 70.6798629761 78.2977600098 86.0821685791 13.8993835449 21.4933300018 28.5710430145 36.2635803223 45.2351150513 54.7887649536 63.7571487427 71.4468765259 78.5246887207 86.1201782227 13.8771123886 21.3171844482 28.0801963806 35.6783027649 44.9593086243 55.0659561157 64.3425216675 71.9371337891 78.6999511719 86.142364502 13.8591566086 21.2069244385 27.8184623718 35.3895454407 44.8357963562 55.1900863647 64.6314315796 72.1985702515 78.8097991943 86.1602325439 13.8465270996 21.1511421204 27.688123703 35.2578926086 44.783657074 55.2424926758 64.7631988525 72.3288040161 78.8653564453 86.1728134155 13.8465366364 21.1511802673 27.6882286072 35.2579727173 44.7837142944 55.24243927 64.7631225586 72.328704834 78.8653182983 86.1728134155 13.8591918945 21.2071208954 27.8189430237 35.3900756836 44.8360137939 55.1898803711 64.6309280396 72.1981201172 78.8096160889 86.1602020264 13.8771514893 21.3175106049 28.0810203552 35.6793518066 44.9600143433 55.0652961731 64.3415222168 71.936378479 78.6996536255 86.1423492432 13.8994541168 21.4938640594 28.5727157593 36.2651977539 45.2360687256 54.7878112793 63.7556724548 71.4451828003 78.5241546631 86.1201095581 13.937707901 21.7221755981 29.3414115906 37.190196991 45.6377449036 54.384223938 62.829990387 70.6775817871 78.2970046997 86.081993103 
13.9375591278 21.7214374542 29.3392372131 37.1871566772 45.6364135742 54.3854598999 62.833114624 70.6798706055 78.2977600098 86.0821685791 13.8993806839 21.4933261871 28.571023941 36.2635536194 45.2351036072 54.7887802124 63.7571792603 71.4468917847 78.5246887207 86.1201782227 13.8771085739 21.3171749115 28.080165863 35.6782417297 44.9592590332 55.0660171509 64.3425827026 71.937171936 78.6999664307 86.142364502 13.8591537476 21.2069034576 27.8183937073 35.3893966675 44.8356895447 55.1902008057 64.6315917969 72.198638916 78.8098297119 86.1602325439 13.8465232849 21.1511116028 27.6880207062 35.2576599121 44.7835044861 55.2426338196 64.7634353638 72.3289031982 78.8653869629 86.1728210449 13.8465328217 21.1511497498 27.6881217957 35.2577362061 44.7835617065 55.2425804138 64.7633590698 72.3288116455 78.8653564453 86.1728057861 13.8591899872 21.2070980072 27.8188667297 35.3899269104 44.8359031677 55.1899871826 64.631072998 72.1982116699 78.8096466064 86.1602020264 13.8771476746 21.3174991608 28.0809783936 35.6792945862 44.9599647522 55.0653343201 64.341583252 71.936416626 78.6996688843 86.1423492432 13.8994522095 21.4938583374 28.5727005005 36.265171051 45.2360534668 54.7878227234 63.7556915283 71.4451904297 78.5241622925 86.1201095581 13.9377059937 21.7221717834 29.3414096832 37.1901893616 45.6377449036 54.3842315674 62.8300094604 70.6775970459 78.2970046997 86.081993103 
