13.9474592209 21.7390289307 29.3381652832 37.2785110474 45.7110748291 54.3104171753 62.742061615 70.6809768677 78.2801513672 86.0722732544 13.9172058105 21.5285625458 28.6915531158 36.6190643311 45.4473953247 54.5754127502 63.4021072388 71.3268508911 78.4895172119 86.1024093628 13.9068136215 21.390920639 28.3338050842 36.2195625305 45.2775382996 54.7461395264 63.8018760681 71.684173584 78.6265487671 86.1127624512 13.9010238647 21.3193664551 28.1692028046 36.0393943787 45.1999664307 54.8241004944 63.9821662903 71.8486099243 78.6978607178 86.1185073853 13.897974968 21.2866973877 28.0916671753 35.956615448 45.1651382446 54.8590927124 64.0650024414 71.9260406494 78.7303924561 86.1215362549 13.897977829 21.2867202759 28.0917224884 35.9566879272 45.1651611328 54.8590545654 64.0649337769 71.9259872437 78.7303771973 86.1215362549 13.9010334015 21.3194904327 28.169500351 36.039768219 45.2001037598 54.8239479065 63.9818077087 71.8483047485 78.6977386475 86.1185073853 13.9068279266 21.3911628723 28.3344078064 36.2201881409 45.2779464722 54.7457122803 63.8012542725 71.6835632324 78.6263046265 86.112739563 13.9172487259 21.5289840698 28.692741394 36.620300293 45.4479026794 54.5749053955 63.4008827209 71.3256530762 78.4890975952 86.1023712158 13.9475879669 21.7397212982 29.3401489258 37.280708313 45.7121047974 54.3094024658 62.7398986816 70.6790390015 78.2794570923 86.0721588135 
13.939740181 21.7169456482 29.3052635193 37.2122497559 45.6693191528 54.3523864746 62.8082542419 70.7138214111 78.302192688 86.0799865723 13.9051027298 21.4947872162 28.5975418091 36.4774131775 45.3781433105 54.6450119019 63.5437469482 71.4206695557 78.5232086182 86.1144714355 13.887556076 21.3448352814 28.1856708527 36.0504951477 45.1976928711 54.8263664246 63.9709472656 71.8321380615 78.6723937988 86.1319580078 13.8757266998 21.2629566193 28.0172672272 35.8723564148 45.1215209961 54.9029312134 64.1492156982 72.0003814697 78.7540130615 86.1437225342 13.8685064316 21.2268371582 27.9450531006 35.795463562 45.0890769958 54.9355239868 64.2261581421 72.0725402832 78.7900314331 86.1509170532 13.8685131073 21.226858139 27.9451026917 35.7955245972 45.0891036987 54.9355010986 64.2260894775 72.0724868774 78.7900085449 86.1509017944 13.875749588 21.2631015778 28.0175552368 35.8726997375 45.1216468811 54.9027900696 64.1488723755 72.0000915527 78.753868103 86.143699646 13.8875875473 21.3451118469 28.1863250732 36.0511665344 45.1981391907 54.825920105 63.9703025818 71.8314819336 78.67212677 86.1319198608 13.9051609039 21.4952392578 28.5989494324 36.4787483215 45.3787231445 54.6444129944 63.5424346924 71.4192504883 78.5227661133 86.1144180298 13.9398765564 21.7176437378 29.3072414398 37.2146720886 45.6704330444 54.3513031006 62.8058547974 70.7119064331 78.3015136719 86.079826355 
13.9372167587 21.7107658386 29.2972412109 37.1918983459 45.652885437 54.3688964844 62.8285522461 70.7218322754 78.3083724976 86.0824966431 13.9007301331 21.4817829132 28.5633659363 36.3961982727 45.3299751282 54.6934242249 63.6248817444 71.4547348022 78.5361785889 86.1188278198 13.8809623718 21.3173751831 28.1012687683 35.9162330627 45.1287841797 54.8956336975 64.1051864624 71.9163513184 78.699760437 86.1385116577 13.8660211563 21.2214012146 27.8915786743 35.7148704529 45.0456924438 54.9791297913 64.3067092896 72.1258926392 78.7953872681 86.1533966064 13.8568067551 21.1768054962 27.8041763306 35.6303405762 45.0111885071 55.0138053894 64.3913116455 72.2132339478 78.8398284912 86.1625747681 13.8568162918 21.1768341064 27.8042392731 35.6303977966 45.0112228394 55.0137748718 64.3912506104 72.2131729126 78.8397979736 86.1625518799 13.8660535812 21.2215766907 27.8919334412 35.7152481079 45.0458374023 54.9789848328 64.3063278198 72.1255493164 78.7952041626 86.1533660889 13.8810024261 21.3176898956 28.1020584106 35.9170188904 45.1292495728 54.8951568604 64.1044082642 71.9155960083 78.6994552612 86.1384658813 13.9007930756 21.4822654724 28.5648765564 36.3976860046 45.3306732178 54.6926956177 63.6234359741 71.4532241821 78.5357131958 86.1187744141 13.9373540878 21.7114486694 29.2991924286 37.1944389343 45.6540603638 54.367767334 62.8260231018 70.7199630737 78.3077316284 86.0823516846 
13.9361953735 21.7085494995 29.2952003479 37.185382843 45.6475257874 54.3742866516 62.8350639343 70.7238769531 78.3105926514 86.0835037231 13.8989515305 21.4771499634 28.5494441986 36.3586502075 45.303691864 54.7198448181 63.6623687744 71.4686126709 78.540802002 86.12059021 13.8780269623 21.3051395416 28.0646305084 35.8352241516 45.0815963745 54.9430389404 64.186126709 71.95287323 78.7119598389 86.1414489746 13.8620195389 21.1984653473 27.820230484 35.6043395996 44.9882926941 55.0368232727 64.4172134399 72.1970977783 78.8182296753 86.1573944092 13.85181427 21.1453895569 27.7123775482 35.5064620972 44.9496574402 55.0756492615 64.5151748657 72.3048934937 78.8711166382 86.1675338745 13.8518228531 21.1454257965 27.7124557495 35.5065307617 44.9496917725 55.0756072998 64.5151062012 72.3048171997 78.8710784912 86.1675186157 13.8620538712 21.1986656189 27.8206653595 35.604763031 44.9884414673 55.0366592407 64.4167785645 72.1966705322 78.8180389404 86.1573638916 13.8780698776 21.305475235 28.0654907227 35.8361129761 45.0821075439 54.9425392151 64.1852416992 71.9520492554 78.7116165161 86.1413879395 13.899014473 21.4776420593 28.5510082245 36.3602256775 45.3044662476 54.7190322876 63.6608276367 71.4670639038 78.5403289795 86.1205444336 13.9363327026 21.7092151642 29.2971172333 37.1879768372 45.6486930847 54.3731536865 62.8324813843 70.7220535278 78.3099517822 86.083366394 
13.935760498 21.7077293396 29.294752121 37.1831626892 45.6457061768 54.3761177063 62.8372802734 70.7243118286 78.3114242554 86.0839233398 13.8981513977 21.4754562378 28.5440597534 36.3426475525 45.2909812927 54.7326164246 63.6783409119 71.4739837646 78.5425109863 86.1213989258 13.876704216 21.2998085022 28.0475845337 35.7932662964 45.0540275574 54.9707603455 64.2280197144 71.9698867798 78.7172698975 86.1427688599 13.860042572 21.1873264313 27.78515625 35.5382194519 44.9510192871 55.0742874146 64.483291626 72.2321014404 78.8293304443 86.159362793 13.8493804932 21.1295013428 27.66198349 35.4279136658 44.9081039429 55.117401123 64.5937042236 72.3551940918 78.8869400024 86.1699752808 13.8493890762 21.1295471191 27.6620731354 35.4279899597 44.9081459045 55.1173477173 64.5936355591 72.3550949097 78.8869018555 86.169960022 13.8600769043 21.187543869 27.7856311798 35.5386886597 44.9511871338 55.0741004944 64.4828262329 72.2316131592 78.8291168213 86.1593170166 13.8767490387 21.3001556396 28.0484733582 35.7942352295 45.0545387268 54.9702262878 64.2270584106 71.9690093994 78.7169265747 86.1427078247 13.8982172012 21.4759521484 28.5456428528 36.3442611694 45.2917976379 54.7317581177 63.6767692566 71.4723968506 78.5420227051 86.1213378906 13.9358940125 21.7083892822 29.2966480255 37.185760498 45.6468696594 54.3749961853 62.8346786499 70.7225189209 78.3107910156 86.0838088989 
13.935552597 21.7074146271 29.2948112488 37.1825256348 45.6449813843 54.3768386841 62.8379173279 70.7242584229 78.3117370605 86.0841369629 13.8977766037 21.4747924805 28.5418434143 36.3355255127 45.2855949402 54.7380256653 63.6854515076 71.4761810303 78.5431594849 86.1217727661 13.8760604858 21.2973041534 28.0391769409 35.7724494934 45.0388832092 54.9859657288 64.2487945557 71.978263855 78.7197647095 86.143409729 13.8590259552 21.1816978455 27.767414093 35.5008239746 44.9286346436 55.0967788696 64.5206604004 72.2497787476 78.8349380493 86.1603622437 13.8481121063 21.1212215424 27.6352901459 35.3811073303 44.8821563721 55.1434822083 64.6404953003 72.3818130493 78.8951950073 86.1712341309 13.8481225967 21.1212654114 27.63539505 35.381187439 44.882194519 55.1434326172 64.6404190063 72.3817214966 78.895149231 86.1712265015 13.8590621948 21.1819229126 27.7679214478 35.5013237 44.9288291931 55.096572876 64.520149231 72.2492828369 78.8347244263 86.1603088379 13.8761081696 21.2976589203 28.0400867462 35.7734603882 45.0394287109 54.9854278564 64.2478027344 71.9773712158 78.7194213867 86.1433639526 13.8978395462 21.4752883911 28.5434360504 36.3371696472 45.286441803 54.7371444702 63.6838607788 71.4745941162 78.5426712036 86.121711731 13.9356870651 21.7080726624 29.2966938019 37.1851387024 45.6461448669 54.3757247925 62.8352966309 70.7224807739 78.3111114502 86.0839996338 
13.9354496002 21.7072811127 29.2949428558 37.1823387146 45.6446647644 54.3771591187 62.838104248 70.7241210938 78.3118743896 86.0842590332 13.8975849152 21.474521637 28.5408706665 36.3321609497 45.2830276489 54.7406005859 63.6888198853 71.477142334 78.5434265137 86.121963501 13.8757286072 21.296049118 28.0349636078 35.7619400024 45.0306472778 54.9942550659 64.2592849731 71.982460022 78.7210159302 86.1437454224 13.8584909439 21.1787261963 27.7579269409 35.4797363281 44.9154815674 55.1100006104 64.5417327881 72.2592391968 78.8379058838 86.1608963013 13.8474235535 21.116765976 27.6208400726 35.3534317017 44.8663406372 55.1593780518 64.6681518555 72.3962402344 78.8996276855 86.1719207764 13.8474340439 21.1168079376 27.6209411621 35.353515625 44.8663864136 55.159324646 64.6680755615 72.3961334229 78.8995895386 86.171913147 13.8585281372 21.1789550781 27.7584438324 35.480255127 44.9156761169 55.109790802 64.5412063599 72.2587280273 78.8376617432 86.1608505249 13.8757734299 21.2964076996 28.0358848572 35.7629737854 45.0312042236 54.9936904907 64.2582550049 71.9815673828 78.7206726074 86.1436843872 13.8976535797 21.4750232697 28.5424728394 36.3338012695 45.2838859558 54.7397079468 63.6872177124 71.4755630493 78.5429534912 86.1219024658 13.935585022 21.7079334259 29.2968158722 37.1849594116 45.6458244324 54.3760490417 62.8354797363 70.7223587036 78.3112564087 86.0841293335 
