2.26566386223 3.9530711174 6.97416210175 9.72592735291 11.206571579 11.2054157257 9.72017288208 6.96644067764 3.94606852531 2.26554560661 2.29183149338 5.15179872513 9.94373512268 14.3010463715 16.6467437744 16.644908905 14.2919797897 9.93155193329 5.14047145844 2.29150795937 2.31522536278 6.0135550499 11.9612541199 17.3277740479 20.2870502472 20.2847385406 17.3164405823 11.946313858 5.99924850464 2.31472086906 2.3312253952 6.51644945145 13.0786733627 18.9375076294 22.1696739197 22.1671562195 18.9251823425 13.0623111725 6.50048732758 2.33059859276 2.33971309662 6.76333379745 13.6175308228 19.6918067932 23.0412120819 23.0386123657 19.6790523529 13.6005210876 6.74658489227 2.33902215958 2.33970665932 6.7631444931 13.6171207428 19.6912345886 23.0405521393 23.0379562378 19.6784763336 13.6001167297 6.74639701843 2.33901619911 2.33119177818 6.51546239853 13.0764951706 18.9343910217 22.1660690308 22.1635513306 18.922077179 13.0601491928 6.49950838089 2.33056545258 2.31517624855 6.01183080673 11.9573698044 17.3220367432 20.2797336578 20.277469635 17.3107471466 11.9424667358 5.99754285812 2.31467175484 2.29176092148 5.14920854568 9.93744850159 14.2917861938 16.635269165 16.6334667206 14.2828330994 9.92532253265 5.13792133331 2.29143929482 2.26561427116 3.94962263107 6.96524715424 9.71124076843 11.1887569427 11.1878242493 9.70550441742 6.95769405365 3.94268107414 2.26549601555 
2.26563858986 3.87646007538 6.81138658524 9.52585983276 11.0019807816 11.0008211136 9.52015113831 6.8038225174 3.86971855164 2.26552438736 2.29100084305 5.06379985809 9.77373409271 14.1119537354 16.4774627686 16.4755897522 14.102856636 9.76168251038 5.05273389816 2.29068851471 2.31405925751 5.93310117722 11.8120517731 17.1847934723 20.2404384613 20.2379894257 17.1732902527 11.7972202301 5.91901493073 2.31356835365 2.33034944534 6.45038700104 12.961523056 18.8846969604 22.2842197418 22.281496048 18.8719520569 12.9452095032 6.4345946312 2.32973480225 2.33910322189 6.70872497559 13.5246725082 19.704498291 23.2523441315 23.2495079041 19.6911869049 13.5076560974 6.69211292267 2.33842229843 2.33909702301 6.70852661133 13.5242462158 19.7038764954 23.2516136169 23.2487792969 19.6905670166 13.507229805 6.69191503525 2.33841609955 2.33031487465 6.44936561584 12.9592761993 18.8813819885 22.2802677155 22.277545929 18.8686561584 12.9429788589 6.43358421326 2.32970023155 2.31401014328 5.93135118484 11.8081130981 17.178855896 20.2327880859 20.230386734 17.1673984528 11.7933263779 5.91728448868 2.31351923943 2.2909321785 5.06121587753 9.76741981506 14.1026535034 16.4657096863 16.4638748169 14.0936899185 9.75544071198 5.05019950867 2.29062199593 2.26559185982 3.87312793732 6.8026881218 9.51121902466 10.9842891693 10.9833602905 9.50551795959 6.79533290863 3.86646151543 2.26547789574 
2.265635252 3.87320947647 6.80439949036 9.51710414886 10.9927978516 10.9916372299 9.51139640808 6.79684209824 3.86647868156 2.26552128792 2.29096102715 5.0599656105 9.76619243622 14.103140831 16.4687519073 16.4668807983 14.0940437317 9.75414657593 5.04891109467 2.29064917564 2.31400418282 5.92954969406 11.8053026199 17.1772460938 20.2341251373 20.2316741943 17.1657371521 11.7904806137 5.91547346115 2.31351399422 2.33030676842 6.44758749008 12.9564571381 18.8809070587 22.2872047424 22.2844696045 18.8681526184 12.9401454926 6.43180274963 2.32969260216 2.3390827179 6.70658731461 13.5211992264 19.7052288055 23.265581131 23.2627334595 19.6918945312 13.5041847229 6.68998098373 2.33840203285 2.33907628059 6.70638847351 13.520772934 19.7046012878 23.264837265 23.2619895935 19.6912708282 13.5037574768 6.68978214264 2.33839607239 2.33027219772 6.4465637207 12.9542064667 18.87758255 22.2832202911 22.2804889679 18.8648452759 12.9379081726 6.43079090118 2.32965779305 2.31395506859 5.92779827118 11.801363945 17.1713027954 20.2264556885 20.2240600586 17.1598415375 11.7865848541 5.91374158859 2.31346511841 2.29089260101 5.05738067627 9.7598772049 14.0938415527 16.4569911957 16.4551563263 14.0848770142 9.74790477753 5.04637670517 2.2905831337 2.26558828354 3.86988162994 6.79570913315 9.50246524811 10.9751138687 10.9741830826 9.49676609039 6.78836393356 3.86322760582 2.26547431946 
2.26563501358 3.87305212021 6.80406570435 9.51668930054 10.9923648834 10.9912033081 9.5109834671 6.79650735855 3.86632204056 2.2655210495 2.2909591198 5.05978250504 9.76583576202 14.102730751 16.4683475494 16.4664745331 14.0936336517 9.75379180908 5.04872941971 2.29064702988 2.31400132179 5.92938661575 11.8049964905 17.1769008636 20.233833313 20.23138237 17.165397644 11.7901735306 5.91531133652 2.31351113319 2.33030557632 6.44747066498 12.9562559128 18.8807888031 22.2873916626 22.2846565247 18.8680343628 12.9399452209 6.43168783188 2.32969117165 2.3390827179 6.70651292801 13.5211000443 19.7054023743 23.2665405273 23.2636890411 19.6920681 13.5040845871 6.68990564346 2.33840250969 2.33907628059 6.70631504059 13.5206737518 19.7047748566 23.2658004761 23.2629470825 19.6914424896 13.5036582947 6.68970823288 2.33839583397 2.33027076721 6.44644784927 12.954003334 18.8774604797 22.2834129333 22.2806777954 18.8647232056 12.937707901 6.43067455292 2.32965707779 2.31395244598 5.92763519287 11.8010559082 17.1709575653 20.2261619568 20.2237701416 17.1594982147 11.786277771 5.91357898712 2.3134624958 2.29089069366 5.0571975708 9.75951957703 14.0934295654 16.4565868378 16.454750061 14.0844650269 9.74755001068 5.04619407654 2.29058074951 2.26558804512 3.86972427368 6.79537630081 9.50205135345 10.9746799469 10.9737482071 9.49635314941 6.78803157806 3.86307048798 2.2654747963 
2.26563501358 3.87304830551 6.80406045914 9.51668739319 10.9923648834 10.9912042618 9.51098251343 6.79650259018 3.86631846428 2.26552081108 2.2909591198 5.05978155136 9.76583766937 14.1027383804 16.4683589935 16.4664878845 14.0936431885 9.75379562378 5.04872846603 2.29064702988 2.31400203705 5.92939186096 11.8050079346 17.1769275665 20.2338676453 20.2314147949 17.1654205322 11.790186882 5.91531610489 2.31351161003 2.33030629158 6.44748306274 12.9562864304 18.8808441162 22.2874794006 22.2847480774 18.8680896759 12.9399757385 6.43169975281 2.32969164848 2.33908319473 6.70653057098 13.5211439133 19.7054977417 23.2667293549 23.263874054 19.6921615601 13.5041255951 6.68992519379 2.33840322495 2.33907675743 6.70633268356 13.5207157135 19.7048721313 23.2659835815 23.2631340027 19.6915359497 13.5037002563 6.68972682953 2.33839654922 2.33027148247 6.44646072388 12.9540338516 18.8775177002 22.2835044861 22.2807693481 18.8647785187 12.9377384186 6.43068695068 2.32965731621 2.3139526844 5.92763900757 11.8010721207 17.1709823608 20.2261943817 20.2238006592 17.1595211029 11.7862892151 5.91358232498 2.31346297264 2.29089093208 5.05719709396 9.75952339172 14.0934381485 16.4565963745 16.4547634125 14.0844755173 9.74755191803 5.0461935997 2.29058098793 2.26558828354 3.86972045898 6.79537010193 9.50204944611 10.9746799469 10.9737501144 9.49635028839 6.78802680969 3.86306762695 2.26547503471 
2.26563501358 3.87305641174 6.80408096313 9.51671791077 10.9923992157 10.9912395477 9.51101303101 6.7965221405 3.86632633209 2.26552128792 2.29095935822 5.0597949028 9.7658662796 14.1027793884 16.4684066772 16.4665336609 14.0936832428 9.75382614136 5.04874181747 2.2906472683 2.31400203705 5.92940998077 11.8050479889 17.1769828796 20.2339305878 20.2314796448 17.1654758453 11.790225029 5.91533374786 2.31351184845 2.33030653 6.44750595093 12.9563331604 18.8809185028 22.2875709534 22.2848358154 18.8681602478 12.9400224686 6.43172264099 2.32969212532 2.33908390999 6.70655632019 13.521197319 19.7055854797 23.2668437958 23.2639942169 19.6922512054 13.5041799545 6.68994998932 2.33840346336 2.33907771111 6.70635795593 13.5207710266 19.7049598694 23.2661018372 23.263250351 19.6916255951 13.5037565231 6.6897521019 2.33839726448 2.3302719593 6.44648218155 12.9540815353 18.8775901794 22.2835903168 22.2808589935 18.8648529053 12.9377880096 6.43070983887 2.32965779305 2.31395292282 5.92765760422 11.8011074066 17.171037674 20.2262630463 20.2238616943 17.1595745087 11.7863292694 5.91360092163 2.31346297264 2.29089093208 5.0572104454 9.7595539093 14.0934791565 16.4566440582 16.4548091888 14.0845184326 9.74758338928 5.0462064743 2.29058146477 2.26558828354 3.86972856522 6.7953915596 9.50207996368 10.9747142792 10.9737844467 9.49638271332 6.78804683685 3.86307525635 2.26547503471 
2.265635252 3.87306594849 6.80410480499 9.51675224304 10.99243927 10.9912757874 9.51104545593 6.7965464592 3.86633586884 2.26552152634 2.29095983505 5.05980968475 9.76590061188 14.1028270721 16.4684562683 16.4665813446 14.0937299728 9.75385665894 5.04875612259 2.29064774513 2.3140027523 5.92942810059 11.8050899506 17.1770401001 20.2339935303 20.2315444946 17.1655349731 11.790268898 5.91535377502 2.31351280212 2.33030700684 6.44752931595 12.9563837051 18.8809928894 22.2876625061 22.2849235535 18.8682327271 12.9400720596 6.43174648285 2.32969236374 2.33908486366 6.70658349991 13.5212545395 19.7056751251 23.2669582367 23.2641067505 19.6923389435 13.5042352676 6.68997621536 2.33840465546 2.33907818794 6.70638418198 13.5208263397 19.7050476074 23.2662124634 23.2633647919 19.6917152405 13.5038108826 6.68977737427 2.33839797974 2.33027267456 6.44650697708 12.9541311264 18.8776626587 22.2836799622 22.2809467316 18.8649272919 12.9378376007 6.43073272705 2.32965874672 2.31395363808 5.92767763138 11.8011493683 17.1710948944 20.2263221741 20.2239265442 17.1596355438 11.7863702774 5.91362047195 2.31346344948 2.2908911705 5.05722475052 9.75958633423 14.0935239792 16.4566936493 16.4548587799 14.084564209 9.74761581421 5.04622077942 2.29058146477 2.26558852196 3.86973810196 6.79541540146 9.50211429596 10.9747543335 10.973824501 9.49641609192 6.78807067871 3.86308455467 2.26547527313 
