13.9396419525 21.7314281464 29.3611717224 37.2040710449 45.6371841431 54.3846817017 62.8161392212 70.6579360962 78.2878036499 86.0800857544 13.9025802612 21.5132846832 28.6229839325 36.2620277405 45.2290916443 54.7948188782 63.758518219 71.3949203491 78.5047912598 86.1169967651 13.8815126419 21.3490524292 28.1673984528 35.7162094116 44.9746360779 55.0505561829 64.3044281006 71.8499679565 78.6682052612 86.1379699707 13.8638648987 21.252532959 27.9412002563 35.4828605652 44.8780670166 55.147605896 64.5379486084 72.0759429932 78.7643585205 86.1555404663 13.85105896 21.206495285 27.8337097168 35.3849105835 44.839641571 55.1862297058 64.6359863281 72.1833572388 78.8102035522 86.1682891846 13.851067543 21.2065219879 27.833782196 35.3849601746 44.8396873474 55.1861953735 64.6359405518 72.1833190918 78.8101806641 86.1682739258 13.8639059067 21.2526988983 27.9415798187 35.4832649231 44.8782424927 55.1474647522 64.5375747681 72.0755996704 78.7642059326 86.1555023193 13.8815574646 21.3493881226 28.1681785583 35.7170791626 44.9753112793 55.0499458313 64.3036193848 71.8492507935 78.6678924561 86.1379394531 13.9026546478 21.513835907 28.6247272491 36.2636260986 45.2300415039 54.7938613892 63.757106781 71.3931655884 78.504234314 86.1169128418 13.9397907257 21.7321605682 29.3633022308 37.2072410583 45.638671875 54.3833198547 62.8129005432 70.6557006836 78.2870330811 86.0799255371 
13.9385786057 21.7279834747 29.3543224335 37.1954116821 45.633556366 54.3883285522 62.8248023987 70.6647949219 78.2912445068 86.0811309814 13.9010801315 21.508430481 28.6072463989 36.2333984375 45.211265564 54.8127365112 63.787147522 71.4106216431 78.5096359253 86.1184921265 13.8795013428 21.340473175 28.1383075714 35.6522026062 44.9276504517 55.0977745056 64.3683395386 71.8789901733 78.6767578125 86.1399765015 13.8613815308 21.2393302917 27.8959197998 35.3763198853 44.8093986511 55.2166290283 64.6443405151 72.1211090088 78.7775115967 86.1580200195 13.8482160568 21.1897354126 27.7764282227 35.2542800903 44.761390686 55.2648696899 64.7664871216 72.240486145 78.8268966675 86.1711273193 13.8482246399 21.1897621155 27.7765102386 35.2543487549 44.7614517212 55.2648200989 64.7664337158 72.2404098511 78.8268737793 86.1711196899 13.8614225388 21.2395076752 27.8963279724 35.3768043518 44.8096008301 55.2164459229 64.6438903809 72.1207351685 78.7773590088 86.157989502 13.8795461655 21.3408203125 28.1391296387 35.6531982422 44.9284362793 55.0970573425 64.3674163818 71.8782577515 78.6764373779 86.1399459839 13.9011564255 21.5089969635 28.6090373993 36.2350311279 45.2122764587 54.8117179871 63.7856826782 71.4088058472 78.5090637207 86.1184158325 13.9387302399 21.7287197113 29.3564758301 37.1986312866 45.6350250244 54.3869972229 62.8215141296 70.6624908447 78.2904663086 86.0809936523 
13.9385356903 21.7278556824 29.3540763855 37.1950950623 45.6334495544 54.3884353638 62.8251113892 70.6650314331 78.2913665771 86.0811767578 13.9010210037 21.5082492828 28.6066551208 36.2323532104 45.210735321 54.8132705688 63.7881813049 71.4111938477 78.5098114014 86.1185455322 13.8794193268 21.3401298523 28.1371421814 35.649848938 44.9255981445 55.0998382568 64.3706893921 71.8801574707 78.6771087646 86.1400604248 13.861284256 21.2387886047 27.8939762115 35.37134552 44.8052902222 55.2207565308 64.649307251 72.1230392456 78.7780532837 86.1581115723 13.8481044769 21.1890487671 27.77394104 35.2470626831 44.7560920715 55.270198822 64.77368927 72.2429733276 78.827583313 86.1712341309 13.8481140137 21.1890773773 27.7740287781 35.247127533 44.756149292 55.2701416016 64.7736358643 72.2428894043 78.8275604248 86.1712265015 13.8613243103 21.2389640808 27.8943881989 35.371837616 44.8054885864 55.2205657959 64.6488494873 72.1226654053 78.7778930664 86.1580734253 13.8794651031 21.340473175 28.1379680634 35.6508522034 44.926410675 55.099105835 64.369758606 71.8793869019 78.6767730713 86.1400146484 13.901096344 21.5088195801 28.6084537506 36.233997345 45.2117500305 54.8122520447 63.7867279053 71.4093933105 78.5092315674 86.1184768677 13.9386882782 21.7285881042 29.3562221527 37.1983222961 45.6349143982 54.3871002197 62.8218078613 70.6627502441 78.2905960083 86.0810241699 
13.9385347366 21.7278442383 29.3540496826 37.1950759888 45.6334381104 54.3884391785 62.8251342773 70.6650466919 78.2913894653 86.0811767578 13.901017189 21.5082359314 28.6066055298 36.2322807312 45.2106933594 54.8133087158 63.7882575989 71.4112625122 78.5098342896 86.1185531616 13.8794145584 21.3400974274 28.1370391846 35.649684906 44.9254455566 55.0999908447 64.3708572388 71.8802566528 78.6771392822 86.140083313 13.8612747192 21.238735199 27.8938179016 35.3709754944 44.8049583435 55.2210845947 64.6496810913 72.1231994629 78.7780990601 86.1581268311 13.8480958939 21.1889896393 27.773727417 35.2464523315 44.7556266785 55.2706604004 64.774307251 72.2431793213 78.8276367188 86.171257019 13.8481044769 21.1890163422 27.773815155 35.2465171814 44.7556915283 55.2706108093 64.7742385864 72.2430877686 78.82762146 86.1712417603 13.8613147736 21.2389144897 27.8942279816 35.3714675903 44.8051528931 55.220905304 64.6492233276 72.1228256226 78.7779464722 86.1580886841 13.8794603348 21.3404445648 28.1378650665 35.6506881714 44.9262580872 55.0992546082 64.3699264526 71.8794937134 78.6768035889 86.1400299072 13.9010915756 21.5088043213 28.6084041595 36.2339172363 45.2117118835 54.812286377 63.7868080139 71.4094314575 78.509262085 86.1184768677 13.9386835098 21.7285766602 29.3562030792 37.1982955933 45.6349067688 54.3871116638 62.8218421936 70.6627578735 78.2906112671 86.0810165405 
13.9385318756 21.7278423309 29.3540401459 37.1950645447 45.633430481 54.3884429932 62.8251495361 70.6650543213 78.2913818359 86.0811767578 13.9010162354 21.5082302094 28.606590271 36.2322540283 45.21068573 54.8133163452 63.7882766724 71.4112625122 78.5098266602 86.1185531616 13.8794126511 21.3400917053 28.1370182037 35.649646759 44.9254188538 55.1000213623 64.3709030151 71.8802871704 78.6771392822 86.140083313 13.8612728119 21.2387218475 27.8937797546 35.3709030151 44.8049087524 55.2211380005 64.6497421265 72.1232376099 78.7781219482 86.1581268311 13.8480939865 21.1889724731 27.7736797333 35.24634552 44.7555580139 55.2707328796 64.7743988037 72.2432250977 78.8276519775 86.171257019 13.8481016159 21.1890010834 27.7737674713 35.2464103699 44.7556152344 55.270690918 64.7743453979 72.2431411743 78.8276367188 86.1712417603 13.8613128662 21.2389011383 27.8941898346 35.3714027405 44.8051147461 55.2209510803 64.6492843628 72.1228561401 78.777961731 86.1580886841 13.8794565201 21.3404350281 28.137840271 35.6506500244 44.9262390137 55.0992736816 64.3699645996 71.8795166016 78.6768188477 86.1400299072 13.9010915756 21.5087966919 28.6083889008 36.2338981628 45.2117042542 54.8122940063 63.786819458 71.4094543457 78.509262085 86.1184768677 13.9386854172 21.7285785675 29.3561992645 37.1982879639 45.6348991394 54.3871192932 62.821849823 70.6627655029 78.2906112671 86.0810165405 
13.9385318756 21.7278404236 29.3540401459 37.19506073 45.6334266663 54.3884506226 62.8251495361 70.6650772095 78.2913818359 86.0811767578 13.9010152817 21.508228302 28.6065826416 36.2322425842 45.2106819153 54.8133239746 63.7882919312 71.411277771 78.5098419189 86.1185531616 13.8794126511 21.3400821686 28.1370010376 35.6496238708 44.9254074097 55.100025177 64.3709182739 71.8803024292 78.6771469116 86.140083313 13.8612709045 21.2387161255 27.8937511444 35.3708648682 44.8048858643 55.2211685181 64.6497802734 72.123260498 78.7781143188 86.1581344604 13.8480939865 21.1889629364 27.7736492157 35.2462997437 44.755531311 55.2707557678 64.7744522095 72.2432479858 78.8276596069 86.171257019 13.8480997086 21.1889877319 27.7737312317 35.2463569641 44.7555923462 55.2707061768 64.7743988037 72.2431716919 78.8276519775 86.1712417603 13.8613128662 21.2388916016 27.8941669464 35.3713607788 44.8050842285 55.2209815979 64.6493225098 72.1228790283 78.7779693604 86.1580886841 13.8794584274 21.3404312134 28.1378250122 35.6506309509 44.9262199402 55.0992851257 64.3699874878 71.8795394897 78.6768341064 86.1400299072 13.9010915756 21.5087947845 28.6083774567 36.2338867188 45.2116966248 54.8123092651 63.7868347168 71.4094619751 78.509262085 86.1184768677 13.9386854172 21.7285766602 29.3561916351 37.1982803345 45.6348991394 54.3871269226 62.8218574524 70.6627731323 78.2906112671 86.0810165405 
13.9385318756 21.7278366089 29.3540363312 37.1950492859 45.6334228516 54.3884506226 62.8251571655 70.6650772095 78.2913894653 86.0811767578 13.901017189 21.5082244873 28.6065711975 36.2322311401 45.2106742859 54.8133239746 63.7883071899 71.4112930298 78.5098342896 86.1185531616 13.8794116974 21.3400764465 28.1369857788 35.6496086121 44.9253883362 55.1000404358 64.3709335327 71.8802947998 78.677154541 86.140083313 13.8612718582 21.2387084961 27.8937282562 35.3708343506 44.8048629761 55.2211761475 64.6498260498 72.123298645 78.778137207 86.1581420898 13.8480930328 21.188949585 27.7736225128 35.2462539673 44.7555122375 55.2707748413 64.7744903564 72.2432861328 78.8276748657 86.171257019 13.8480997086 21.1889820099 27.7737045288 35.2463150024 44.7555770874 55.2707214355 64.7744369507 72.2432098389 78.8276519775 86.1712417603 13.8613119125 21.2388839722 27.8941383362 35.3713302612 44.8050689697 55.220993042 64.6493682861 72.1229019165 78.7779846191 86.1580886841 13.8794574738 21.340423584 28.1378040314 35.650604248 44.9262046814 55.0993041992 64.3700027466 71.8795547485 78.6768341064 86.1400299072 13.9010906219 21.5087909698 28.6083698273 36.2338752747 45.2116889954 54.8123130798 63.7868461609 71.4094696045 78.5092697144 86.1184768677 13.9386844635 21.7285747528 29.3561878204 37.1982765198 45.6348991394 54.3871192932 62.8218574524 70.6627883911 78.2906112671 86.0810165405 
