14.0179157257 13.8873996735 13.1608543396 12.1465368271 11.6195926666 11.6200017929 12.1486301422 13.1633605957 13.888551712 14.0178556442 22.0136051178 21.7917804718 20.9225978851 19.7932415009 19.1710720062 19.1715641022 19.7956295013 20.9254264832 21.7932891846 22.0135860443 30.007976532 29.7715892792 29.0726222992 28.1881332397 27.6735363007 27.6739501953 28.1900444031 29.0748100281 29.7729034424 30.0079936981 38.0055656433 37.8445701599 37.412311554 36.8784484863 36.5612564087 36.5615119934 36.8796081543 37.413646698 37.8454055786 38.0055923462 46.0076599121 45.9507713318 45.805606842 45.6289482117 45.5231323242 45.5232200623 45.6293334961 45.8060455322 45.9510536194 46.0076789856 54.012336731 54.0695114136 54.2154159546 54.39295578 54.4993438721 54.4992523193 54.3925628662 54.2149543762 54.069229126 54.0123214722 62.0144271851 62.1756439209 62.6085968018 63.1433486938 63.461063385 63.4608154297 63.1421775818 62.6072654724 62.1748046875 62.0144004822 70.012008667 70.2484970093 70.9480285645 71.8333969116 72.3482437134 72.3478393555 71.8315048218 70.94581604 70.247177124 70.0119857788 78.0063858032 78.2280044556 79.097442627 80.2272033691 80.8496017456 80.8490982056 80.2248535156 79.094619751 78.2265167236 78.0064086914 86.0020904541 86.1323394775 86.8576049805 87.8699951172 88.3953399658 88.395072937 87.8679275513 86.8551177979 86.1311798096 86.0021514893 
14.009223938 13.8305921555 13.0795526505 12.002120018 11.4057092667 11.4061927795 12.0044612885 13.0821332932 13.8318347931 14.0092048645 22.0007209778 21.693572998 20.7328338623 19.487039566 18.7874069214 18.7879619598 19.4897232056 20.7359294891 21.6952857971 22.0007629395 29.9925937653 29.6433048248 28.8420314789 27.8774032593 27.3069610596 27.3074245453 27.8795223236 28.8444442749 29.6449146271 29.9926834106 37.9938697815 37.7453384399 37.2476348877 36.668132782 36.3190078735 36.3192901611 36.669418335 37.2490844727 37.746383667 37.9939537048 46.003162384 45.9144592285 45.7464561462 45.5549049377 45.4389228821 45.4390182495 45.5553283691 45.7469406128 45.9148139954 46.003200531 54.0168609619 54.1060180664 54.274887085 54.4674224854 54.5840301514 54.5839309692 54.4669799805 54.2743988037 54.1056671143 54.0168266296 62.0261383057 62.2750053406 62.7735290527 63.3539924622 63.7037315369 63.703453064 63.3527145386 62.7720680237 62.2739715576 62.0260467529 70.0274047852 70.3767547607 71.1786499023 72.1443405151 72.7150192261 72.7145614624 72.1422348022 71.1762619019 70.3751678467 70.0273208618 78.0192565918 78.3261260986 79.2869873047 80.5333175659 81.2331771851 81.2326049805 80.5306777954 79.2839050293 78.3244247437 78.0192184448 86.0107879639 86.1890563965 86.9386749268 88.0137863159 88.6084671021 88.6081695557 88.0114593506 86.9361495972 86.1878204346 86.0107955933 
14.00552845 13.8079891205 13.0493974686 11.9468860626 11.3053808212 11.3059196472 11.9493350983 13.0520048141 13.8092536926 14.00552845 21.9961128235 21.6561794281 20.6513595581 19.31341362 18.5358257294 18.536447525 19.3163719177 20.6546134949 21.6579856873 21.9961795807 29.9873828888 29.5941524506 28.7229633331 27.6703109741 27.0408916473 27.0414009094 27.6726417542 28.7255897522 29.5958957672 29.9874973297 37.9889144897 37.6995506287 37.1494789124 36.5209732056 36.1389198303 36.1392288208 36.5223731995 37.1510696411 37.7007255554 37.9890213013 46.0010871887 45.895160675 45.7090911865 45.5020828247 45.3757553101 45.3758621216 45.5025367737 45.7096061707 45.8955574036 46.0011329651 54.0189590454 54.1254196167 54.3124656677 54.5205001831 54.6475410461 54.6474304199 54.5200386047 54.311920166 54.1250114441 54.0189094543 62.0310974121 62.3208236694 62.8718032837 63.5013656616 63.8840866089 63.8837814331 63.4999580383 62.8702201843 62.3196601868 62.0309867859 70.0326080322 70.4259109497 71.2976837158 72.3515167236 72.9811859131 72.9806747437 72.3491973877 71.2950592041 70.4241714478 70.0324859619 78.0238647461 78.363494873 79.3683395386 80.7067718506 81.4845581055 81.4839248657 80.7038574219 79.3650894165 78.3616943359 78.0237960815 86.0144729614 86.2116241455 86.9687652588 88.0686950684 88.7083282471 88.7080078125 88.0662460327 86.966217041 86.2103729248 86.014465332 
14.0037593842 13.7977390289 13.0374345779 11.9251747131 11.2670469284 11.2676067352 11.9276657104 13.0400476456 13.7990121841 14.0037689209 21.9940948486 21.6398410797 20.6144046783 19.2281017303 18.3975334167 18.3982086182 19.2312164307 20.6177406311 21.6416873932 21.9941730499 29.9853553772 29.5737934113 28.6675357819 27.5493869781 26.870634079 26.8711872101 27.5518989563 28.6702899933 29.5756034851 29.9854869843 37.9873123169 37.681602478 37.0988235474 36.428768158 36.0184211731 36.0187606812 36.4302711487 37.1005134583 37.6828346252 37.9874267578 46.0003967285 45.8874435425 45.6883926392 45.4680786133 45.3327941895 45.332901001 45.4685668945 45.6889533997 45.8878746033 46.0004463196 54.0196380615 54.1331748962 54.3332557678 54.5546875 54.6907424927 54.6906356812 54.5541915894 54.3326950073 54.1327438354 54.0195922852 62.032699585 62.3387947083 62.9224853516 63.5936737061 64.0047531128 64.00440979 63.5921630859 62.9208106995 62.3375549316 62.032585144 70.0346374512 70.4462585449 71.3531112671 72.4724578857 73.1514663696 73.1509094238 72.4699630737 71.3503417969 70.4444580078 70.0345153809 78.0258789062 78.3798217773 79.4052276611 80.7919540405 81.6226730347 81.6219711304 80.7889022827 79.4019088745 78.3779830933 78.0257949829 86.0162353516 86.2218704224 86.98072052 88.0902404785 88.7464447021 88.7461242676 88.0877532959 86.9781723022 86.2206039429 86.0162200928 
14.0028886795 13.7927532196 13.032043457 11.9161376953 11.2510118484 11.2515773773 11.9186458588 13.0346574783 13.7940292358 14.0029010773 21.9931030273 21.6319026947 20.5964355469 19.1866703033 18.3281669617 18.3288726807 19.1898612976 20.5998058319 21.6337680817 21.993183136 29.9843711853 29.5638427734 28.6405105591 27.4825115204 26.7697753906 26.7703647614 27.4851341248 28.6433315277 29.5656890869 29.984500885 37.9865722656 37.6730461121 37.0722846985 36.3737678528 35.9424972534 35.942855835 36.3753395081 37.0740280151 37.6743087769 37.9866905212 46.0000953674 45.8839035034 45.6773376465 45.4470100403 45.3050308228 45.305141449 45.4475326538 45.6779212952 45.8843460083 46.0001487732 54.0199508667 54.1367416382 54.3443641663 54.5758590698 54.718662262 54.7185401917 54.5753288269 54.3437728882 54.1362915039 54.0199012756 62.0334396362 62.3473510742 62.9490470886 63.648727417 64.0807495117 64.080406189 63.6471557617 62.9472999573 62.3461036682 62.0333175659 70.0356140137 70.4562072754 71.3801040649 72.5393371582 73.2522888184 73.2517089844 72.5367279053 71.377281189 70.4543609619 70.035484314 78.0268707275 78.3877410889 79.4231719971 80.8333053589 81.6918792725 81.6911697388 80.8301773071 79.4197998047 78.385887146 78.0267868042 86.0171127319 86.226852417 86.9860916138 88.0991973877 88.7623977661 88.7620544434 88.0966720581 86.9835510254 86.2255859375 86.0170898438 
14.0024356842 13.7901964188 13.0294284821 11.9120292664 11.2439165115 11.2444858551 11.9145460129 13.0320472717 13.7914705276 14.0024490356 21.9925880432 21.6278209686 20.5872516632 19.1656570435 18.2934837341 18.294210434 19.1688842773 20.5906467438 21.6296977997 21.9926719666 29.9838790894 29.558719635 28.6261444092 27.446680069 26.7121429443 26.7127532959 27.4493732452 28.6290016174 29.5605831146 29.9840106964 37.9861869812 37.6685600281 37.0582466125 36.341758728 35.8964653015 35.8968353271 36.3433837891 37.0600357056 37.6698455811 37.9863052368 45.9999465942 45.8820304871 45.6710853577 45.4342956543 45.287689209 45.2878112793 45.4348297119 45.6716766357 45.8824768066 45.9999961853 54.0200958252 54.1386108398 54.350643158 54.588634491 54.7360992432 54.7359771729 54.5880889893 54.3500442505 54.1381607056 54.0200500488 62.0338287354 62.3518409729 62.9630889893 63.6807594299 64.1268386841 64.1264648438 63.6791305542 62.9612922668 62.3505592346 62.033706665 70.0361099243 70.4613342285 71.3944702148 72.5751571655 73.3098754883 73.3092956543 72.5724868774 71.3916244507 70.4594802856 70.0359802246 78.027381897 78.3918228149 79.4323348999 80.8542861938 81.7264862061 81.7257385254 80.8511123657 79.4289474487 78.3899536133 78.027305603 86.0175628662 86.2293930054 86.9887008667 88.1032562256 88.7694396973 88.7691116333 88.100730896 86.9861450195 86.2281494141 86.0175476074 
14.0021896362 13.7888336182 13.028096199 11.9100189209 11.2405109406 11.2410821915 11.9125356674 13.0307130814 13.7901115417 14.002204895 21.9923114777 21.6256427765 20.5823917389 19.1546573639 18.2756271362 18.2763633728 19.1579055786 20.5857906342 21.6275215149 21.992389679 29.983625412 29.5559806824 28.6182403564 27.427274704 26.6793766022 26.6800003052 27.4300098419 28.6211128235 29.557849884 29.983757019 37.9859771729 37.6661529541 37.0506782532 36.3230209351 35.8687477112 35.8691253662 36.3246765137 37.0524902344 37.6674423218 37.9860992432 45.9998626709 45.8810272217 45.667514801 45.4266281128 45.2769393921 45.2770576477 45.4271697998 45.6681213379 45.8814888 45.9999198914 54.0201759338 54.1396217346 54.3542289734 54.5963401794 54.7469139099 54.7467842102 54.5957870483 54.3536262512 54.1391639709 54.0201263428 62.034034729 62.3542518616 62.9706573486 63.699508667 64.1545639038 64.1541900635 63.6978492737 62.9688644409 62.352973938 62.0339050293 70.0363693237 70.4640731812 71.4023666382 72.5945358276 73.3425979614 73.3420028687 72.5918502808 71.3994903564 70.4622116089 70.036239624 78.0276565552 78.393989563 79.4371566772 80.8652648926 81.7443008423 81.7435455322 80.8620834351 79.4337997437 78.3921356201 78.0275802612 86.0178070068 86.230758667 86.990020752 88.105255127 88.772819519 88.7724838257 88.1027145386 86.9874725342 86.2294998169 86.0177841187 
