13.9361200333 21.7117996216 29.3125152588 37.1760101318 45.6365203857 54.385345459 62.8443565369 70.7065582275 78.3073730469 86.0835876465 13.8977527618 21.481180191 28.5414352417 36.298992157 45.2642784119 54.7594490051 63.7219200134 71.476524353 78.536781311 86.1217956543 13.8757247925 21.3041419983 28.0500125885 35.7421913147 45.0165519714 55.0084190369 64.2789306641 71.9673843384 78.712928772 86.1437454224 13.8578414917 21.1931476593 27.7975788116 35.4850158691 44.9127159119 55.1127700806 64.536315918 72.2195968628 78.8235321045 86.1615447998 13.8457279205 21.1387481689 27.6769161224 35.3744888306 44.870223999 55.1554756165 64.6469497681 72.3401565552 78.8777313232 86.173614502 13.8457365036 21.1387844086 27.6770019531 35.3745613098 44.8702697754 55.155418396 64.6468811035 72.3400802612 78.8776931763 86.1736068726 13.8578824997 21.1933517456 27.798034668 35.4854812622 44.9128875732 55.1125869751 64.5358428955 72.2191390991 78.8233184814 86.1615142822 13.8757705688 21.3044929504 28.0508651733 35.7431716919 45.0171127319 55.0078582764 64.2779464722 71.9665756226 78.7125930786 86.1436920166 13.8978214264 21.4816741943 28.543056488 36.3006210327 45.2651557922 54.7585220337 63.7203483582 71.4749069214 78.5363082886 86.1217346191 13.9362535477 21.7124443054 29.3143615723 37.1787986755 45.6377449036 54.3841934204 62.841545105 70.7048416138 78.3067779541 86.0834579468 
13.9358987808 21.7116775513 29.3133182526 37.1764945984 45.636390686 54.3854789734 62.8438491821 70.7057495117 78.3074951172 86.0838088989 13.8973731995 21.4812793732 28.5409965515 36.2931632996 45.2596740723 54.7640762329 63.7277259827 71.4769668579 78.5366744995 86.1221847534 13.8750667572 21.30260849 28.0437068939 35.7213973999 44.9975891113 55.0274772644 64.2996749878 71.9736938477 78.7144546509 86.1444091797 13.8568258286 21.1884059906 27.7802276611 35.4355278015 44.8752326965 55.1504440308 64.5857086182 72.2368927002 78.8282470703 86.1625518799 13.8443851471 21.1311397552 27.6498126984 35.3030776978 44.8225135803 55.2034301758 64.7182693481 72.3671798706 78.8852996826 86.1749420166 13.8443965912 21.1311740875 27.6499137878 35.3031654358 44.8225708008 55.2033615112 64.718170166 72.3670959473 78.8852767944 86.1749267578 13.8568658829 21.1886177063 27.780714035 35.4360656738 44.875453949 55.1502151489 64.5851669312 72.2364196777 78.8280334473 86.1625289917 13.8751134872 21.3029632568 28.0445728302 35.722442627 44.9982147217 55.02684021 64.2986450195 71.9728393555 78.7141113281 86.1443557739 13.8974428177 21.4817733765 28.5426311493 36.2948188782 45.2605705261 54.7631263733 63.7261352539 71.4753265381 78.5362091064 86.1221160889 13.9360313416 21.7123184204 29.3151454926 37.1793060303 45.6375961304 54.3843345642 62.8410301208 70.7040634155 78.3069000244 86.0836791992 
13.9358978271 21.711681366 29.313325882 37.1765098572 45.636390686 54.3854789734 62.8438491821 70.7057495117 78.3074951172 86.0838165283 13.8973731995 21.4812812805 28.5409984589 36.2931480408 45.2596626282 54.7641029358 63.7277526855 71.4769668579 78.5366821289 86.1221847534 13.8750619888 21.3025989532 28.0436725616 35.7213134766 44.9975357056 55.0275344849 64.2997665405 71.9737167358 78.7144622803 86.1444091797 13.8568201065 21.1883716583 27.7801094055 35.4352035522 44.8749656677 55.1507225037 64.5860290527 72.2370147705 78.8282852173 86.1625595093 13.844376564 21.1310787201 27.6496181488 35.3024291992 44.8219337463 55.2040023804 64.7189178467 72.3673782349 78.8853530884 86.1749420166 13.8443870544 21.1311168671 27.6497154236 35.3025131226 44.8219909668 55.2039337158 64.7188339233 72.3672943115 78.8853302002 86.1749343872 13.8568592072 21.1885890961 27.7805957794 35.4357528687 44.8751792908 55.1504859924 64.5854797363 72.2365341187 78.8280792236 86.1625289917 13.8751087189 21.3029537201 28.0445327759 35.7223625183 44.9981613159 55.026889801 64.2987213135 71.9728775024 78.7141189575 86.1443634033 13.8974399567 21.4817771912 28.5426330566 36.29479599 45.2605628967 54.7631416321 63.726146698 71.4753265381 78.5362091064 86.1221160889 13.9360275269 21.7123184204 29.3151493073 37.179309845 45.6376037598 54.3843345642 62.8410339355 70.7040634155 78.3069000244 86.0836868286 
13.9358959198 21.7116775513 29.3133201599 37.1765022278 45.636390686 54.3854751587 62.8438491821 70.7057495117 78.3074951172 86.0838165283 13.8973712921 21.4812793732 28.5409851074 36.293132782 45.2596549988 54.7640953064 63.7277679443 71.4769821167 78.5366821289 86.1221847534 13.8750629425 21.3025913239 28.0436534882 35.7212905884 44.9975280762 55.0275306702 64.2997741699 71.973739624 78.7144775391 86.1444091797 13.8568191528 21.1883640289 27.7800865173 35.4351806641 44.8749504089 55.1507263184 64.5860519409 72.2370376587 78.8282852173 86.1625595093 13.844373703 21.131067276 27.6495857239 35.3023872375 44.8219146729 55.2040138245 64.7189483643 72.3674163818 78.8853683472 86.1749420166 13.8443851471 21.131111145 27.6496868134 35.3024711609 44.8219718933 55.203956604 64.7188644409 72.3673248291 78.8853378296 86.1749343872 13.8568592072 21.188577652 27.7805690765 35.4357261658 44.8751602173 55.1505050659 64.5855026245 72.2365570068 78.8280792236 86.1625289917 13.8751077652 21.302947998 28.0445156097 35.7223396301 44.9981536865 55.0268936157 64.2987365723 71.9729003906 78.7141189575 86.1443634033 13.8974380493 21.4817714691 28.5426254272 36.2947845459 45.2605552673 54.7631492615 63.7261734009 71.4753341675 78.5362091064 86.1221160889 13.9360294342 21.7123165131 29.3151435852 37.1793060303 45.6375999451 54.3843345642 62.8410339355 70.7040710449 78.3069152832 86.0836868286 
13.9358959198 21.7116756439 29.3133144379 37.1764907837 45.6363830566 54.3854827881 62.8438568115 70.7057495117 78.3075027466 86.0838165283 13.8973712921 21.4812736511 28.540977478 36.2931213379 45.2596511841 54.7641067505 63.7277793884 71.4769821167 78.5366897583 86.1221847534 13.8750619888 21.3025875092 28.0436325073 35.7212753296 44.9975128174 55.0275535583 64.2997817993 71.9737472534 78.7144851685 86.1444091797 13.8568172455 21.1883544922 27.7800598145 35.4351501465 44.8749351501 55.1507530212 64.5860824585 72.2370681763 78.8283004761 86.1625595093 13.8443717957 21.1310577393 27.6495552063 35.3023452759 44.8218994141 55.2040405273 64.7189941406 72.3674545288 78.885383606 86.1749420166 13.8443851471 21.1310977936 27.6496543884 35.3024253845 44.8219604492 55.2039718628 64.7189102173 72.3673629761 78.885345459 86.1749343872 13.8568582535 21.1885719299 27.7805461884 35.4356918335 44.8751487732 55.1505203247 64.5855407715 72.2365875244 78.8280944824 86.1625289917 13.8751087189 21.3029384613 28.044500351 35.7223243713 44.9981536865 55.0269012451 64.2987594604 71.9729232788 78.7141342163 86.1443634033 13.8974380493 21.4817676544 28.5426101685 36.2947769165 45.2605514526 54.7631530762 63.7261734009 71.4753494263 78.5362091064 86.1221237183 13.9360294342 21.7123146057 29.3151397705 37.1793022156 45.6375961304 54.3843345642 62.8410453796 70.7040710449 78.3069152832 86.0836868286 
13.9358940125 21.7116737366 29.3133068085 37.176486969 45.6363868713 54.3854827881 62.8438644409 70.7057571411 78.3075027466 86.0838165283 13.8973693848 21.4812736511 28.5409641266 36.2931060791 45.2596473694 54.7641067505 63.7277793884 71.4769973755 78.5366897583 86.1221694946 13.8750619888 21.3025798798 28.0436229706 35.7212600708 44.9975128174 55.0275650024 64.2998123169 71.9737701416 78.7144927979 86.1444091797 13.8568172455 21.1883449554 27.7800369263 35.4351272583 44.8749160767 55.15076828 64.5861053467 72.2370834351 78.8283157349 86.1625595093 13.8443727493 21.1310501099 27.6495265961 35.3023033142 44.82188797 55.2040557861 64.7190322876 72.3674697876 78.8853912354 86.174949646 13.8443832397 21.1310863495 27.6496219635 35.3023948669 44.821937561 55.203994751 64.7189559937 72.3673858643 78.8853607178 86.1749343872 13.8568592072 21.1885585785 27.7805233002 35.4356651306 44.8751182556 55.1505355835 64.5855712891 72.2366027832 78.8280944824 86.1625289917 13.8751077652 21.3029346466 28.0444850922 35.7223091125 44.9981384277 55.0269088745 64.2987747192 71.9729232788 78.7141418457 86.1443634033 13.8974380493 21.4817638397 28.5426063538 36.2947616577 45.2605400085 54.7631607056 63.726184845 71.4753646851 78.5362243652 86.1221237183 13.9360284805 21.7123146057 29.3151321411 37.1792907715 45.6375961304 54.3843421936 62.8410491943 70.7040786743 78.3069076538 86.0836868286 
13.9358959198 21.7116718292 29.3133068085 37.1764793396 45.6363830566 54.3854827881 62.843875885 70.7057571411 78.3075027466 86.0838165283 13.8973693848 21.4812660217 28.5409545898 36.2930984497 45.2596435547 54.7641143799 63.7278022766 71.4770050049 78.5366973877 86.1221694946 13.8750619888 21.3025741577 28.0436000824 35.721244812 44.9975013733 55.0275650024 64.2998275757 71.9737930298 78.7144927979 86.1444091797 13.8568153381 21.1883354187 27.7800140381 35.4351005554 44.8749008179 55.15076828 64.5861358643 72.2371139526 78.8283233643 86.1625595093 13.844370842 21.1310329437 27.6494941711 35.3022613525 44.8218688965 55.2040710449 64.719078064 72.3675079346 78.8854141235 86.174949646 13.8443803787 21.1310749054 27.6495933533 35.3023452759 44.8219223022 55.2040100098 64.7189865112 72.3674163818 78.8853683472 86.1749343872 13.8568572998 21.1885528564 27.780500412 35.4356384277 44.8751068115 55.150554657 64.5855941772 72.236618042 78.8281173706 86.1625289917 13.8751077652 21.3029251099 28.0444660187 35.7222862244 44.9981460571 55.0269241333 64.298789978 71.9729537964 78.7141418457 86.1443634033 13.8974370956 21.481760025 28.542591095 36.2947540283 45.2605476379 54.7631645203 63.7261962891 71.4753646851 78.5362243652 86.1221237183 13.9360284805 21.712310791 29.3151283264 37.1792907715 45.6375923157 54.3843460083 62.8410606384 70.7040786743 78.3069076538 86.0836868286 
