13.9366941452 21.7135772705 29.31665802 37.180267334 45.6380844116 54.3837738037 62.8400802612 70.7024230957 78.3056030273 86.0830154419 13.8985939026 21.4831619263 28.5468978882 36.3029670715 45.2661972046 54.757522583 63.7179336548 71.4710693359 78.5348052979 86.1209564209 13.8766536713 21.3072052002 28.0547943115 35.7484474182 45.0211524963 55.0037956238 64.2726821899 71.9626159668 78.7098617554 86.142829895 13.8590507507 21.1959953308 27.8029499054 35.4950027466 44.9179725647 55.1074943542 64.5263366699 72.2142410278 78.8206787109 86.1603546143 13.8471345901 21.14128685 27.6833324432 35.3861961365 44.8757400513 55.1499328613 64.6352386475 72.333770752 78.8751983643 86.172203064 13.8471450806 21.1413192749 27.6834182739 35.3862686157 44.8757820129 55.1498794556 64.6351776123 72.3336715698 78.8751678467 86.1721954346 13.8590908051 21.1962032318 27.8034057617 35.4954605103 44.9181518555 55.1073036194 64.5258712769 72.2137908936 78.8204650879 86.1603012085 13.876698494 21.3075561523 28.0556411743 35.7494163513 45.0217056274 55.0032310486 64.2717132568 71.961807251 78.7095184326 86.1427764893 13.8986597061 21.4836502075 28.5485286713 36.3045959473 45.2670707703 54.7565994263 63.7163696289 71.4694366455 78.5343399048 86.1208877563 13.9368276596 21.7142238617 29.3185024261 37.1830635071 45.6393203735 54.382610321 62.8372764587 70.7007141113 78.3050003052 86.082901001 
13.9363460541 21.7131576538 29.3170661926 37.1801147461 45.6374855042 54.3843765259 62.8402366638 70.702003479 78.306022644 86.0833587646 13.8980035782 21.4827690125 28.5448646545 36.2930641174 45.2585830688 54.765171051 63.7278289795 71.4730911255 78.5352096558 86.1215438843 13.8756752014 21.3043346405 28.0438957214 35.7164726257 44.9944076538 55.0306777954 64.3045883179 71.9734725952 78.7127227783 86.1437835693 13.8575496674 21.1885871887 27.7770500183 35.4279289246 44.8722877502 55.1534080505 64.5933074951 72.2400588989 78.8280639648 86.1618347168 13.8451871872 21.1298866272 27.6442642212 35.2955970764 44.8199768066 55.2059631348 64.7257461548 72.372718811 78.8865432739 86.1741409302 13.8451976776 21.1299304962 27.644361496 35.2956848145 44.8200302124 55.2059135437 64.7256622314 72.3726119995 78.886505127 86.1741333008 13.8575906754 21.1888027191 27.7775440216 35.4284706116 44.8725013733 55.153175354 64.5927581787 72.2395706177 78.8278656006 86.1617889404 13.8757200241 21.3046836853 28.0447692871 35.7175331116 44.9950256348 55.0300445557 64.3035354614 71.9726333618 78.7123794556 86.1437530518 13.8980712891 21.4832611084 28.546503067 36.2947235107 45.2595024109 54.764213562 63.7262191772 71.4714508057 78.5347442627 86.1214904785 13.9364795685 21.7138004303 29.3188896179 37.182926178 45.6387062073 54.3832321167 62.8374061584 70.7003250122 78.3054351807 86.0832443237 
13.9363298416 21.7131443024 29.3170967102 37.1801223755 45.6374816895 54.3843803406 62.8402252197 70.7019729614 78.3060379028 86.0833816528 13.897977829 21.4827594757 28.5447998047 36.2926864624 45.2583389282 54.7654266357 63.7281990051 71.47315979 78.5352096558 86.1215820312 13.8756275177 21.3041915894 28.0434074402 35.7152252197 44.9932632446 55.031829834 64.3058319092 71.9739685059 78.7128677368 86.1438369751 13.8574733734 21.1881790161 27.775636673 35.4243583679 44.8695755005 55.1561393738 64.596862793 72.2414627075 78.8284606934 86.1619186401 13.8450841904 21.1292438507 27.641998291 35.2898101807 44.8161773682 55.2097892761 64.7315368652 72.3749771118 78.8871917725 86.1742553711 13.8450946808 21.1292819977 27.6420993805 35.2898979187 44.8162307739 55.2097320557 64.7314453125 72.3748931885 78.8871459961 86.1742401123 13.8575134277 21.1883983612 27.7761325836 35.424911499 44.8697814941 55.1559066772 64.5963058472 72.2409667969 78.8282546997 86.161857605 13.8756723404 21.3045520782 28.0442810059 35.7162895203 44.9938964844 55.0311737061 64.3047866821 71.9731369019 78.7125167847 86.1437911987 13.8980445862 21.4832515717 28.5464420319 36.2943458557 45.2592430115 54.764465332 63.7265968323 71.4715118408 78.5347518921 86.1215133667 13.9364624023 21.7137794495 29.3189144135 37.1829376221 45.6386947632 54.3832397461 62.8373947144 70.7002944946 78.3054504395 86.0832519531 
13.9363269806 21.7131385803 29.3170967102 37.1801261902 45.6374740601 54.3843841553 62.8402290344 70.7019577026 78.3060379028 86.0833816528 13.8979740143 21.4827537537 28.5447826385 36.2926330566 45.2583084106 54.7654495239 63.7282524109 71.4731750488 78.5352172852 86.1215896606 13.8756198883 21.3041706085 28.0433292389 35.7150726318 44.9931488037 55.0319366455 64.3059921265 71.9740447998 78.7128829956 86.1438446045 13.8574619293 21.188117981 27.775434494 35.4238967896 44.8692245483 55.1564903259 64.5973358154 72.2416763306 78.8285293579 86.1619262695 13.8450698853 21.1291446686 27.641664505 35.2889823914 44.8156509399 55.210319519 64.7323608398 72.3753128052 78.8872756958 86.1742706299 13.8450813293 21.1291847229 27.6417636871 35.2890701294 44.8157043457 55.2102584839 64.7322769165 72.375213623 78.8872528076 86.1742401123 13.857503891 21.1883354187 27.7759284973 35.4244422913 44.8694419861 55.1562576294 64.596786499 72.2411804199 78.8283157349 86.1618652344 13.875664711 21.3045272827 28.0442085266 35.7161331177 44.9937973022 55.0312919617 64.3049468994 71.9732131958 78.7125320435 86.1437988281 13.8980417252 21.483247757 28.5464305878 36.2942962646 45.2592124939 54.7644958496 63.7266387939 71.4715194702 78.5347442627 86.1215209961 13.9364614487 21.7137756348 29.3189182281 37.1829376221 45.6386947632 54.3832473755 62.8374023438 70.7002944946 78.3054504395 86.0832443237 
13.9363279343 21.7131385803 29.3170909882 37.1801147461 45.6374664307 54.3843841553 62.8402252197 70.7019729614 78.3060455322 86.0833816528 13.8979740143 21.4827537537 28.5447769165 36.2926216125 45.2582969666 54.765460968 63.7282676697 71.4731826782 78.5352172852 86.1215896606 13.8756189346 21.3041648865 28.043302536 35.7150306702 44.9931259155 55.0319671631 64.3060302734 71.9740600586 78.7128982544 86.1438522339 13.8574581146 21.1880970001 27.7753715515 35.4237785339 44.8691444397 55.1565628052 64.5974502563 72.2417221069 78.8285522461 86.1619338989 13.8450660706 21.1291160583 27.6415729523 35.2887763977 44.8155250549 55.2104454041 64.7325668335 72.3754119873 78.8873062134 86.1742782593 13.8450746536 21.12915802 27.6416683197 35.2888679504 44.8155784607 55.2103805542 64.7324829102 72.3753051758 78.8872833252 86.1742553711 13.85750103 21.1883163452 27.7758655548 35.4243240356 44.8693656921 55.1563301086 64.5969009399 72.2412490845 78.828338623 86.1618728638 13.8756628036 21.3045196533 28.0441799164 35.716091156 44.99376297 55.0313110352 64.3049850464 71.9732437134 78.7125473022 86.1437988281 13.8980407715 21.4832420349 28.5464191437 36.2942771912 45.2592048645 54.764503479 63.7266616821 71.4715423584 78.5347518921 86.1215133667 13.9364595413 21.7137756348 29.3189182281 37.1829338074 45.6386871338 54.3832473755 62.8374023438 70.7002944946 78.3054504395 86.0832443237 
13.9363269806 21.7131385803 29.3170871735 37.1801109314 45.6374664307 54.3843917847 62.8402328491 70.7019729614 78.3060531616 86.0833816528 13.8979721069 21.4827461243 28.5447616577 36.2926063538 45.2582931519 54.7654647827 63.7282867432 71.4731903076 78.5352249146 86.12159729 13.8756160736 21.3041572571 28.0432834625 35.7150001526 44.9931144714 55.0319786072 64.306060791 71.9740982056 78.7129058838 86.1438522339 13.8574581146 21.188085556 27.7753353119 35.4237251282 44.8691101074 55.1565971375 64.5974960327 72.2417678833 78.8285751343 86.1619262695 13.8450632095 21.1290988922 27.6415176392 35.2886886597 44.8154830933 55.2104873657 64.7326583862 72.3754501343 78.8873291016 86.1742782593 13.8450737 21.1291408539 27.6416187286 35.2887763977 44.815536499 55.21043396 64.7325668335 72.3753585815 78.887298584 86.1742553711 13.8574981689 21.1883029938 27.7758312225 35.4242744446 44.8693237305 55.1563644409 64.5969467163 72.2412643433 78.8283462524 86.1618728638 13.875664711 21.3045101166 28.0441608429 35.7160644531 44.9937515259 55.0313224792 64.3050079346 71.9732437134 78.7125549316 86.1437911987 13.8980417252 21.4832382202 28.5464076996 36.2942695618 45.2592048645 54.7645111084 63.7266693115 71.4715423584 78.5347518921 86.1215133667 13.936457634 21.7137699127 29.3189086914 37.182926178 45.6386909485 54.3832550049 62.8374099731 70.700302124 78.3054504395 86.0832595825 
13.9363269806 21.7131347656 29.3170852661 37.1801071167 45.6374664307 54.3843994141 62.8402442932 70.7019882202 78.3060531616 86.0833816528 13.8979721069 21.4827442169 28.5447559357 36.2925949097 45.2582969666 54.7654647827 63.7282867432 71.4732055664 78.5352249146 86.12159729 13.8756170273 21.3041477203 28.043258667 35.7149772644 44.993106842 55.0319786072 64.3060760498 71.9741134644 78.7129135132 86.1438522339 13.8574571609 21.1880760193 27.7753047943 35.4236869812 44.8690948486 55.1566123962 64.5975418091 72.2417984009 78.8285827637 86.1619415283 13.8450632095 21.1290855408 27.6414775848 35.2886314392 44.815448761 55.2105140686 64.7327194214 72.3754959106 78.8873443604 86.1742782593 13.8450727463 21.1291275024 27.6415843964 35.2887229919 44.8155059814 55.2104530334 64.732635498 72.3754043579 78.8873062134 86.1742553711 13.8574981689 21.188293457 27.775800705 35.4242362976 44.8693084717 55.1563796997 64.5969924927 72.2413024902 78.8283615112 86.1618728638 13.8756628036 21.3045024872 28.0441398621 35.7160453796 44.9937438965 55.031337738 64.3050231934 71.9732666016 78.712562561 86.1437988281 13.8980407715 21.4832344055 28.5463962555 36.2942581177 45.2591934204 54.7645149231 63.7266921997 71.4715576172 78.5347671509 86.1215133667 13.936457634 21.7137699127 29.318901062 37.1829185486 45.6386833191 54.3832511902 62.8374176025 70.7003097534 78.3054504395 86.0832595825 
