14.0074529648 13.8180027008 13.0597248077 11.9736461639 11.3725938797 11.3730697632 11.9760169983 13.0623254776 13.8192605972 14.0074443817 21.9984359741 21.6728820801 20.7006168365 19.4592037201 18.7647171021 18.7652587891 19.4618816376 20.7037124634 21.6746444702 21.9984931946 29.9908733368 29.6304912567 28.8285236359 27.8733215332 27.305513382 27.3059749603 27.8754310608 28.8309135437 29.6321239471 29.9909763336 37.993473053 37.7417259216 37.2478218079 36.6733169556 36.3242263794 36.3245010376 36.6745948792 37.249256134 37.7427749634 37.9935569763 46.0030059814 45.9143295288 45.7484855652 45.5579299927 45.4416732788 45.4417610168 45.5583572388 45.7489547729 45.914680481 46.003036499 54.0170211792 54.1061553955 54.2728538513 54.4643745422 54.5812683105 54.5811767578 54.4639434814 54.2723693848 54.1058044434 54.0169868469 62.0265388489 62.2786407471 62.7733612061 63.3488235474 63.6985206604 63.6982460022 63.3475456238 62.7719268799 62.27759552 62.0264549255 70.0291061401 70.3896179199 71.1922225952 72.1484603882 72.7164916992 72.7160415649 72.1463851929 71.1898422241 70.3879852295 70.029006958 78.0215377808 78.3468093872 79.3192367554 80.5612258911 81.2559509277 81.2553863525 80.55859375 79.31615448 78.3450546265 78.0214920044 86.0125427246 86.2016143799 86.958442688 88.0421524048 88.6414031982 88.6411361694 88.0398101807 86.9558944702 86.2003707886 86.0125427246 
14.0013742447 13.7826461792 13.0177135468 11.8970184326 11.2299718857 11.2305374146 11.8995437622 13.0203409195 13.7839317322 14.0013952255 21.9913730621 21.6164302826 20.5754165649 19.170539856 18.3130931854 18.3137950897 19.1737327576 20.5787811279 21.6183280945 21.9914608002 29.9837722778 29.5594596863 28.6413726807 27.4911365509 26.787979126 26.7885456085 27.4937515259 28.6441669464 29.5613059998 29.9839057922 37.9868927002 37.6773109436 37.0836372375 36.3937835693 35.9710884094 35.9714355469 36.3953399658 37.0853614807 37.6785621643 37.9870071411 46.0002288818 45.8866615295 45.6831283569 45.4567832947 45.3175964355 45.3177108765 45.4572944641 45.6837005615 45.8871040344 46.0002861023 54.0198097229 54.1339569092 54.3385467529 54.5660400391 54.7060165405 54.7059059143 54.5655212402 54.3379707336 54.1335220337 54.0197563171 62.0331268311 62.3431015015 62.9376983643 63.6287231445 64.0521850586 64.0518341064 63.6271629333 62.9359817505 62.3418617249 62.0330123901 70.0362243652 70.4606323242 71.3793029785 72.5307540894 73.2341842651 73.2336120605 72.528175354 71.3764953613 70.4587860107 70.0360946655 78.0286026001 78.403213501 79.4442443848 80.8495101929 81.70703125 81.7063217163 80.8463897705 79.4408721924 78.4013290405 78.0285110474 86.0186233521 86.2369232178 87.0003509521 88.1182250977 88.7832794189 88.7829742432 88.1156768799 86.9978179932 86.2356719971 86.0185928345 
14.0004196167 13.7775974274 13.0138311386 11.8918151855 11.2201461792 11.2207202911 11.8943510056 13.0164546967 13.7788829803 14.0004444122 21.9903316498 21.608549118 20.558467865 19.1307563782 18.2470817566 18.2478218079 19.134021759 20.561870575 21.6104640961 21.9904193878 29.9828414917 29.549703598 28.6131916046 27.4197483063 26.6553688049 26.6560134888 27.4225120544 28.6160545349 29.5515804291 29.9829807281 37.9861679077 37.6689109802 37.0568122864 36.3198356628 35.8521118164 35.8525009155 36.3215293884 37.0586128235 37.6701889038 37.9862937927 45.9999542236 45.8832244873 45.6714134216 45.4255523682 45.2714614868 45.2715873718 45.4261169434 45.6720199585 45.8836708069 46.0000038147 54.0200881958 54.1374168396 54.3503303528 54.5974311829 54.7524528503 54.7523155212 54.5968551636 54.3497123718 54.13697052 54.0200386047 62.0338516235 62.3515090942 62.9645385742 63.7027130127 64.1712417603 64.1708526611 63.7010154724 62.9627418518 62.3502349854 62.0337371826 70.037147522 70.4703903198 71.4074630737 72.6021118164 73.3666152954 73.3660049438 72.5993728638 71.404586792 70.4685287476 70.0370025635 78.0296401978 78.4110870361 79.4611282349 80.889213562 81.7728729248 81.7721176147 80.8860168457 79.4577407837 78.4091873169 78.029548645 86.019569397 86.241973877 87.0042266846 88.123336792 88.793006897 88.7926940918 88.1207809448 87.0016860962 86.2407150269 86.0195465088 
14.0003662109 13.7773323059 13.0137023926 11.8917570114 11.2199611664 11.2205352783 11.8942918777 13.0163230896 13.7786188126 14.0003919601 21.990272522 21.6081314087 20.5576400757 19.1289157867 18.2442245483 18.2449645996 19.1321849823 20.5610389709 21.6100502014 21.9903659821 29.9827899933 29.5491714478 28.6116600037 27.4160518646 26.6491222382 26.6497688293 27.4188213348 28.6145324707 29.5510540009 29.9829273224 37.9861297607 37.6684455872 37.0552215576 36.3149490356 35.8419036865 35.842300415 36.31665802 37.0570259094 37.6697273254 37.9862518311 45.9999313354 45.8830337524 45.670715332 45.4228782654 45.2663879395 45.2665176392 45.4234466553 45.6713371277 45.883480072 45.9999847412 54.020111084 54.1376228333 54.3510169983 54.600112915 54.7575645447 54.7574310303 54.5995292664 54.3504066467 54.1371536255 54.0200538635 62.0338935852 62.351978302 62.9661331177 63.7075881958 64.181427002 64.1810379028 63.7058792114 62.9643325806 62.350692749 62.0337638855 70.0372009277 70.4709091187 71.4089889526 72.605796814 73.3728256226 73.3722229004 72.6030502319 71.4061126709 70.4690475464 70.037071228 78.0297088623 78.4114990234 79.4619674683 80.8910522461 81.775718689 81.7749633789 80.8878555298 79.4585723877 78.409614563 78.0296173096 86.0196228027 86.2422409058 87.0043563843 88.1233901978 88.7931976318 88.7928848267 88.12084198 87.0018386841 86.2409896851 86.0196075439 
14.0003652573 13.7773246765 13.0136909485 11.891740799 11.2199382782 11.2205123901 11.8942775726 13.0163145065 13.7786092758 14.0003910065 21.9902706146 21.6081199646 20.5576133728 19.1288642883 18.244146347 18.2448863983 19.1321296692 20.5610103607 21.6100387573 21.9903640747 29.9827861786 29.549161911 28.6116199493 27.4159488678 26.648979187 26.6496200562 27.4187259674 28.6144924164 29.5510425568 29.982925415 37.9861297607 37.6684341431 37.0551719666 36.3148193359 35.8416252136 35.8420219421 36.3165283203 37.0569801331 37.6697158813 37.9862518311 45.9999313354 45.883026123 45.6707038879 45.4227981567 45.2662162781 45.2663421631 45.4233627319 45.6713104248 45.8834724426 45.9999847412 54.020111084 54.1376266479 54.3510398865 54.6002006531 54.7577400208 54.7576065063 54.5996246338 54.3504219055 54.1371688843 54.0200538635 62.0338935852 62.3519897461 62.966178894 63.7077255249 64.1816940308 64.181312561 63.7060165405 62.9643707275 62.3507156372 62.0337638855 70.0372009277 70.4709320068 71.409034729 72.6059036255 73.3729934692 73.3723678589 72.6031646729 71.4061584473 70.4690628052 70.0370788574 78.0297088623 78.4115219116 79.4619903564 80.8911056519 81.7758026123 81.7750396729 80.8879013062 79.4586105347 78.409614563 78.0296173096 86.0196228027 86.2422485352 87.0043716431 88.1234054565 88.7932052612 88.7929000854 88.1208648682 87.0018386841 86.2409744263 86.0196075439 
14.0003652573 13.7773246765 13.0136833191 11.8917226791 11.2199163437 11.2204885483 11.8942594528 13.0163078308 13.7786102295 14.0003910065 21.9902706146 21.6081199646 20.5576000214 19.1288394928 18.2441177368 18.2448616028 19.132106781 20.561000824 21.61003685 21.9903621674 29.9827861786 29.549156189 28.6116008759 27.4159259796 26.64894104 26.6495819092 27.4187011719 28.6144733429 29.5510368347 29.9829235077 37.9861297607 37.6684303284 37.0551681519 36.3147888184 35.841583252 35.8419799805 36.3164978027 37.0569725037 37.669708252 37.9862518311 45.9999313354 45.8830184937 45.6707000732 45.4227828979 45.2661972046 45.2663269043 45.4233474731 45.6713027954 45.8834724426 45.9999847412 54.020111084 54.1376266479 54.3510475159 54.6002044678 54.7577667236 54.7576217651 54.5996437073 54.3504295349 54.1371650696 54.0200576782 62.0338935852 62.3519935608 62.9661903381 63.7077522278 64.1817474365 64.181350708 63.7060317993 62.9643783569 62.3507156372 62.0337638855 70.0372009277 70.4709320068 71.4090576172 72.6059341431 73.3730239868 73.3723983765 72.6032028198 71.4061737061 70.4690628052 70.0370788574 78.0297088623 78.411529541 79.4620056152 80.89112854 81.7758178711 81.7750701904 80.8879318237 79.4586181641 78.4096221924 78.0296173096 86.0196228027 86.2422485352 87.0043792725 88.1234359741 88.7932281494 88.7929229736 88.1208877563 87.0018539429 86.2409744263 86.0196075439 
14.0003652573 13.7773208618 13.0136756897 11.8917045593 11.2198925018 11.2204666138 11.8942403793 13.0162973404 13.7786064148 14.0003910065 21.9902706146 21.6081142426 20.5575885773 19.128818512 18.2440910339 18.2448310852 19.1320858002 20.5609893799 21.6100330353 21.9903621674 29.9827880859 29.5491542816 28.6115932465 27.4159030914 26.6489124298 26.6495571136 27.418674469 28.6144657135 29.5510368347 29.9829235077 37.9861297607 37.6684265137 37.0551490784 36.3147659302 35.8415565491 35.8419494629 36.3164749146 37.0569610596 37.6697120667 37.9862518311 45.9999313354 45.883014679 45.6706962585 45.4227714539 45.2661895752 45.2663116455 45.4233322144 45.6713027954 45.8834762573 45.9999847412 54.020111084 54.1376266479 54.3510475159 54.6002349854 54.7577705383 54.7576446533 54.5996551514 54.3504295349 54.1371688843 54.0200576782 62.0338935852 62.3519935608 62.9662017822 63.7077789307 64.1817855835 64.181388855 63.7060623169 62.9643936157 62.3507156372 62.0337638855 70.0372009277 70.4709472656 71.4090576172 72.6059494019 73.373046875 73.3724365234 72.6032180786 71.4061889648 70.4690628052 70.0370788574 78.0297088623 78.411529541 79.462020874 80.8911590576 81.7758483887 81.7750930786 80.8879547119 79.4586257935 78.4096221924 78.0296173096 86.0196228027 86.2422409058 87.0043869019 88.1234436035 88.7932662964 88.7929382324 88.120880127 87.0018463135 86.2409744263 86.0196075439 
