1.0 1.00000011921 0.999813139439 1.02269661427 1.08261668682 1.08258891106 1.02263212204 1.00000023842 1.0 1.0 0.999999940395 1.00278115273 1.0681194067 1.18885457516 1.30215919018 1.30212819576 1.18871843815 1.03480172157 1.00274777412 1.0 1.0 1.06641113758 1.15957808495 1.29140090942 1.42862963676 1.42859792709 1.29127120972 1.11517310143 1.06634604931 1.00000011921 1.0 1.10403370857 1.20119047165 1.32528054714 1.44297289848 1.44293570518 1.32518136501 1.154951334 1.10397469997 1.00000011921 1.0 1.13241636753 1.23606050014 1.35757684708 1.45858287811 1.45855164528 1.35748755932 1.1867146492 1.13235723972 1.00000011921 1.0 1.13240528107 1.23604512215 1.35755801201 1.45878124237 1.45873963833 1.3574590683 1.18670582771 1.13234615326 1.00000011921 1.0 1.10398221016 1.20114636421 1.3251541853 1.44318366051 1.44312763214 1.32505202293 1.15490829945 1.10392451286 1.0 1.0 1.0459498167 1.12999010086 1.25212705135 1.38407289982 1.3840624094 1.25199961662 1.09106957912 1.04588568211 1.00000011921 1.0 1.0027346611 1.06798779964 1.18880224228 1.3024379015 1.30231058598 1.18869876862 1.03471314907 1.00270235538 1.00000011921 1.0 1.00000011921 0.999817073345 1.02262425423 1.08217358589 1.08221912384 1.02256810665 1.00000011921 1.0 0.999999940395 
1.0 1.00000011921 0.999813139439 1.02269661427 1.08261668682 1.08258891106 1.02263212204 1.00000023842 1.0 1.0 0.999999940395 1.00278115273 1.0681194067 1.18885457516 1.30215919018 1.30212819576 1.18871843815 1.03480172157 1.00274777412 1.0 1.0 1.06641113758 1.15957808495 1.29140090942 1.43570542336 1.43567407131 1.29127120972 1.11517310143 1.06634604931 1.00000011921 1.0 1.10403370857 1.20119047165 1.32528054714 1.45047700405 1.45044136047 1.32518136501 1.154951334 1.10397469997 1.00000011921 1.0 1.13241636753 1.23606050014 1.35798692703 1.46958732605 1.46955633163 1.35790061951 1.1867146492 1.13235723972 1.00000011921 1.0 1.13240528107 1.23604512215 1.3579685688 1.46987819672 1.4698331356 1.35787177086 1.18670582771 1.13234615326 1.00000011921 1.0 1.10398221016 1.20114636421 1.3251541853 1.45078146458 1.45072221756 1.32505202293 1.15490829945 1.10392451286 1.0 1.0 1.0459498167 1.12999010086 1.25212705135 1.38413655758 1.38412559032 1.25199961662 1.09106957912 1.04588568211 1.00000011921 1.0 1.0027346611 1.06798779964 1.18880224228 1.3024379015 1.30231058598 1.18869876862 1.03471314907 1.00270235538 1.00000011921 1.0 1.00000011921 0.999817073345 1.02262425423 1.08217358589 1.08221912384 1.02256810665 1.00000011921 1.0 0.999999940395 
1.0 1.00000011921 0.999813139439 1.02269661427 1.08261668682 1.08258891106 1.02263212204 1.00000023842 1.0 1.0 0.999999940395 1.00278115273 1.0681194067 1.18885457516 1.30215919018 1.30212819576 1.18871843815 1.03480172157 1.00274777412 1.0 1.0 1.06641113758 1.15957808495 1.29140090942 1.43581187725 1.43578076363 1.29127120972 1.11517310143 1.06634604931 1.00000011921 1.0 1.10403370857 1.20119047165 1.32528054714 1.45053446293 1.45049846172 1.32518136501 1.154951334 1.10397469997 1.00000011921 1.0 1.13241636753 1.23606050014 1.35798692703 1.46973669529 1.46970570087 1.35790061951 1.1867146492 1.13235723972 1.00000011921 1.0 1.13240528107 1.23604512215 1.3579685688 1.47003519535 1.46998977661 1.35787177086 1.18670582771 1.13234615326 1.00000011921 1.0 1.10398221016 1.20114636421 1.3251541853 1.45084512234 1.45078599453 1.32505202293 1.15490829945 1.10392451286 1.0 1.0 1.0459498167 1.12999010086 1.25212705135 1.38413655758 1.38412559032 1.25199961662 1.09106957912 1.04588568211 1.00000011921 1.0 1.0027346611 1.06798779964 1.18880224228 1.3024379015 1.30231058598 1.18869876862 1.03471314907 1.00270235538 1.00000011921 1.0 1.00000011921 0.999817073345 1.02262425423 1.08217358589 1.08221912384 1.02256810665 1.00000011921 1.0 0.999999940395 
1.0 1.00000011921 0.999813139439 1.02269661427 1.08261668682 1.08258891106 1.02263212204 1.00000023842 1.0 1.0 0.999999940395 1.00278115273 1.0681194067 1.18885457516 1.30215919018 1.30212819576 1.18871843815 1.03480172157 1.00274777412 1.0 1.0 1.06641113758 1.15957808495 1.29140090942 1.4358266592 1.43579542637 1.29127120972 1.11517310143 1.06634604931 1.00000011921 1.0 1.10403370857 1.20119047165 1.32528054714 1.45053982735 1.45050394535 1.32518136501 1.154951334 1.10397469997 1.00000011921 1.0 1.13241636753 1.23606050014 1.35798692703 1.46975076199 1.46971964836 1.35790061951 1.1867146492 1.13235723972 1.00000011921 1.0 1.13240528107 1.23604512215 1.3579685688 1.47005069256 1.47000527382 1.35787177086 1.18670582771 1.13234615326 1.00000011921 1.0 1.10398221016 1.20114636421 1.3251541853 1.45085227489 1.45079290867 1.32505202293 1.15490829945 1.10392451286 1.0 1.0 1.0459498167 1.12999010086 1.25212705135 1.38413655758 1.38412559032 1.25199961662 1.09106957912 1.04588568211 1.00000011921 1.0 1.0027346611 1.06798779964 1.18880224228 1.3024379015 1.30231058598 1.18869876862 1.03471314907 1.00270235538 1.00000011921 1.0 1.00000011921 0.999817073345 1.02262425423 1.08217358589 1.08221912384 1.02256810665 1.00000011921 1.0 0.999999940395 
1.0 1.00000011921 0.999813139439 1.02269661427 1.08261668682 1.08258891106 1.02263212204 1.00000023842 1.0 1.0 0.999999940395 1.00278115273 1.0681194067 1.18885457516 1.30215919018 1.30212819576 1.18871843815 1.03480172157 1.00274777412 1.0 1.0 1.06641113758 1.15957808495 1.29140090942 1.43583571911 1.43580448627 1.29127120972 1.11517310143 1.06634604931 1.00000011921 1.0 1.10403370857 1.20119047165 1.32528054714 1.45054638386 1.45051050186 1.32518136501 1.154951334 1.10397469997 1.00000011921 1.0 1.13241636753 1.23606050014 1.35798692703 1.46975958347 1.46972846985 1.35790061951 1.1867146492 1.13235723972 1.00000011921 1.0 1.13240528107 1.23604512215 1.3579685688 1.47005963326 1.47001421452 1.35787177086 1.18670582771 1.13234615326 1.00000011921 1.0 1.10398221016 1.20114636421 1.3251541853 1.45085883141 1.4507997036 1.32505202293 1.15490829945 1.10392451286 1.0 1.0 1.0459498167 1.12999010086 1.25212705135 1.38413655758 1.38412559032 1.25199961662 1.09106957912 1.04588568211 1.00000011921 1.0 1.0027346611 1.06798779964 1.18880224228 1.3024379015 1.30231058598 1.18869876862 1.03471314907 1.00270235538 1.00000011921 1.0 1.00000011921 0.999817073345 1.02262425423 1.08217358589 1.08221912384 1.02256810665 1.00000011921 1.0 0.999999940395 
1.0 1.00000011921 0.999813139439 1.02269661427 1.08261668682 1.08258891106 1.02263212204 1.00000023842 1.0 1.0 0.999999940395 1.00278115273 1.0681194067 1.18885457516 1.30215919018 1.30212819576 1.18871843815 1.03480172157 1.00274777412 1.0 1.0 1.06641113758 1.15957808495 1.29140090942 1.43584430218 1.43581306934 1.29127120972 1.11517310143 1.06634604931 1.00000011921 1.0 1.10403370857 1.20119047165 1.32528054714 1.45055317879 1.450517416 1.32518136501 1.154951334 1.10397469997 1.00000011921 1.0 1.13241636753 1.23606050014 1.35798692703 1.46976780891 1.46973693371 1.35790061951 1.1867146492 1.13235723972 1.00000011921 1.0 1.13240528107 1.23604512215 1.3579685688 1.4700678587 1.47002267838 1.35787177086 1.18670582771 1.13234615326 1.00000011921 1.0 1.10398221016 1.20114636421 1.3251541853 1.45086598396 1.45080673695 1.32505202293 1.15490829945 1.10392451286 1.0 1.0 1.0459498167 1.12999010086 1.25212705135 1.38413655758 1.38412559032 1.25199961662 1.09106957912 1.04588568211 1.00000011921 1.0 1.0027346611 1.06798779964 1.18880224228 1.3024379015 1.30231058598 1.18869876862 1.03471314907 1.00270235538 1.00000011921 1.0 1.00000011921 0.999817073345 1.02262425423 1.08217358589 1.08221912384 1.02256810665 1.00000011921 1.0 0.999999940395 
1.0 1.00000011921 0.999813139439 1.02269661427 1.08261668682 1.08258891106 1.02263212204 1.00000023842 1.0 1.0 0.999999940395 1.00278115273 1.0681194067 1.18885457516 1.30215919018 1.30212819576 1.18871843815 1.03480172157 1.00274777412 1.0 1.0 1.06641113758 1.15957808495 1.29140090942 1.43585288525 1.43582141399 1.29127120972 1.11517310143 1.06634604931 1.00000011921 1.0 1.10403370857 1.20119047165 1.32528054714 1.45056033134 1.45052456856 1.32518136501 1.154951334 1.10397469997 1.00000011921 1.0 1.13241636753 1.23606050014 1.35798692703 1.46977615356 1.46974503994 1.35790061951 1.1867146492 1.13235723972 1.00000011921 1.0 1.13240528107 1.23604512215 1.3579685688 1.47007644176 1.47003102303 1.35787177086 1.18670582771 1.13234615326 1.00000011921 1.0 1.10398221016 1.20114636421 1.3251541853 1.45087313652 1.45081400871 1.32505202293 1.15490829945 1.10392451286 1.0 1.0 1.0459498167 1.12999010086 1.25212705135 1.38413655758 1.38412559032 1.25199961662 1.09106957912 1.04588568211 1.00000011921 1.0 1.0027346611 1.06798779964 1.18880224228 1.3024379015 1.30231058598 1.18869876862 1.03471314907 1.00270235538 1.00000011921 1.0 1.00000011921 0.999817073345 1.02262425423 1.08217358589 1.08221912384 1.02256810665 1.00000011921 1.0 0.999999940395 
