14.0008239746 13.7811441422 13.0444478989 11.8661613464 11.0723171234 11.0729866028 11.8690633774 13.0470256805 13.782409668 14.0008497238 21.9895858765 21.5989551544 20.5268249512 18.8342971802 17.6738052368 17.6746940613 18.8386135101 20.5304718018 21.6008911133 21.9896831512 29.9800815582 29.5184593201 28.5341873169 27.1203575134 26.1077060699 26.1084918976 27.1239967346 28.5372982025 29.5204277039 29.9802360535 37.9818687439 37.6370735168 36.9861869812 36.1218070984 35.5191307068 35.5196037292 36.1239776611 36.988155365 37.6384315491 37.9820137024 45.9985694885 45.8703918457 45.6437416077 45.3581428528 45.1620140076 45.1621665955 45.3588447571 45.6444129944 45.870880127 45.9986343384 54.0214767456 54.1503448486 54.3782424927 54.6653747559 54.8628807068 54.8626937866 54.664642334 54.3775596619 54.1498641968 54.0214309692 62.038143158 62.3833808899 63.0353431702 63.9011802673 64.5049591064 64.504486084 63.899017334 63.0333824158 62.3820419312 62.0379981995 70.0399093628 70.5016098022 71.4865112305 72.9020767212 73.9145278931 73.9138259888 72.8984985352 71.4834289551 70.4996337891 70.0397644043 78.030380249 78.420539856 79.492401123 81.1855163574 82.3461303711 82.3452529907 81.1813583374 79.4887313843 78.4186019897 78.0302963257 86.0191650391 86.2383117676 86.9732818604 88.1488952637 88.9385528564 88.9381561279 88.1462936401 86.9706497192 86.2370300293 86.0191192627 
14.0005893707 13.7794895172 13.0414247513 11.8611068726 11.0666103363 11.067281723 11.8640146255 13.0440034866 13.7807569504 14.0006160736 21.9893074036 21.5964889526 20.5211162567 18.8232936859 17.6588611603 17.6597557068 18.82762146 20.5247821808 21.5984344482 21.9894065857 29.9798088074 29.5156726837 28.5273571014 27.1058998108 26.0810317993 26.0818347931 27.1095657349 28.5304832458 29.5176544189 29.9799633026 37.9816703796 37.6349182129 36.9807548523 36.1091499329 35.4967460632 35.4972381592 36.1113395691 36.9827346802 37.6362762451 37.9818191528 45.9984893799 45.8695602417 45.6416854858 45.3531646729 45.1543197632 45.1544761658 45.3538780212 45.6423530579 45.8700485229 45.9985427856 54.0215606689 54.151184082 54.3803062439 54.6703720093 54.8706932068 54.8705062866 54.6696395874 54.3796272278 54.1506958008 54.0215034485 62.0383491516 62.385559082 63.0407791138 63.9138374329 64.527305603 64.5268173218 63.9116477966 63.0387992859 62.3841934204 62.0382003784 70.040184021 70.5043869019 71.4933319092 72.9164962769 73.9410629272 73.9403533936 72.9129180908 71.4902267456 70.5024032593 70.0400314331 78.0306549072 78.4230041504 79.4980926514 81.1964645386 82.3609619141 82.3600769043 81.1922836304 79.4944152832 78.4210586548 78.0305709839 86.0193939209 86.2399597168 86.9763031006 88.1540679932 88.944519043 88.9441375732 88.151473999 86.9736633301 86.2386856079 86.0193786621 
14.0005903244 13.7794656754 13.0413789749 11.8610296249 11.0665130615 11.0671844482 11.8639373779 13.0439596176 13.7807350159 14.0006151199 21.9893016815 21.5964603424 20.5210361481 18.8231372833 17.6586456299 17.6595401764 18.82746315 20.5246963501 21.5984020233 21.9894046783 29.9798049927 29.5156345367 28.5272579193 27.1057071686 26.0806598663 26.0814609528 27.1093711853 28.5303878784 29.5176143646 29.9799633026 37.9816665649 37.6348876953 36.980670929 36.1089515686 35.4963722229 35.4968605042 36.1111450195 36.9826583862 37.6362457275 37.9818115234 45.9984893799 45.8695449829 45.6416511536 45.3530921936 45.1542129517 45.1543655396 45.3537940979 45.642326355 45.8700370789 45.9985427856 54.0215606689 54.1511993408 54.3803405762 54.6704521179 54.8708076477 54.8706207275 54.6697235107 54.3796653748 54.1507072449 54.0215034485 62.0383453369 62.3855895996 63.0408592224 63.9140396118 64.5276794434 64.5271911621 63.9118461609 63.0388832092 62.3842277527 62.0382041931 70.040184021 70.5044326782 71.4934234619 72.9167022705 73.9414215088 73.9407272339 72.9131164551 71.4903335571 70.5024490356 70.0400314331 78.030670166 78.4230422974 79.4981689453 81.1966094971 82.3611755371 82.3602905273 81.1924591064 79.4944839478 78.4210891724 78.0305862427 86.0193939209 86.2399902344 86.9763565063 88.1541442871 88.9446182251 88.9442367554 88.1515426636 86.9736938477 86.2387008667 86.0193710327 
14.0005903244 13.7794628143 13.0413694382 11.8610076904 11.0664834976 11.0671539307 11.8639163971 13.0439500809 13.7807312012 14.0006151199 21.9893016815 21.596452713 20.5210189819 18.8231048584 17.6586017609 17.6594963074 18.8274307251 20.5246810913 21.5983924866 21.9894046783 29.9798049927 29.5156326294 28.5272445679 27.1056728363 26.0805988312 26.0813999176 27.1093292236 28.5303688049 29.5176086426 29.9799613953 37.9816665649 37.6348838806 36.9806556702 36.1089172363 35.4963226318 35.4968109131 36.111114502 36.9826431274 37.6362419128 37.9818115234 45.9984893799 45.8695449829 45.6416549683 45.3530769348 45.1541976929 45.1543579102 45.3537826538 45.6423187256 45.8700332642 45.9985427856 54.0215606689 54.1511993408 54.3803520203 54.670463562 54.8708267212 54.870639801 54.6697387695 54.3796730042 54.1507148743 54.0215034485 62.0383453369 62.3855895996 63.0408782959 63.9140701294 64.5277252197 64.5272445679 63.9118843079 63.0388908386 62.3842315674 62.0382041931 70.0401916504 70.5044326782 71.4934234619 72.9167327881 73.9414825439 73.9407806396 72.9131393433 71.4903335571 70.502456665 70.0400314331 78.030670166 78.4230499268 79.4981842041 81.196647644 82.3612136841 82.3603363037 81.1924819946 79.4945068359 78.4210968018 78.0305862427 86.0193939209 86.239982605 86.9763565063 88.1541519165 88.9446487427 88.9442672729 88.1515655518 86.9737091064 86.2387008667 86.0193710327 
14.0005903244 13.7794618607 13.0413637161 11.860991478 11.0664520264 11.0671243668 11.863899231 13.0439443588 13.7807312012 14.0006151199 21.9893016815 21.596452713 20.5210075378 18.8230781555 17.6585636139 17.6594581604 18.8274040222 20.5246715546 21.5983924866 21.9894046783 29.9798049927 29.5156288147 28.5272312164 27.1056423187 26.0805492401 26.0813503265 27.1093006134 28.5303535461 29.5176086426 29.9799613953 37.9816665649 37.6348838806 36.9806442261 36.1089019775 35.4962882996 35.4967765808 36.1110877991 36.9826316833 37.6362342834 37.9818115234 45.9984893799 45.8695449829 45.6416473389 45.3530693054 45.1541900635 45.1543502808 45.3537750244 45.6423187256 45.8700294495 45.9985427856 54.0215606689 54.1512069702 54.380355835 54.6704788208 54.8708343506 54.8706474304 54.6697463989 54.3796730042 54.1507110596 54.0215034485 62.0383453369 62.385597229 63.0408859253 63.9140930176 64.5277633667 64.5272750854 63.911907196 63.0389060974 62.3842353821 62.0382003784 70.0401916504 70.5044326782 71.4934463501 72.9167633057 73.9415283203 73.940826416 72.9131774902 71.4903640747 70.502456665 70.0400314331 78.030670166 78.4230499268 79.4982070923 81.1966781616 82.3612518311 82.3603668213 81.1925125122 79.4945297241 78.4211120605 78.0305862427 86.0193939209 86.239982605 86.9763717651 88.1541976929 88.9446868896 88.9442825317 88.1515884399 86.9737167358 86.2387084961 86.0193710327 
14.0005903244 13.7794589996 13.0413560867 11.8609733582 11.0664253235 11.0670957565 11.8638820648 13.0439338684 13.7807273865 14.0006151199 21.9893035889 21.596446991 20.5209941864 18.8230495453 17.658531189 17.6594219208 18.8273792267 20.5246582031 21.5983886719 21.9894046783 29.9798049927 29.5156269073 28.5272159576 27.1056098938 26.0804958344 26.0812969208 27.1092700958 28.5303401947 29.5176048279 29.9799613953 37.9816665649 37.6348724365 36.9806404114 36.1088790894 35.496257782 35.4967498779 36.1110687256 36.9826164246 37.6362342834 37.9818115234 45.9984893799 45.8695373535 45.6416435242 45.353061676 45.1541824341 45.1543388367 45.353767395 45.6423149109 45.8700294495 45.9985427856 54.0215606689 54.1512107849 54.3803596497 54.6704864502 54.87084198 54.8706626892 54.6697540283 54.3796653748 54.1507110596 54.0215034485 62.0383453369 62.385597229 63.0409011841 63.9141159058 64.5278015137 64.527305603 63.9119300842 63.0389099121 62.3842353821 62.0382003784 70.0401916504 70.5044326782 71.4934692383 72.9167938232 73.9415817261 73.9408798218 72.9132003784 71.4903640747 70.5024642944 70.0400314331 78.030670166 78.4230499268 79.4982147217 81.1967086792 82.3612976074 82.3604202271 81.1925430298 79.4945373535 78.4211120605 78.0305862427 86.0193939209 86.239982605 86.9763793945 88.1542053223 88.9447097778 88.9443206787 88.1515960693 86.9737319946 86.2387084961 86.0193710327 
14.0005903244 13.7794589996 13.0413455963 11.8609542847 11.0663967133 11.0670661926 11.8638629913 13.0439271927 13.7807292938 14.0006151199 21.9893035889 21.596446991 20.5209846497 18.8230228424 17.658493042 17.6593837738 18.8273506165 20.5246486664 21.5983848572 21.9894046783 29.979801178 29.5156230927 28.5272006989 27.1055812836 26.080450058 26.0812511444 27.1092395782 28.5303268433 29.5176010132 29.9799575806 37.9816665649 37.6348724365 36.9806289673 36.1088562012 35.4962272644 35.496711731 36.1110496521 36.9826164246 37.6362342834 37.9818115234 45.9984893799 45.8695449829 45.6416397095 45.3530502319 45.1541671753 45.1543235779 45.3537597656 45.6422996521 45.8700294495 45.9985427856 54.0215606689 54.1512107849 54.3803596497 54.6704940796 54.8708496094 54.8706665039 54.6697616577 54.3796768188 54.150718689 54.0215034485 62.0383453369 62.385597229 63.0409011841 63.9141311646 64.5278320312 64.52734375 63.9119415283 63.0389251709 62.3842391968 62.0382003784 70.0401916504 70.504447937 71.4934844971 72.9168319702 73.9416351318 73.9409255981 72.9132385254 71.4903869629 70.502456665 70.0400314331 78.030670166 78.4230499268 79.4982376099 81.1967315674 82.361328125 82.3604507446 81.1925582886 79.4945526123 78.4211120605 78.0305862427 86.0193939209 86.239982605 86.9763717651 88.1542205811 88.944732666 88.9443511963 88.1516265869 86.9737243652 86.2387084961 86.0193710327 
