13.9401378632 21.7377052307 29.3762817383 37.2080154419 45.6324615479 54.3894271851 62.8121490479 70.642829895 78.2815475464 86.0795974731 13.9035396576 21.5306186676 28.6619606018 36.2087516785 45.1891098022 54.8350028992 63.8115310669 71.3558654785 78.4875106812 86.1160430908 13.8831605911 21.3736724854 28.2255744934 35.6414337158 44.8999023438 55.1256561279 64.3787307739 71.7917022705 78.643699646 86.1363296509 13.8645744324 21.2841682434 28.0083618164 35.3805923462 44.7894134521 55.2366905212 64.6396560669 72.008644104 78.7328491211 86.154838562 13.8512678146 21.2413024902 27.9003810883 35.2695236206 44.7462158203 55.2801017761 64.7508087158 72.1165161133 78.7755203247 86.1680984497 13.851275444 21.2413215637 27.9004592896 35.2695655823 44.7462730408 55.2800445557 64.7507629395 72.1164474487 78.7754974365 86.1680831909 13.8646230698 21.2843208313 28.0087242126 35.3810462952 44.7895812988 55.2365112305 64.639213562 72.00831604 78.732711792 86.154800415 13.8832206726 21.3740577698 28.2263774872 35.642288208 44.9007987976 55.1247711182 64.3779373169 71.7909393311 78.6433105469 86.1362686157 13.9036312103 21.5312709808 28.6640205383 36.2105979919 45.1901779175 54.8338623047 63.8098068237 71.3536376953 78.4868087769 86.1159362793 13.9402971268 21.7384681702 29.3783397675 37.2107315063 45.6341934204 54.3876838684 62.8095817566 70.6407241821 78.2807388306 86.0794067383 
13.939953804 21.7370357513 29.374835968 37.2063140869 45.6318359375 54.3900527954 62.8138389587 70.6442642212 78.2822265625 86.0797653198 13.9032936096 21.5296440125 28.6588859558 36.2043304443 45.1870651245 54.8370399475 63.8159484863 71.3589248657 78.4884719849 86.1162719727 13.8828573227 21.3721961975 28.2207756042 35.6326026917 44.8930778503 55.1325187683 64.3875350952 71.7964935303 78.6451721191 86.1366500854 13.8642406464 21.2822551727 28.0017108917 35.3649520874 44.7770004272 55.249168396 64.6552658081 72.0152893066 78.7347564697 86.1551742554 13.8509235382 21.2391586304 27.8927764893 35.2490272522 44.7312202454 55.295173645 64.7712554932 72.1241073608 78.7776641846 86.1684265137 13.8509311676 21.2391738892 27.8928508759 35.2490768433 44.7312812805 55.2951126099 64.7712173462 72.1240463257 78.7776412964 86.1684188843 13.8642883301 21.2824039459 28.0020751953 35.3654403687 44.7771835327 55.2489738464 64.6547927856 72.0149459839 78.7346038818 86.155128479 13.8829174042 21.3725891113 28.2216014862 35.6334953308 44.8940353394 55.1315689087 64.3867263794 71.7957077026 78.6447677612 86.1365737915 13.9033889771 21.5303096771 28.6609859467 36.2062263489 45.1881523132 54.8358840942 63.8141708374 71.3566665649 78.4877700806 86.1161727905 13.940117836 21.7378120422 29.3769073486 37.2089691162 45.6335487366 54.3883132935 62.8113517761 70.6421508789 78.2813949585 86.0795974731 
13.9399518967 21.7370300293 29.3748130798 37.2062950134 45.6318206787 54.3900604248 62.8138618469 70.6442947388 78.2822418213 86.079750061 13.9032917023 21.529630661 28.6588420868 36.2042655945 45.1870307922 54.8370780945 63.8160095215 71.3589782715 78.4885101318 86.1162796021 13.8828516006 21.3721694946 28.2206993103 35.6324920654 44.89295578 55.1326408386 64.3876571655 71.7965698242 78.6451950073 86.1366424561 13.8642368317 21.2822189331 28.0015983582 35.3647384644 44.7768058777 55.249370575 64.6554794312 72.0153961182 78.7347946167 86.1551742554 13.8509216309 21.2391204834 27.8926544189 35.248714447 44.7309761047 55.2954216003 64.7715682983 72.1242294312 78.7776947021 86.1684265137 13.8509273529 21.2391376495 27.8927230835 35.2487640381 44.7310409546 55.2953567505 64.7715301514 72.1241607666 78.7776947021 86.1684265137 13.864282608 21.2823753357 28.0019702911 35.365234375 44.7769775391 55.249168396 64.6550064087 72.0150604248 78.7346496582 86.1551361084 13.8829145432 21.3725662231 28.2215213776 35.6333808899 44.8939056396 55.1316833496 64.3868484497 71.7957763672 78.6447906494 86.1365890503 13.9033870697 21.5302944183 28.6609382629 36.206161499 45.1881217957 54.8359107971 63.8142433167 71.3567199707 78.48777771 86.1161727905 13.9401130676 21.7378005981 29.3768844604 37.208946228 45.6335372925 54.3883285522 62.8113861084 70.6421737671 78.2814025879 86.0795974731 
13.9399499893 21.7370262146 29.3748092651 37.2062835693 45.6318206787 54.3900680542 62.813873291 70.6442947388 78.2822265625 86.079750061 13.9032917023 21.529624939 28.6588230133 36.2042503357 45.1870269775 54.8370895386 63.8160209656 71.3590011597 78.4885025024 86.1162796021 13.882853508 21.3721656799 28.2206802368 35.6324615479 44.8929328918 55.1326560974 64.3876800537 71.7966003418 78.6452102661 86.1366500854 13.8642349243 21.2822093964 28.00157547 35.3646965027 44.7767753601 55.2493896484 64.6555252075 72.015411377 78.7347869873 86.1551895142 13.8509178162 21.2391052246 27.8926200867 35.2486610413 44.7309532166 55.2954444885 64.7716293335 72.1242675781 78.7777099609 86.1684341431 13.8509273529 21.2391281128 27.892698288 35.2487106323 44.731010437 55.2953796387 64.7715759277 72.1241989136 78.7776947021 86.1684265137 13.864282608 21.2823619843 28.0019454956 35.3651847839 44.7769546509 55.2492027283 64.6550521851 72.015083313 78.734664917 86.1551361084 13.8829126358 21.3725566864 28.2215023041 35.633354187 44.8938903809 55.1317062378 64.3868713379 71.7958068848 78.6447982788 86.1365966797 13.9033851624 21.5302906036 28.6609249115 36.2061462402 45.188117981 54.8359222412 63.8142585754 71.3567352295 78.4877853394 86.1161727905 13.9401130676 21.7378044128 29.3768768311 37.2089385986 45.6335334778 54.3883285522 62.8113861084 70.6421737671 78.2814102173 86.0795974731 
13.9399499893 21.7370204926 29.3748054504 37.2062759399 45.6318206787 54.3900680542 62.8138771057 70.6443099976 78.2822341919 86.0797653198 13.9032907486 21.5296192169 28.6588134766 36.2042350769 45.1870231628 54.8370933533 63.8160438538 71.3590011597 78.4885101318 86.1162796021 13.882850647 21.3721542358 28.220664978 35.632434845 44.8929214478 55.1326713562 64.3877105713 71.7966079712 78.6452178955 86.1366500854 13.8642339706 21.2821998596 28.0015487671 35.3646621704 44.776763916 55.2494049072 64.6555557251 72.0154418945 78.7348098755 86.1551895142 13.8509159088 21.2391014099 27.8925933838 35.2486152649 44.730922699 55.295463562 64.7716674805 72.1242904663 78.7777252197 86.1684341431 13.8509254456 21.2391166687 27.8926696777 35.248664856 44.7309799194 55.2954025269 64.7716293335 72.1242218018 78.7777023315 86.1684417725 13.8642816544 21.2823562622 28.0019130707 35.3651542664 44.7769317627 55.2492141724 64.655090332 72.0151138306 78.734664917 86.1551361084 13.8829097748 21.3725509644 28.2214851379 35.6333274841 44.8938903809 55.1317138672 64.3869018555 71.7958221436 78.6448135376 86.1365966797 13.9033842087 21.5302867889 28.6609134674 36.2061347961 45.1881103516 54.8359298706 63.8142738342 71.3567428589 78.4877929688 86.1161727905 13.9401130676 21.7377986908 29.3768787384 37.2089347839 45.6335296631 54.3883399963 62.8113899231 70.6421813965 78.2814102173 86.0795974731 
13.9399499893 21.7370243073 29.3748016357 37.2062683105 45.6318130493 54.3900756836 62.8138809204 70.6443099976 78.2822341919 86.0797653198 13.9032897949 21.5296154022 28.6588039398 36.2042236328 45.1870193481 54.8371047974 63.8160629272 71.3590087891 78.4885177612 86.1162796021 13.882850647 21.3721485138 28.2206420898 35.6324043274 44.892906189 55.1326789856 64.3877410889 71.7966308594 78.6452178955 86.1366500854 13.8642320633 21.2821922302 28.0015258789 35.3646278381 44.7767410278 55.2494354248 64.6555938721 72.0154647827 78.7348175049 86.1551895142 13.8509159088 21.2390861511 27.8925590515 35.2485771179 44.7309112549 55.2954864502 64.7717056274 72.1243133545 78.7777252197 86.1684341431 13.8509235382 21.2391014099 27.8926429749 35.2486305237 44.7309684753 55.2954216003 64.7716598511 72.1242446899 78.7777175903 86.1684341431 13.8642807007 21.2823467255 28.0018920898 35.3651199341 44.7769165039 55.2492408752 64.6551208496 72.0151290894 78.7346725464 86.1551437378 13.8829097748 21.372543335 28.2214679718 35.6333045959 44.8938713074 55.1317367554 64.3869247437 71.7958450317 78.6448135376 86.1365966797 13.9033842087 21.5302829742 28.6608982086 36.2061195374 45.1881065369 54.8359298706 63.8142852783 71.3567581177 78.4877929688 86.1161727905 13.9401140213 21.7377986908 29.3768672943 37.2089309692 45.6335372925 54.388343811 62.8113899231 70.6421813965 78.2814102173 86.0796051025 
13.9399499893 21.7370185852 29.3747959137 37.2062683105 45.6318130493 54.3900756836 62.8138885498 70.6443099976 78.2822341919 86.0797653198 13.9032897949 21.5296115875 28.6587924957 36.204208374 45.1870079041 54.8371124268 63.8160743713 71.3590316772 78.4885177612 86.1162796021 13.882850647 21.3721446991 28.2206230164 35.6323852539 44.8928985596 55.132686615 64.3877563477 71.7966308594 78.6452255249 86.1366424561 13.8642311096 21.2821807861 28.0015029907 35.3645935059 44.7767219543 55.2494506836 64.6556243896 72.0154876709 78.7348251343 86.1552047729 13.8509159088 21.2390766144 27.892534256 35.2485275269 44.7308883667 55.2954978943 64.7717590332 72.1243438721 78.7777328491 86.1684341431 13.8509216309 21.2390937805 27.8926124573 35.2485809326 44.7309532166 55.2954406738 64.771697998 72.1242675781 78.7777175903 86.1684417725 13.8642787933 21.2823371887 28.0018692017 35.3650817871 44.7769012451 55.2492599487 64.6551513672 72.0151519775 78.7346801758 86.1551437378 13.8829116821 21.3725357056 28.2214508057 35.6332817078 44.8938598633 55.1317405701 64.3869552612 71.7958526611 78.644821167 86.1365966797 13.9033842087 21.5302772522 28.6608924866 36.2061042786 45.1880950928 54.8359451294 63.8143081665 71.3567657471 78.4877929688 86.1161880493 13.9401130676 21.7377948761 29.3768672943 37.2089271545 45.6335258484 54.388343811 62.8113975525 70.6421890259 78.2814102173 86.0796051025 
