13.9419765472 21.7381649017 29.3705291748 37.2278060913 45.6598396301 54.3619117737 62.7924461365 70.6486129761 78.2810592651 86.0777359009 13.9061050415 21.5211906433 28.6609954834 36.4182701111 45.3281822205 54.6952323914 63.6025428772 71.3571243286 78.4968948364 86.1134796143 13.8870649338 21.3689899445 28.26080513 35.9882011414 45.1348571777 54.8895339966 64.0327606201 71.756942749 78.6483764648 86.1324539185 13.8725996017 21.2949504852 28.1057167053 35.8181114197 45.0598335266 54.9649353027 64.2029571533 71.9118652344 78.7221450806 86.1468353271 13.8630390167 21.2660770416 28.0447006226 35.746635437 45.028678894 54.9962387085 64.2744598389 71.9728164673 78.7509307861 86.1563568115 13.8630466461 21.2660942078 28.0447463989 35.7466964722 45.0287094116 54.9962158203 64.2744140625 71.9728012085 78.7509307861 86.1563415527 13.8726291656 21.2950611115 28.1059646606 35.8184509277 45.0599746704 54.9648094177 64.2026367188 71.9116439819 78.7220535278 86.1468200684 13.8870973587 21.3692436218 28.2613754272 35.9888420105 45.1353988647 54.8890151978 64.0321807861 71.7564163208 78.648147583 86.1324081421 13.9061670303 21.5216636658 28.6624259949 36.4196243286 45.3288459778 54.6945762634 63.6013031006 71.3557052612 78.496421814 86.1134109497 13.9421167374 21.7388744354 29.3725948334 37.2306060791 45.6611976624 54.3606414795 62.7896118164 70.6464691162 78.2803268433 86.0775909424 
13.9371986389 21.7222709656 29.3382987976 37.1867332458 45.6356048584 54.3862724304 62.8335227966 70.6807861328 78.2969360352 86.0825119019 13.8993473053 21.4984912872 28.593044281 36.2759361267 45.24036026 54.7834892273 63.744720459 71.424911499 78.5195388794 86.1202087402 13.8776607513 21.328994751 28.1359233856 35.7299537659 44.9903106689 55.0348014832 64.2908172607 71.8814697266 78.6882553101 86.1418151855 13.8603610992 21.2314949036 27.9044761658 35.4918899536 44.8942527771 55.1313476562 64.529083252 72.1126861572 78.785369873 86.1590423584 13.8481369019 21.1850795746 27.7941265106 35.3919296265 44.8560333252 55.1697540283 64.6291503906 72.2229614258 78.8315887451 86.1712112427 13.8481445312 21.1851043701 27.7942047119 35.3919944763 44.8560791016 55.169708252 64.6290969849 72.2228775024 78.8315582275 86.1712112427 13.8603963852 21.2316551208 27.9048786163 35.492313385 44.8944168091 55.1311912537 64.528678894 72.1123199463 78.7852249146 86.1590042114 13.8777008057 21.3292827606 28.1366424561 35.7308654785 44.9909324646 55.034236908 64.2899703979 71.8808135986 78.6879730225 86.1417770386 13.8994121552 21.4990100861 28.5946044922 36.2774734497 45.2412567139 54.7825965881 63.743347168 71.4233398438 78.5190200806 86.1201477051 13.9373435974 21.7229957581 29.3404769897 37.189781189 45.6370048523 54.3849754333 62.8304214478 70.6785049438 78.2961730957 86.0823516846 
13.9366044998 21.7205238342 29.3351268768 37.1827468872 45.6336898804 54.3881950378 62.8375244141 70.6839599609 78.2986755371 86.0830993652 13.8984909058 21.4960975647 28.5849704742 36.2597351074 45.2302284241 54.793674469 63.7609176636 71.4329452515 78.5219345093 86.1210708618 13.8764305115 21.3240604401 28.1188983917 35.6899223328 44.9575500488 55.0677261353 64.3307800293 71.8984603882 78.6931533813 86.1430206299 13.8587627411 21.2229785919 27.8749637604 35.4169311523 44.8413887024 55.1844673157 64.6039123535 72.1421356201 78.7938537598 86.1606369019 13.8462190628 21.1736450195 27.7548694611 35.2948875427 44.7938270569 55.2322731018 64.72605896 72.2620849609 78.8429718018 86.1731185913 13.8462266922 21.1736793518 27.7549571991 35.294960022 44.7938842773 55.2322311401 64.7260055542 72.2620162964 78.8429412842 86.1731185913 13.8587999344 21.2231578827 27.8753852844 35.4174194336 44.8415870667 55.1842842102 64.6034393311 72.1417312622 78.7936859131 86.1605987549 13.8764734268 21.3244094849 28.1197490692 35.6909179688 44.9582633972 55.0670700073 64.3298568726 71.8976593018 78.6928253174 86.1429901123 13.8985671997 21.4966678619 28.5867023468 36.2613525391 45.2311706543 54.7927322388 63.7594490051 71.4311981201 78.5213546753 86.1210021973 13.9367542267 21.7212543488 29.3372745514 37.1858215332 45.6350822449 54.3869056702 62.8343696594 70.6817016602 78.2979125977 86.0829544067 
13.936542511 21.7203598022 29.3348388672 37.1823768616 45.6335449219 54.3883361816 62.8378829956 70.6842651367 78.2988433838 86.0831756592 13.8984022141 21.4958686829 28.5841941833 36.2582015991 45.2294006348 54.794506073 63.7624473572 71.4337234497 78.5221557617 86.1211471558 13.8763017654 21.323551178 28.1171321869 35.6861953735 44.9542045593 55.0710830688 64.3345184326 71.9002304077 78.6936645508 86.1431732178 13.8585929871 21.2220668793 27.8717441559 35.4084205627 44.8341217041 55.1917762756 64.6124038696 72.1453399658 78.7947692871 86.1608123779 13.8460206985 21.1724224091 27.7504768372 35.2821388245 44.7841567993 55.2419891357 64.73878479 72.2664794922 78.8441925049 86.1733169556 13.8460283279 21.1724510193 27.7505588531 35.2822113037 44.7842140198 55.24193573 64.7387161255 72.2664031982 78.8441619873 86.173324585 13.8586301804 21.2222442627 27.8721733093 35.4089279175 44.8343353271 55.1915817261 64.6119232178 72.1449432373 78.7946014404 86.160774231 13.8763456345 21.3239002228 28.1179904938 35.6872024536 44.95495224 55.0703887939 64.3335647583 71.8994216919 78.6933441162 86.1431274414 13.898478508 21.4964427948 28.5859355927 36.2598342896 45.2303466797 54.7935562134 63.7609710693 71.431968689 78.5215759277 86.1210784912 13.9366960526 21.7210941315 29.3369884491 37.185459137 45.6349449158 54.387046814 62.834728241 70.6819839478 78.2980804443 86.0830154419 
13.9365348816 21.7203369141 29.3347969055 37.1823348999 45.6335296631 54.3883514404 62.837928772 70.6842880249 78.2988586426 86.0831680298 13.898393631 21.4958400726 28.5840969086 36.258014679 45.2293014526 54.7946090698 63.7626342773 71.4338226318 78.5221939087 86.1211700439 13.876282692 21.3234825134 28.1169013977 35.685749054 44.9538269043 55.071472168 64.3349609375 71.9004592896 78.6937332153 86.1431884766 13.8585700989 21.2219390869 27.871307373 35.4073219299 44.833114624 55.1927871704 64.6135025024 72.1457672119 78.7948913574 86.1608123779 13.8459968567 21.172252655 27.7498703003 35.2803001404 44.7827148438 55.2434272766 64.7406158447 72.2670898438 78.8443603516 86.1733398438 13.8460025787 21.1722812653 27.749961853 35.2803726196 44.7827682495 55.2433815002 64.740562439 72.2670135498 78.8443374634 86.1733474731 13.8586082458 21.222120285 27.8717365265 35.4078292847 44.8333282471 55.1925964355 64.6130218506 72.1453704834 78.7947158813 86.1607818604 13.876329422 21.3238315582 28.1177520752 35.6867523193 44.954574585 55.0707702637 64.3340072632 71.8996582031 78.6934051514 86.1431427002 13.8984670639 21.4964141846 28.5858402252 36.25963974 45.2302436829 54.7936553955 63.7611618042 71.4320678711 78.5216064453 86.1210861206 13.9366865158 21.7210674286 29.3369541168 37.1854095459 45.6349220276 54.3870620728 62.8347740173 70.6820297241 78.2981033325 86.0830230713 
13.9365348816 21.7203330994 29.3347854614 37.1823234558 45.6335296631 54.3883514404 62.8379402161 70.6842880249 78.2988586426 86.0831680298 13.8983898163 21.4958305359 28.5840682983 36.2579803467 45.2292785645 54.7946205139 63.7626800537 71.43384552 78.5221862793 86.1211700439 13.8762807846 21.3234634399 28.1168441772 35.6856651306 44.9537658691 55.0715408325 64.3350448608 71.9005050659 78.6937484741 86.1431884766 13.8585653305 21.221906662 27.8712158203 35.4071159363 44.8329467773 55.1929588318 64.6137084961 72.1458587646 78.794921875 86.1608276367 13.8459911346 21.1722164154 27.7497463226 35.2799415588 44.7824478149 55.2437057495 64.7409667969 72.2672042847 78.8443984985 86.1733474731 13.845998764 21.172246933 27.7498321533 35.2800140381 44.7825012207 55.2436561584 64.7409133911 72.2671432495 78.8443756104 86.1733398438 13.8586044312 21.2220897675 27.8716411591 35.407623291 44.833152771 55.1927680969 64.6132278442 72.1454467773 78.7947387695 86.1607971191 13.8763256073 21.3238143921 28.1177005768 35.6866722107 44.9545211792 55.0708351135 64.3340988159 71.8996963501 78.6934127808 86.1431427002 13.8984651566 21.4964046478 28.5858154297 36.2596054077 45.2302246094 54.7936782837 63.7611961365 71.4320907593 78.5216064453 86.1210784912 13.9366836548 21.7210636139 29.3369445801 37.1854019165 45.6349143982 54.3870735168 62.8347816467 70.6820373535 78.2981033325 86.0830230713 
13.9365348816 21.7203330994 29.3347835541 37.1823120117 45.6335220337 54.3883590698 62.8379516602 70.6843032837 78.2988739014 86.0831680298 13.8983879089 21.4958267212 28.5840549469 36.2579612732 45.2292747498 54.7946395874 63.7626876831 71.4338531494 78.5222015381 86.1211624146 13.8762788773 21.3234577179 28.1168174744 35.6856269836 44.953742981 55.0715560913 64.3350830078 71.9005279541 78.6937637329 86.1431884766 13.8585624695 21.2218990326 27.8711776733 35.4070472717 44.8328971863 55.1930084229 64.6137771606 72.1459121704 78.7949142456 86.1608276367 13.8459882736 21.1721992493 27.7496986389 35.279838562 44.782371521 55.2437744141 64.7410812378 72.2672653198 78.8444137573 86.1733474731 13.8459968567 21.1722259521 27.749786377 35.2799072266 44.7824363708 55.2437286377 64.741027832 72.2671813965 78.8443832397 86.1733474731 13.8586025238 21.222076416 27.8716030121 35.4075584412 44.8331031799 55.1928253174 64.6132965088 72.1455001831 78.7947616577 86.1607894897 13.8763256073 21.3238067627 28.1176815033 35.6866378784 44.954498291 55.070854187 64.3341293335 71.8997268677 78.6934356689 86.1431427002 13.8984642029 21.4964008331 28.5858001709 36.2595901489 45.23021698 54.7936897278 63.7612113953 71.4320983887 78.5216064453 86.1210784912 13.9366836548 21.7210597992 29.3369407654 37.1853942871 45.6349220276 54.3870735168 62.8348007202 70.6820373535 78.2981033325 86.0830154419 
