2.26497960091 3.84988927841 6.7381401062 9.44596195221 10.9779720306 10.9767570496 9.44011306763 6.73069429398 3.84325242043 2.2648704052 2.29082298279 5.04797172546 9.73529052734 14.168510437 16.6538619995 16.6518878937 14.1589984894 9.72320365906 5.03697490692 2.29051160812 2.31503033638 5.93235015869 11.8195877075 17.3233566284 20.5572834015 20.5547027588 17.3112812042 11.804649353 5.91827774048 2.31453227997 2.33159732819 6.46149778366 12.9977273941 19.0707244873 22.666053772 22.6631889343 19.0573501587 12.9812660217 6.44567012787 2.33097410202 2.34061431885 6.72720766068 13.5767412186 19.9120330811 23.6598243713 23.6568450928 19.8980751038 13.5595664978 6.71054267883 2.33992290497 2.34060716629 6.72699975967 13.5762987137 19.9113903046 23.6590671539 23.6560935974 19.8974380493 13.5591278076 6.71033716202 2.33991575241 2.3315615654 6.46044158936 12.9953947067 19.0672969818 22.6619644165 22.6591014862 19.0539550781 12.9789657593 6.44463062286 2.33093929291 2.31497907639 5.93054389954 11.8155241013 17.3171977997 20.5491104126 20.5466136932 17.3051986694 11.800658226 5.91649961472 2.31448125839 2.2907500267 5.04531860352 9.72874259949 14.1587734222 16.6413707733 16.6394615173 14.1494626999 9.71677589417 5.03439807892 2.29044246674 2.26493382454 3.84657001495 6.72947120667 9.43085384369 10.9593200684 10.9584112167 9.4250087738 6.72236156464 3.84005141258 2.26482486725 
2.2649769783 3.84623432159 6.73034191132 9.43605804443 10.9671373367 10.9659252167 9.43021392822 6.7229013443 3.83961009979 2.26486754417 2.29077577591 5.04348421097 9.72645759583 14.158000946 16.6430644989 16.6410923004 14.1484909058 9.71437358856 5.03250026703 2.29046487808 2.31495428085 5.92786550522 11.8109741211 17.31316185 20.5477924347 20.5452041626 17.3010864258 11.7960424423 5.9138045311 2.31445717812 2.33152127266 6.45739936829 12.9899682999 19.0626754761 22.6638813019 22.6609992981 19.0492935181 12.9735116959 6.44158267975 2.33089852333 2.34054231644 6.7234826088 13.5698442459 19.9066390991 23.6666641235 23.6636638641 19.8926715851 13.5526723862 6.70682668686 2.33985185623 2.34053492546 6.72327423096 13.569401741 19.9059963226 23.6658992767 23.662902832 19.8920288086 13.5522317886 6.70662307739 2.33984446526 2.33148574829 6.45634222031 12.9876356125 19.0592384338 22.6597614288 22.6568851471 19.0458908081 12.9712085724 6.44054174423 2.33086371422 2.31490278244 5.92605638504 11.8069076538 17.3069992065 20.5396080017 20.5371017456 17.2950000763 11.792052269 5.91202545166 2.3144056797 2.29070258141 5.04083251953 9.71990680695 14.1482639313 16.6305656433 16.6286563873 14.1389579773 9.70794963837 5.02992630005 2.29039573669 2.26493144035 3.84292125702 6.72168254852 9.42095470428 10.9484958649 10.9475879669 9.41511154175 6.71458387375 3.83641672134 2.26482224464 
2.26497673988 3.84624576569 6.73036813736 9.43609809875 10.9671812057 10.965970993 9.43025112152 6.72292995453 3.83962130547 2.26486778259 2.29077577591 5.04350137711 9.72649383545 14.1580524445 16.6431179047 16.6411457062 14.1485404968 9.71441173553 5.03251791 2.29046535492 2.31495475769 5.92788696289 11.8110170364 17.3132228851 20.5478591919 20.5452709198 17.3011512756 11.7960863113 5.91382598877 2.31445813179 2.33152198792 6.45742416382 12.9900178909 19.0627498627 22.6639652252 22.6610813141 19.0493659973 12.9735641479 6.44160699844 2.33089923859 2.34054303169 6.723508358 13.5699062347 19.9067268372 23.6667709351 23.663772583 19.8927516937 13.5527296066 6.70685434341 2.33985257149 2.34053587914 6.72330188751 13.5694589615 19.9060783386 23.6660060883 23.6630115509 19.8921108246 13.5522890091 6.7066488266 2.33984541893 2.33148622513 6.45636701584 12.9876871109 19.0593109131 22.6598453522 22.6569709778 19.0459632874 12.9712619781 6.44056749344 2.33086442947 2.3149034977 5.92607879639 11.8069543839 17.3070602417 20.5396728516 20.5371723175 17.2950630188 11.7920970917 5.91204786301 2.31440615654 2.29070329666 5.04085016251 9.71994495392 14.148314476 16.6306190491 16.6287117004 14.139005661 9.70798778534 5.02994251251 2.29039573669 2.26493120193 3.84293293953 6.72171020508 9.42099380493 10.9485397339 10.9476318359 9.41515159607 6.71461105347 3.83642721176 2.26482224464 
2.2649769783 3.84625649452 6.73039627075 9.43613624573 10.9672279358 10.9660139084 9.43029117584 6.72295713425 3.83963298798 2.26486778259 2.29077625275 5.04351902008 9.72653102875 14.1581039429 16.6431732178 16.6412010193 14.1485910416 9.71444988251 5.03253507614 2.29046559334 2.31495523453 5.92790842056 11.8110637665 17.3132858276 20.5479240417 20.5453414917 17.3012123108 11.7961330414 5.9138469696 2.31445813179 2.33152270317 6.45744943619 12.9900722504 19.0628242493 22.6640510559 22.6611671448 19.0494403839 12.9736166 6.44163227081 2.33089995384 2.34054374695 6.72353649139 13.5699596405 19.9068069458 23.6668739319 23.6638774872 19.8928356171 13.5527877808 6.70688152313 2.33985328674 2.34053683281 6.7233300209 13.5695180893 19.9061603546 23.6661128998 23.6631164551 19.8921909332 13.5523471832 6.70667648315 2.33984589577 2.33148694038 6.45639228821 12.9877405167 19.0593852997 22.6599311829 22.6570529938 19.0460395813 12.9713134766 6.44059181213 2.33086514473 2.31490397453 5.9261007309 11.8070001602 17.3071212769 20.5397377014 20.5372390747 17.2951221466 11.7921447754 5.91207027435 2.3144068718 2.29070329666 5.04086685181 9.71998405457 14.1483650208 16.6306743622 16.6287670135 14.1390571594 9.70802497864 5.02996063232 2.29039621353 2.26493144035 3.84294462204 6.7217373848 9.42103290558 10.9485845566 10.947675705 9.41519260406 6.71463775635 3.83643865585 2.26482200623 
2.2649769783 3.84626793861 6.73042297363 9.43617630005 10.9672727585 10.9660606384 9.43033123016 6.72298574448 3.83964467049 2.26486778259 2.29077625275 5.04353618622 9.72656822205 14.1581535339 16.6432304382 16.6412582397 14.1486415863 9.71448802948 5.03255224228 2.29046559334 2.31495571136 5.92793083191 11.8111114502 17.3133487701 20.5479946136 20.5454063416 17.3012733459 11.7961778641 5.91386985779 2.31445860863 2.33152318001 6.45747470856 12.9901247025 19.0628986359 22.6641387939 22.6612529755 19.0495147705 12.9736719131 6.44165802002 2.3309006691 2.34054470062 6.72356414795 13.570019722 19.9068889618 23.6669807434 23.6639881134 19.8929138184 13.5528459549 6.70690965652 2.339854002 2.34053754807 6.72335767746 13.5695734024 19.9062423706 23.666217804 23.6632232666 19.8922710419 13.552406311 6.70670366287 2.33984684944 2.33148741722 6.45641803741 12.9877939224 19.0594596863 22.6600208282 22.6571426392 19.0461120605 12.9713687897 6.44061803818 2.33086585999 2.31490397453 5.92612218857 11.8070459366 17.307182312 20.5398101807 20.5373096466 17.2951869965 11.7921905518 5.91209077835 2.31440734863 2.2907037735 5.04088449478 9.72002124786 14.1484165192 16.6307315826 16.6288223267 14.1391067505 9.70806407928 5.02997732162 2.29039621353 2.26493167877 3.84295582771 6.72176551819 9.4210729599 10.9486284256 10.9477214813 9.41523075104 6.71466636658 3.83644962311 2.26482200623 
2.2649769783 3.84628009796 6.73045158386 9.4362154007 10.9673166275 10.9661035538 9.43036937714 6.72301197052 3.8396551609 2.26486754417 2.29077672958 5.04355287552 9.72660636902 14.1582040787 16.6432857513 16.6413116455 14.1486930847 9.71452617645 5.03256940842 2.29046607018 2.3149561882 5.92795324326 11.8111581802 17.3134117126 20.5480632782 20.5454750061 17.3013381958 11.7962245941 5.91389083862 2.31445908546 2.33152365685 6.45749998093 12.9901781082 19.0629692078 22.6642246246 22.6613407135 19.0495891571 12.9737262726 6.44168376923 2.33090114594 2.34054541588 6.72359228134 13.5700759888 19.9069709778 23.6670913696 23.6640930176 19.892999649 13.5529022217 6.70693683624 2.33985471725 2.3405380249 6.7233839035 13.5696325302 19.9063262939 23.6663265228 23.6633338928 19.8923587799 13.5524635315 6.70673179626 2.33984708786 2.33148813248 6.45644330978 12.9878473282 19.0595359802 22.6601047516 22.6572303772 19.0461883545 12.9714221954 6.44064331055 2.33086657524 2.31490468979 5.92614459991 11.8070936203 17.3072471619 20.5398769379 20.5373783112 17.295249939 11.7922353745 5.91211271286 2.31440782547 2.29070401192 5.04090118408 9.72005844116 14.1484661102 16.6307849884 16.6288795471 14.1391572952 9.70810317993 5.02999448776 2.29039692879 2.26493167877 3.84296631813 6.72179174423 9.42111110687 10.948674202 10.9477653503 9.41526985168 6.71469449997 3.8364610672 2.26482248306 
2.26497721672 3.84629058838 6.73047828674 9.43625354767 10.9673604965 10.9661464691 9.43040943146 6.72303962708 3.83966612816 2.26486778259 2.29077720642 5.04357147217 9.72664546967 14.1582546234 16.6433429718 16.6413669586 14.1487417221 9.71456241608 5.03258609772 2.29046654701 2.31495666504 5.92797327042 11.8112020493 17.3134708405 20.5481300354 20.5455436707 17.301399231 11.7962713242 5.91391181946 2.31445980072 2.3315243721 6.45752573013 12.9902334213 19.0630455017 22.6643104553 22.6614322662 19.0496635437 12.9737796783 6.44170999527 2.33090209961 2.34054589272 6.72361946106 13.5701370239 19.9070549011 23.6671981812 23.6641998291 19.8930854797 13.5529603958 6.70696496964 2.33985495567 2.34053874016 6.72341156006 13.569691658 19.9064102173 23.6664352417 23.663438797 19.8924407959 13.552520752 6.70675897598 2.33984780312 2.33148884773 6.45646858215 12.9879016876 19.0596065521 22.660194397 22.6573162079 19.0462627411 12.9714756012 6.44066858292 2.33086705208 2.31490516663 5.92616558075 11.8071365356 17.3073101044 20.5399417877 20.537443161 17.2953128815 11.7922811508 5.91213464737 2.31440782547 2.29070425034 5.04091930389 9.72009658813 14.148516655 16.6308403015 16.6289348602 14.1392087936 9.70814037323 5.03001213074 2.29039692879 2.26493167877 3.84297800064 6.72182035446 9.42115020752 10.948718071 10.947810173 9.41530799866 6.71471977234 3.83647227287 2.26482248306 
