14.0110015869 13.8408002853 13.0898685455 12.0361747742 11.4832801819 11.483716011 12.038392067 13.0924434662 13.8420295715 14.0109739304 22.0033664703 21.713804245 20.7844791412 19.6162509918 18.9731082916 18.973613739 19.6187229156 20.7874279022 21.715473175 22.0034008026 29.9977798462 29.6844520569 28.9365787506 28.0313396454 27.5005474091 27.5009765625 28.0333137512 28.9388408661 29.6859512329 29.9978485107 37.9989395142 37.7892112732 37.3269081116 36.7786216736 36.4511909485 36.4514503479 36.7798309326 37.3282928467 37.7901535034 37.9990005493 46.0053253174 45.9327316284 45.7769317627 45.5948753357 45.485534668 45.485622406 45.5952758789 45.7773857117 45.9330482483 46.0053520203 54.0146827698 54.0876426697 54.2442474365 54.4272155762 54.5371589661 54.5370635986 54.4268188477 54.2437858582 54.0873260498 54.0146636963 62.0210647583 62.2311096191 62.6941604614 63.2433433533 63.5713348389 63.5710792542 63.2421455383 62.6927871704 62.2301635742 62.0210075378 70.0222091675 70.3356628418 71.0841674805 71.9903259277 72.5213470459 72.5209350586 71.9883728027 71.0819168091 70.3341674805 70.0221328735 78.0166091919 78.3059310913 79.2355041504 80.4042282104 81.0475921631 81.0470733643 80.4017868042 79.2325515747 78.3042678833 78.0165863037 86.0090103149 86.178855896 86.9284133911 87.9800033569 88.5312805176 88.5309906006 87.9777984619 86.9258728027 86.1776275635 86.0090408325 
14.0034790039 13.7946186066 13.0289525986 11.9212865829 11.2790603638 11.2796020508 11.9237384796 13.0315771103 13.7958984375 14.0034885406 21.9937820435 21.63646698 20.6186923981 19.2743606567 18.489490509 18.4901161194 19.2773456573 20.621963501 21.6383190155 21.9938583374 29.9859142303 29.5811004639 28.6982746124 27.6381378174 27.0096244812 27.0101299286 27.6404819489 28.7009277344 29.5828781128 29.9860363007 37.9884109497 37.6940689087 37.1348342896 36.5044784546 36.1237831116 36.1240921021 36.5058746338 37.1364326477 37.6952590942 37.9885177612 46.0009155273 45.8934211731 45.7043571472 45.4973602295 45.3713760376 45.3714790344 45.4978179932 45.7048912048 45.8938331604 46.000957489 54.0191268921 54.1271705627 54.3172073364 54.5252571106 54.6519355774 54.6518287659 54.5247879028 54.3166694641 54.126750946 54.019077301 62.0316085815 62.3263320923 62.8864707947 63.5178909302 63.8992652893 63.8989601135 63.5164985657 62.8848762512 62.3251342773 62.0314979553 70.034072876 70.4389801025 71.3223876953 72.3837203979 73.012512207 73.0119934082 72.381401062 71.3197555542 70.4372177124 70.0339508057 78.0261993408 78.3831863403 79.4010314941 80.7458114624 81.5308990479 81.5302734375 80.7428817749 79.3977584839 78.3813552856 78.0261154175 86.0165176392 86.2249755859 86.9891738892 88.0942230225 88.7345962524 88.7342681885 88.0917816162 86.9865951538 86.2237167358 86.0165100098 
14.0013885498 13.783074379 13.0177459717 11.9022941589 11.2432479858 11.2438077927 11.9047870636 13.0203762054 13.7843580246 14.0014095306 21.9914627075 21.6182746887 20.5776195526 19.1768951416 18.3224048615 18.3231124878 19.1800632477 20.5809822083 21.6201667786 21.9915485382 29.9837150574 29.5585956573 28.6356887817 27.4781894684 26.7613697052 26.7619495392 27.4808311462 28.6384944916 29.5604496002 29.9838504791 37.9867515564 37.6748199463 37.0748023987 36.3721504211 35.9408683777 35.9412193298 36.3737373352 37.0765686035 37.6760826111 37.986869812 46.0002670288 45.8855171204 45.6786842346 45.4471664429 45.305229187 45.3053436279 45.4476852417 45.679271698 45.8859634399 46.0003128052 54.0197753906 54.1351127625 54.3430099487 54.5756912231 54.7184448242 54.7183227539 54.5751571655 54.3424263 54.1346588135 54.0197257996 62.0332641602 62.3455886841 62.9465332031 63.6503486633 64.0824050903 64.0820541382 63.6487579346 62.9447669983 62.3443336487 62.0331573486 70.0362701416 70.4614868164 71.3849639893 72.5436477661 73.2606887817 73.2601318359 72.5410461426 71.3821563721 70.4596405029 70.0361404419 78.0285186768 78.4013671875 79.4420089722 80.8431015015 81.6976089478 81.6968994141 80.8399963379 79.438659668 78.3994903564 78.0284194946 86.0186004639 86.2365036011 87.0003356934 88.11302948 88.7701721191 88.7698516846 88.1105117798 86.9977874756 86.2352523804 86.0185775757 
14.0009250641 13.7806129456 13.0159339905 11.8999633789 11.2386159897 11.2391796112 11.9024600983 13.0185623169 13.7818984985 14.0009469986 21.9909515381 21.6143703461 20.5691719055 19.1573429108 18.2908382416 18.2915630341 19.1605453491 20.5725536346 21.6162757874 21.9910411835 29.9832458496 29.5536670685 28.6214179993 27.4422512054 26.6947307587 26.6953544617 27.4449615479 28.6242637634 29.5555324554 29.9833812714 37.9863853455 37.6705131531 37.0607185364 36.3327293396 35.8765602112 35.8769340515 36.3343963623 37.0625152588 37.6717910767 37.9865112305 46.0001220703 45.8837432861 45.6723823547 45.429977417 45.2794723511 45.2795906067 45.4305229187 45.6729812622 45.8841896057 46.0001754761 54.0199279785 54.1368980408 54.3493423462 54.5929679871 54.7443733215 54.7442398071 54.592414856 54.3487319946 54.1364479065 54.0198707581 62.0336303711 62.3499069214 62.9606170654 63.689781189 64.146736145 64.1463699341 63.6881141663 62.9588394165 62.3486328125 62.0335083008 70.0367507935 70.4664154053 71.399230957 72.5795669556 73.3272323608 73.3266220093 72.5768966675 71.3963699341 70.4645614624 70.0366134644 78.0290222168 78.4052734375 79.4504470825 80.8626174927 81.7291107178 81.7283706665 80.8594818115 79.4470596313 78.4033889771 78.0289230347 86.0190811157 86.2389678955 87.0021514893 88.1153182983 88.774772644 88.7744369507 88.1128005981 86.9996185303 86.237701416 86.0190505981 
14.0008449554 13.7802085876 13.01567173 11.8997039795 11.2380552292 11.2386207581 11.9022016525 13.0182981491 13.7814941406 14.0008707047 21.9908676147 21.6137237549 20.5678100586 19.1543369293 18.2861728668 18.2868976593 19.1575469971 20.5711975098 21.6156291962 21.9909572601 29.983165741 29.5528259277 28.6190166473 27.4364585876 26.6847076416 26.6853370667 27.4391803741 28.6218738556 29.5547046661 29.9833011627 37.9863204956 37.6697616577 37.0581855774 36.3252754211 35.8627433777 35.8631248474 36.3269500732 37.0599899292 37.671043396 37.9864463806 46.0000991821 45.8834190369 45.6712493896 45.426109314 45.2731513977 45.2732696533 45.4266662598 45.6718597412 45.8838768005 46.0001525879 54.0199432373 54.1372146606 54.3504829407 54.5968513489 54.7507591248 54.750617981 54.596282959 54.3498573303 54.1367607117 54.0198936462 62.0336914062 62.3506507874 62.9631538391 63.6972389221 64.1605529785 64.1601715088 63.69556427 62.9613609314 62.3493690491 62.0335731506 70.0368423462 70.4672470093 71.4016265869 72.5853652954 73.3372344971 73.3366088867 72.5826644897 71.3987808228 70.465385437 70.0366973877 78.0291137695 78.4059143066 79.451789856 80.8656082153 81.7337646484 81.7330169678 80.862449646 79.448425293 78.4040298462 78.0290222168 86.0191497803 86.2393722534 87.0024108887 88.1155548096 88.7753219604 88.7749862671 88.1130523682 86.9998626709 86.2380981445 86.0191345215 
14.0008354187 13.7801494598 13.0156288147 11.8996562958 11.2379693985 11.2385349274 11.9021558762 13.0182523727 13.7814331055 14.0008583069 21.990852356 21.6136245728 20.5676021576 19.1538887024 18.2854995728 18.2862262726 19.1571006775 20.5709819794 21.6155261993 21.9909420013 29.9831523895 29.5526981354 28.6186294556 27.4355773926 26.6832942963 26.6839256287 27.4383010864 28.6214942932 29.5545749664 29.9832897186 37.9863128662 37.6696434021 37.0577659607 36.3240394592 35.8603248596 35.860710144 36.3257255554 37.0595779419 37.6709251404 37.9864349365 46.0000915527 45.8833770752 45.6710662842 45.4253807068 45.2718811035 45.2719993591 45.4259490967 45.6716766357 45.8838233948 46.0001449585 54.0199432373 54.1372642517 54.3506660461 54.5975875854 54.7520294189 54.7518997192 54.5970191956 54.3500480652 54.1368141174 54.0198898315 62.033706665 62.350769043 62.9635772705 63.6984634399 64.1629638672 64.1625900269 63.6967849731 62.9617767334 62.3494987488 62.03358078 70.0368423462 70.467376709 71.4020080566 72.5862426758 73.3386306763 73.3380126953 72.5835418701 71.3991622925 70.4655227661 70.0366973877 78.0291213989 78.4060211182 79.4519958496 80.8660583496 81.7344284058 81.7336883545 80.8629074097 79.4486465454 78.4041290283 78.0290298462 86.0191574097 86.2394256592 87.0024490356 88.1156082153 88.7754211426 88.7750778198 88.1130905151 86.9999313354 86.2381591797 86.0191268921 
14.0008296967 13.7801380157 13.0156135559 11.8996362686 11.2379379272 11.2385005951 11.9021339417 13.0182380676 13.781419754 14.0008544922 21.9908504486 21.6136035919 20.5675544739 19.1538047791 18.2853755951 18.2861003876 19.1570129395 20.5709438324 21.6155109406 21.9909420013 29.9831466675 29.5526771545 28.6185665131 27.43542099 26.6830615997 26.6836929321 27.4381446838 28.6214141846 29.5545520782 29.9832839966 37.9863052368 37.6696205139 37.0576858521 36.3238258362 35.8599052429 35.8602905273 36.3255119324 37.0595016479 37.6709022522 37.9864311218 46.0000915527 45.8833656311 45.6710319519 45.4252433777 45.2716407776 45.2717590332 45.4258003235 45.6716461182 45.8838119507 46.0001449585 54.0199432373 54.1372756958 54.3507041931 54.5977210999 54.7522544861 54.7521362305 54.5971565247 54.3500823975 54.1368141174 54.0198898315 62.0337142944 62.3507995605 62.9636421204 63.698677063 64.1633834839 64.1629943848 63.6970062256 62.9618530273 62.3495178223 62.0335884094 70.036857605 70.4674072266 71.4020690918 72.5863876343 73.3388824463 73.3382415771 72.5837020874 71.3992385864 70.4655456543 70.0367050171 78.0291290283 78.406036377 79.4520492554 80.8661499023 81.7345657349 81.7338104248 80.8629989624 79.4486846924 78.4041366577 78.0290298462 86.0191650391 86.239440918 87.002456665 88.1156311035 88.775428772 88.7751083374 88.1131286621 86.9999313354 86.2381820679 86.0191421509 
