13.9402637482 21.7167129517 29.2976150513 37.2183418274 45.6802825928 54.3413543701 62.8022346497 70.7214889526 78.3024139404 86.0794448853 13.9065532684 21.4996109009 28.6114616394 36.5363121033 45.4124069214 54.6105804443 63.4849014282 71.4068527222 78.518371582 86.1130218506 13.8911848068 21.3560638428 28.2507076263 36.145401001 45.2456092834 54.7782211304 63.8760719299 71.7672424316 78.6612319946 86.128326416 13.8823928833 21.282989502 28.1055717468 35.980266571 45.1736221313 54.8505592346 64.0413131714 71.9122085571 78.7341461182 86.1370925903 13.8773918152 21.2520465851 28.0396518707 35.9067573547 45.1422462463 54.8820915222 64.1148605347 71.9780502319 78.7649917603 86.1420593262 13.8773956299 21.2520675659 28.0397033691 35.9068222046 45.1422729492 54.8820610046 64.1147994995 71.9780197144 78.7649765015 86.1420440674 13.8824100494 21.2831134796 28.1058254242 35.9805984497 45.1737442017 54.8504333496 64.0409698486 71.9119338989 78.7340240479 86.1370773315 13.8912115097 21.3563251495 28.2512531281 36.1459999084 45.2460136414 54.7778053284 63.8754920959 71.7666854858 78.6609954834 86.1282958984 13.9066104889 21.5000495911 28.6127433777 36.5375366211 45.4129180908 54.6100578308 63.4836997986 71.4055633545 78.5179367065 86.1129684448 13.9404029846 21.717414856 29.2996292114 37.2206573486 45.6813354492 54.3403358459 62.7999191284 70.7194900513 78.3017196655 86.0793151855 
13.9350624084 21.7039966583 29.2812767029 37.1747283936 45.6458129883 54.3760070801 62.8457603455 70.73777771 78.3151245117 86.0846405029 13.8976402283 21.4733963013 28.5409202576 36.3748626709 45.3204345703 54.7030143738 63.6462173462 71.4771728516 78.5445327759 86.1219100952 13.8773069382 21.3040180206 28.0823574066 35.8947639465 45.1226348877 54.9018096924 64.1266708374 71.9352493286 78.7131118774 86.1421585083 13.8619661331 21.2071762085 27.8672943115 35.7013511658 45.0437431335 54.981098175 64.3202590942 72.1501617432 78.8095932007 86.1574401855 13.8526659012 21.1622505188 27.7799663544 35.622341156 45.0114479065 55.0135421753 64.3993301392 72.2374725342 78.8543701172 86.1666946411 13.8526763916 21.1622772217 27.7800312042 35.6223983765 45.0114746094 55.0135116577 64.3992767334 72.2373886108 78.8543395996 86.1666793823 13.8619976044 21.2073574066 27.8676586151 35.7017021179 45.0438690186 54.9809570312 64.3199005127 72.149810791 78.809425354 86.1574020386 13.8773498535 21.3043403625 28.083152771 35.8955345154 45.1230735779 54.9013595581 64.1259155273 71.9344711304 78.7127914429 86.1421203613 13.8977050781 21.4738903046 28.5424175262 36.3763504028 45.321144104 54.7022743225 63.6447601318 71.4756698608 78.544052124 86.1218566895 13.9352006912 21.7046775818 29.2832450867 37.1772842407 45.6469726562 54.3748779297 62.8432044983 70.7358856201 78.3144836426 86.0844955444 
13.9340600967 21.7023696899 29.2811870575 37.1701774597 45.6415481567 54.3802871704 62.8502845764 70.7378768921 78.3167648315 86.0856399536 13.895825386 21.4699363708 28.5292701721 36.3369293213 45.2895050049 54.7340965271 63.6840858459 71.48878479 78.5479888916 86.1237258911 13.8742752075 21.2922859192 28.0433387756 35.7913970947 45.0510940552 54.9737052917 64.2298660278 71.9741592407 78.7248001099 86.1451797485 13.8573694229 21.182226181 27.7874069214 35.535194397 44.9505119324 55.074798584 64.4863052368 72.2298355103 78.8344497681 86.1620178223 13.8470058441 21.1264476776 27.664522171 35.4253807068 44.9092521667 55.1162528992 64.596244812 72.352645874 78.8900299072 86.1723327637 13.8470153809 21.1264858246 27.6646137238 35.425453186 44.9092979431 55.1161956787 64.5961761475 72.3525466919 78.8899917603 86.1723327637 13.8574056625 21.182434082 27.7878780365 35.53565979 44.9506797791 55.0746116638 64.4858398438 72.2293777466 78.8342437744 86.1619873047 13.8743181229 21.2926292419 28.0442008972 35.7923660278 45.0516052246 54.9731788635 64.2289047241 71.9733123779 78.7244567871 86.1451339722 13.8958911896 21.4704399109 28.5308189392 36.3385162354 45.2903137207 54.733253479 63.6825294495 71.4872207642 78.5475006104 86.1236495972 13.9341974258 21.7030258179 29.2831001282 37.1727790833 45.6426887512 54.379196167 62.8476791382 70.7360534668 78.3161392212 86.0855026245 
13.9338912964 21.7022972107 29.2819347382 37.1703681946 45.6412200928 54.3806228638 62.8500823975 70.7371139526 78.3168487549 86.0858078003 13.8955097198 21.4697914124 28.5283699036 36.3316802979 45.2855949402 54.7380332947 63.6893234253 71.4896774292 78.5481338501 86.1240310669 13.8736801147 21.2904129028 28.0368881226 35.773109436 45.034828186 54.9900512695 64.2481231689 71.9805679321 78.7266693115 86.1457748413 13.8564186096 21.1771087646 27.7702522278 35.4914970398 44.9179954529 55.1074790955 64.5299301147 72.2469406128 78.8395462036 86.1629638672 13.8457212448 21.1184673309 27.6380901337 35.3627281189 44.8682098389 55.1574897766 64.6588287354 72.3789978027 78.8979797363 86.173614502 13.8457298279 21.1185092926 27.6381893158 35.3628158569 44.8682632446 55.1574401855 64.6587371826 72.3788986206 78.89793396 86.173614502 13.8564558029 21.1773300171 27.7707519531 35.4920310974 44.9181976318 55.1072616577 64.5293960571 72.2464599609 78.8393325806 86.162940979 13.8737277985 21.2907619476 28.0377635956 35.7741279602 45.0354042053 54.9894714355 64.2471160889 71.9797134399 78.7263259888 86.1457443237 13.8955774307 21.4702949524 28.5299320221 36.3332901001 45.2864151001 54.7371673584 63.6877479553 71.4880981445 78.5476531982 86.1239700317 13.9340286255 21.7029438019 29.28383255 37.1729812622 45.6423568726 54.379535675 62.8474807739 70.7353286743 78.3162231445 86.0856704712 
13.9338722229 21.7023048401 29.2821216583 37.1704902649 45.6412124634 54.3806343079 62.8499717712 70.7369384766 78.3168334961 86.0858230591 13.8954668045 21.4698200226 28.5283813477 36.3310966492 45.28515625 54.7384681702 63.6898956299 71.489654541 78.5481033325 86.1240768433 13.8735904694 21.2901649475 28.0360126495 35.7708129883 45.032875061 54.9920120239 64.2504043579 71.9814453125 78.7269210815 86.1458587646 13.856262207 21.1762771606 27.7674655914 35.4843864441 44.9118766785 55.1136207581 64.5370254517 72.249710083 78.8403778076 86.1631088257 13.8455076218 21.117105484 27.6334571838 35.3505020142 44.859046936 55.1667137146 64.6710357666 72.383605957 78.8993301392 86.173828125 13.8455162048 21.1171474457 27.6335582733 35.3505973816 44.8590965271 55.1666488647 64.6709365845 72.3834991455 78.8992919922 86.1738204956 13.8562984467 21.1765003204 27.7679729462 35.4849319458 44.9120903015 55.1133995056 64.5364761353 72.2492294312 78.8401565552 86.1630783081 13.8736381531 21.290517807 28.0368995667 35.7718429565 45.0334625244 54.9914207458 64.2493896484 71.9805603027 78.7265701294 86.1458282471 13.895532608 21.4703235626 28.5299491882 36.3327140808 45.2859802246 54.7376022339 63.6883201599 71.4880752563 78.5476150513 86.1240234375 13.9340057373 21.7029571533 29.2840175629 37.1731033325 45.6423530579 54.3795394897 62.8473510742 70.7351379395 78.3162155151 86.08568573 
13.9338665009 21.7023105621 29.2821502686 37.1705169678 45.6412124634 54.3806304932 62.8499488831 70.7369155884 78.3168258667 86.0858383179 13.8954620361 21.4698238373 28.5283908844 36.3310317993 45.2851028442 54.7385253906 63.6899719238 71.4896469116 78.5481033325 86.1240768433 13.8735780716 21.2901287079 28.0358848572 35.7705116272 45.0326957703 54.9921989441 64.2507095337 71.9815750122 78.7269515991 86.1458816528 13.8562383652 21.1761455536 27.7670288086 35.4833488464 44.9109535217 55.1145401001 64.5380630493 72.2501525879 78.8405151367 86.1631393433 13.8454732895 21.1168880463 27.6326980591 35.3484573364 44.8574295044 55.1683349609 64.6730804443 72.3843536377 78.8995437622 86.1738586426 13.8454828262 21.1169281006 27.6328010559 35.3485450745 44.8574829102 55.1682739258 64.672996521 72.3842544556 78.899520874 86.1738586426 13.8562765121 21.1763648987 27.767534256 35.4838981628 44.9111747742 55.1143188477 64.5375061035 72.2496566772 78.8402938843 86.1631011963 13.8736228943 21.29047966 28.0367774963 35.7715454102 45.0332794189 54.9916038513 64.2497024536 71.9807052612 78.726600647 86.1458511353 13.8955278397 21.4703273773 28.5299549103 36.3326454163 45.2859344482 54.7376594543 63.6883888245 71.4880752563 78.5476226807 86.1240310669 13.9340019226 21.7029590607 29.2840385437 37.173122406 45.6423492432 54.3795433044 62.8473320007 70.7351226807 78.3162155151 86.0857009888 
13.9338665009 21.7023086548 29.2821521759 37.1705093384 45.641204834 54.3806381226 62.8499450684 70.7369003296 78.3168334961 86.0858383179 13.8954591751 21.4698257446 28.5283851624 36.3310165405 45.2850952148 54.73853302 63.6899795532 71.4896469116 78.5481033325 86.1240768433 13.8735752106 21.2901191711 28.0358562469 35.7704620361 45.0326728821 54.9922294617 64.2507629395 71.9815979004 78.7269592285 86.1458740234 13.8562355042 21.1761169434 27.7669506073 35.4831771851 44.910823822 55.1146850586 64.5382385254 72.2502365112 78.8405456543 86.1631393433 13.8454656601 21.1168422699 27.6325511932 35.3480949402 44.8571472168 55.1686058044 64.6734313965 72.3845062256 78.899597168 86.1738586426 13.8454771042 21.1168842316 27.6326522827 35.3481864929 44.8572006226 55.1685638428 64.6733398438 72.3843994141 78.8995513916 86.1738586426 13.8562707901 21.1763401031 27.7674465179 35.4837226868 44.9110374451 55.1144561768 64.537689209 72.24974823 78.8403320312 86.1631011963 13.8736200333 21.2904682159 28.0367450714 35.7714920044 45.0332565308 54.9916381836 64.2497558594 71.9807357788 78.7266159058 86.1458511353 13.8955259323 21.4703292847 28.5299510956 36.3326263428 45.2859230042 54.7376708984 63.6884078979 71.4880752563 78.5476226807 86.1240310669 13.9340019226 21.7029590607 29.2840442657 37.1731185913 45.6423454285 54.3795509338 62.8473396301 70.7351226807 78.3162078857 86.0857009888 
