14.0108242035 13.8521976471 13.1600084305 12.1033878326 11.432390213 11.4329280853 12.1059179306 13.1624011993 13.8533554077 14.0107975006 22.0039901733 21.7171134949 20.7995185852 19.4744625092 18.6364517212 18.6370830536 19.477645874 20.8025569916 21.7187576294 22.0040149689 29.9978427887 29.6864528656 28.9153957367 27.8581905365 27.1593742371 27.1599216461 27.8607673645 28.9178218842 29.6879787445 29.9979095459 37.9986686707 37.7897262573 37.3063354492 36.6568870544 36.2280006409 36.2283363342 36.6584510803 37.3078422546 37.7906913757 37.9987297058 46.0055503845 45.9335479736 45.7686576843 45.5513000488 45.4084129333 45.4085235596 45.5518226624 45.7691764832 45.933883667 46.0055732727 54.0144729614 54.0868759155 54.2526893616 54.4712409973 54.6150016785 54.6148834229 54.4707183838 54.2521743774 54.0865440369 54.0144424438 62.0213317871 62.2306365967 62.7148590088 63.3654670715 63.7951545715 63.794834137 63.3639068604 62.7133560181 62.2296600342 62.021270752 70.0221557617 70.3336791992 71.1053848267 72.1637802124 72.8628311157 72.8623199463 72.1612625122 71.1029815674 70.3321533203 70.0220794678 78.0159912109 78.3025970459 79.2203216553 80.5459899902 81.3844146729 81.3837738037 80.5429534912 79.217300415 78.3009490967 78.0159606934 86.0091781616 86.167427063 86.8580703735 87.9118499756 88.5800552368 88.5799484253 87.9091949463 86.8556213379 86.1662521362 86.0091934204 
14.0019397736 13.7912034988 13.0559005737 11.9323320389 11.1888647079 11.1894893646 11.9350376129 13.0584316254 13.7924537659 14.0019607544 21.9928379059 21.6234321594 20.5992488861 19.0825214386 18.0959682465 18.0967216492 19.0862369537 20.6026496887 21.6253070831 21.9929161072 29.9847164154 29.5683937073 28.6530456543 27.4248695374 26.6240520477 26.6246833801 27.4278373718 28.6558933258 29.5702209473 29.9848461151 37.986415863 37.6809272766 37.0884208679 36.3576278687 35.8754920959 35.8758735657 36.359375 37.0901603699 37.6821632385 37.9865341187 46.0003471375 45.8877944946 45.6853027344 45.4447441101 45.2862281799 45.2863578796 45.4453163147 45.6858901978 45.8882293701 46.0003967285 54.0196990967 54.1328735352 54.3365135193 54.5784225464 54.7379341125 54.7378005981 54.5778427124 54.3359222412 54.1324386597 54.0196456909 62.0335922241 62.3395042419 62.9330558777 63.6652069092 64.1483154297 64.1479415894 63.6634674072 62.9312973022 62.3382644653 62.0334625244 70.0352706909 70.4516983032 71.3676681519 72.5974655151 73.3985214233 73.39793396 72.5945663452 71.3648452759 70.4498443604 70.0351333618 78.0271377563 78.3961639404 79.4202575684 80.9377593994 81.924697876 81.9239349365 80.9342346191 79.4168319702 78.3942718506 78.0270614624 86.0180435181 86.2283096313 86.9618453979 88.0820159912 88.8226013184 88.8225097656 88.0790863037 86.9591903687 86.2270355225 86.0180358887 
13.9992599487 13.7735090256 13.0272941589 11.8838481903 11.1278457642 11.128484726 11.8866004944 13.0298624039 13.7747859955 13.9992933273 21.9897861481 21.5974578857 20.539182663 18.9566497803 17.8996696472 17.9005146027 18.960559845 20.5427055359 21.5993995667 21.9898815155 29.9818477631 29.5391788483 28.5782604218 27.250541687 26.341375351 26.342086792 27.2538318634 28.5812759399 29.541097641 29.9819908142 37.9842529297 37.6578979492 37.0279388428 36.2190589905 35.6774253845 35.6778564453 36.2210235596 37.0298309326 37.659198761 37.9843826294 45.9995536804 45.8788452148 45.6604156494 45.393371582 45.2163658142 45.2165107727 45.3940086365 45.6610450745 45.8792991638 45.9996070862 54.0205001831 54.1418609619 54.3615226746 54.6300315857 54.8082046509 54.808052063 54.6293716431 54.3608703613 54.1413879395 54.0204429626 62.0357589722 62.3625602722 62.9935798645 63.8039016724 64.3466186523 64.3461761475 63.801940918 62.9916801453 62.3612442017 62.0356216431 70.0381317139 70.4808959961 71.4424362183 72.7718734741 73.6811218262 73.6804885864 72.7686538696 71.4394454956 70.4789581299 70.0379867554 78.0301971436 78.4221191406 79.4802398682 81.0635223389 82.1206359863 82.1197967529 81.0598068237 79.4766845703 78.4201507568 78.0300979614 86.0207214355 86.2459564209 86.9903335571 88.1302185059 88.8833770752 88.8832550049 88.1271972656 86.9876403809 86.2446517944 86.0206832886 
13.9988479614 13.7707805634 13.0230178833 11.876958847 11.1200437546 11.1206865311 11.8797178268 13.0255947113 13.7720594406 13.9988822937 21.9893035889 21.5933475494 20.5298538208 18.9378585815 17.8727893829 17.8736419678 18.9417915344 20.5333995819 21.5953006744 21.9894046783 29.9813842773 29.5344276428 28.5661125183 27.2232761383 26.2899646759 26.2907218933 27.2266159058 28.569152832 29.536359787 29.9815311432 37.9839096069 37.6541099548 37.0175895691 36.1919136047 35.6262283325 35.6266860962 36.193939209 37.0195159912 37.6554260254 37.984046936 45.9994163513 45.8773651123 45.6563453674 45.3821258545 45.1970024109 45.1971473694 45.3827857971 45.6569824219 45.8778305054 45.9994697571 54.0206298828 54.1433486938 54.3656272888 54.6413497925 54.8277854919 54.8276176453 54.6406669617 54.3649635315 54.1428756714 54.0205764771 62.0361022949 62.3663482666 63.0039405823 63.8310699463 64.397819519 64.3973617554 63.8290405273 63.0020179749 62.3650131226 62.0359649658 70.0386047363 70.4856338501 71.4546203613 72.7991409302 73.7324371338 73.7317504883 72.7958831787 71.4515762329 70.4837036133 70.0384597778 78.0306777954 78.4262084961 79.4895629883 81.0822982788 82.1474609375 82.1466217041 81.0785598755 79.4859848022 78.4242477417 78.0305862427 86.0211410522 86.2486801147 86.9945831299 88.1370544434 88.8911437988 88.8910293579 88.1340255737 86.9918899536 86.2473831177 86.0210952759 
13.9988355637 13.7706823349 13.0228662491 11.8767290115 11.1197891235 11.1204328537 11.879486084 13.0254402161 13.7719612122 13.9988698959 21.9892845154 21.5932025909 20.5295200348 18.9372253418 17.8719329834 17.8727874756 18.941160202 20.5330657959 21.5951519012 21.9893836975 29.9813709259 29.5342502594 28.5656528473 27.2222957611 26.2884292603 26.2891864777 27.225643158 28.5686950684 29.5361804962 29.9815216064 37.9839019775 37.6539611816 37.0171852112 36.1908035278 35.6236534119 35.6241149902 36.1928329468 37.0191001892 37.6552810669 37.9840354919 45.9994087219 45.8773078918 45.656162262 45.3815917969 45.1959381104 45.1960830688 45.3822555542 45.6568145752 45.8777732849 45.9994659424 54.0206451416 54.143409729 54.3657951355 54.6418914795 54.8288955688 54.8287239075 54.6412162781 54.3651390076 54.1429367065 54.0205841064 62.0361099243 62.3664970398 63.0043487549 63.8321762085 64.4003753662 64.3999252319 63.8301506042 63.0024337769 62.3651695251 62.0359725952 70.0386123657 70.485824585 71.455078125 72.8001098633 73.7339630127 73.7332839966 72.7968673706 71.4520492554 70.4838867188 70.0384674072 78.0306854248 78.4263687134 79.4898986816 81.0829238892 82.1483001709 82.1474685669 81.0792007446 79.4863128662 78.4244003296 78.0305938721 86.021156311 86.2487945557 86.9947357178 88.1372833252 88.8914031982 88.8912811279 88.1342544556 86.9920425415 86.2474822998 86.0211105347 
13.9988355637 13.7706832886 13.0228586197 11.8767080307 11.1197624207 11.1204051971 11.8794679642 13.0254325867 13.7719612122 13.9988698959 21.9892845154 21.5931968689 20.5295085907 18.9371986389 17.8719005585 17.8727531433 18.9411354065 20.5330524445 21.5951499939 21.9893836975 29.9813709259 29.5342464447 28.5656337738 27.2222671509 26.2883834839 26.2891426086 27.2256126404 28.5686798096 29.5361804962 29.9815216064 37.9839019775 37.6539611816 37.0171775818 36.1907806396 35.6236038208 35.6240615845 36.1928062439 37.0190887451 37.6552734375 37.9840316772 45.9994087219 45.8773078918 45.656162262 45.3815803528 45.1959266663 45.1960716248 45.3822441101 45.6567993164 45.8777694702 45.9994659424 54.0206451416 54.143409729 54.3658065796 54.6419029236 54.8289146423 54.8287353516 54.6412200928 54.3651313782 54.1429367065 54.0205841064 62.0361099243 62.3665008545 63.0043640137 63.8322029114 64.4004135132 64.3999557495 63.8301734924 63.0024490356 62.3651733398 62.0359725952 70.0386123657 70.485824585 71.455078125 72.8001480103 73.7340240479 73.7333374023 72.7968978882 71.4520492554 70.4838867188 70.0384674072 78.0306854248 78.426361084 79.489906311 81.0829467773 82.1483383179 82.1474914551 81.0792312622 79.4863357544 78.4243927002 78.0305938721 86.021156311 86.2488021851 86.994758606 88.1373138428 88.8914108276 88.8913040161 88.1342697144 86.9920501709 86.2474822998 86.0211105347 
13.9988355637 13.7706794739 13.0228490829 11.8766927719 11.1197366714 11.1203784943 11.879450798 13.0254259109 13.7719593048 13.9988698959 21.9892845154 21.5931949615 20.5294952393 18.9371776581 17.8718700409 17.8727226257 18.9411125183 20.5330410004 21.5951461792 21.9893836975 29.9813709259 29.53424263 28.5656261444 27.2222442627 26.2883472443 26.2891025543 27.2255916595 28.5686645508 29.5361747742 29.9815216064 37.9839019775 37.6539497375 37.0171661377 36.1907539368 35.6235580444 35.6240234375 36.1927833557 37.0190811157 37.6552696228 37.9840316772 45.9994087219 45.8773078918 45.6561584473 45.3815727234 45.1959114075 45.196056366 45.382232666 45.6568107605 45.8777694702 45.9994659424 54.0206451416 54.143409729 54.3658103943 54.641910553 54.8289146423 54.8287582397 54.6412277222 54.3651504517 54.1429443359 54.0205841064 62.0361099243 62.3665046692 63.0043716431 63.8322219849 64.4004592896 64.4000015259 63.8301963806 63.0024490356 62.3651695251 62.0359725952 70.0386123657 70.485824585 71.4550933838 72.8001708984 73.734046936 73.7333602905 72.7969207764 71.4520645142 70.4839019775 70.0384674072 78.0306854248 78.4263687134 79.4899215698 81.0829620361 82.1483764648 82.1475296021 81.0792388916 79.4863433838 78.4243927002 78.0305938721 86.021156311 86.2487945557 86.9947509766 88.1373214722 88.8914337158 88.8913269043 88.1343002319 86.9920578003 86.2474899292 86.0211105347 
