1.0 1.00000011921 0.999214708805 1.03350496292 1.09555888176 1.09553432465 1.0334199667 1.00000023842 1.0 1.0 0.999999940395 1.00332045555 1.07914185524 1.18985152245 1.28953039646 1.28950035572 1.18973267078 1.04040539265 1.00328040123 1.0 1.0 1.0691587925 1.16497612 1.28666353226 1.39211463928 1.39208722115 1.28655266762 1.11820340157 1.06909286976 1.00000011921 1.0 1.1056522131 1.20329904556 1.31650912762 1.40383219719 1.40380597115 1.31641626358 1.15553164482 1.10559284687 1.00000011921 1.0 1.13248550892 1.23587489128 1.34417939186 1.41259849072 1.41257977486 1.34409153461 1.184648633 1.13242638111 1.00000011921 1.0 1.13247454166 1.23586130142 1.34416174889 1.41267621517 1.41265273094 1.34406745434 1.18463969231 1.13241553307 1.00000011921 1.0 1.10560250282 1.20325601101 1.3163998127 1.40390849113 1.40387284756 1.31630182266 1.15548574924 1.10554301739 1.0 1.0 1.04915511608 1.13660061359 1.24999797344 1.3657668829 1.36576092243 1.24987101555 1.09650409222 1.04908502102 1.00000011921 1.0 1.00326943398 1.07903897762 1.18987739086 1.28974354267 1.28964293003 1.18983983994 1.04031002522 1.00322914124 1.00000011921 1.0 1.00000011921 0.99922734499 1.03338444233 1.09519958496 1.09527826309 1.03324043751 1.00000011921 1.0 0.999999940395 
1.0 1.00000011921 0.999214708805 1.03350496292 1.09555888176 1.09553432465 1.0334199667 1.00000023842 1.0 1.0 0.999999940395 1.00332045555 1.07914185524 1.18985152245 1.28953039646 1.28950035572 1.18973267078 1.04040539265 1.00328040123 1.0 1.0 1.0691587925 1.16497612 1.28666353226 1.41543412209 1.41540884972 1.28655266762 1.11820340157 1.06909286976 1.00000011921 1.0 1.1056522131 1.20329904556 1.31657636166 1.43238401413 1.43235564232 1.31648516655 1.15553164482 1.10559284687 1.00000011921 1.0 1.13248550892 1.23587489128 1.34779953957 1.45272111893 1.45269656181 1.3477243185 1.184648633 1.13242638111 1.00000011921 1.0 1.13247454166 1.23586130142 1.34777796268 1.45295393467 1.45291697979 1.34769368172 1.18463969231 1.13241553307 1.00000011921 1.0 1.10560250282 1.20325601101 1.31646633148 1.43263542652 1.43258726597 1.31636953354 1.15548574924 1.10554301739 1.0 1.0 1.04915511608 1.13660061359 1.24999797344 1.36802709103 1.36802268028 1.24987101555 1.09650409222 1.04908502102 1.00000011921 1.0 1.00326943398 1.07903897762 1.18987739086 1.28974354267 1.28964293003 1.18983983994 1.04031002522 1.00322914124 1.00000011921 1.0 1.00000011921 0.99922734499 1.03338444233 1.09519958496 1.09527826309 1.03324043751 1.00000011921 1.0 0.999999940395 
1.0 1.00000011921 0.999214708805 1.03350496292 1.09555888176 1.09553432465 1.0334199667 1.00000023842 1.0 1.0 0.999999940395 1.00332045555 1.07914185524 1.18985152245 1.28953039646 1.28950035572 1.18973267078 1.04040539265 1.00328040123 1.0 1.0 1.0691587925 1.16497612 1.28666353226 1.41545760632 1.41543185711 1.28655266762 1.11820340157 1.06909286976 1.00000011921 1.0 1.1056522131 1.20329904556 1.31657636166 1.43241643906 1.43238818645 1.31648516655 1.15553164482 1.10559284687 1.00000011921 1.0 1.13248550892 1.23587489128 1.34779953957 1.45289564133 1.45287168026 1.3477243185 1.184648633 1.13242638111 1.00000011921 1.0 1.13247454166 1.23586130142 1.34777796268 1.45313632488 1.45309925079 1.34769368172 1.18463969231 1.13241553307 1.00000011921 1.0 1.10560250282 1.20325601101 1.31646633148 1.4326736927 1.43262541294 1.31636953354 1.15548574924 1.10554301739 1.0 1.0 1.04915511608 1.13660061359 1.24999797344 1.36802709103 1.36802268028 1.24987101555 1.09650409222 1.04908502102 1.00000011921 1.0 1.00326943398 1.07903897762 1.18987739086 1.28974354267 1.28964293003 1.18983983994 1.04031002522 1.00322914124 1.00000011921 1.0 1.00000011921 0.99922734499 1.03338444233 1.09519958496 1.09527826309 1.03324043751 1.00000011921 1.0 0.999999940395 
1.0 1.00000011921 0.999214708805 1.03350496292 1.09555888176 1.09553432465 1.0334199667 1.00000023842 1.0 1.0 0.999999940395 1.00332045555 1.07914185524 1.18985152245 1.28953039646 1.28950035572 1.18973267078 1.04040539265 1.00328040123 1.0 1.0 1.0691587925 1.16497612 1.28666353226 1.41546487808 1.41543960571 1.28655266762 1.11820340157 1.06909286976 1.00000011921 1.0 1.1056522131 1.20329904556 1.31657636166 1.43242299557 1.43239498138 1.31648516655 1.15553164482 1.10559284687 1.00000011921 1.0 1.13248550892 1.23587489128 1.34779953957 1.45290541649 1.45288133621 1.3477243185 1.184648633 1.13242638111 1.00000011921 1.0 1.13247454166 1.23586130142 1.34777796268 1.4531468153 1.45310986042 1.34769368172 1.18463969231 1.13241553307 1.00000011921 1.0 1.10560250282 1.20325601101 1.31646633148 1.43268072605 1.4326325655 1.31636953354 1.15548574924 1.10554301739 1.0 1.0 1.04915511608 1.13660061359 1.24999797344 1.36802709103 1.36802268028 1.24987101555 1.09650409222 1.04908502102 1.00000011921 1.0 1.00326943398 1.07903897762 1.18987739086 1.28974354267 1.28964293003 1.18983983994 1.04031002522 1.00322914124 1.00000011921 1.0 1.00000011921 0.99922734499 1.03338444233 1.09519958496 1.09527826309 1.03324043751 1.00000011921 1.0 0.999999940395 
1.0 1.00000011921 0.999214708805 1.03350496292 1.09555888176 1.09553432465 1.0334199667 1.00000023842 1.0 1.0 0.999999940395 1.00332045555 1.07914185524 1.18985152245 1.28953039646 1.28950035572 1.18973267078 1.04040539265 1.00328040123 1.0 1.0 1.0691587925 1.16497612 1.28666353226 1.4154727459 1.41544735432 1.28655266762 1.11820340157 1.06909286976 1.00000011921 1.0 1.1056522131 1.20329904556 1.31657636166 1.43243098259 1.43240272999 1.31648516655 1.15553164482 1.10559284687 1.00000011921 1.0 1.13248550892 1.23587489128 1.34779953957 1.45291423798 1.45288991928 1.3477243185 1.184648633 1.13242638111 1.00000011921 1.0 1.13247454166 1.23586130142 1.34777796268 1.45315527916 1.45311808586 1.34769368172 1.18463969231 1.13241553307 1.00000011921 1.0 1.10560250282 1.20325601101 1.31646633148 1.43268859386 1.4326403141 1.31636953354 1.15548574924 1.10554301739 1.0 1.0 1.04915511608 1.13660061359 1.24999797344 1.36802709103 1.36802268028 1.24987101555 1.09650409222 1.04908502102 1.00000011921 1.0 1.00326943398 1.07903897762 1.18987739086 1.28974354267 1.28964293003 1.18983983994 1.04031002522 1.00322914124 1.00000011921 1.0 1.00000011921 0.99922734499 1.03338444233 1.09519958496 1.09527826309 1.03324043751 1.00000011921 1.0 0.999999940395 
1.0 1.00000011921 0.999214708805 1.03350496292 1.09555888176 1.09553432465 1.0334199667 1.00000023842 1.0 1.0 0.999999940395 1.00332045555 1.07914185524 1.18985152245 1.28953039646 1.28950035572 1.18973267078 1.04040539265 1.00328040123 1.0 1.0 1.0691587925 1.16497612 1.28666353226 1.4154804945 1.41545498371 1.28655266762 1.11820340157 1.06909286976 1.00000011921 1.0 1.1056522131 1.20329904556 1.31657636166 1.43243896961 1.43241047859 1.31648516655 1.15553164482 1.10559284687 1.00000011921 1.0 1.13248550892 1.23587489128 1.34779953957 1.45292270184 1.45289874077 1.3477243185 1.184648633 1.13242638111 1.00000011921 1.0 1.13247454166 1.23586130142 1.34777796268 1.45316374302 1.45312690735 1.34769368172 1.18463969231 1.13241553307 1.00000011921 1.0 1.10560250282 1.20325601101 1.31646633148 1.43269622326 1.43264842033 1.31636953354 1.15548574924 1.10554301739 1.0 1.0 1.04915511608 1.13660061359 1.24999797344 1.36802709103 1.36802268028 1.24987101555 1.09650409222 1.04908502102 1.00000011921 1.0 1.00326943398 1.07903897762 1.18987739086 1.28974354267 1.28964293003 1.18983983994 1.04031002522 1.00322914124 1.00000011921 1.0 1.00000011921 0.99922734499 1.03338444233 1.09519958496 1.09527826309 1.03324043751 1.00000011921 1.0 0.999999940395 
1.0 1.00000011921 0.999214708805 1.03350496292 1.09555888176 1.09553432465 1.0334199667 1.00000023842 1.0 1.0 0.999999940395 1.00332045555 1.07914185524 1.18985152245 1.28953039646 1.28950035572 1.18973267078 1.04040539265 1.00328040123 1.0 1.0 1.0691587925 1.16497612 1.28666353226 1.41548836231 1.41546261311 1.28655266762 1.11820340157 1.06909286976 1.00000011921 1.0 1.1056522131 1.20329904556 1.31657636166 1.43244671822 1.43241846561 1.31648516655 1.15553164482 1.10559284687 1.00000011921 1.0 1.13248550892 1.23587489128 1.34779953957 1.4529312849 1.45290720463 1.3477243185 1.184648633 1.13242638111 1.00000011921 1.0 1.13247454166 1.23586130142 1.34777796268 1.45317220688 1.45313537121 1.34769368172 1.18463969231 1.13241553307 1.00000011921 1.0 1.10560250282 1.20325601101 1.31646633148 1.43270409107 1.43265616894 1.31636953354 1.15548574924 1.10554301739 1.0 1.0 1.04915511608 1.13660061359 1.24999797344 1.36802709103 1.36802268028 1.24987101555 1.09650409222 1.04908502102 1.00000011921 1.0 1.00326943398 1.07903897762 1.18987739086 1.28974354267 1.28964293003 1.18983983994 1.04031002522 1.00322914124 1.00000011921 1.0 1.00000011921 0.99922734499 1.03338444233 1.09519958496 1.09527826309 1.03324043751 1.00000011921 1.0 0.999999940395 
