2.26426267624 3.81548118591 6.64020633698 9.31569480896 10.9088020325 10.9074907303 9.30982303619 6.63291740417 3.80898499489 2.26415681839 2.289457798 5.00287485123 9.63567352295 14.2492876053 17.0106487274 17.0085468292 14.2387838364 9.62358665466 4.99202489853 2.28915429115 2.3134303093 5.89729309082 11.7385091782 17.5273132324 21.2079849243 21.2051181793 17.5137748718 11.7235040665 5.88333082199 2.31294035912 2.3307595253 6.43289470673 12.9351348877 19.3477916718 23.4269695282 23.423828125 19.3327350616 12.9185380936 6.41718006134 2.33013749123 2.34020805359 6.703789711 13.5308933258 20.2213954926 24.4585971832 24.4553489685 20.2057132721 13.5135383606 6.68722915649 2.33951449394 2.34020113945 6.70356988907 13.5304088593 20.220703125 24.4577903748 24.4545516968 20.2050323486 13.5130672455 6.68701648712 2.33950781822 2.33072137833 6.43175888062 12.9326591492 19.3440818787 23.4225940704 23.4194526672 19.3290843964 12.916103363 6.41606378555 2.33010101318 2.31337046623 5.89524555206 11.7339715958 17.5207481384 21.1983680725 21.1956882477 17.5073184967 11.7189865112 5.88127422333 2.31287956238 2.28937935829 4.99981546402 9.62811946869 14.2382984161 16.9964237213 16.9944515228 14.2280540466 9.61586761475 4.98890781403 2.28907585144 2.26421284676 3.81181716919 6.63066339493 9.30007457733 10.8878364563 10.887181282 9.29464244843 6.62332057953 3.80527043343 2.26410484314 
2.26434421539 3.80489349365 6.62059259415 9.29416942596 10.8843708038 10.88306427 9.28829956055 6.61331415176 3.79843115807 2.2642390728 2.28940916061 4.99086999893 9.61591339111 14.2283878326 16.9867477417 16.9846439362 14.2178888321 9.60383224487 4.98005199432 2.28910684586 2.3132891655 5.8848567009 11.7172412872 17.5023269653 21.1875610352 21.1846752167 17.4887924194 11.702246666 5.87092733383 2.31280255318 2.33053803444 6.41951990128 12.9110012054 19.3213729858 23.4237747192 23.4205951691 19.306312561 12.8944215775 6.40383958817 2.32991981506 2.33996462822 6.68968057632 13.5042972565 20.1950378418 24.4646759033 24.4613876343 20.1793174744 13.4869699478 6.67315816879 2.3392739296 2.33995771408 6.68946266174 13.5038204193 20.1943473816 24.4638595581 24.4605751038 20.1786384583 13.4864988327 6.67294836044 2.33926725388 2.33050060272 6.41838788986 12.90853405 19.3176708221 23.4193649292 23.4161911011 19.3026618958 12.8919992447 6.40272712708 2.32988286018 2.31323051453 5.88281011581 11.7127103806 17.4957714081 21.1779174805 21.1752128601 17.4823513031 11.6977386475 5.86886978149 2.31274175644 2.2893307209 4.98780870438 9.60835075378 14.2174053192 16.9725112915 16.9705486298 14.2071638107 9.59610176086 4.97693157196 2.28902816772 2.26429438591 3.80123710632 6.61105442047 9.27856063843 10.8634729385 10.8628234863 9.27313804626 6.60372066498 3.79472351074 2.26418638229 
2.264346838 3.8045334816 6.61993026733 9.29345226288 10.8835668564 10.8822593689 9.28758239746 6.61265230179 3.79807186127 2.2642416954 2.28940796852 4.99046754837 9.61526107788 14.2277088165 16.9859752655 16.98387146 14.217209816 9.60318088531 4.97965145111 2.28910589218 2.31328487396 5.88444709778 11.7165527344 17.5015239716 21.1868534088 21.1839675903 17.4879932404 11.7015571594 5.87051963806 2.31279778481 2.33053159714 6.41908168793 12.9102220535 19.3204631805 23.4236564636 23.4204711914 19.3054008484 12.8936424255 6.403403759 2.32991313934 2.33995604515 6.68921709061 13.5034236908 20.194026947 24.4650554657 24.461763382 20.1783084869 13.4860963821 6.67269563675 2.33926510811 2.33994889259 6.68899869919 13.5029420853 20.1933403015 24.4642410278 24.4609527588 20.1776275635 13.4856233597 6.67248392105 2.33925843239 2.33049345016 6.41794967651 12.9077568054 19.3167572021 23.4192504883 23.4160709381 19.3017520905 12.8912210464 6.40229034424 2.32987570763 2.31322574615 5.88240098953 11.712020874 17.494972229 21.1772079468 21.1745052338 17.481552124 11.6970500946 5.86846208572 2.31273770332 2.28932905197 4.98740673065 9.60769844055 14.2167263031 16.9717388153 16.9697742462 14.2064876556 9.59544944763 4.97653055191 2.28902649879 2.26429700851 3.80087757111 6.61039400101 9.27784633636 10.8626708984 10.8620223999 9.27242183685 6.60306072235 3.79436540604 2.2641890049 
2.26434755325 3.8045091629 6.61989068985 9.29341697693 10.8835315704 10.8822240829 9.28754806519 6.61261224747 3.79804778099 2.26424217224 2.28940820694 4.9904460907 9.61523151398 14.227689743 16.9859523773 16.9838485718 14.2171907425 9.60315418243 4.97962903976 2.28910565376 2.31328487396 5.88442897797 11.7165317535 17.5015068054 21.1868553162 21.183971405 17.4879741669 11.7015390396 5.87050104141 2.31279778481 2.33053135872 6.41906309128 12.9101982117 19.3204460144 23.4237213135 23.420539856 19.3053836823 12.8936185837 6.40338611603 2.32991266251 2.33995580673 6.68919754028 13.5033922195 20.1940002441 24.4651927948 24.4619007111 20.1782855988 13.4860639572 6.67267656326 2.33926486969 2.33994865417 6.68897914886 13.502910614 20.1933135986 24.4643764496 24.4610881805 20.1776027679 13.4855928421 6.67246484756 2.33925843239 2.33049345016 6.41793298721 12.9077329636 19.316740036 23.4193172455 23.4161338806 19.301733017 12.8911981583 6.4022731781 2.32987570763 2.31322598457 5.88238334656 11.7120008469 17.4949550629 21.1772060394 21.1745052338 17.4815368652 11.6970281601 5.86844396591 2.3127374649 2.28932952881 4.98738431931 9.60767364502 14.2167072296 16.9717178345 16.9697532654 14.2064685822 9.59542179108 4.97650814056 2.28902721405 2.26429724693 3.80085325241 6.61035394669 9.27781009674 10.8626375198 10.861987114 9.2723865509 6.60302019119 3.79434084892 2.26418948174 
2.26434755325 3.80451369286 6.61990594864 9.29344272614 10.8835639954 10.8822574615 9.28757190704 6.61262798309 3.7980530262 2.26424217224 2.28940844536 4.99045658112 9.61526012421 14.2277317047 16.986000061 16.9838962555 14.2172317505 9.60318183899 4.97963953018 2.2891061306 2.3132853508 5.88444566727 11.7165679932 17.5015621185 21.1869220734 21.1840362549 17.48802948 11.7015724182 5.87051725388 2.31279826164 2.33053207397 6.41908407211 12.9102392197 19.3205089569 23.4238147736 23.4206295013 19.3054466248 12.893661499 6.40340518951 2.32991313934 2.33995604515 6.68921899796 13.5034389496 20.194070816 24.4653053284 24.462015152 20.1783542633 13.4861097336 6.67269802094 2.33926558495 2.33994913101 6.6890001297 13.5029535294 20.1933784485 24.4644889832 24.4612045288 20.1776733398 13.4856405258 6.67248630524 2.33925890923 2.33049416542 6.4179520607 12.9077749252 19.3168029785 23.4194087982 23.4162273407 19.3017959595 12.8912401199 6.40229225159 2.32987642288 2.31322646141 5.88239908218 11.7120361328 17.495010376 21.1772727966 21.1745738983 17.481590271 11.6970653534 5.86846113205 2.31273818016 2.28932976723 4.98739528656 9.6077003479 14.2167491913 16.9717636108 16.9697971344 14.2065105438 9.59544944763 4.97651958466 2.28902721405 2.26429748535 3.80085802078 6.61036777496 9.27783489227 10.8626728058 10.8620214462 9.27241039276 6.60303497314 3.79434609413 2.26418972015 
2.26434731483 3.80452251434 6.61992740631 9.29347419739 10.8836078644 10.8822994232 9.28760623932 6.61264944077 3.79806089401 2.26424193382 2.28940868378 4.99047088623 9.61529254913 14.2277793884 16.9860496521 16.9839496613 14.2172794342 9.60321521759 4.97965478897 2.28910636902 2.31328630447 5.88446569443 11.7166118622 17.5016231537 21.1869945526 21.1841087341 17.4880943298 11.7016172409 5.87053775787 2.31279921532 2.33053278923 6.41910743713 12.9102897644 19.3205814362 23.423910141 23.4207229614 19.3055171967 12.8937110901 6.40342903137 2.3299138546 2.33995699883 6.68924331665 13.503490448 20.1941452026 24.4654140472 24.4621257782 20.1784267426 13.4861631393 6.67272281647 2.33926606178 2.33995008469 6.68902635574 13.5030107498 20.1934585571 24.464597702 24.4613113403 20.1777458191 13.4856939316 6.67251205444 2.33925962448 2.33049488068 6.41797590256 12.90782547 19.3168754578 23.4195022583 23.4163208008 19.3018703461 12.8912916183 6.40231609344 2.32987713814 2.31322669983 5.88241910934 11.7120809555 17.4950675964 21.1773471832 21.1746463776 17.4816493988 11.6971082687 5.86848020554 2.31273841858 2.28932976723 4.98740959167 9.60773563385 14.2167949677 16.9718170166 16.9698543549 14.2065572739 9.59548187256 4.97653388977 2.28902745247 2.26429748535 3.80086684227 6.61038923264 9.27786540985 10.8627128601 10.8620624542 9.27244377136 6.60305595398 3.79435396194 2.26418972015 
2.26434755325 3.80453157425 6.61994886398 9.29350662231 10.8836507797 10.8823432922 9.28763771057 6.6126704216 3.7980697155 2.26424217224 2.2894089222 4.99048709869 9.61532878876 14.2278280258 16.9861068726 16.9840049744 14.2173280716 9.60325050354 4.97966957092 2.28910684586 2.31328654289 5.88448619843 11.7166557312 17.5016860962 21.1870708466 21.1841850281 17.4881515503 11.7016611099 5.87055826187 2.31279945374 2.33053326607 6.41913175583 12.9103441238 19.3206539154 23.4240055084 23.4208183289 19.3055915833 12.8937635422 6.40345287323 2.32991456985 2.33995723724 6.68927145004 13.5035476685 20.1942253113 24.4655208588 24.4622306824 20.1785125732 13.4862174988 6.67274951935 2.33926701546 2.33995056152 6.68905258179 13.5030660629 20.1935367584 24.4647045135 24.4614219666 20.1778297424 13.485748291 6.67253923416 2.33926057816 2.33049535751 6.41800022125 12.9078769684 19.3169498444 23.4195976257 23.4164161682 19.3019428253 12.8913412094 6.40234041214 2.32987761497 2.31322717667 5.88243961334 11.7121248245 17.4951324463 21.1774158478 21.1747169495 17.4817142487 11.6971530914 5.86850118637 2.31273889542 2.28933048248 4.98742580414 9.60776996613 14.2168426514 16.9718742371 16.9699077606 14.2066059113 9.59551715851 4.97654914856 2.28902792931 2.26429772377 3.80087542534 6.61041212082 9.27789974213 10.8627529144 10.8621053696 9.27247524261 6.60307741165 3.79436349869 2.26419019699 
