14.0015964508 13.7832536697 13.0192842484 11.8837718964 11.2082548141 11.2088279724 11.8863334656 13.0219297409 13.784538269 14.0016136169 21.9899101257 21.6108875275 20.5552825928 19.1267356873 18.2543544769 18.2550792694 19.1299686432 20.5587062836 21.6127967834 21.9900054932 29.9817638397 29.5346736908 28.5979576111 27.4214897156 26.6778430939 26.6784572601 27.424200058 28.6007995605 29.53657341 29.9819049835 37.9844512939 37.6578216553 37.0470542908 36.3258209229 35.8759727478 35.8763427734 36.3274650574 37.0488357544 37.6591186523 37.9845848083 45.9995727539 45.8798789978 45.6684913635 45.4292259216 45.281085968 45.2812042236 45.4297637939 45.669090271 45.8803291321 45.999622345 54.0204772949 54.1407775879 54.3532600403 54.5937423706 54.7427444458 54.7426185608 54.5931892395 54.3526496887 54.1403198242 54.0204200745 62.035572052 62.362613678 62.9743270874 63.6967391968 64.1473846436 64.1470184326 63.6950874329 62.9725494385 62.361328125 62.0354385376 70.0382385254 70.4854049683 71.422706604 72.6003723145 73.3442077637 73.3436050415 72.5977020264 71.4198684692 70.483505249 70.0380783081 78.0300674438 78.408706665 79.464263916 80.8932495117 81.7656555176 81.7649154663 80.8900909424 79.4608383179 78.4068222046 78.0299682617 86.0183944702 86.2363204956 86.9987869263 88.1313858032 88.8050003052 88.8046646118 88.1288299561 86.9962463379 86.2350616455 86.018371582 
14.0013523102 13.7822780609 13.0198736191 11.8859100342 11.2103509903 11.2109222412 11.888466835 13.0225095749 13.7835607529 14.001373291 21.9896583557 21.6093902588 20.5530471802 19.1209907532 18.244146347 18.2448787689 19.1242370605 20.5564785004 21.6112976074 21.9897537231 29.9815483093 29.5327453613 28.5928134918 27.4077606201 26.6512699127 26.6519031525 27.4104919434 28.5956707001 29.5346565247 29.9816894531 37.9843025208 37.6561126709 37.0413208008 36.3078079224 35.8409080505 35.841293335 36.3094940186 37.0431175232 37.657409668 37.9844322205 45.9995117188 45.8791618347 45.6659049988 45.4200935364 45.2653656006 45.2654914856 45.4206542969 45.666519165 45.8796157837 45.9995651245 54.0205307007 54.1415061951 54.3558540344 54.6029167175 54.7585945129 54.7584609985 54.602355957 54.3552513123 54.1410484314 54.020488739 62.0357170105 62.3643302917 62.9800567627 63.7147521973 64.1824417114 64.1820526123 63.7130622864 62.978263855 62.36302948 62.0355834961 70.038444519 70.4873275757 71.4278564453 72.6140823364 73.3707199097 73.3700942993 72.6113967896 71.4249954224 70.4854202271 70.0382919312 78.0303039551 78.4102172852 79.4664916992 80.898979187 81.7758102417 81.7750701904 80.8957977295 79.4630813599 78.4083251953 78.0302200317 86.0186462402 86.2372970581 86.9982070923 88.1292419434 88.8028945923 88.8025588989 88.126663208 86.9956817627 86.236038208 86.0186309814 
14.0013523102 13.7822751999 13.0198640823 11.8858966827 11.2103290558 11.2109031677 11.8884525299 13.0225038528 13.7835588455 14.001373291 21.9896564484 21.6093845367 20.5530376434 19.1209659576 18.2441177368 18.2448501587 19.1242160797 20.5564651489 21.6112918854 21.9897537231 29.9815483093 29.5327472687 28.5928039551 27.4077262878 26.6512260437 26.6518592834 27.4104652405 28.5956516266 29.53465271 29.9816894531 37.9843025208 37.6561050415 37.041305542 36.3077735901 35.8408432007 35.8412284851 36.3094596863 37.0431022644 37.6574058533 37.9844322205 45.9995117188 45.8791618347 45.6658973694 45.4200820923 45.265335083 45.2654533386 45.4206390381 45.6665077209 45.8796157837 45.9995651245 54.0205383301 54.1415100098 54.3558616638 54.6029319763 54.7586364746 54.7585029602 54.6023712158 54.3552513123 54.1410484314 54.0204811096 62.0357170105 62.3643302917 62.9800720215 63.7147789001 64.1825027466 64.1821136475 63.7130966187 62.9782791138 62.3630371094 62.0355834961 70.038444519 70.4873428345 71.4278564453 72.6141204834 73.3707504272 73.3701400757 72.6114196777 71.424987793 70.4854202271 70.0382995605 78.0303039551 78.4102096558 79.4664993286 80.8990020752 81.7758407593 81.7750930786 80.8958206177 79.4630813599 78.4083251953 78.0302200317 86.0186462402 86.2373046875 86.9982070923 88.1292648315 88.8029174805 88.8025741577 88.1266784668 86.9956817627 86.236038208 86.0186309814 
14.0013523102 13.7822732925 13.0198545456 11.8858776093 11.210308075 11.2108802795 11.8884353638 13.0224952698 13.7835559845 14.001373291 21.9896564484 21.6093845367 20.5530261993 19.1209449768 18.2440948486 18.2448253632 19.1241931915 20.5564556122 21.6112918854 21.9897537231 29.9815502167 29.532743454 28.5927867889 27.407705307 26.6511974335 26.6518325806 27.4104423523 28.5956439972 29.5346546173 29.9816894531 37.9843025208 37.6561050415 37.0412979126 36.3077583313 35.8408088684 35.8411979675 36.3094406128 37.043094635 37.6574058533 37.9844322205 45.9995117188 45.87915802 45.6659011841 45.4200630188 45.2653121948 45.2654418945 45.4206237793 45.6665039062 45.8796157837 45.9995651245 54.0205383301 54.1415061951 54.3558769226 54.6029434204 54.758644104 54.7585144043 54.6023826599 54.3552513123 54.1410484314 54.0204811096 62.0357170105 62.3643379211 62.9800872803 63.714805603 64.1825332642 64.182144165 63.7131195068 62.9782829285 62.3630447388 62.0355834961 70.038444519 70.4873428345 71.4278717041 72.6141433716 73.3707885742 73.3701705933 72.6114425659 71.4250183105 70.4854354858 70.0382995605 78.0303039551 78.4102096558 79.4665222168 80.899017334 81.7758636475 81.7751312256 80.8958435059 79.4630966187 78.4083251953 78.0302200317 86.0186462402 86.2373123169 86.9982223511 88.1292648315 88.8029327393 88.8025894165 88.1266937256 86.9956970215 86.236038208 86.0186309814 
14.0013523102 13.7822713852 13.0198459625 11.8858585358 11.2102851868 11.2108573914 11.8884181976 13.0224866867 13.7835540771 14.001373291 21.9896583557 21.609380722 20.5530147552 19.120923996 18.2440681458 18.2448005676 19.1241722107 20.5564441681 21.6112880707 21.9897537231 29.9815502167 29.5327415466 28.5927772522 27.4076824188 26.6511707306 26.6518058777 27.4104232788 28.5956287384 29.5346469879 29.9816913605 37.9843025208 37.6561012268 37.0412864685 36.3077316284 35.8407669067 35.8411598206 36.3094177246 37.0430831909 37.6574020386 37.9844322205 45.9995117188 45.8791503906 45.6658935547 45.4200630188 45.2653045654 45.2654266357 45.4206237793 45.6665039062 45.879611969 45.9995651245 54.0205383301 54.1415100098 54.3558692932 54.6029548645 54.7586593628 54.7585220337 54.6023864746 54.3552589417 54.1410484314 54.0204811096 62.0357170105 62.3643341064 62.980091095 63.7148246765 64.1825714111 64.182182312 63.7131462097 62.9783058167 62.3630485535 62.0355834961 70.038444519 70.4873428345 71.4278793335 72.6141662598 73.370803833 73.3702011108 72.6114730835 71.4250259399 70.4854278564 70.0382995605 78.0303039551 78.4102172852 79.4665298462 80.8990478516 81.7759017944 81.7751464844 80.8958587646 79.463104248 78.4083328247 78.0302200317 86.0186462402 86.2373123169 86.9982223511 88.1292953491 88.8029403687 88.8026199341 88.1267166138 86.9956970215 86.236038208 86.0186309814 
14.0013523102 13.7822704315 13.0198421478 11.8858423233 11.2102632523 11.2108364105 11.8884010315 13.0224781036 13.7835540771 14.001373291 21.9896583557 21.609380722 20.5530033112 19.1209049225 18.2440433502 18.2447757721 19.1241531372 20.5564346313 21.6112861633 21.9897537231 29.9815502167 29.5327339172 28.5927619934 27.4076633453 26.651140213 26.6517753601 27.4104003906 28.595615387 29.5346469879 29.9816913605 37.9843025208 37.6560974121 37.0412788391 36.3077163696 35.8407402039 35.841129303 36.3094024658 37.0430755615 37.6573982239 37.9844322205 45.9995079041 45.8791503906 45.66588974 45.4200515747 45.2652893066 45.265411377 45.4206123352 45.6665077209 45.8796081543 45.9995651245 54.0205383301 54.1415100098 54.3558769226 54.6029624939 54.7586708069 54.7585372925 54.6023902893 54.3552589417 54.1410446167 54.0204811096 62.0357170105 62.3643455505 62.9800987244 63.71484375 64.1826019287 64.1822128296 63.7131576538 62.9783058167 62.3630485535 62.0355834961 70.038444519 70.4873428345 71.4278869629 72.6141815186 73.37084198 73.3702316284 72.6114959717 71.4250488281 70.4854507446 70.0382995605 78.0303039551 78.4102249146 79.4665298462 80.8990707397 81.7759170532 81.775177002 80.8958816528 79.4631195068 78.4083328247 78.0302200317 86.0186462402 86.2373123169 86.9982452393 88.1293029785 88.8029708862 88.8026351929 88.1267242432 86.9957122803 86.236038208 86.0186309814 
14.0013523102 13.7822685242 13.0198335648 11.8858242035 11.2102394104 11.2108125687 11.8883838654 13.0224714279 13.7835540771 14.001373291 21.9896564484 21.6093730927 20.5529918671 19.1208839417 18.2440166473 18.2447490692 19.1241321564 20.5564212799 21.6112823486 21.9897537231 29.981546402 29.5327301025 28.5927505493 27.4076404572 26.6511116028 26.6517448425 27.4103794098 28.5956058502 29.5346431732 29.9816913605 37.9843025208 37.6560974121 37.0412712097 36.3076934814 35.8407058716 35.8410949707 36.3093833923 37.0430679321 37.6573944092 37.9844322205 45.9995079041 45.8791503906 45.66588974 45.4200401306 45.2652778625 45.2654037476 45.4206008911 45.6664962769 45.8796081543 45.9995651245 54.0205383301 54.1415100098 54.3558769226 54.602973938 54.7586860657 54.7585487366 54.6024017334 54.355266571 54.1410446167 54.0204811096 62.0357170105 62.3643493652 62.9801139832 63.7148628235 64.1826400757 64.1822433472 63.7131729126 62.978313446 62.3630485535 62.0355834961 70.038444519 70.4873428345 71.4279022217 72.6142120361 73.3708724976 73.370262146 72.6115112305 71.4250488281 70.4854431152 70.0382995605 78.0303039551 78.4102172852 79.466545105 80.8990859985 81.7759399414 81.7751922607 80.895904541 79.4631347656 78.4083404541 78.0302200317 86.0186462402 86.2373123169 86.9982452393 88.1293182373 88.8030014038 88.8026657104 88.1267471313 86.9957122803 86.2360458374 86.0186309814 
