1.0 1.00000011921 0.998222887516 1.04635679722 1.09771347046 1.0976934433 1.0462679863 1.00000023842 1.0 1.0 0.999999940395 1.0053511858 1.08076035976 1.13544476032 1.15158772469 1.15157926083 1.13539755344 1.04259324074 1.0052934885 1.0 1.0 1.06295800209 1.11878669262 1.15204441547 1.16287565231 1.16287088394 1.15201354027 1.10202896595 1.06288838387 1.00000011921 1.0 1.09200823307 1.13045334816 1.15592110157 1.16476166248 1.16475868225 1.15589773655 1.11901783943 1.09194779396 1.00000011921 1.0 1.10679674149 1.13653075695 1.15834450722 1.16560697556 1.16560542583 1.15832579136 1.12773931026 1.10674130917 1.00000011921 1.0 1.10679078102 1.13652694225 1.15834200382 1.16561365128 1.16561174393 1.15832304955 1.12773561478 1.10673522949 1.00000011921 1.0 1.09197235107 1.1304359436 1.15590441227 1.16476130486 1.16475784779 1.15588080883 1.11899518967 1.09191262722 1.0 1.0 1.04589021206 1.11367118359 1.15056741238 1.16270601749 1.16270446777 1.15053546429 1.09110474586 1.04581916332 1.00000011921 1.0 1.00529205799 1.08068430424 1.1354290247 1.15161108971 1.15159499645 1.13538944721 1.04251420498 1.00523507595 1.00000011921 1.0 1.00000011921 0.998211920261 1.04625713825 1.09749400616 1.09753239155 1.04614472389 1.00000011921 1.0 0.999999940395 
1.0 1.00000011921 0.998222887516 1.04635679722 1.09965634346 1.09963297844 1.0462679863 1.00000023842 1.0 1.0 0.999999940395 1.0053511858 1.0826086998 1.18193054199 1.25028026104 1.25025951862 1.18184971809 1.04259324074 1.0052934885 1.0 1.0 1.06295228004 1.16329789162 1.25383651257 1.29274904728 1.29273593426 1.25375843048 1.11135423183 1.06288278103 1.00000011921 1.0 1.09679710865 1.19688010216 1.26756644249 1.29895591736 1.29894590378 1.26750016212 1.14591109753 1.09673500061 1.00000011921 1.0 1.12247657776 1.2179608345 1.2772475481 1.30222773552 1.30222165585 1.27719306946 1.1739269495 1.12241601944 1.00000011921 1.0 1.12246727943 1.21795284748 1.27724075317 1.30225014687 1.30224263668 1.27718436718 1.17392063141 1.12240672112 1.00000011921 1.0 1.09675335884 1.19684457779 1.26751577854 1.29896593094 1.29895401001 1.26744842529 1.14587020874 1.09669196606 1.0 1.0 1.04589021206 1.13532960415 1.23696911335 1.28815829754 1.28815507889 1.2368786335 1.0915967226 1.04581916332 1.00000011921 1.0 1.00529205799 1.0825189352 1.18195009232 1.25034153461 1.25028908253 1.18191885948 1.04251420498 1.00523507595 1.00000011921 1.0 1.00000011921 0.998211920261 1.04625713825 1.09939873219 1.09945166111 1.04614472389 1.00000011921 1.0 0.999999940395 
1.0 1.00000011921 0.998222887516 1.04635679722 1.09965634346 1.09963297844 1.0462679863 1.00000023842 1.0 1.0 0.999999940395 1.0053511858 1.0826086998 1.18193054199 1.26866233349 1.26863741875 1.18184971809 1.04259324074 1.0052934885 1.0 1.0 1.06295228004 1.16329789162 1.27662694454 1.36525070667 1.36522889137 1.27654933929 1.11135423183 1.06288278103 1.00000011921 1.0 1.09679710865 1.19972956181 1.30423629284 1.37874364853 1.37872564793 1.30416595936 1.14591109753 1.09673500061 1.00000011921 1.0 1.12247657776 1.23195970058 1.32884764671 1.38792061806 1.38790714741 1.32878243923 1.1739269495 1.12241601944 1.00000011921 1.0 1.12246727943 1.23194980621 1.32883143425 1.38797807693 1.38796126842 1.32876169682 1.17392063141 1.12240672112 1.00000011921 1.0 1.09675335884 1.19969081879 1.30414927006 1.37879359722 1.37876987457 1.30407416821 1.14587020874 1.09669196606 1.0 1.0 1.04589021206 1.13532960415 1.24034440517 1.34245634079 1.34245073795 1.24025154114 1.0915967226 1.04581916332 1.00000011921 1.0 1.00529205799 1.0825189352 1.18195009232 1.26879000664 1.26871407032 1.18191885948 1.04251420498 1.00523507595 1.00000011921 1.0 1.00000011921 0.998211920261 1.04625713825 1.09939873219 1.09945166111 1.04614472389 1.00000011921 1.0 0.999999940395 
1.0 1.00000011921 0.998222887516 1.04635679722 1.09965634346 1.09963297844 1.0462679863 1.00000023842 1.0 1.0 0.999999940395 1.0053511858 1.0826086998 1.18193054199 1.26866233349 1.26863741875 1.18184971809 1.04259324074 1.0052934885 1.0 1.0 1.06295228004 1.16329789162 1.27662694454 1.38657999039 1.38656151295 1.27654933929 1.11135423183 1.06288278103 1.00000011921 1.0 1.09679710865 1.19972956181 1.30478715897 1.40573000908 1.40571022034 1.30472040176 1.14591109753 1.09673500061 1.00000011921 1.0 1.12247657776 1.23195970058 1.33627665043 1.42304992676 1.42303466797 1.33622384071 1.1739269495 1.12241601944 1.00000011921 1.0 1.12246727943 1.23194980621 1.33625566959 1.42316067219 1.42313873768 1.33619499207 1.17392063141 1.12240672112 1.00000011921 1.0 1.09675335884 1.19969081879 1.30469632149 1.4058508873 1.40582048893 1.30462384224 1.14587020874 1.09669196606 1.0 1.0 1.04589021206 1.13532960415 1.24034440517 1.34537315369 1.34536981583 1.24025154114 1.0915967226 1.04581916332 1.00000011921 1.0 1.00529205799 1.0825189352 1.18195009232 1.26879000664 1.26871407032 1.18191885948 1.04251420498 1.00523507595 1.00000011921 1.0 1.00000011921 0.998211920261 1.04625713825 1.09939873219 1.09945166111 1.04614472389 1.00000011921 1.0 0.999999940395 
1.0 1.00000011921 0.998222887516 1.04635679722 1.09965634346 1.09963297844 1.0462679863 1.00000023842 1.0 1.0 0.999999940395 1.0053511858 1.0826086998 1.18193054199 1.26866233349 1.26863741875 1.18184971809 1.04259324074 1.0052934885 1.0 1.0 1.06295228004 1.16329789162 1.27662694454 1.38783299923 1.38781523705 1.27654933929 1.11135423183 1.06288278103 1.00000011921 1.0 1.09679710865 1.19972956181 1.30478715897 1.40903174877 1.40901422501 1.30472040176 1.14591109753 1.09673500061 1.00000011921 1.0 1.12247657776 1.23195970058 1.33628439903 1.43055951595 1.43054592609 1.33623170853 1.1739269495 1.12241601944 1.00000011921 1.0 1.12246727943 1.23194980621 1.33626353741 1.43071174622 1.43068933487 1.3362030983 1.17392063141 1.12240672112 1.00000011921 1.0 1.09675335884 1.19969081879 1.30469632149 1.40919876099 1.40916848183 1.30462384224 1.14587020874 1.09669196606 1.0 1.0 1.04589021206 1.13532960415 1.24034440517 1.34537315369 1.34536981583 1.24025154114 1.0915967226 1.04581916332 1.00000011921 1.0 1.00529205799 1.0825189352 1.18195009232 1.26879000664 1.26871407032 1.18191885948 1.04251420498 1.00523507595 1.00000011921 1.0 1.00000011921 0.998211920261 1.04625713825 1.09939873219 1.09945166111 1.04614472389 1.00000011921 1.0 0.999999940395 
1.0 1.00000011921 0.998222887516 1.04635679722 1.09965634346 1.09963297844 1.0462679863 1.00000023842 1.0 1.0 0.999999940395 1.0053511858 1.0826086998 1.18193054199 1.26866233349 1.26863741875 1.18184971809 1.04259324074 1.0052934885 1.0 1.0 1.06295228004 1.16329789162 1.27662694454 1.38783299923 1.38781523705 1.27654933929 1.11135423183 1.06288278103 1.00000011921 1.0 1.09679710865 1.19972956181 1.30478715897 1.40904009342 1.40902256966 1.30472040176 1.14591109753 1.09673500061 1.00000011921 1.0 1.12247657776 1.23195970058 1.33628439903 1.43112027645 1.4311068058 1.33623170853 1.1739269495 1.12241601944 1.00000011921 1.0 1.12246727943 1.23194980621 1.33626353741 1.43128561974 1.43126320839 1.3362030983 1.17392063141 1.12240672112 1.00000011921 1.0 1.09675335884 1.19969081879 1.30469632149 1.40920960903 1.40917956829 1.30462384224 1.14587020874 1.09669196606 1.0 1.0 1.04589021206 1.13532960415 1.24034440517 1.34537315369 1.34536981583 1.24025154114 1.0915967226 1.04581916332 1.00000011921 1.0 1.00529205799 1.0825189352 1.18195009232 1.26879000664 1.26871407032 1.18191885948 1.04251420498 1.00523507595 1.00000011921 1.0 1.00000011921 0.998211920261 1.04625713825 1.09939873219 1.09945166111 1.04614472389 1.00000011921 1.0 0.999999940395 
1.0 1.00000011921 0.998222887516 1.04635679722 1.09965634346 1.09963297844 1.0462679863 1.00000023842 1.0 1.0 0.999999940395 1.0053511858 1.0826086998 1.18193054199 1.26866233349 1.26863741875 1.18184971809 1.04259324074 1.0052934885 1.0 1.0 1.06295228004 1.16329789162 1.27662694454 1.38783299923 1.38781523705 1.27654933929 1.11135423183 1.06288278103 1.00000011921 1.0 1.09679710865 1.19972956181 1.30478715897 1.40904009342 1.40902256966 1.30472040176 1.14591109753 1.09673500061 1.00000011921 1.0 1.12247657776 1.23195970058 1.33628439903 1.43113052845 1.43111717701 1.33623170853 1.1739269495 1.12241601944 1.00000011921 1.0 1.12246727943 1.23194980621 1.33626353741 1.43129646778 1.43127393723 1.3362030983 1.17392063141 1.12240672112 1.00000011921 1.0 1.09675335884 1.19969081879 1.30469632149 1.40921008587 1.40917992592 1.30462384224 1.14587020874 1.09669196606 1.0 1.0 1.04589021206 1.13532960415 1.24034440517 1.34537315369 1.34536981583 1.24025154114 1.0915967226 1.04581916332 1.00000011921 1.0 1.00529205799 1.0825189352 1.18195009232 1.26879000664 1.26871407032 1.18191885948 1.04251420498 1.00523507595 1.00000011921 1.0 1.00000011921 0.998211920261 1.04625713825 1.09939873219 1.09945166111 1.04614472389 1.00000011921 1.0 0.999999940395 
