2.26521682739 4.0883769989 7.20264530182 10.0126686096 11.6003675461 11.5991392136 10.0065469742 7.19485330582 4.08096837997 2.26508927345 2.29222559929 5.30722427368 10.2304124832 14.7095375061 17.1426506042 17.1407909393 14.7000761032 10.2179756165 5.29544496536 2.29188346863 2.31529664993 6.17875862122 12.2592611313 17.7028923035 20.7350292206 20.732711792 17.6912689209 12.2441329956 6.16397619247 2.31477332115 2.32896494865 6.68023204803 13.3455228806 19.2526321411 22.5586204529 22.5561103821 19.240020752 13.3290786743 6.66382312775 2.32833170891 2.3360991478 6.92573308945 13.8581972122 19.9740371704 23.4011287689 23.3985424042 19.960981369 13.8411598206 6.9085893631 2.33540606499 2.33609390259 6.92554235458 13.8578071594 19.9734706879 23.4004993439 23.3979129791 19.9604167938 13.8407707214 6.90840053558 2.33540081978 2.32893633842 6.67923593521 13.3434114456 19.2495689392 22.5550689697 22.5525608063 19.2369861603 13.3269958496 6.66284322739 2.32830286026 2.31525158882 6.17700195312 12.2553634644 17.6973228455 20.7273902893 20.7251586914 17.6857910156 12.2403039932 6.16224956512 2.31472826004 2.29215335846 5.30454444885 10.2238893509 14.6999940872 17.1312847137 17.1294555664 14.6906967163 10.2115526199 5.29282522202 2.29181456566 2.26515817642 4.0847158432 7.19332408905 9.99732780457 11.5806922913 11.5798072815 9.99126338959 7.18576478958 4.0773897171 2.2650308609 
2.26596522331 3.92385268211 6.8782081604 9.63068199158 11.2103910446 11.2091503143 9.62466144562 6.87066316605 3.91697645187 2.26584482193 2.29152083397 5.12993431091 9.90957736969 14.4063539505 16.9429473877 16.9409713745 14.3966302872 9.8973236084 5.11865615845 2.29119920731 2.315513134 6.02162504196 11.9852199554 17.5496444702 20.7855167389 20.7830104828 17.5373897552 11.9701480865 6.00726604462 2.31500554085 2.33241629601 6.54165077209 13.1426763535 19.2358798981 22.7673778534 22.7646446228 19.222536087 13.1261014938 6.5255947113 2.33178019524 2.34145092964 6.79926395416 13.706193924 20.0293159485 23.6855964661 23.6827850342 20.0155086517 13.6889333725 6.7824048996 2.34074568748 2.34144353867 6.79905891418 13.7057523727 20.0286884308 23.6848869324 23.6820774078 20.0148849487 13.6884937286 6.78220462799 2.34073805809 2.33238077164 6.54060792923 13.1403608322 19.2325191498 22.7634716034 22.7607383728 19.2192020416 13.1238098145 6.52456855774 2.33174562454 2.31545948982 6.01978445053 11.9811306 17.5435009003 20.7773075104 20.7748851776 17.531293869 11.9661159515 6.00544452667 2.31495261192 2.29144906998 5.12709236145 9.9026889801 14.3962993622 16.9303340912 16.9283943176 14.3867082596 9.89037513733 5.11579179764 2.29112887383 2.26591038704 3.92018055916 6.86854410172 9.61468029022 11.1908216476 11.1899051666 9.60830783844 6.86080312729 3.91325497627 2.26578855515 
2.26613044739 3.8607070446 6.75209569931 9.47908592224 11.0482006073 11.0469608307 9.47312259674 6.74464893341 3.8540391922 2.26601266861 2.29100751877 5.05797052383 9.77819347382 14.2645282745 16.8152275085 16.8132152557 14.2547855377 9.76602172852 5.04689836502 2.29069495201 2.31459569931 5.95348501205 11.8636236191 17.4363956451 20.7644901276 20.7618618011 17.4240016937 11.8486270905 5.93930625916 2.31410050392 2.33162689209 6.48030948639 13.0340595245 19.1806049347 22.8531036377 22.8502178192 19.1668930054 13.0175361633 6.46441268921 2.33100223541 2.34071516991 6.7434015274 13.6074714661 20.0124874115 23.8256759644 23.8226909637 19.9982261658 13.5902261734 6.72668552399 2.34002065659 2.34070801735 6.7431936264 13.6070232391 20.0118370056 23.8249206543 23.8219413757 19.9975757599 13.5897817612 6.72648048401 2.34001421928 2.3315911293 6.47925186157 13.0317173004 19.1771316528 22.8490028381 22.8461151123 19.1634483337 13.0152215958 6.46337175369 2.3309674263 2.3145430088 5.95162391663 11.8595104218 17.4300937653 20.7559909821 20.7534503937 17.4177398682 11.8445730209 5.93746471405 2.31404852867 2.29093694687 5.05508995056 9.77120304108 14.2544021606 16.8022823334 16.8003120422 14.2447910309 9.75895595551 5.04398727417 2.29062581062 2.26607775688 3.85706233978 6.74238967896 9.46292495728 11.0286512375 11.0277242661 9.4565372467 6.73470973969 3.85033249855 2.26595807076 
2.26616454124 3.84409189224 6.71857690811 9.43849754333 11.0038146973 11.002576828 9.43254756927 6.71115636826 3.83747982979 2.26604747772 2.29085350037 5.03880214691 9.74273204803 14.2250137329 16.7755870819 16.7735691071 14.2152729034 9.73058319092 5.02778530121 2.29054284096 2.31435108185 5.93533468246 11.8308782578 17.4010906219 20.7408123016 20.7381496429 17.3886871338 11.8159017563 5.92120599747 2.31385850906 2.33137631416 6.46419763565 13.0051078796 19.157365799 22.8726425171 22.8696899414 19.1436023712 12.9886026382 6.4483423233 2.33075428009 2.34052419662 6.72891664505 13.5819044113 20.0018863678 23.8733062744 23.8702449799 19.9875164032 13.5646696091 6.71223640442 2.33983206749 2.34051704407 6.72870635986 13.5814523697 20.0012245178 23.8725376129 23.8694763184 19.9868602753 13.5642232895 6.71203041077 2.33982491493 2.33134055138 6.46313476562 13.0027561188 19.1538658142 22.8684482574 22.8654956818 19.140127182 12.9862756729 6.44729757309 2.3307197094 2.31429839134 5.93346881866 11.8267583847 17.3947563171 20.7322387695 20.7296714783 17.3823947906 11.8118400574 5.91935682297 2.31380629539 2.29078316689 5.03591346741 9.73571491241 14.2148694992 16.7625770569 16.7606086731 14.2052574158 9.72348594666 5.02486181259 2.29047369957 2.26611232758 3.84045481682 6.70886516571 9.42230224609 10.9842853546 10.9833583832 9.4159116745 6.70120000839 3.83377742767 2.26599383354 
2.26616811752 3.84178447723 6.71389579773 9.43279075623 10.997543335 10.9963054657 9.42684268951 6.70648050308 3.83517956734 2.26605129242 2.29083061218 5.0361084938 9.73770236969 14.2193031311 16.769739151 16.7677249908 14.2095632553 9.7255563736 5.02509880066 2.29052042961 2.31431341171 5.93277454376 11.8261928558 17.3958415985 20.7362194061 20.7335567474 17.3834400177 11.8112220764 5.91865110397 2.31382155418 2.33134245872 6.46195411682 13.0010719299 19.1536197662 22.8736476898 22.8706855774 19.1398487091 12.9845685959 6.44610500336 2.33072113991 2.34049272537 6.72693967819 13.5784063339 19.999797821 23.8814373016 23.8783550262 19.9854183197 13.5611743927 6.71026611328 2.33980131149 2.34048557281 6.72672986984 13.5779561996 19.9991378784 23.880651474 23.877576828 19.9847621918 13.5607280731 6.71005821228 2.33979439735 2.33130693436 6.46089076996 12.9987211227 19.1501140594 22.8694324493 22.8664684296 19.1363716125 12.9822425842 6.44505977631 2.33068656921 2.31426095963 5.93090581894 11.8220672607 17.389509201 20.7276325226 20.725063324 17.3771438599 11.8071556091 5.91680240631 2.31376957893 2.29076051712 5.03321743011 9.73068237305 14.2091569901 16.7567214966 16.7547512054 14.1995420456 9.71845626831 5.02217388153 2.29045152664 2.26611566544 3.8381485939 6.70418453217 9.41659069061 10.978017807 10.9770889282 9.41020107269 6.69651985168 3.83147907257 2.26599764824 
2.26616859436 3.84168314934 6.71369409561 9.4325466156 10.9972763062 10.9960384369 9.42659950256 6.70627689362 3.8350789547 2.26605176926 2.29082965851 5.0359916687 9.73748779297 14.2190618515 16.769493103 16.7674789429 14.2093219757 9.72534370422 5.02498292923 2.29051971436 2.3143119812 5.93266677856 11.8259992599 17.3956260681 20.7360229492 20.7333621979 17.38322258 11.8110303879 5.91854381561 2.31382060051 2.33134126663 6.46186637878 13.0009183884 19.1534881592 22.8736801147 22.8707141876 19.1397209167 12.9844150543 6.44601821899 2.33071994781 2.34049201012 6.72686862946 13.578291893 19.9997615814 23.8819351196 23.8788566589 19.9853839874 13.5610637665 6.71019601822 2.33980059624 2.3404853344 6.72666072845 13.5778408051 19.9990997314 23.8811511993 23.878074646 19.9847240448 13.5606145859 6.70998954773 2.33979392052 2.33130574226 6.46080446243 12.9985666275 19.149980545 22.8694648743 22.8664970398 19.1362419128 12.9820899963 6.44497299194 2.3306851387 2.3142592907 5.93079805374 11.8218717575 17.389295578 20.727437973 20.7248687744 17.3769264221 11.8069639206 5.91669416428 2.31376838684 2.29075932503 5.03310060501 9.73046684265 14.2089138031 16.756483078 16.7545051575 14.1993026733 9.71824073792 5.0220580101 2.2904510498 2.26611638069 3.83804821968 6.70398139954 9.41634654999 10.9777507782 10.9768218994 9.40995693207 6.69631814957 3.83137774467 2.26599764824 
2.26616859436 3.84169340134 6.71371984482 9.43258476257 10.9973230362 10.9960842133 9.42663860321 6.70630407333 3.83508968353 2.26605176926 2.29082989693 5.03600931168 9.73752593994 14.2191133499 16.7695484161 16.767534256 14.2093725204 9.72538089752 5.0250005722 2.29052019119 2.31431245804 5.93268871307 11.82604599 17.3956890106 20.7360954285 20.7334308624 17.3832855225 11.8110761642 5.91856575012 2.31382060051 2.33134198189 6.46189308167 13.0009717941 19.1535644531 22.8737678528 22.8708000183 19.139793396 12.9844703674 6.4460439682 2.33072066307 2.34049272537 6.72689723969 13.5783538818 19.9998435974 23.8820400238 23.8789615631 19.9854679108 13.5611209869 6.71022415161 2.33980107307 2.34048557281 6.72668838501 13.5779008865 19.9991817474 23.8812618256 23.8781833649 19.9848079681 13.5606737137 6.71001720428 2.33979439735 2.33130645752 6.4608297348 12.9986200333 19.150056839 22.8695468903 22.8665866852 19.1363162994 12.9821434021 6.44499921799 2.33068609238 2.31426024437 5.93082046509 11.8219194412 17.3893566132 20.7275085449 20.724937439 17.3769931793 11.8070087433 5.91671657562 2.31376862526 2.29075956345 5.03311729431 9.7305059433 14.2089653015 16.7565345764 16.7545623779 14.1993551254 9.71827983856 5.02207517624 2.29045128822 2.26611638069 3.83805894852 6.70400762558 9.41638660431 10.9777975082 10.9768676758 9.40999603271 6.69634485245 3.83138895035 2.26599788666 
