13.9347677231 21.7046260834 29.2935695648 37.1676635742 45.6367683411 54.3851013184 62.8527679443 70.7254867554 78.3145217896 86.0849380493 13.8961591721 21.4730396271 28.5211601257 36.316986084 45.2796478271 54.74401474 63.7040252686 71.4968261719 78.5448913574 86.1233825684 13.8739719391 21.2941207886 28.0257701874 35.7639465332 45.0332679749 54.9916305542 64.2572860718 71.99168396 78.7228927612 86.1454849243 13.8559942245 21.1795902252 27.770406723 35.4964294434 44.9242286682 55.1012077332 64.5250167847 72.2467956543 78.8370513916 86.1633911133 13.844332695 21.1230430603 27.6467876434 35.3782119751 44.8791809082 55.1464691162 64.6433563232 72.3703079224 78.8933944702 86.1749954224 13.8443422318 21.1230812073 27.6468772888 35.3782920837 44.8792304993 55.1464233398 64.6432800293 72.3702316284 78.8933563232 86.1749954224 13.8560352325 21.1798019409 27.7708778381 35.4969215393 44.9244155884 55.1010055542 64.5245132446 72.2463226318 78.8368453979 86.1633529663 13.8740167618 21.2944812775 28.026632309 35.7649421692 45.0338134766 54.9910736084 64.2563171387 71.9908370972 78.7225418091 86.1454315186 13.8962287903 21.4735393524 28.5227909088 36.3185997009 45.2804718018 54.7431373596 63.7024536133 71.4952011108 78.5444030762 86.1233291626 13.9349050522 21.705286026 29.2954597473 37.1703453064 45.6379089355 54.3840103149 62.8500747681 70.7236938477 78.3138885498 86.0847930908 
13.9347419739 21.70495224 29.2949638367 37.1689758301 45.6371459961 54.3847198486 62.8514480591 70.7240829468 78.314201355 86.0849609375 13.8960809708 21.4737224579 28.5228157043 36.3167037964 45.2788543701 54.7448120117 63.7042961121 71.4951858521 78.5442123413 86.1234588623 13.873790741 21.2943477631 28.0256328583 35.7591896057 45.0276985168 54.997215271 64.262046814 71.9918136597 78.7226791382 86.1456680298 13.8556671143 21.178604126 27.7659339905 35.478969574 44.9073867798 55.1181297302 64.542427063 72.2512435913 78.8380432129 86.1637115479 13.8438796997 21.1208992004 27.63804245 35.3478927612 44.8546524048 55.1711196899 64.6736068726 72.3790283203 78.8955230713 86.1754455566 13.8438873291 21.1209373474 27.6381378174 35.3479766846 44.8547058105 55.1710662842 64.6735153198 72.3789291382 78.8954925537 86.1754379272 13.8557100296 21.1788215637 27.766418457 35.4795074463 44.9076004028 55.1179084778 64.5419006348 72.2507705688 78.8378219604 86.1636505127 13.873837471 21.2947063446 28.0265083313 35.7602005005 45.0282897949 54.9966278076 64.2610549927 71.9909515381 78.7223129272 86.1456222534 13.8961524963 21.4742164612 28.5244426727 36.3183288574 45.2796974182 54.743927002 63.7027053833 71.4935531616 78.5437393188 86.1233978271 13.9348773956 21.7056064606 29.2968502045 37.1716651917 45.6382827759 54.3836402893 62.8487548828 70.7223052979 78.3135757446 86.0848083496 
13.9347419739 21.70495224 29.2949676514 37.1689758301 45.6371421814 54.3847160339 62.8514518738 70.7240829468 78.3142089844 86.0849609375 13.8960819244 21.4737167358 28.5228099823 36.3166999817 45.2788505554 54.7448120117 63.7043037415 71.4952011108 78.5442123413 86.1234588623 13.8737926483 21.294342041 28.0256195068 35.7591705322 45.0276908875 54.9972267151 64.2620620728 71.9918136597 78.7226791382 86.1456680298 13.8556690216 21.1785945892 27.7659091949 35.4789390564 44.907371521 55.1181488037 64.54246521 72.2512664795 78.8380508423 86.1637115479 13.8438777924 21.120885849 27.6380081177 35.3478317261 44.8546066284 55.171169281 64.6736679077 72.3790512085 78.8955383301 86.1754455566 13.8438863754 21.1209259033 27.6381053925 35.3479194641 44.8546600342 55.1711082458 64.6735839844 72.3789596558 78.8955078125 86.1754226685 13.8557081223 21.1788082123 27.7663917542 35.4794692993 44.9075737 55.117931366 64.5419235229 72.2508010864 78.8378295898 86.1636657715 13.873837471 21.2947044373 28.0264930725 35.760181427 45.0282783508 54.996635437 64.2610626221 71.9909667969 78.7223129272 86.1456375122 13.896150589 21.4742145538 28.5244312286 36.318321228 45.2796859741 54.7439308167 63.7027206421 71.4935531616 78.5437469482 86.1233978271 13.9348773956 21.7056083679 29.2968482971 37.171661377 45.6382827759 54.383644104 62.8487625122 70.7223129272 78.313583374 86.0848083496 
13.9347400665 21.7049484253 29.294960022 37.168964386 45.6371383667 54.3847198486 62.8514633179 70.7240905762 78.3142089844 86.0849609375 13.8960800171 21.4737148285 28.5227947235 36.3166885376 45.278842926 54.7448120117 63.7043113708 71.4952011108 78.5442276001 86.1234588623 13.8737926483 21.2943344116 28.0256023407 35.7591590881 45.0276832581 54.9972267151 64.2620849609 71.9918441772 78.7226867676 86.1456756592 13.8556671143 21.1785850525 27.7658882141 35.4789047241 44.9073562622 55.1181602478 64.5424957275 72.2512817383 78.8380508423 86.1637115479 13.8438749313 21.1208782196 27.6379833221 35.3477935791 44.8545913696 55.1711921692 64.6737060547 72.3790893555 78.8955535889 86.175453186 13.8438854218 21.1209182739 27.6380844116 35.3478851318 44.8546447754 55.1711273193 64.6736221313 72.3789978027 78.8955078125 86.1754226685 13.8557090759 21.1788024902 27.766368866 35.4794425964 44.9075698853 55.1179428101 64.5419464111 72.2508239746 78.8378372192 86.1636734009 13.8738365173 21.2946987152 28.0264816284 35.7601699829 45.0282669067 54.996635437 64.2610778809 71.9909973145 78.7223205566 86.1456375122 13.896150589 21.4742088318 28.5244197845 36.3183135986 45.2796897888 54.743938446 63.7027282715 71.4935760498 78.5437393188 86.1233978271 13.9348754883 21.7056026459 29.2968406677 37.1716499329 45.6382789612 54.383644104 62.8487701416 70.7223129272 78.313583374 86.0848083496 
13.9347400665 21.7049484253 29.2949523926 37.1689605713 45.6371421814 54.384727478 62.8514633179 70.7240905762 78.3142089844 86.0849609375 13.8960800171 21.4737091064 28.5227928162 36.3166809082 45.278842926 54.7448158264 63.7043228149 71.4952011108 78.5442199707 86.1234588623 13.873790741 21.2943305969 28.0255870819 35.7591362 45.0276756287 54.9972343445 64.2620925903 71.9918441772 78.722694397 86.1456756592 13.8556661606 21.1785793304 27.7658691406 35.4788818359 44.9073410034 55.1181793213 64.5425186157 72.2513198853 78.8380584717 86.1637115479 13.8438749313 21.1208686829 27.6379547119 35.3477516174 44.8545761108 55.1711997986 64.6737442017 72.3791046143 78.8955688477 86.175453186 13.8438863754 21.1209049225 27.638053894 35.3478431702 44.8546295166 55.1711425781 64.6736602783 72.3790130615 78.8955230713 86.1754226685 13.8557071686 21.1787929535 27.7663478851 35.4794158936 44.9075508118 55.1179580688 64.5419769287 72.250831604 78.8378448486 86.1636734009 13.873837471 21.2946949005 28.0264606476 35.7601509094 45.0282669067 54.9966430664 64.261100769 71.9909896851 78.7223434448 86.1456375122 13.8961524963 21.4742050171 28.5244083405 36.3183021545 45.2796821594 54.7439346313 63.7027359009 71.4935913086 78.5437393188 86.1233978271 13.9348754883 21.7056026459 29.296831131 37.1716499329 45.6382713318 54.3836479187 62.8487739563 70.7223205566 78.313583374 86.0848083496 
13.9347410202 21.7049446106 29.2949504852 37.1689529419 45.6371383667 54.3847236633 62.8514709473 70.7240982056 78.3142089844 86.0849609375 13.8960809708 21.4737052917 28.5227718353 36.3166656494 45.2788352966 54.7448234558 63.704334259 71.4952163696 78.5442276001 86.1234588623 13.8737926483 21.2943267822 28.0255718231 35.7591209412 45.0276679993 54.9972381592 64.2621154785 71.991859436 78.7227020264 86.1456756592 13.8556652069 21.1785678864 27.7658462524 35.4788513184 44.9073295593 55.1181907654 64.5425415039 72.251335144 78.8380661011 86.1637191772 13.8438739777 21.1208553314 27.637928009 35.3477134705 44.8545608521 55.1712188721 64.6737823486 72.3791275024 78.8955688477 86.175453186 13.8438854218 21.1208972931 27.6380348206 35.3478012085 44.8546142578 55.1711654663 64.6736907959 72.3790283203 78.8955307007 86.1754226685 13.8557071686 21.1787872314 27.7663288116 35.4793891907 44.9075393677 55.1179656982 64.5420074463 72.2508621216 78.8378448486 86.1636734009 13.873837471 21.2946853638 28.0264434814 35.7601356506 45.0282669067 54.9966545105 64.2611160278 71.9910125732 78.7223434448 86.1456375122 13.8961496353 21.4742031097 28.5244026184 36.3182907104 45.2796783447 54.743938446 63.7027511597 71.4935913086 78.5437545776 86.1233978271 13.934876442 21.7056026459 29.2968254089 37.1716384888 45.6382713318 54.383644104 62.848777771 70.722328186 78.313583374 86.0848083496 
13.9347400665 21.7049446106 29.2949447632 37.1689491272 45.6371383667 54.384727478 62.851474762 70.724105835 78.3142089844 86.0849609375 13.8960800171 21.4737033844 28.5227642059 36.3166618347 45.2788314819 54.7448348999 63.7043457031 71.495223999 78.5442352295 86.1234588623 13.8737926483 21.2943191528 28.0255565643 35.7591056824 45.0276679993 54.9972496033 64.2621231079 71.9918899536 78.7227020264 86.1456756592 13.8556652069 21.178560257 27.7658214569 35.4788246155 44.9073181152 55.1182098389 64.5425796509 72.2513656616 78.8380813599 86.1637191772 13.843873024 21.120847702 27.6379032135 35.3476715088 44.8545455933 55.1712341309 64.673828125 72.3791503906 78.8955841064 86.175453186 13.8438835144 21.1208877563 27.6379985809 35.3477630615 44.854598999 55.1711769104 64.6737365723 72.3790588379 78.8955459595 86.1754302979 13.8557052612 21.1787776947 27.7663040161 35.4793624878 44.9075241089 55.117980957 64.5420379639 72.2508773804 78.8378601074 86.1636734009 13.8738355637 21.2946796417 28.02643013 35.7601165771 45.0282516479 54.9966545105 64.2611312866 71.991027832 78.7223587036 86.1456298828 13.896150589 21.4741973877 28.5243911743 36.3182830811 45.2796707153 54.7439498901 63.7027664185 71.4935913086 78.5437545776 86.1233978271 13.934876442 21.7055988312 29.2968235016 37.1716346741 45.6382713318 54.3836517334 62.8487854004 70.7223358154 78.3135910034 86.0848083496 
