2.26618599892 3.92145109177 6.88806390762 9.64366817474 11.1896476746 11.1884307861 9.63772964478 6.88046360016 3.91457247734 2.26606559753 2.29227352142 5.12524223328 9.9077129364 14.3565425873 16.8239269257 16.8219909668 14.347073555 9.89546871185 5.11397838593 2.2919485569 2.31560134888 6.00890684128 11.9728097916 17.4677467346 20.6126251221 20.6101856232 17.4558181763 11.9577722549 5.99456501007 2.31509661674 2.33219003677 6.52557563782 13.1188611984 19.1366519928 22.5695400238 22.5668716431 19.1236457825 13.102347374 6.50954246521 2.33155846596 2.34091305733 6.78058815002 13.6725883484 19.9208068848 23.4754924774 23.4727458954 19.9073562622 13.6553945541 6.76375722885 2.34021496773 2.34090566635 6.78038883209 13.6721639633 19.9202079773 23.4748096466 23.4720592499 19.9067592621 13.6549768448 6.76356077194 2.34020757675 2.3321557045 6.52455186844 13.1166133881 19.1333999634 22.5657691956 22.5631046295 19.1204204559 13.1001234055 6.50853443146 2.33152484894 2.31555008888 6.00711774826 11.9688148499 17.461774826 20.6048088074 20.6024436951 17.4499187469 11.9538440704 5.99280452728 2.31504559517 2.29220438004 5.12258768082 9.90118694305 14.3468914032 16.8117866516 16.8099040985 14.337600708 9.88904666901 5.1113910675 2.29188275337 2.26613402367 3.91802215576 6.87917613983 9.62849807739 11.1708602905 11.1699457169 9.62258529663 6.87185907364 3.91124176979 2.26601409912 
2.26622223854 3.85699415207 6.75410175323 9.47884082794 11.0146989822 11.0134830475 9.47295761108 6.74662208557 3.85033345222 2.2661049366 2.29159355164 5.05030250549 9.76531410217 14.1964931488 16.6717948914 16.6698322296 14.1870145798 9.75317668915 5.03925943375 2.29127812386 2.31455230713 5.93814706802 11.8419132233 17.3327980042 20.5492858887 20.5467185974 17.3207817078 11.8269729614 5.92399978638 2.31405973434 2.33127140999 6.46397972107 13.0072584152 19.0623321533 22.6415958405 22.6387367249 19.0490226746 12.9908151627 6.44811058044 2.33065128326 2.34020066261 6.72660589218 13.5776596069 19.8941040039 23.6310577393 23.6280822754 19.8802089691 13.5605039597 6.70991373062 2.33951282501 2.34019327164 6.72640228271 13.5772228241 19.8934669495 23.6303062439 23.6273345947 19.8795776367 13.5600748062 6.70971298218 2.33950591087 2.33123636246 6.46293640137 13.0049657822 19.0589466095 22.6375350952 22.6346797943 19.0456676483 12.9885463715 6.44708204269 2.33061742783 2.31450152397 5.93634176254 11.8378944397 17.3266983032 20.5411815643 20.5386943817 17.3147583008 11.8230247498 5.92222356796 2.31400918961 2.29152607918 5.04765701294 9.75876903534 14.1868181229 16.6594219208 16.6575202942 14.1775388718 9.74675273895 5.03669071198 2.29121422768 2.26617288589 3.85366868973 6.74540472031 9.46369171143 10.9959993362 10.9950876236 9.45782184601 6.73825597763 3.84712219238 2.26605606079 
2.2662217617 3.85683822632 6.75376796722 9.47841358185 11.0142316818 11.0130186081 9.47252941132 6.74628829956 3.85017776489 2.2661049366 2.29159140587 5.05010890961 9.76492786407 14.1960287094 16.6713142395 16.6693515778 14.1865530014 9.75279140472 5.0390663147 2.29127573967 2.31454896927 5.9379529953 11.8415355682 17.3323326111 20.5488262177 20.546257019 17.3203163147 11.826593399 5.92380523682 2.3140566349 2.33126831055 6.46380472183 13.0069236755 19.0619697571 22.6413803101 22.6385173798 19.0486602783 12.9904785156 6.44793605804 2.33064842224 2.34019804001 6.72645139694 13.5773773193 19.8938694 23.6313743591 23.6283950806 19.8799724579 13.5602207184 6.70976066589 2.33951020241 2.34019112587 6.72624731064 13.5769395828 19.8932342529 23.6306247711 23.6276473999 19.8793392181 13.5597915649 6.70955848694 2.33950304985 2.3312330246 6.46276187897 13.0046281815 19.0585784912 22.6373157501 22.6344566345 19.04529953 12.9882116318 6.44690704346 2.33061385155 2.31449818611 5.93614578247 11.8375139236 17.3262329102 20.5407180786 20.5382347107 17.3142948151 11.8226470947 5.9220290184 2.31400585175 2.29152417183 5.04746389389 9.75838565826 14.1863546371 16.6589393616 16.6570396423 14.177075386 9.7463684082 5.03649759293 2.29121208191 2.26617264748 3.85351276398 6.7450709343 9.46326446533 10.9955329895 10.9946203232 9.45739364624 6.73792171478 3.84696722031 2.26605558395 
2.26622200012 3.85685038567 6.75379610062 9.47845458984 11.0142774582 11.0130624771 9.47257041931 6.74631547928 3.85018968582 2.2661049366 2.29159140587 5.05012607574 9.7649679184 14.1960811615 16.67137146 16.6694087982 14.1866044998 9.75283050537 5.03908395767 2.29127621651 2.31454968452 5.93797492981 11.8415822983 17.3323974609 20.5488891602 20.5463256836 17.3203792572 11.8266420364 5.92382764816 2.31405735016 2.3312690258 6.46383094788 13.006978035 19.0620441437 22.641462326 22.6386013031 19.0487308502 12.9905319214 6.44796276093 2.3306491375 2.34019875526 6.7264790535 13.5774354935 19.893951416 23.6314754486 23.6285018921 19.8800582886 13.5602788925 6.70978784561 2.33951115608 2.34019160271 6.72627401352 13.5769996643 19.8933143616 23.6307258606 23.6277484894 19.8794231415 13.5598497391 6.70958614349 2.33950424194 2.33123397827 6.4627866745 13.0046863556 19.0586528778 22.6374015808 22.6345424652 19.045375824 12.9882650375 6.44693374634 2.33061480522 2.31449866295 5.93616819382 11.837562561 17.3262958527 20.5407905579 20.5383014679 17.3143577576 11.8226947784 5.92205095291 2.31400585175 2.29152417183 5.0474820137 9.75842380524 14.1864070892 16.6589946747 16.6570968628 14.1771278381 9.74640750885 5.0365152359 2.29121232033 2.26617264748 3.85352420807 6.74510002136 9.46330451965 10.9955806732 10.9946670532 9.45743370056 6.73795032501 3.84697890282 2.26605558395 
2.26622200012 3.85686254501 6.75382471085 9.47849559784 11.0143241882 11.0131111145 9.47261142731 6.74634504318 3.85020160675 2.2661049366 2.29159212112 5.05014467239 9.76500797272 14.1961326599 16.6714286804 16.6694660187 14.1866550446 9.75286960602 5.03910207748 2.29127693176 2.31454992294 5.93799734116 11.841629982 17.3324584961 20.5489635468 20.5463943481 17.3204441071 11.8266878128 5.92385005951 2.31405758858 2.33126974106 6.46385717392 13.0070343018 19.0621204376 22.6415481567 22.6386871338 19.0488071442 12.9905872345 6.44798803329 2.33064985275 2.34019970894 6.72650814056 13.5774936676 19.8940353394 23.6315860748 23.6286087036 19.8801383972 13.5603370667 6.70981645584 2.33951163292 2.3401927948 6.72630357742 13.5770559311 19.8933982849 23.6308345795 23.6278572083 19.8795108795 13.5599050522 6.70961475372 2.33950471878 2.33123445511 6.46281290054 13.004737854 19.0587291718 22.6374874115 22.6346282959 19.0454521179 12.9883213043 6.44695997238 2.33061528206 2.31449913979 5.93619155884 11.8376102448 17.3263607025 20.5408554077 20.5383701324 17.3144207001 11.8227415085 5.92207384109 2.314006567 2.29152441025 5.04750061035 9.75846385956 14.1864585876 16.6590538025 16.6571540833 14.1771821976 9.74644851685 5.03653383255 2.29121279716 2.26617264748 3.85353589058 6.74512863159 9.463347435 10.9956254959 10.9947128296 9.45747375488 6.73797988892 3.84699130058 2.26605558395 
2.26622200012 3.85687398911 6.75385332108 9.47853565216 11.0143699646 11.0131549835 9.47265052795 6.74637174606 3.85021328926 2.2661049366 2.29159212112 5.05016231537 9.76504611969 14.1961841583 16.6714820862 16.6695213318 14.186706543 9.75290775299 5.03911972046 2.29127693176 2.31455016136 5.9380197525 11.8416795731 17.3325233459 20.549036026 20.54646492 17.3205089569 11.8267354965 5.92387151718 2.314057827 2.33127045631 6.46388244629 13.0070858002 19.0621910095 22.6416358948 22.6387729645 19.0488815308 12.9906406403 6.44801330566 2.33065032959 2.34020018578 6.72653579712 13.5775508881 19.8941192627 23.631690979 23.6287097931 19.8802242279 13.5603942871 6.7098441124 2.33951258659 2.34019327164 6.72633075714 13.5771141052 19.8934822083 23.6309356689 23.6279640198 19.8795909882 13.5599651337 6.70964241028 2.33950567245 2.33123517036 6.46283912659 13.0047931671 19.0588035583 22.6375713348 22.6347122192 19.0455265045 12.9883747101 6.44698429108 2.3306157589 2.31449961662 5.93621301651 11.8376588821 17.326423645 20.5409240723 20.538438797 17.3144836426 11.8227882385 5.92209529877 2.31400728226 2.29152488708 5.04751777649 9.75850200653 14.1865091324 16.6591072083 16.6572113037 14.1772298813 9.74648761749 5.03655052185 2.29121279716 2.26617264748 3.85354781151 6.74515676498 9.46338558197 10.9956741333 10.9947576523 9.45751571655 6.73800754547 3.84700202942 2.26605582237 
2.26622200012 3.8568854332 6.75388097763 9.47857475281 11.0144147873 11.0131998062 9.47269058228 6.74640035629 3.85022449493 2.26610517502 2.29159259796 5.05017948151 9.76508426666 14.1962356567 16.6715373993 16.6695766449 14.1867580414 9.75294589996 5.0391368866 2.29127717018 2.31455087662 5.93804073334 11.8417224884 17.3325862885 20.5491027832 20.5465316772 17.3205699921 11.8267812729 5.92389345169 2.31405854225 2.33127093315 6.46390724182 13.0071392059 19.0622673035 22.6417198181 22.6388587952 19.0489559174 12.9906921387 6.44803905487 2.33065080643 2.34020113945 6.72656345367 13.5776090622 19.894203186 23.6317958832 23.6288204193 19.8803024292 13.5604515076 6.70987176895 2.33951306343 2.34019422531 6.72635936737 13.577173233 19.8935642242 23.6310462952 23.6280670166 19.8796710968 13.5600242615 6.70966911316 2.33950638771 2.33123588562 6.46286296844 13.0048456192 19.0588779449 22.6376590729 22.6347999573 19.0455989838 12.9884290695 6.44701099396 2.33061647415 2.31449985504 5.93623542786 11.8377027512 17.3264865875 20.5409927368 20.5385055542 17.3145446777 11.8228330612 5.92211675644 2.31400752068 2.29152536392 5.04753446579 9.75854110718 14.1865615845 16.6591644287 16.6572647095 14.1772823334 9.74652576447 5.03656864166 2.29121351242 2.26617264748 3.85355973244 6.74518489838 9.46342563629 10.9957151413 10.994802475 9.4575548172 6.73803567886 3.84701442719 2.26605629921 
