2.26462006569 3.81124901772 6.63507652283 9.31428050995 10.9111814499 10.9098768234 9.30838775635 6.62778091431 3.80476546288 2.26451349258 2.2905766964 5.00210428238 9.64245223999 14.2371206284 16.9559936523 16.9538993835 14.2267570496 9.63034343719 4.99125051498 2.29026675224 2.31410121918 5.89748668671 11.75963974 17.5028247833 21.1067295074 21.10389328 17.4895515442 11.7446098328 5.88348340988 2.31361031532 2.3310983181 6.43614435196 12.9580049515 19.3111152649 23.3203678131 23.3172340393 19.2963657379 12.941403389 6.42036771774 2.33047747612 2.34045386314 6.70809316635 13.551492691 20.1797580719 24.3536052704 24.3503608704 20.1643676758 13.5341434479 6.6914691925 2.33976149559 2.34044623375 6.7078704834 13.5510082245 20.179063797 24.3527927399 24.3495521545 20.1636753082 13.533665657 6.69125080109 2.33975434303 2.33106136322 6.43500804901 12.9555273056 19.3074245453 23.3159713745 23.3128318787 19.2927093506 12.938952446 6.41924858093 2.33044195175 2.31404590607 5.8954577446 11.7551355362 17.4961624146 21.0972423553 21.0945453644 17.4829063416 11.740146637 5.88145828247 2.31355404854 2.29049825668 4.99902105331 9.63483810425 14.2261228561 16.9418239594 16.9398193359 14.2159204483 9.62253761292 4.9880862236 2.29018878937 2.26456785202 3.80747699738 6.62503194809 9.29710769653 10.8901062012 10.8892402649 9.29047966003 6.61733341217 3.80087375641 2.2644572258 
2.26462483406 3.81044697762 6.63355016708 9.31256866455 10.9092283249 10.9079246521 9.30667495728 6.62625789642 3.80396533012 2.26451802254 2.29057168961 5.0011882782 9.64088726044 14.2354307175 16.954126358 16.9520359039 14.2250671387 9.62877941132 4.99033689499 2.29026246071 2.3140900135 5.8965587616 11.7580394745 17.5009860992 21.1050376892 21.1022033691 17.4877109528 11.7430114746 5.88255834579 2.31359910965 2.33108234406 6.43517875671 12.9562673569 19.3091449738 23.3200492859 23.3169136047 19.2943935394 12.9396648407 6.41940546036 2.33046221733 2.3404340744 6.70708990097 13.5495882034 20.1777019501 24.354681015 24.3514328003 20.1623077393 13.5322437286 6.69046735764 2.3397424221 2.34042716026 6.70686769485 13.5491065979 20.1770057678 24.3538684845 24.3506221771 20.1616153717 13.5317678452 6.69024944305 2.33973526955 2.33104562759 6.4340429306 12.9537887573 19.3054542542 23.3156490326 23.3125114441 19.2907371521 12.9372138977 6.41828536987 2.33042669296 2.31403422356 5.89453029633 11.7535362244 17.4943237305 21.0955467224 21.0928459167 17.4810714722 11.7385482788 5.88053274155 2.31354284286 2.29049301147 4.99810504913 9.63327407837 14.2244338989 16.9399585724 16.937953949 14.2142305374 9.62097358704 4.98717308044 2.29018425941 2.26457238197 3.80667614937 6.62350749969 9.29539299011 10.8881578445 10.8872909546 9.28876399994 6.61580705643 3.80007481575 2.26446199417 
2.26462483406 3.81044626236 6.63355588913 9.31258201599 10.9092483521 10.9079456329 9.30669116974 6.62626171112 3.80396533012 2.26451802254 2.29057192802 5.00119256973 9.64090633392 14.2354593277 16.9541606903 16.9520683289 14.2250957489 9.62879657745 4.99034261703 2.29026269913 2.31409049034 5.89656877518 11.7580661774 17.5010242462 21.1050891876 21.1022529602 17.4877490997 11.7430362701 5.88256692886 2.31359958649 2.33108305931 6.43519115448 12.9562959671 19.3091907501 23.3201370239 23.3169994354 19.2944431305 12.939696312 6.41941738129 2.33046293259 2.34043455124 6.70710372925 13.5496225357 20.1777534485 24.3548107147 24.3515605927 20.1623649597 13.5322771072 6.69048118591 2.33974313736 2.34042787552 6.70688199997 13.5491361618 20.1770610809 24.3539924622 24.3507461548 20.1616706848 13.5317983627 6.69026279449 2.33973550797 2.33104610443 6.43405580521 12.9538183212 19.3055038452 23.3157367706 23.3125953674 19.2907867432 12.9372444153 6.41829872131 2.3304271698 2.31403493881 5.89453935623 11.7535600662 17.4943656921 21.0955944061 21.0928993225 17.4811115265 11.7385749817 5.8805437088 2.3135433197 2.29049277306 4.99810934067 9.63329029083 14.2244644165 16.9399909973 16.9379901886 14.214261055 9.62098789215 4.98717880249 2.29018425941 2.26457262039 3.80667543411 6.62351322174 9.29540920258 10.8881778717 10.8873109818 9.28877830505 6.6158118248 3.80007410049 2.26446223259 
2.26462507248 3.8104557991 6.63357973099 9.31262016296 10.9092941284 10.9079885483 9.30672645569 6.62628602982 3.8039753437 2.26451802254 2.29057216644 5.00120830536 9.64094257355 14.2355070114 16.9542179108 16.9521217346 14.22514534 9.6288318634 4.99035787582 2.29026269913 2.31409049034 5.89658975601 11.7581119537 17.5010890961 21.1051616669 21.1023273468 17.4878158569 11.7430849075 5.88258886337 2.31360006332 2.33108353615 6.43521690369 12.9563484192 19.3092670441 23.3202285767 23.3170928955 19.2945156097 12.939748764 6.41944360733 2.33046269417 2.34043550491 6.70713090897 13.5496778488 20.1778354645 24.3549232483 24.3516693115 20.1624412537 13.532333374 6.69050788879 2.33974337578 2.34042859077 6.70690870285 13.5491943359 20.1771430969 24.3540973663 24.350856781 20.1617507935 13.5318536758 6.69028949738 2.33973622322 2.33104681969 6.4340801239 12.953871727 19.3055782318 23.3158302307 23.3126888275 19.2908611298 12.9372997284 6.41832304001 2.33042764664 2.31403517723 5.8945608139 11.7536077499 17.4944286346 21.0956668854 21.0929737091 17.4811782837 11.738617897 5.88056373596 2.31354379654 2.29049348831 4.99812507629 9.63332557678 14.2245130539 16.9400482178 16.9380435944 14.214307785 9.6210269928 4.98719453812 2.29018449783 2.26457285881 3.80668568611 6.62353754044 9.2954454422 10.8882236481 10.8873558044 9.28881645203 6.61583662033 3.80008411407 2.26446223259 
2.26462507248 3.81046676636 6.63360548019 9.31265640259 10.9093379974 10.9080343246 9.30676460266 6.62631082535 3.80398511887 2.26451849937 2.29057264328 5.00122594833 9.6409778595 14.2355604172 16.9542732239 16.9521808624 14.2251958847 9.62886810303 4.99037456512 2.29026317596 2.31409144402 5.89661169052 11.7581586838 17.5011577606 21.1052398682 21.1023979187 17.4878787994 11.7431287766 5.88261079788 2.31360054016 2.3310842514 6.43524265289 12.956404686 19.309343338 23.3203239441 23.3171920776 19.2945919037 12.9398050308 6.41946792603 2.33046388626 2.34043622017 6.70715856552 13.5497360229 20.1779155731 24.3550262451 24.3517780304 20.1625270844 13.5323925018 6.69053602219 2.33974409103 2.34042930603 6.70693635941 13.5492515564 20.1772251129 24.3542118073 24.3509654999 20.1618366241 13.5319128036 6.69031858444 2.33973741531 2.33104753494 6.43410587311 12.9539251328 19.3056526184 23.3159255981 23.3127841949 19.2909374237 12.9373531342 6.41834878922 2.33042788506 2.31403565407 5.89458274841 11.7536525726 17.4944953918 21.095741272 21.0930480957 17.4812393188 11.7386665344 5.88058614731 2.31354427338 2.29049372673 4.99814271927 9.63336467743 14.2245635986 16.9401054382 16.9381027222 14.2143592834 9.62106513977 4.98721027374 2.29018497467 2.26457285881 3.80669617653 6.62356185913 9.29548358917 10.8882684708 10.8874015808 9.28885269165 6.61586141586 3.80009436607 2.26446223259 
2.26462507248 3.81047654152 6.63362932205 9.31269264221 10.9093837738 10.9080791473 9.30680084229 6.62633514404 3.80399513245 2.26451873779 2.29057264328 5.0012421608 9.64101600647 14.2356081009 16.954328537 16.9522380829 14.2252454758 9.62890529633 4.99039125443 2.29026341438 2.31409192085 5.89663362503 11.7582092285 17.5012187958 21.1053104401 21.1024703979 17.4879436493 11.7431745529 5.88263225555 2.31360149384 2.33108496666 6.4352684021 12.9564571381 19.3094177246 23.3204193115 23.3172836304 19.2946662903 12.9398565292 6.41949319839 2.3304643631 2.34043693542 6.7071852684 13.5497941971 20.1779956818 24.355134964 24.3518867493 20.1626091003 13.5324487686 6.69056272507 2.33974504471 2.34042978287 6.70696353912 13.5493106842 20.1773071289 24.3543148041 24.3510742188 20.1619148254 13.5319709778 6.69034481049 2.33973789215 2.33104801178 6.43413209915 12.9539785385 19.305727005 23.3160228729 23.312877655 19.2910079956 12.9374065399 6.41837453842 2.33042860031 2.31403636932 5.89460420609 11.7536993027 17.4945583344 21.0958118439 21.0931167603 17.4813041687 11.7387142181 5.88060617447 2.31354475021 2.29049396515 4.99815893173 9.6333990097 14.2246112823 16.9401626587 16.9381580353 14.2144088745 9.62109851837 4.98722696304 2.29018521309 2.26457285881 3.80670547485 6.62358570099 9.2955198288 10.8883142471 10.8874454498 9.28889083862 6.61588573456 3.80010390282 2.26446270943 
2.26462554932 3.81048631668 6.63365316391 9.31273078918 10.9094266891 10.9081249237 9.30683708191 6.6263589859 3.80400538445 2.26451897621 2.2905728817 5.00125837326 9.64105129242 14.2356567383 16.9543876648 16.952293396 14.2252960205 9.62894248962 4.99040746689 2.29026341438 2.31409215927 5.89665412903 11.7582521439 17.501285553 21.1053829193 21.1025428772 17.4880065918 11.7432222366 5.88265323639 2.31360197067 2.3310854435 6.43529224396 12.9565105438 19.3094902039 23.3205127716 23.3173809052 19.2947406769 12.9399118423 6.41951847076 2.33046483994 2.3404378891 6.70721244812 13.5498495102 20.1780796051 24.3552398682 24.3519916534 20.1626873016 13.5325040817 6.69058990479 2.33974575996 2.34043049812 6.70699119568 13.54936409 20.1773853302 24.3544273376 24.3511810303 20.1619949341 13.5320281982 6.69037151337 2.33973836899 2.33104848862 6.43415641785 12.9540319443 19.3058013916 23.3161182404 23.3129749298 19.2910842896 12.9374570847 6.41839885712 2.33042931557 2.31403684616 5.89462471008 11.7537460327 17.4946250916 21.0958843231 21.0931911469 17.4813690186 11.7387580872 5.88062858582 2.31354522705 2.29049420357 4.99817466736 9.63343524933 14.2246608734 16.9402198792 16.9382133484 14.2144594193 9.62113571167 4.98724317551 2.29018521309 2.26457309723 3.80671596527 6.62361049652 9.29555606842 10.8883571625 10.8874893188 9.28892612457 6.61590957642 3.80011415482 2.26446270943 
