2.2651386261 3.82084035873 6.65362644196 9.33962249756 10.9391956329 10.9378871918 9.33371734619 6.64631462097 3.81432294846 2.26502799988 2.29046201706 5.00983428955 9.66460227966 14.2602100372 16.9848804474 16.9827842712 14.2498369217 9.65247821808 4.99894046783 2.29015302658 2.31397223473 5.90836238861 11.7754335403 17.5254707336 21.1371097565 21.1342811584 17.5121612549 11.7604017258 5.89432668686 2.31348156929 2.33134651184 6.44567775726 12.9711122513 19.333574295 23.336977005 23.3338737488 19.3187866211 12.9545030594 6.42988777161 2.33072328568 2.34077215195 6.71665096283 13.5640745163 20.2017745972 24.3600234985 24.3568191528 20.1863574982 13.546713829 6.70001888275 2.34007716179 2.34076547623 6.71643018723 13.5635910034 20.2010860443 24.3592243195 24.3560237885 20.18567276 13.5462369919 6.69980430603 2.34007024765 2.33130931854 6.44454574585 12.9686412811 19.3298873901 23.3326129913 23.3295116425 19.3151416779 12.9520616531 6.42877244949 2.33068728447 2.31391501427 5.90633583069 11.7709493637 17.518819809 21.1276493073 21.1249675751 17.5055561066 11.755947113 5.89229774475 2.31342363358 2.29038667679 5.00674819946 9.65701198578 14.2492218018 16.9707374573 16.9687538147 14.2390403748 9.64470767975 4.99578428268 2.29007792473 2.26508426666 3.81707072258 6.64358568192 9.32244300842 10.9180622101 10.9172487259 9.31626224518 6.63600540161 3.81046104431 2.26497030258 
2.26518464088 3.81292748451 6.63859272003 9.32270812988 10.9199094772 10.9186000824 9.31680965424 6.63128852844 3.80643606186 2.26507425308 2.29041290283 5.00074768066 9.64907836914 14.2434034348 16.9662895203 16.9641952515 14.2330350876 9.63696193695 4.98987960815 2.29010438919 2.31385827065 5.89910364151 11.7593297958 17.5067100525 21.1201648712 21.1173171997 17.4934043884 11.7443056107 5.88509082794 2.31336927414 2.33118486404 6.43602561951 12.9536075592 19.3136787415 23.3339157104 23.3307781219 19.2988910675 12.9370098114 6.42026233673 2.33056354523 2.3405854702 6.70664215088 13.5451335907 20.1814975739 24.3678760529 24.3646221161 20.1660690308 13.5277872086 6.69003772736 2.33989191055 2.34057831764 6.70642185211 13.5446538925 20.180803299 24.3670578003 24.3638153076 20.1653804779 13.5273141861 6.6898226738 2.339884758 2.33114814758 6.43489551544 12.9511413574 19.3099956512 23.3295249939 23.3263816833 19.295249939 12.9345731735 6.41914844513 2.33052778244 2.31380105019 5.89707565308 11.7548427582 17.5000610352 21.110660553 21.1079730988 17.4867992401 11.7398538589 5.883061409 2.31331038475 2.29033684731 4.99765825272 9.64147758484 14.2324151993 16.9521331787 16.9501533508 14.2222337723 9.62917804718 4.98671722412 2.29002928734 2.2651309967 3.80916118622 6.62854528427 9.30550670624 10.8988027573 10.8979892731 9.29930496216 6.62096261978 3.80257463455 2.26501703262 
2.2651848793 3.8129389286 6.63861942291 9.3227481842 10.9199552536 10.9186477661 9.31684970856 6.631316185 3.80644798279 2.2650744915 2.29041290283 5.00076580048 9.64911746979 14.2434549332 16.9663467407 16.9642543793 14.233086586 9.63700008392 4.98989677429 2.29010486603 2.3138589859 5.89912652969 11.7593784332 17.506778717 21.1202373505 21.1173934937 17.493473053 11.7443552017 5.88511371613 2.31336975098 2.3311855793 6.43605279922 12.9536619186 19.3137569427 23.3340091705 23.3308696747 19.2989673615 12.9370651245 6.42028808594 2.33056426048 2.34058618546 6.70667028427 13.5451917648 20.1815814972 24.367980957 24.364730835 20.1661491394 13.52784729 6.69006633759 2.33989286423 2.3405790329 6.70645046234 13.544711113 20.1808872223 24.3671703339 24.3639221191 20.1654644012 13.5273733139 6.68985033035 2.33988595009 2.33114886284 6.43492221832 12.9511957169 19.3100738525 23.3296146393 23.3264751434 19.2953262329 12.9346294403 6.41917467117 2.33052873611 2.31380152702 5.89709806442 11.7548894882 17.5001296997 21.1107368469 21.1080436707 17.4868659973 11.73990345 5.88308429718 2.31331133842 2.29033756256 4.99767637253 9.64151668549 14.2324676514 16.9521923065 16.9502124786 14.222287178 9.62921619415 4.98673534393 2.29002952576 2.2651309967 3.80917286873 6.62857151031 9.30554676056 10.8988494873 10.8980360031 9.29934215546 6.62098741531 3.80258560181 2.26501703262 
2.2651848793 3.81294965744 6.63864517212 9.32278633118 10.92000103 10.9186935425 9.31688785553 6.63134145737 3.80645847321 2.2650744915 2.29041266441 5.00078296661 9.64915561676 14.2435073853 16.9664058685 16.9643115997 14.2331390381 9.63704013824 4.98991441727 2.29010510445 2.31385922432 5.89914894104 11.7594261169 17.5068454742 21.1203136444 21.1174678802 17.4935379028 11.7444038391 5.88513612747 2.3133699894 2.33118629456 6.43607807159 12.9537162781 19.313835144 23.3341064453 23.3309650421 19.2990455627 12.9371213913 6.42031335831 2.33056497574 2.34058713913 6.7066988945 13.5452508926 20.1816616058 24.3680877686 24.3648376465 20.1662330627 13.5279064178 6.69009494781 2.33989405632 2.34057998657 6.70647859573 13.5447692871 20.1809711456 24.3672771454 24.3640270233 20.1655464172 13.527431488 6.68987894058 2.33988666534 2.33114933968 6.43494796753 12.9512519836 19.3101501465 23.3297042847 23.3265686035 19.2954006195 12.9346847534 6.41920089722 2.33052897453 2.31380200386 5.89712095261 11.7549371719 17.5001945496 21.1108131409 21.1081237793 17.4869327545 11.7399520874 5.88310670853 2.31331181526 2.29033780098 4.99769306183 9.64155483246 14.2325201035 16.9522514343 16.9502716064 14.2223386765 9.62925338745 4.98675251007 2.29002976418 2.2651309967 3.80918335915 6.6285982132 9.30558490753 10.8988990784 10.8980827332 9.29937744141 6.62101316452 3.80259633064 2.26501750946 
2.2651848793 3.81296110153 6.638671875 9.32282543182 10.9200468063 10.9187431335 9.31692695618 6.63136768341 3.80646920204 2.26507472992 2.29041337967 5.00080013275 9.64919376373 14.2435588837 16.9664669037 16.9643726349 14.2331895828 9.63707733154 4.98993110657 2.29010534286 2.31385970116 5.89917135239 11.7594747543 17.5069084167 21.1203861237 21.1175441742 17.49360466 11.7444505692 5.88515996933 2.31337070465 2.33118700981 6.43610477448 12.9537754059 19.313911438 23.334197998 23.3310565948 19.2991218567 12.9371757507 6.42033958435 2.33056569099 2.34058737755 6.70672798157 13.5453109741 20.1817436218 24.3681983948 24.3649463654 20.1663208008 13.5279664993 6.69012308121 2.33989405632 2.34058094025 6.70650672913 13.5448303223 20.1810512543 24.3673820496 24.3641357422 20.1656265259 13.5274934769 6.68990707397 2.3398873806 2.33115029335 6.43497467041 12.9513053894 19.3102283478 23.3297996521 23.3266601562 19.2954788208 12.9347410202 6.41922712326 2.33052968979 2.3138024807 5.89714336395 11.754986763 17.5002613068 21.1108856201 21.1081962585 17.4870033264 11.7399959564 5.88312959671 2.31331253052 2.29033780098 4.9977107048 9.64159297943 14.2325706482 16.9523124695 16.9503288269 14.2223901749 9.62929153442 4.98676967621 2.29003024101 2.2651309967 3.8091943264 6.62862443924 9.30562400818 10.8989439011 10.8981285095 9.2994146347 6.62103891373 3.80260658264 2.26501750946 
2.26518511772 3.81297135353 6.63869714737 9.3228635788 10.9200944901 10.9187879562 9.31696510315 6.63139343262 3.80647993088 2.26507472992 2.29041337967 5.00081825256 9.64923000336 14.2436094284 16.9665241241 16.9644298553 14.2332420349 9.63711547852 4.98994827271 2.29010534286 2.31386017799 5.89919424057 11.7595243454 17.5069770813 21.1204624176 21.1176204681 17.4936714172 11.7444982529 5.88518190384 2.31337070465 2.33118748665 6.43613052368 12.953827858 19.3139877319 23.3342933655 23.3311500549 19.2991962433 12.9372310638 6.42036628723 2.33056616783 2.34058833122 6.70675516129 13.5453720093 20.1818313599 24.3683052063 24.3650550842 20.1663990021 13.5280265808 6.69015073776 2.33989500999 2.34058141708 6.70653581619 13.5448884964 20.181137085 24.3674907684 24.3642463684 20.1657123566 13.5275497437 6.68993473053 2.33988833427 2.33115100861 6.43500089645 12.9513607025 19.3103046417 23.3298950195 23.3267536163 19.2955551147 12.9347953796 6.41925382614 2.33052992821 2.31380319595 5.89716625214 11.7550344467 17.5003261566 21.1109580994 21.1082725525 17.4870681763 11.7400455475 5.88315153122 2.31331324577 2.29033827782 4.9977273941 9.64162921906 14.2326221466 16.9523696899 16.9503898621 14.2224407196 9.62933063507 4.98678636551 2.29003047943 2.2651309967 3.80920481682 6.62864875793 9.30566310883 10.8989906311 10.8981742859 9.29944992065 6.62106323242 3.80261778831 2.26501727104 
2.26518511772 3.81298160553 6.63872289658 9.32290172577 10.9201393127 10.9188337326 9.31700134277 6.63141870499 3.80648994446 2.26507472992 2.29041385651 5.00083446503 9.64926815033 14.2436590195 16.966583252 16.9644889832 14.233291626 9.63715171814 4.98996591568 2.2901058197 2.31386065483 5.89921569824 11.7595682144 17.5070400238 21.1205387115 21.11769104 17.4937362671 11.7445421219 5.88520383835 2.31337189674 2.33118844032 6.43615674973 12.9538803101 19.3140640259 23.3343811035 23.3312416077 19.2992744446 12.9372844696 6.42039203644 2.33056688309 2.34058904648 6.70678281784 13.545425415 20.1819057465 24.3684101105 24.3651599884 20.1664829254 13.5280818939 6.69017791748 2.33989596367 2.34058213234 6.70656299591 13.5449447632 20.1812171936 24.36759758 24.3643531799 20.1657905579 13.5276079178 6.6899638176 2.33988904953 2.33115148544 6.43502664566 12.951415062 19.310377121 23.3299865723 23.3268432617 19.295627594 12.9348487854 6.41927909851 2.33053088188 2.31380319595 5.89718770981 11.7550811768 17.5003929138 21.1110305786 21.1083450317 17.4871311188 11.7400932312 5.8831744194 2.31331348419 2.29033851624 4.99774503708 9.64166736603 14.2326717377 16.9524288177 16.9504451752 14.2224903107 9.62936592102 4.98680305481 2.29003071785 2.26513123512 3.8092148304 6.62867498398 9.30570030212 10.8990345001 10.8982200623 9.29948425293 6.62108850479 3.80262756348 2.26501750946 
