1.0 1.00000011921 0.999190449715 1.03729856014 1.09468054771 1.09465539455 1.03721666336 1.00000023842 1.0 1.0 0.999999940395 1.00049138069 1.07929003239 1.1803548336 1.26478588581 1.26476490498 1.18028187752 1.03114795685 1.00048100948 1.0 1.0 1.05668234825 1.16343677044 1.27512705326 1.3771020174 1.37708520889 1.27505886555 1.10757684708 1.05660939217 1.00000011921 1.0 1.09272325039 1.20050668716 1.30383098125 1.39604341984 1.3960262537 1.3037712574 1.14365708828 1.09265828133 1.00000011921 1.0 1.11970961094 1.23263776302 1.33388984203 1.41167616844 1.41166400909 1.3338394165 1.17235994339 1.11964583397 1.00000011921 1.0 1.11970031261 1.23262953758 1.33387088776 1.41176509857 1.41174721718 1.33381474018 1.17235517502 1.11963677406 1.00000011921 1.0 1.09267926216 1.20047295094 1.30374729633 1.39613330364 1.3961070776 1.30368340015 1.1436201334 1.09261488914 1.0 1.0 1.03543925285 1.13461947441 1.23915028572 1.34074103832 1.34073674679 1.23907053471 1.08445262909 1.03536701202 1.00000011921 1.0 1.00048053265 1.07920122147 1.18034720421 1.26487934589 1.26481258869 1.18030238152 1.03107178211 1.00047051907 1.00000011921 1.0 1.00000011921 0.999196588993 1.03717470169 1.09445297718 1.09450304508 1.03705942631 1.00000011921 1.0 0.999999940395 
1.0 1.00000011921 0.999190449715 1.03729856014 1.09468054771 1.09465539455 1.03721666336 1.00000023842 1.0 1.0 0.999999940395 1.00049138069 1.07929003239 1.1803548336 1.26478588581 1.26476490498 1.18028187752 1.03114795685 1.00048100948 1.0 1.0 1.05668234825 1.16343677044 1.27512705326 1.38256263733 1.38254702091 1.27505886555 1.10757684708 1.05660939217 1.00000011921 1.0 1.09272325039 1.20050668716 1.30383098125 1.40533828735 1.4053235054 1.3037712574 1.14365708828 1.09265828133 1.00000011921 1.0 1.11970961094 1.23263776302 1.33571708202 1.4280616045 1.42805087566 1.33567011356 1.17235994339 1.11964583397 1.00000011921 1.0 1.11970031261 1.23262953758 1.33569812775 1.4282091856 1.42819023132 1.33564412594 1.17235517502 1.11963677406 1.00000011921 1.0 1.09267926216 1.20047295094 1.30374729633 1.4054889679 1.40546178818 1.30368340015 1.1436201334 1.09261488914 1.0 1.0 1.03543925285 1.13461947441 1.23915028572 1.34074103832 1.34073674679 1.23907053471 1.08445262909 1.03536701202 1.00000011921 1.0 1.00048053265 1.07920122147 1.18034720421 1.26487934589 1.26481258869 1.18030238152 1.03107178211 1.00047051907 1.00000011921 1.0 1.00000011921 0.999196588993 1.03717470169 1.09445297718 1.09450304508 1.03705942631 1.00000011921 1.0 0.999999940395 
1.0 1.00000011921 0.999190449715 1.03729856014 1.09468054771 1.09465539455 1.03721666336 1.00000023842 1.0 1.0 0.999999940395 1.00049138069 1.07929003239 1.1803548336 1.26478588581 1.26476490498 1.18028187752 1.03114795685 1.00048100948 1.0 1.0 1.05668234825 1.16343677044 1.27512705326 1.38256263733 1.38254702091 1.27505886555 1.10757684708 1.05660939217 1.00000011921 1.0 1.09272325039 1.20050668716 1.30383098125 1.40533828735 1.40532374382 1.3037712574 1.14365708828 1.09265828133 1.00000011921 1.0 1.11970961094 1.23263776302 1.33571708202 1.42809951305 1.42808890343 1.33567011356 1.17235994339 1.11964583397 1.00000011921 1.0 1.11970031261 1.23262953758 1.33569812775 1.42824852467 1.42822933197 1.33564412594 1.17235517502 1.11963677406 1.00000011921 1.0 1.09267926216 1.20047295094 1.30374729633 1.40548920631 1.40546226501 1.30368340015 1.1436201334 1.09261488914 1.0 1.0 1.03543925285 1.13461947441 1.23915028572 1.34074103832 1.34073674679 1.23907053471 1.08445262909 1.03536701202 1.00000011921 1.0 1.00048053265 1.07920122147 1.18034720421 1.26487934589 1.26481258869 1.18030238152 1.03107178211 1.00047051907 1.00000011921 1.0 1.00000011921 0.999196588993 1.03717470169 1.09445297718 1.09450304508 1.03705942631 1.00000011921 1.0 0.999999940395 
1.0 1.00000011921 0.999190449715 1.03729856014 1.09468054771 1.09465539455 1.03721666336 1.00000023842 1.0 1.0 0.999999940395 1.00049138069 1.07929003239 1.1803548336 1.26478588581 1.26476490498 1.18028187752 1.03114795685 1.00048100948 1.0 1.0 1.05668234825 1.16343677044 1.27512705326 1.38256263733 1.38254702091 1.27505886555 1.10757684708 1.05660939217 1.00000011921 1.0 1.09272325039 1.20050668716 1.30383098125 1.40534257889 1.40532779694 1.3037712574 1.14365708828 1.09265828133 1.00000011921 1.0 1.11970961094 1.23263776302 1.33571708202 1.42810797691 1.4280974865 1.33567011356 1.17235994339 1.11964583397 1.00000011921 1.0 1.11970031261 1.23262953758 1.33569812775 1.42825722694 1.42823815346 1.33564412594 1.17235517502 1.11963677406 1.00000011921 1.0 1.09267926216 1.20047295094 1.30374729633 1.4054942131 1.40546739101 1.30368340015 1.1436201334 1.09261488914 1.0 1.0 1.03543925285 1.13461947441 1.23915028572 1.34074103832 1.34073674679 1.23907053471 1.08445262909 1.03536701202 1.00000011921 1.0 1.00048053265 1.07920122147 1.18034720421 1.26487934589 1.26481258869 1.18030238152 1.03107178211 1.00047051907 1.00000011921 1.0 1.00000011921 0.999196588993 1.03717470169 1.09445297718 1.09450304508 1.03705942631 1.00000011921 1.0 0.999999940395 
1.0 1.00000011921 0.999190449715 1.03729856014 1.09468054771 1.09465539455 1.03721666336 1.00000023842 1.0 1.0 0.999999940395 1.00049138069 1.07929003239 1.1803548336 1.26478588581 1.26476490498 1.18028187752 1.03114795685 1.00048100948 1.0 1.0 1.05668234825 1.16343677044 1.27512705326 1.38256263733 1.38254702091 1.27505886555 1.10757684708 1.05660939217 1.00000011921 1.0 1.09272325039 1.20050668716 1.30383098125 1.40534937382 1.40533459187 1.3037712574 1.14365708828 1.09265828133 1.00000011921 1.0 1.11970961094 1.23263776302 1.33571708202 1.4281167984 1.42810630798 1.33567011356 1.17235994339 1.11964583397 1.00000011921 1.0 1.11970031261 1.23262953758 1.33569812775 1.42826581001 1.42824685574 1.33564412594 1.17235517502 1.11963677406 1.00000011921 1.0 1.09267926216 1.20047295094 1.30374729633 1.40550172329 1.40547466278 1.30368340015 1.1436201334 1.09261488914 1.0 1.0 1.03543925285 1.13461947441 1.23915028572 1.34074103832 1.34073674679 1.23907053471 1.08445262909 1.03536701202 1.00000011921 1.0 1.00048053265 1.07920122147 1.18034720421 1.26487934589 1.26481258869 1.18030238152 1.03107178211 1.00047051907 1.00000011921 1.0 1.00000011921 0.999196588993 1.03717470169 1.09445297718 1.09450304508 1.03705942631 1.00000011921 1.0 0.999999940395 
1.0 1.00000011921 0.999190449715 1.03729856014 1.09468054771 1.09465539455 1.03721666336 1.00000023842 1.0 1.0 0.999999940395 1.00049138069 1.07929003239 1.1803548336 1.26478588581 1.26476490498 1.18028187752 1.03114795685 1.00048100948 1.0 1.0 1.05668234825 1.16343677044 1.27512705326 1.38256263733 1.38254702091 1.27505886555 1.10757684708 1.05660939217 1.00000011921 1.0 1.09272325039 1.20050668716 1.30383098125 1.40535676479 1.40534198284 1.3037712574 1.14365708828 1.09265828133 1.00000011921 1.0 1.11970961094 1.23263776302 1.33571708202 1.42812550068 1.42811477184 1.33567011356 1.17235994339 1.11964583397 1.00000011921 1.0 1.11970031261 1.23262953758 1.33569812775 1.42827439308 1.42825555801 1.33564412594 1.17235517502 1.11963677406 1.00000011921 1.0 1.09267926216 1.20047295094 1.30374729633 1.40550911427 1.40548205376 1.30368340015 1.1436201334 1.09261488914 1.0 1.0 1.03543925285 1.13461947441 1.23915028572 1.34074103832 1.34073674679 1.23907053471 1.08445262909 1.03536701202 1.00000011921 1.0 1.00048053265 1.07920122147 1.18034720421 1.26487934589 1.26481258869 1.18030238152 1.03107178211 1.00047051907 1.00000011921 1.0 1.00000011921 0.999196588993 1.03717470169 1.09445297718 1.09450304508 1.03705942631 1.00000011921 1.0 0.999999940395 
1.0 1.00000011921 0.999190449715 1.03729856014 1.09468054771 1.09465539455 1.03721666336 1.00000023842 1.0 1.0 0.999999940395 1.00049138069 1.07929003239 1.1803548336 1.26478588581 1.26476490498 1.18028187752 1.03114795685 1.00048100948 1.0 1.0 1.05668234825 1.16343677044 1.27512705326 1.38256263733 1.38254702091 1.27505886555 1.10757684708 1.05660939217 1.00000011921 1.0 1.09272325039 1.20050668716 1.30383098125 1.40536427498 1.40534949303 1.3037712574 1.14365708828 1.09265828133 1.00000011921 1.0 1.11970961094 1.23263776302 1.33571708202 1.42813396454 1.42812347412 1.33567011356 1.17235994339 1.11964583397 1.00000011921 1.0 1.11970031261 1.23262953758 1.33569812775 1.42828321457 1.42826414108 1.33564424515 1.17235517502 1.11963677406 1.00000011921 1.0 1.09267926216 1.20047295094 1.30374729633 1.40551674366 1.40548968315 1.30368340015 1.1436201334 1.09261488914 1.0 1.0 1.03543925285 1.13461947441 1.23915028572 1.34074103832 1.34073674679 1.23907053471 1.08445262909 1.03536701202 1.00000011921 1.0 1.00048053265 1.07920122147 1.18034720421 1.26487934589 1.26481258869 1.18030238152 1.03107178211 1.00047051907 1.00000011921 1.0 1.00000011921 0.999196588993 1.03717470169 1.09445297718 1.09450304508 1.03705942631 1.00000011921 1.0 0.999999940395 
