1.0 1.00000011921 0.996455192566 1.05044817924 1.10441863537 1.10440063477 1.0503872633 1.00000023842 1.0 1.0 0.999999940395 1.000172019 1.08462953568 1.17416357994 1.24418342113 1.24416947365 1.17410004139 1.03072118759 1.00016832352 1.0 1.0 1.05610048771 1.16369223595 1.26023089886 1.34152424335 1.34151506424 1.26018154621 1.10682356358 1.0560284853 1.00000011921 1.0 1.09105753899 1.19810593128 1.28906154633 1.36123299599 1.36122179031 1.28901970387 1.1408854723 1.09099364281 1.00000011921 1.0 1.11649596691 1.22628414631 1.31458282471 1.37295329571 1.37294638157 1.31454896927 1.16612958908 1.1164355278 1.00000011921 1.0 1.11648738384 1.22627723217 1.3145660162 1.3729929924 1.37298345566 1.31452822685 1.16612374783 1.11642682552 1.00000011921 1.0 1.09101593494 1.19807517529 1.28899335861 1.36126935482 1.36125445366 1.28894734383 1.14085042477 1.09095215797 1.0 1.0 1.03334474564 1.13917541504 1.23310470581 1.31401026249 1.31400632858 1.23304510117 1.08546853065 1.03327047825 1.00000011921 1.0 1.00016832352 1.08455550671 1.17411756516 1.24420118332 1.24415946007 1.17406725883 1.03064715862 1.00016474724 1.00000011921 1.0 1.00000011921 0.996477723122 1.0503385067 1.10427045822 1.10430061817 1.05025839806 1.00000011921 1.0 0.999999940395 
1.0 1.00000011921 0.996455192566 1.05044817924 1.10441863537 1.10440063477 1.0503872633 1.00000023842 1.0 1.0 0.999999940395 1.000172019 1.08462953568 1.17416357994 1.24418342113 1.24416947365 1.17410004139 1.03072118759 1.00016832352 1.0 1.0 1.05610048771 1.16369223595 1.26023089886 1.34611129761 1.34610426426 1.26018154621 1.10682356358 1.0560284853 1.00000011921 1.0 1.09105753899 1.19810593128 1.28906154633 1.37256598473 1.37255954742 1.28901970387 1.1408854723 1.09099364281 1.00000011921 1.0 1.11649596691 1.22628414631 1.3165037632 1.39453363419 1.39453113079 1.31647229195 1.16612958908 1.1164355278 1.00000011921 1.0 1.11648738384 1.22627723217 1.31648588181 1.39462518692 1.39461755753 1.31644952297 1.16612374783 1.11642682552 1.00000011921 1.0 1.09101593494 1.19807517529 1.28899335861 1.37265598774 1.37264347076 1.28894734383 1.14085042477 1.09095215797 1.0 1.0 1.03334474564 1.13917541504 1.23310470581 1.31401026249 1.31400632858 1.23304510117 1.08546853065 1.03327047825 1.00000011921 1.0 1.00016832352 1.08455550671 1.17411756516 1.24420118332 1.24415946007 1.17406725883 1.03064715862 1.00016474724 1.00000011921 1.0 1.00000011921 0.996477723122 1.0503385067 1.10427045822 1.10430061817 1.05025839806 1.00000011921 1.0 0.999999940395 
1.0 1.00000011921 0.996455192566 1.05044817924 1.10441863537 1.10440063477 1.0503872633 1.00000023842 1.0 1.0 0.999999940395 1.000172019 1.08462953568 1.17416357994 1.24418342113 1.24416947365 1.17410004139 1.03072118759 1.00016832352 1.0 1.0 1.05610048771 1.16369223595 1.26023089886 1.34611129761 1.34610426426 1.26018154621 1.10682356358 1.0560284853 1.00000011921 1.0 1.09105753899 1.19810593128 1.28906154633 1.37256598473 1.37255954742 1.28901970387 1.1408854723 1.09099364281 1.00000011921 1.0 1.11649596691 1.22628414631 1.3165037632 1.39455211163 1.39454984665 1.31647229195 1.16612958908 1.1164355278 1.00000011921 1.0 1.11648738384 1.22627723217 1.31648588181 1.39464390278 1.39463663101 1.31644952297 1.16612374783 1.11642682552 1.00000011921 1.0 1.09101593494 1.19807517529 1.28899335861 1.37265598774 1.37264347076 1.28894734383 1.14085042477 1.09095215797 1.0 1.0 1.03334474564 1.13917541504 1.23310470581 1.31401026249 1.31400632858 1.23304510117 1.08546853065 1.03327047825 1.00000011921 1.0 1.00016832352 1.08455550671 1.17411756516 1.24420118332 1.24415946007 1.17406725883 1.03064715862 1.00016474724 1.00000011921 1.0 1.00000011921 0.996477723122 1.0503385067 1.10427045822 1.10430061817 1.05025839806 1.00000011921 1.0 0.999999940395 
1.0 1.00000011921 0.996455192566 1.05044817924 1.10441863537 1.10440063477 1.0503872633 1.00000023842 1.0 1.0 0.999999940395 1.000172019 1.08462953568 1.17416357994 1.24418342113 1.24416947365 1.17410004139 1.03072118759 1.00016832352 1.0 1.0 1.05610048771 1.16369223595 1.26023089886 1.34611129761 1.34610426426 1.26018154621 1.10682356358 1.0560284853 1.00000011921 1.0 1.09105753899 1.19810593128 1.28906154633 1.37256598473 1.37255954742 1.28901970387 1.1408854723 1.09099364281 1.00000011921 1.0 1.11649596691 1.22628414631 1.3165037632 1.39456045628 1.39455795288 1.31647229195 1.16612958908 1.1164355278 1.00000011921 1.0 1.11648738384 1.22627723217 1.31648588181 1.39465224743 1.39464485645 1.31644952297 1.16612374783 1.11642682552 1.00000011921 1.0 1.09101593494 1.19807517529 1.28899335861 1.37265598774 1.37264347076 1.28894734383 1.14085042477 1.09095215797 1.0 1.0 1.03334474564 1.13917541504 1.23310470581 1.31401026249 1.31400632858 1.23304510117 1.08546853065 1.03327047825 1.00000011921 1.0 1.00016832352 1.08455550671 1.17411756516 1.24420118332 1.24415946007 1.17406725883 1.03064715862 1.00016474724 1.00000011921 1.0 1.00000011921 0.996477723122 1.0503385067 1.10427045822 1.10430061817 1.05025839806 1.00000011921 1.0 0.999999940395 
1.0 1.00000011921 0.996455192566 1.05044817924 1.10441863537 1.10440063477 1.0503872633 1.00000023842 1.0 1.0 0.999999940395 1.000172019 1.08462953568 1.17416357994 1.24418342113 1.24416947365 1.17410004139 1.03072118759 1.00016832352 1.0 1.0 1.05610048771 1.16369223595 1.26023089886 1.34611129761 1.34610426426 1.26018154621 1.10682356358 1.0560284853 1.00000011921 1.0 1.09105753899 1.19810593128 1.28906154633 1.37256598473 1.37255978584 1.28901970387 1.1408854723 1.09099364281 1.00000011921 1.0 1.11649596691 1.22628414631 1.3165037632 1.39456856251 1.39456605911 1.31647229195 1.16612958908 1.1164355278 1.00000011921 1.0 1.11648738384 1.22627723217 1.31648588181 1.39466035366 1.39465272427 1.31644952297 1.16612374783 1.11642682552 1.00000011921 1.0 1.09101593494 1.19807517529 1.28899335861 1.372656703 1.37264418602 1.28894734383 1.14085042477 1.09095215797 1.0 1.0 1.03334474564 1.13917541504 1.23310470581 1.31401026249 1.31400632858 1.23304510117 1.08546853065 1.03327047825 1.00000011921 1.0 1.00016832352 1.08455550671 1.17411756516 1.24420118332 1.24415946007 1.17406725883 1.03064715862 1.00016474724 1.00000011921 1.0 1.00000011921 0.996477723122 1.0503385067 1.10427045822 1.10430061817 1.05025839806 1.00000011921 1.0 0.999999940395 
1.0 1.00000011921 0.996455192566 1.05044817924 1.10441863537 1.10440063477 1.0503872633 1.00000023842 1.0 1.0 0.999999940395 1.000172019 1.08462953568 1.17416357994 1.24418342113 1.24416947365 1.17410004139 1.03072118759 1.00016832352 1.0 1.0 1.05610048771 1.16369223595 1.26023089886 1.34611129761 1.34610426426 1.26018154621 1.10682356358 1.0560284853 1.00000011921 1.0 1.09105753899 1.19810593128 1.28906154633 1.37256765366 1.37256145477 1.28901970387 1.1408854723 1.09099364281 1.00000011921 1.0 1.11649596691 1.22628414631 1.3165037632 1.39457631111 1.39457392693 1.31647229195 1.16612958908 1.1164355278 1.00000011921 1.0 1.11648738384 1.22627723217 1.31648588181 1.3946685791 1.39466071129 1.31644952297 1.16612374783 1.11642682552 1.00000011921 1.0 1.09101593494 1.19807517529 1.28899335861 1.37265861034 1.37264609337 1.28894734383 1.14085042477 1.09095215797 1.0 1.0 1.03334474564 1.13917541504 1.23310470581 1.31401026249 1.31400632858 1.23304510117 1.08546853065 1.03327047825 1.00000011921 1.0 1.00016832352 1.08455550671 1.17411756516 1.24420118332 1.24415946007 1.17406725883 1.03064715862 1.00016474724 1.00000011921 1.0 1.00000011921 0.996477723122 1.0503385067 1.10427045822 1.10430061817 1.05025839806 1.00000011921 1.0 0.999999940395 
1.0 1.00000011921 0.996455192566 1.05044817924 1.10441863537 1.10440063477 1.0503872633 1.00000023842 1.0 1.0 0.999999940395 1.000172019 1.08462953568 1.17416357994 1.24418342113 1.24416947365 1.17410004139 1.03072118759 1.00016832352 1.0 1.0 1.05610048771 1.16369223595 1.26023089886 1.34611129761 1.34610426426 1.26018154621 1.10682356358 1.0560284853 1.00000011921 1.0 1.09105753899 1.19810593128 1.28906154633 1.37257087231 1.37256455421 1.28901970387 1.1408854723 1.09099364281 1.00000011921 1.0 1.11649596691 1.22628414631 1.3165037632 1.39458453655 1.39458215237 1.31647229195 1.16612958908 1.1164355278 1.00000011921 1.0 1.11648738384 1.22627723217 1.31648588181 1.39467644691 1.39466893673 1.31644952297 1.16612374783 1.11642682552 1.00000011921 1.0 1.09101593494 1.19807517529 1.28899335861 1.37266218662 1.37264943123 1.28894734383 1.14085042477 1.09095215797 1.0 1.0 1.03334474564 1.13917541504 1.23310470581 1.31401026249 1.31400632858 1.23304510117 1.08546853065 1.03327047825 1.00000011921 1.0 1.00016832352 1.08455550671 1.17411756516 1.24420118332 1.24415946007 1.17406725883 1.03064715862 1.00016474724 1.00000011921 1.0 1.00000011921 0.996477723122 1.0503385067 1.10427045822 1.10430061817 1.05025839806 1.00000011921 1.0 0.999999940395 
