13.9366922379 21.7163925171 29.3273220062 37.1784133911 45.6340255737 54.3878479004 62.8418807983 70.6917419434 78.3028106689 86.0830230713 13.898109436 21.4874019623 28.552072525 36.2758140564 45.2475624084 54.7762565613 63.7450141907 71.4658508301 78.5305786133 86.1214447021 13.8758211136 21.3104248047 28.0638771057 35.7088165283 44.98620224 55.0389060974 64.3121414185 71.9534988403 78.7066650391 86.1436462402 13.8575563431 21.2004413605 27.8121395111 35.4385261536 44.8737983704 55.151889801 64.582611084 72.2049789429 78.8162612915 86.161819458 13.8449001312 21.1466999054 27.6895809174 35.3191146851 44.8277320862 55.1981697083 64.7021408081 72.3274307251 78.8697967529 86.1744308472 13.844912529 21.1467342377 27.6896724701 35.3191871643 44.8277816772 55.1981124878 64.7020568848 72.3273391724 78.8697662354 86.1744232178 13.8575983047 21.2006416321 27.8125915527 35.4390182495 44.8739852905 55.1516838074 64.5821151733 72.2045211792 78.8160705566 86.161781311 13.87586689 21.3107681274 28.0646953583 35.7098274231 44.9868278503 55.0382957458 64.3111419678 71.9527130127 78.7063217163 86.1436004639 13.8981742859 21.4878864288 28.5537052155 36.2774581909 45.2484779358 54.7752838135 63.7434310913 71.464225769 78.5301208496 86.121383667 13.9368219376 21.7170181274 29.3291091919 37.1813163757 45.635307312 54.3866653442 62.8389587402 70.6901397705 78.3022232056 86.0829086304 
13.9366073608 21.7163105011 29.32746315 37.1785430908 45.6340560913 54.3878097534 62.8417549133 70.6916122437 78.3028869629 86.0830993652 13.8979730606 21.4874534607 28.5519485474 36.2739219666 45.2462425232 54.7775802612 63.7468986511 71.465965271 78.5305328369 86.1215896606 13.8755989075 21.3099708557 28.0618038177 35.7022666931 44.979888916 55.0452651978 64.3186798096 71.9555664062 78.7071228027 86.1438674927 13.8572225571 21.1989860535 27.806470871 35.4208831787 44.8582077026 55.1675491333 64.6002120972 72.2106246948 78.8177185059 86.162147522 13.8444766998 21.1443653107 27.6806659698 35.2911186218 44.8063011169 55.2197189331 64.7300720215 72.3363113403 78.8721160889 86.1748580933 13.8444871902 21.144405365 27.6807632446 35.2912025452 44.8063583374 55.2196502686 64.7299957275 72.336227417 78.8720855713 86.1748428345 13.8572654724 21.1991882324 27.806936264 35.4214172363 44.858417511 55.1673278809 64.5996780396 72.2101593018 78.8175125122 86.1621170044 13.8756437302 21.3103160858 28.0626373291 35.7033081055 44.9805641174 55.0445899963 64.3176498413 71.9547729492 78.7067871094 86.1438140869 13.8980407715 21.4879398346 28.5535888672 36.2755813599 45.2471656799 54.7765922546 63.7453079224 71.46434021 78.5300674438 86.1215209961 13.9367380142 21.7169361115 29.3292484283 37.1814613342 45.6353302002 54.3866386414 62.8388175964 70.6900100708 78.3023071289 86.0829620361 
13.9366073608 21.7163105011 29.32746315 37.1785392761 45.6340560913 54.3878173828 62.841758728 70.6916275024 78.3028793335 86.0830993652 13.8979711533 21.487449646 28.5519390106 36.2739143372 45.2462348938 54.7775840759 63.7469100952 71.4659729004 78.5305328369 86.1215896606 13.8755979538 21.3099689484 28.0617847443 35.7022438049 44.9798698425 55.0452690125 64.3187026978 71.955581665 78.7071304321 86.1438674927 13.8572216034 21.1989765167 27.8064422607 35.4208374023 44.8581848145 55.1675796509 64.6002502441 72.210647583 78.8177185059 86.162147522 13.8444728851 21.1443557739 27.6806278229 35.2910461426 44.8062515259 55.2197685242 64.730140686 72.3363494873 78.8721313477 86.1748580933 13.8444862366 21.1443901062 27.6807289124 35.2911300659 44.8063049316 55.2197036743 64.7300567627 72.3362579346 78.8720932007 86.1748504639 13.8572635651 21.1991767883 27.8069076538 35.4213638306 44.8583831787 55.167350769 64.5997238159 72.2101898193 78.817527771 86.1621170044 13.8756437302 21.3103160858 28.0626125336 35.703289032 44.9805526733 55.0445899963 64.3176803589 71.9548034668 78.70677948 86.1438140869 13.8980398178 21.4879360199 28.5535850525 36.2755699158 45.2471656799 54.7765960693 63.7453155518 71.4643478394 78.5300827026 86.1215209961 13.9367370605 21.7169342041 29.3292388916 37.1814575195 45.6353378296 54.3866424561 62.8388252258 70.6900024414 78.3023071289 86.0829620361 
13.9366073608 21.7163085938 29.3274536133 37.1785316467 45.6340560913 54.3878250122 62.841758728 70.691619873 78.3028869629 86.0830993652 13.8979721069 21.4874458313 28.5519275665 36.2739028931 45.2462348938 54.7775840759 63.7469177246 71.4659729004 78.5305328369 86.1215896606 13.8755979538 21.3099594116 28.0617713928 35.7022285461 44.9798660278 55.0452804565 64.3187179565 71.9556045532 78.7071228027 86.1438674927 13.8572206497 21.19896698 27.8064212799 35.4208145142 44.8581695557 55.1675987244 64.6002807617 72.2106704712 78.8177261353 86.1621627808 13.8444747925 21.1443462372 27.6806087494 35.2910041809 44.8062362671 55.219783783 64.7301940918 72.3363723755 78.8721466064 86.1748580933 13.8444843292 21.1443805695 27.6807022095 35.2910919189 44.8062896729 55.2197227478 64.7301025391 72.3362731934 78.8721160889 86.1748504639 13.8572626114 21.1991691589 27.8068847656 35.4213409424 44.8583755493 55.1673660278 64.5997467041 72.2102127075 78.817527771 86.1621246338 13.8756437302 21.3103084564 28.0626010895 35.7032699585 44.9805412292 55.0446052551 64.3176956177 71.9548034668 78.7067871094 86.1438140869 13.8980388641 21.4879302979 28.5535697937 36.2755584717 45.2471580505 54.7766036987 63.7453269958 71.4643707275 78.5300750732 86.1215209961 13.9367361069 21.7169303894 29.3292331696 37.1814498901 45.6353263855 54.3866462708 62.8388252258 70.6900253296 78.3023147583 86.0829772949 
13.9366054535 21.7163047791 29.3274478912 37.178527832 45.6340522766 54.3878288269 62.841758728 70.691619873 78.3028869629 86.0830993652 13.8979721069 21.4874420166 28.5519199371 36.2738952637 45.2462272644 54.7775878906 63.746925354 71.4659957886 78.5305328369 86.1215896606 13.8755960464 21.3099555969 28.0617542267 35.7022094727 44.9798660278 55.0452919006 64.3187332153 71.9556274414 78.7071380615 86.1438674927 13.857219696 21.1989574432 27.8064022064 35.4207839966 44.8581504822 55.1676139832 64.6003112793 72.21068573 78.817741394 86.1621627808 13.8444728851 21.1443328857 27.6805820465 35.2909622192 44.8062133789 55.2197990417 64.7302322388 72.3364028931 78.8721466064 86.1748580933 13.8444833755 21.1443729401 27.6806755066 35.2910423279 44.8062705994 55.2197494507 64.7301483154 72.3363037109 78.8721237183 86.1748504639 13.8572616577 21.1991615295 27.8068656921 35.4213142395 44.8583602905 55.1673851013 64.5997772217 72.2102279663 78.8175354004 86.1621246338 13.8756408691 21.3102989197 28.062582016 35.703250885 44.9805335999 55.0446205139 64.3177185059 71.954826355 78.7067947388 86.1438140869 13.8980388641 21.4879283905 28.553565979 36.2755470276 45.2471580505 54.7766036987 63.7453384399 71.4643630981 78.5300827026 86.1215209961 13.9367380142 21.7169284821 29.3292274475 37.1814422607 45.6353225708 54.3866500854 62.8388366699 70.6900253296 78.3023147583 86.0829772949 
13.9366054535 21.7163047791 29.3274440765 37.1785163879 45.6340560913 54.3878288269 62.8417663574 70.691619873 78.3028945923 86.0830993652 13.8979701996 21.4874362946 28.551908493 36.2738838196 45.246219635 54.7775993347 63.7469367981 71.4659957886 78.5305404663 86.1215896606 13.8755941391 21.3099498749 28.0617332458 35.7021903992 44.9798545837 55.0452919006 64.3187637329 71.9556350708 78.7071456909 86.1438674927 13.857219696 21.1989479065 27.8063716888 35.420753479 44.8581352234 55.1676292419 64.6003417969 72.2107162476 78.8177490234 86.1621627808 13.8444719315 21.144323349 27.6805515289 35.2909240723 44.806186676 55.2198143005 64.7302627563 72.3364257812 78.8721618652 86.1748580933 13.8444824219 21.1443595886 27.6806468964 35.2910079956 44.8062515259 55.2197570801 64.730178833 72.3363342285 78.8721389771 86.1748580933 13.857260704 21.1991539001 27.8068408966 35.4212799072 44.8583450317 55.1674003601 64.5998153687 72.2102508545 78.8175430298 86.1621246338 13.8756418228 21.3102970123 28.0625686646 35.7032318115 44.9805221558 55.0446128845 64.3177261353 71.9548416138 78.7067947388 86.1438140869 13.8980379105 21.4879226685 28.5535545349 36.2755393982 45.2471542358 54.7766113281 63.7453460693 71.4643783569 78.5300827026 86.1215209961 13.9367380142 21.7169284821 29.3292274475 37.1814346313 45.6353225708 54.3866500854 62.8388404846 70.6900253296 78.3023147583 86.0829772949 
13.9366035461 21.7163028717 29.3274383545 37.1785125732 45.6340522766 54.3878326416 62.8417854309 70.691619873 78.3028869629 86.0830993652 13.8979701996 21.4874343872 28.5518932343 36.2738723755 45.246219635 54.7775993347 63.7469482422 71.4660186768 78.5305404663 86.1215896606 13.8755941391 21.3099422455 28.0617237091 35.7021751404 44.9798469543 55.0453033447 64.3187789917 71.955657959 78.7071456909 86.1438674927 13.857219696 21.1989421844 27.8063545227 35.4207229614 44.8581199646 55.1676483154 64.6003723145 72.2107543945 78.8177566528 86.1621627808 13.8444709778 21.1443119049 27.6805210114 35.2908821106 44.8061790466 55.2198410034 64.7303009033 72.3364562988 78.872177124 86.1748580933 13.8444824219 21.1443500519 27.6806201935 35.2909660339 44.8062286377 55.2197723389 64.7302246094 72.3363723755 78.8721466064 86.1748504639 13.8572597504 21.1991443634 27.8068161011 35.4212532043 44.8583221436 55.1674194336 64.599822998 72.2102813721 78.8175582886 86.1621246338 13.8756408691 21.3102893829 28.0625514984 35.703212738 44.9805145264 55.0446205139 64.3177566528 71.954864502 78.7068099976 86.1438140869 13.8980379105 21.4879207611 28.5535430908 36.2755279541 45.2471504211 54.7766189575 63.7453651428 71.4643859863 78.530090332 86.1215209961 13.9367351532 21.7169265747 29.3292217255 37.1814308167 45.6353149414 54.3866500854 62.838848114 70.6900253296 78.3023147583 86.0829772949 
