2.2652349472 3.91099071503 6.86627388 9.60252857208 11.1337842941 11.1325778961 9.5966501236 6.8587064743 3.90414524078 2.26512002945 2.29097700119 5.11376810074 9.86555862427 14.2946596146 16.7557582855 16.7538204193 14.2852220535 9.85338687897 5.1025633812 2.29066038132 2.31514954567 5.99406528473 11.9226741791 17.4099388123 20.5690689087 20.5665893555 17.3980083466 11.9076929092 5.97982549667 2.31464600563 2.33180618286 6.51142597198 13.0762653351 19.1011333466 22.5659942627 22.5632801056 19.0880680084 13.0597858429 6.49548816681 2.33117580414 2.34071016312 6.76843738556 13.6392908096 19.9015808105 23.4954223633 23.4926147461 19.8880290985 13.6221170425 6.75168991089 2.34001207352 2.34070324898 6.76823711395 13.6388587952 19.9009685516 23.4947185516 23.4919128418 19.8874187469 13.6216926575 6.75149059296 2.34000563622 2.33177042007 6.51039838791 13.0739879608 19.0978298187 22.5621337891 22.559425354 19.0847892761 13.0575332642 6.49447536469 2.33114075661 2.31509757042 5.99228096008 11.9186782837 17.40391922 20.5611534119 20.5587520599 17.3920574188 11.9037628174 5.97807073593 2.31459403038 2.29090595245 5.11111593246 9.85907745361 14.2850322723 16.7435741425 16.7416915894 14.2757740021 9.84700870514 5.09997797012 2.2905921936 2.26518583298 3.90758395195 6.85743379593 9.58744335175 11.1151676178 11.1142616272 9.58158493042 6.85015106201 3.90083837509 2.26507163048 
2.26527929306 3.85555696487 6.75128555298 9.46168899536 10.9846858978 10.9834804535 9.45585441589 6.74382019043 3.84889817238 2.26516747475 2.29042124748 5.04971027374 9.74421787262 14.1598052979 16.6299495697 16.6279850006 14.1503562927 9.73213481903 5.03869485855 2.290112257 2.31427764893 5.93398857117 11.8125829697 17.2995910645 20.5221557617 20.5195770264 17.287569046 11.7976789474 5.91991329193 2.31378436089 2.33107972145 6.45942926407 12.9832582474 19.0460281372 22.6337337494 22.6308612823 19.0326805115 12.9668292999 6.44362735748 2.33045840263 2.34012293816 6.72301149368 13.5596580505 19.8888988495 23.6309432983 23.6279659271 19.8749637604 13.5425014496 6.70637750626 2.33943367004 2.34011602402 6.72280597687 13.5592184067 19.8882579803 23.6301898956 23.6272125244 19.8743247986 13.5420665741 6.70617580414 2.33942675591 2.33104372025 6.45838451385 12.9809465408 19.0426044464 22.6296348572 22.6267738342 19.0292854309 12.9645452499 6.44259786606 2.33042359352 2.31422567368 5.93219232559 11.8085603714 17.2934570312 20.5140228271 20.5115242004 17.2815074921 11.7937307358 5.91814470291 2.31373262405 2.29035162926 5.04706668854 9.73771858215 14.1501541138 16.6175479889 16.615650177 14.1409025192 9.7257566452 5.03612518311 2.29004645348 2.2652323246 3.85223817825 6.74260520935 9.44662284851 10.9661540985 10.9652481079 9.44079875946 6.73546791077 3.84569358826 2.26512122154 
2.26528072357 3.85216999054 6.74422979355 9.45297050476 10.9752826691 10.9740791321 9.44713878632 6.73677062988 3.84552288055 2.26516914368 2.29038453102 5.04574871063 9.73664283752 14.1511497498 16.6213417053 16.6193771362 14.141702652 9.72456645966 5.03474473953 2.2900762558 2.31422352791 5.93026828766 11.8057222366 17.2920951843 20.5161991119 20.5136165619 17.2800674438 11.7908248901 5.91620159149 2.31373119354 2.33102989197 6.45630455017 12.9776420593 19.0416812897 22.6371765137 22.6342964172 19.0283184052 12.9612140656 6.44051074982 2.33040952682 2.340092659 6.72039651871 13.5552120209 19.8883209229 23.643075943 23.6400775909 19.8743591309 13.5380535126 6.70376968384 2.33940386772 2.34008550644 6.72018957138 13.554766655 19.8876743317 23.6423072815 23.6393146515 19.8737163544 13.5376205444 6.70356655121 2.339397192 2.3309943676 6.45525789261 12.9753274918 19.0382423401 22.6330490112 22.6301784515 19.0249137878 12.9589290619 6.43947982788 2.33037495613 2.31417179108 5.9284696579 11.8017034531 17.2859554291 20.5080451965 20.5055465698 17.2740058899 11.7868785858 5.91443252563 2.31367874146 2.29031538963 5.04310417175 9.73014640808 14.1414957047 16.6089344025 16.6070365906 14.1322460175 9.71818828583 5.03217601776 2.29001045227 2.26523423195 3.84885621071 6.73556089401 9.43790531158 10.9567594528 10.9558534622 9.43208408356 6.72842884064 3.84232354164 2.26512289047 
2.26528096199 3.85188698769 6.7436413765 9.4522485733 10.9745073318 10.9733028412 9.44641780853 6.73618459702 3.84524059296 2.2651693821 2.29038167 5.04541921616 9.73601722717 14.150434494 16.6206321716 16.6186637878 14.1409873962 9.72394275665 5.03441667557 2.29007315636 2.31421899796 5.92996454239 11.8051662445 17.2914791107 20.5156784058 20.513092041 17.2794551849 11.790268898 5.9158987999 2.31372690201 2.33102631569 6.45606136322 12.9772119522 19.0413589478 22.6374588013 22.6345806122 19.0279998779 12.9607839584 6.44026756287 2.33040642738 2.34009051323 6.72020339966 13.5548973083 19.8883857727 23.6444625854 23.6414661407 19.8744182587 13.5377416611 6.70357704163 2.33940243721 2.34008359909 6.71999740601 13.5544557571 19.8877372742 23.6436958313 23.6407012939 19.8737773895 13.5373048782 6.70337343216 2.33939504623 2.33099079132 6.45501422882 12.974896431 19.0379219055 22.6333351135 22.6304588318 19.0245933533 12.9584980011 6.43923616409 2.33037137985 2.31416678429 5.92816448212 11.8011417389 17.2853393555 20.507522583 20.5050201416 17.2733860016 11.7863168716 5.91412973404 2.31367444992 2.29031229019 5.04277515411 9.72951984406 14.1407785416 16.6082210541 16.6063213348 14.131529808 9.71756362915 5.0318479538 2.29000735283 2.26523447037 3.84857320786 6.73497533798 9.43718528748 10.9559841156 10.9550790787 9.4313621521 6.72784566879 3.84204173088 2.26512289047 
2.26528120041 3.85186171532 6.74359273911 9.45219326019 10.9744491577 10.9732446671 9.44636249542 6.73613595963 3.84521532059 2.26516962051 2.29038143158 5.04539299011 9.73597335815 14.1503896713 16.6205883026 16.6186237335 14.1409425735 9.72389698029 5.03439092636 2.29007291794 2.31421899796 5.9299454689 11.8051347733 17.2914543152 20.515668869 20.5130882263 17.2794322968 11.7902364731 5.91588020325 2.31372666359 2.33102655411 6.45605278015 12.9772043228 19.041387558 22.6375656128 22.6346874237 19.0280265808 12.9607772827 6.44026041031 2.33040642738 2.34009122849 6.72020435333 13.5549125671 19.8884716034 23.6447486877 23.641752243 19.8745040894 13.5377559662 6.70357894897 2.33940243721 2.34008407593 6.71999835968 13.5544691086 19.8878250122 23.6439819336 23.6409854889 19.8738632202 13.537320137 6.70337486267 2.33939528465 2.33099102974 6.45500612259 12.9748907089 19.0379486084 22.6334400177 22.630563736 19.0246200562 12.9584903717 6.4392285347 2.33037161827 2.31416678429 5.9281463623 11.8011131287 17.2853164673 20.507516861 20.5050163269 17.2733612061 11.7862901688 5.91411113739 2.31367468834 2.29031205177 5.04274892807 9.72947406769 14.1407337189 16.6081771851 16.6062774658 14.131483078 9.71751976013 5.03182172775 2.29000711441 2.26523470879 3.8485481739 6.73492670059 9.43712997437 10.9559249878 10.9550209045 9.43130683899 6.7277970314 3.84201741219 2.26512360573 
2.26528143883 3.85186624527 6.74360752106 9.4522151947 10.9744758606 10.9732704163 9.44638442993 6.73614931107 3.84522032738 2.26517009735 2.29038167 5.04540300369 9.73599529266 14.1504230499 16.6206283569 16.6186637878 14.1409749985 9.72392082214 5.03439950943 2.29007339478 2.31421899796 5.92995977402 11.8051700592 17.2915000916 20.5157260895 20.5131416321 17.2794799805 11.7902708054 5.9158949852 2.31372690201 2.33102726936 6.45607280731 12.9772481918 19.0414543152 22.6376590729 22.6347770691 19.028093338 12.9608192444 6.44027900696 2.33040714264 2.34009194374 6.72022724152 13.5549602509 19.8885612488 23.6448841095 23.6418914795 19.8745956421 13.5378074646 6.70360088348 2.33940291405 2.34008479118 6.72002077103 13.554520607 19.8879127502 23.64412117 23.6411247253 19.8739509583 13.5373697281 6.70339727402 2.33939623833 2.330991745 6.45502567291 12.9749326706 19.0380153656 22.6335315704 22.630657196 19.024684906 12.9585342407 6.43924760818 2.33037185669 2.31416726112 5.92816019058 11.8011474609 17.285364151 20.5075702667 20.5050697327 17.2734127045 11.7863206863 5.91412496567 2.31367468834 2.29031252861 5.04275894165 9.72949695587 14.1407699585 16.608215332 16.6063194275 14.131518364 9.71754169464 5.03183078766 2.29000735283 2.26523470879 3.84855294228 6.73494052887 9.43715190887 10.9559516907 10.9550476074 9.43132972717 6.72781038284 3.84202170372 2.26512384415 
2.26528143883 3.85187482834 6.74362802505 9.45224666595 10.9745111465 10.9733066559 9.44641780853 6.7361702919 3.84522867203 2.26517009735 2.29038167 5.04541730881 9.73602771759 14.1504688263 16.6206741333 16.6187114716 14.1410179138 9.72395133972 5.03441381454 2.29007339478 2.31421971321 5.9299788475 11.8052082062 17.2915592194 20.515794754 20.5132064819 17.2795372009 11.7903108597 5.91591358185 2.31372761726 2.33102798462 6.45609474182 12.9772958755 19.0415267944 22.6377487183 22.6348686218 19.0281620026 12.9608697891 6.44030189514 2.33040809631 2.34009242058 6.72025299072 13.5550174713 19.8886489868 23.6450004578 23.6420040131 19.8746814728 13.5378608704 6.70362663269 2.33940386772 2.34008550644 6.72004652023 13.5545740128 19.8880004883 23.644235611 23.641242981 19.8740386963 13.5374231339 6.70342350006 2.33939695358 2.33099246025 6.4550485611 12.9749822617 19.0380859375 22.6336231232 22.6307468414 19.0247592926 12.9585838318 6.43927049637 2.33037233353 2.31416773796 5.92817878723 11.8011856079 17.2854213715 20.5076351166 20.5051326752 17.2734680176 11.786362648 5.91414356232 2.31367516518 2.29031252861 5.04277276993 9.72953033447 14.1408119202 16.6082630157 16.6063652039 14.1315612793 9.71757411957 5.0318441391 2.29000759125 2.26523423195 3.84856152534 6.7349615097 9.4371843338 10.955988884 10.9550848007 9.4313621521 6.72783231735 3.84203052521 2.26512336731 
