14.004737854 13.8090171814 13.0914440155 11.9498653412 11.1673984528 11.1680612564 11.9526891708 13.0939493179 13.8102388382 14.004743576 21.9948043823 21.6422042847 20.6198730469 19.0000572205 17.905834198 17.9066448212 19.0041770935 20.6233711243 21.6440429688 21.9948768616 29.9848480225 29.5646915436 28.6337108612 27.3177337646 26.4065914154 26.407289505 27.3210697174 28.6366386414 29.5665416718 29.9849739075 37.9851875305 37.6689605713 37.0611686707 36.2696609497 35.7263832092 35.7268066406 36.2716331482 37.0629959106 37.6702270508 37.9853096008 45.9997177124 45.8819770813 45.672580719 45.4119262695 45.2339363098 45.2340736389 45.412563324 45.6731796265 45.882434845 45.9997711182 54.0203323364 54.1387329102 54.3493232727 54.611415863 54.7905578613 54.7904090881 54.6107673645 54.3487052917 54.1382789612 54.0202865601 62.0348320007 62.3514862061 62.9603309631 63.7532691956 64.2976150513 64.297203064 63.7513046265 62.9585037231 62.3502197266 62.0346984863 70.0351333618 70.4553527832 71.3869934082 72.7046813965 73.6159286499 73.6152954102 72.7014007568 71.3841018677 70.4535140991 70.0350112915 78.0251693726 78.3773345947 79.3994674683 81.0199890137 82.1146774292 82.1138381958 81.0159988403 79.395942688 78.3755111694 78.0250930786 86.0152587891 86.2105026245 86.9264526367 88.0650253296 88.842880249 88.8428268433 88.0626449585 86.9239120483 86.2092514038 86.0152587891 
14.0014667511 13.7859420776 13.049238205 11.8768529892 11.0817289352 11.0824022293 11.879743576 13.0518045425 13.7872018814 14.0014877319 21.9909934998 21.6087760925 20.5420970917 18.8468723297 17.6838703156 17.6847648621 18.8511924744 20.545747757 21.6106948853 21.9910831451 29.9811134338 29.5275592804 28.5441551208 27.1276397705 26.1204414368 26.1212215424 27.1312732697 28.5472793579 29.5295181274 29.9812583923 37.9824142456 37.6400108337 36.9891700745 36.1271362305 35.5271110535 35.5275917053 36.1292991638 36.9911422729 37.641368866 37.9825592041 45.9986686707 45.8707275391 45.6441192627 45.359954834 45.1645812988 45.1647338867 45.360660553 45.64478302 45.8712120056 45.9987220764 54.0213813782 54.1500244141 54.3778991699 54.6636199951 54.8603858948 54.8602104187 54.662902832 54.3772277832 54.1495361328 54.0213317871 62.0376014709 62.3804512024 63.0323867798 63.8959197998 64.4970779419 64.49659729 63.8937644958 63.0304107666 62.3791046143 62.0374603271 70.0388717651 70.4924850464 71.4765319824 72.8948669434 73.9019470215 73.9012527466 72.8913040161 71.4734420776 70.490524292 70.038734436 78.0289764404 78.4107437134 79.4771575928 81.1730422974 82.3362960815 82.3353881836 81.1688690186 79.473487854 78.408821106 78.0288848877 86.0185089111 86.233543396 86.96849823 88.1378250122 88.9283218384 88.9282531738 88.1353759766 86.9658737183 86.2322540283 86.0184860229 
14.0011177063 13.7834625244 13.0447320938 11.8692131042 11.0730476379 11.0737228394 11.8721103668 13.0473136902 13.7847270966 14.0011444092 21.9905738831 21.6051006317 20.5336017609 18.8303585052 17.6608200073 17.6617202759 18.8347015381 20.5372676849 21.6070289612 21.9906692505 29.9807052612 29.5234146118 28.5338993073 27.1058197021 26.0822372437 26.083032608 27.1094913483 28.5370388031 29.5253868103 29.9808559418 37.9821014404 37.6367530823 36.9810218811 36.1087760925 35.4987068176 35.4991912842 36.1109695435 36.9830055237 37.6381111145 37.9822463989 45.9985427856 45.869468689 45.6408958435 45.3530044556 45.1547164917 45.1548728943 45.3537139893 45.6415634155 45.8699569702 45.9986038208 54.0215072632 54.1512947083 54.3811531067 54.6706085205 54.8703575134 54.8701820374 54.6698875427 54.3804740906 54.150806427 54.021446228 62.0379180908 62.3837203979 63.0405540466 63.9142990112 64.5254898071 64.5250015259 63.912109375 63.0385627747 62.3823661804 62.0377731323 70.039276123 70.496635437 71.4867935181 72.9167022705 73.9400863647 73.9393768311 72.9130859375 71.4836807251 70.4946517944 70.0391235352 78.0293884277 78.4144210815 79.4856338501 81.1895446777 82.3593139648 82.3583984375 81.1853485107 79.4819412231 78.4124908447 78.029296875 86.0188674927 86.2360153198 86.9729995728 88.1454315186 88.9369812012 88.9369277954 88.1430053711 86.9703521729 86.2347335815 86.0188369751 
14.0010538101 13.7830104828 13.0439033508 11.8678178787 11.0714664459 11.0721416473 11.8707151413 13.0464849472 13.7842760086 14.0010795593 21.9905014038 21.6044330597 20.532043457 18.8273200989 17.6566848755 17.657585144 18.8316650391 20.5357131958 21.6063613892 21.9905929565 29.9806365967 29.5226631165 28.5320281982 27.1017990112 26.0747852325 26.075586319 27.1054782867 28.5351715088 29.5246353149 29.9807853699 37.98204422 37.6361618042 36.9795341492 36.1053771973 35.4930267334 35.493522644 36.1075744629 36.9815216064 37.6375198364 37.9821891785 45.9985313416 45.8692359924 45.6403274536 45.3516807556 45.1528282166 45.1529808044 45.352394104 45.6409912109 45.8697319031 45.998588562 54.0215263367 54.1515235901 54.3817253113 54.6719474792 54.8722839355 54.8721008301 54.6712150574 54.3810462952 54.1510276794 54.0214691162 62.0379676819 62.3843154907 63.0420379639 63.9177055359 64.5311660767 64.5306854248 63.915512085 63.0400505066 62.3829498291 62.0378227234 70.0393447876 70.4973831177 71.4886474609 72.920715332 73.947517395 73.9468078613 72.9171066284 71.4855499268 70.4954147339 70.0391998291 78.0294723511 78.4150848389 79.4871826172 81.1925811768 82.3634414673 82.3625106812 81.1883926392 79.4834899902 78.4131546021 78.0293731689 86.0189285278 86.2364730835 86.973815918 88.1468276978 88.9385757446 88.9384994507 88.1443862915 86.9711914062 86.2351760864 86.0189056396 
14.0010385513 13.7828893661 13.0436792374 11.867433548 11.0710248947 11.0716991425 11.8703327179 13.0462589264 13.784154892 14.0010623932 21.9904823303 21.6042537689 20.5316257477 18.8264942169 17.6555557251 17.6564598083 18.8308410645 20.5352916718 21.6061840057 21.9905738831 29.9806213379 29.5224590302 28.5315265656 27.100725174 26.0727462769 26.0735473633 27.1044063568 28.5346736908 29.5244312286 29.9807682037 37.9820289612 37.6360015869 36.9791374207 36.104473114 35.491443634 35.49193573 36.1066703796 36.981136322 37.6373672485 37.9821739197 45.9985198975 45.8691825867 45.6401748657 45.3513374329 45.1523246765 45.1524810791 45.3520507812 45.6408462524 45.8696670532 45.9985771179 54.0215377808 54.1515808105 54.3818702698 54.6723022461 54.872795105 54.8726158142 54.6715621948 54.3811988831 54.1510848999 54.0214767456 62.037979126 62.3844642639 63.0424385071 63.9186096191 64.5327377319 64.5322570801 63.9164161682 63.0404510498 62.3831100464 62.0378341675 70.0393753052 70.4975738525 71.489151001 72.9217910767 73.9495697021 73.9488372803 72.9181671143 71.4860534668 70.4956054688 70.0392227173 78.0294952393 78.4152603149 79.4876174927 81.193397522 82.3645706177 82.3636398315 81.189201355 79.4839096069 78.4133300781 78.0294036865 86.0189437866 86.236579895 86.974067688 88.1472244263 88.9390487671 88.9389419556 88.1447601318 86.9713973999 86.2352981567 86.018913269 
14.0010318756 13.7828483582 13.0435991287 11.8672933578 11.070857048 11.0715312958 11.8701915741 13.0461769104 13.7841157913 14.0010566711 21.9904747009 21.6041927338 20.5314788818 18.8261985779 17.6551475525 17.6560535431 18.8305454254 20.5351448059 21.6061210632 21.990568161 29.9806118011 29.5223922729 28.5313510895 27.1003475189 26.0720157623 26.0728168488 27.1040248871 28.5344982147 29.5243644714 29.980758667 37.9820289612 37.6359481812 36.9790039062 36.1041488647 35.4908790588 35.4913673401 36.1063461304 36.9809913635 37.6373100281 37.9821739197 45.9985198975 45.8691635132 45.6401329041 45.3512153625 45.1521606445 45.1523094177 45.3519248962 45.6407852173 45.8696517944 45.9985733032 54.0215339661 54.1515960693 54.3819236755 54.6724205017 54.8729705811 54.872795105 54.6716918945 54.3812446594 54.1511116028 54.0214729309 62.0379829407 62.3845291138 63.0425682068 63.9189376831 64.5333099365 64.5328216553 63.9167404175 63.0405807495 62.3831520081 62.0378417969 70.0393753052 70.4976501465 71.4893417358 72.9221801758 73.9502868652 73.949546814 72.9185638428 71.4862365723 70.4956817627 70.0392150879 78.0295028687 78.4153289795 79.4877624512 81.1936950684 82.3649520874 82.3640441895 81.1895065308 79.4840621948 78.4133834839 78.0294189453 86.018951416 86.2366256714 86.9741287231 88.1473693848 88.9392242432 88.9391021729 88.1449050903 86.971496582 86.2353363037 86.0189285278 
14.0010318756 13.782831192 13.0435619354 11.8672246933 11.0707712173 11.0714464188 11.8701248169 13.0461425781 13.7840976715 14.0010566711 21.9904708862 21.6041660309 20.5314121246 18.8260612488 17.654964447 17.6558666229 18.830411911 20.5350799561 21.6060943604 21.9905662537 29.9806060791 29.5223617554 28.5312728882 27.1001720428 26.0716953278 26.0724983215 27.1038589478 28.5344104767 29.5243339539 29.9807567596 37.9820289612 37.635925293 36.9789390564 36.1040077209 35.4906272888 35.4911155701 36.1062049866 36.9809303284 37.6372909546 37.9821739197 45.9985198975 45.8691596985 45.6401100159 45.3511619568 45.1520881653 45.1522369385 45.3518753052 45.6407699585 45.869644165 45.9985733032 54.0215339661 54.1516075134 54.3819465637 54.6724777222 54.873046875 54.8728713989 54.6717414856 54.3812599182 54.1511192322 54.0214767456 62.0379867554 62.3845443726 63.0426368713 63.9190711975 64.5335617065 64.5330657959 63.9168777466 63.0406494141 62.3831863403 62.0378417969 70.0393829346 70.4976882935 71.4894180298 72.9223480225 73.9505996704 73.9498672485 72.9187164307 71.4863128662 70.4957199097 70.0392227173 78.0295028687 78.4153594971 79.4878387451 81.1938247681 82.3651504517 82.3642272949 81.1896286011 79.4841156006 78.4134140015 78.0294189453 86.0189590454 86.2366333008 86.9741592407 88.1474456787 88.9393005371 88.939201355 88.1449661255 86.9715042114 86.2353515625 86.0189285278 
