2.26485800743 3.83320116997 6.69330358505 9.39963054657 10.9619865417 10.9607505798 9.39370155334 6.68592214584 3.82663106918 2.2647497654 2.29092431068 5.03388118744 9.70811843872 14.1902256012 16.7355251312 16.7335109711 14.1804924011 9.6960105896 5.02292919159 2.29061317444 2.31515908241 5.92494821548 11.8141126633 17.3787250519 20.7011470795 20.6984996796 17.3663673401 11.7991333008 5.91088104248 2.31466126442 2.33172464371 6.45897722244 13.0016469955 19.1424674988 22.8378734589 22.8349323273 19.1287765503 12.9851369858 6.44313955307 2.3311009407 2.3407998085 6.7272939682 13.5853691101 19.9911327362 23.8450107574 23.8419551849 19.9768486023 13.5681371689 6.71061182022 2.34010767937 2.34079265594 6.72708272934 13.5849199295 19.9904785156 23.8442459106 23.8411903381 19.9762020111 13.5676937103 6.71040391922 2.34010028839 2.33168888092 6.45790529251 12.9992876053 19.1389884949 22.8337116241 22.8307762146 19.1253433228 12.9828100204 6.44208526611 2.33106565475 2.31510734558 5.92311048508 11.8099899292 17.3724727631 20.6926937103 20.6901569366 17.3602046967 11.7951002121 5.90907907486 2.31460976601 2.29085087776 5.03120040894 9.70144367218 14.1802568436 16.7226600647 16.7207279205 14.1707582474 9.68948745728 5.02034187317 2.29054355621 2.26481246948 3.82989788055 6.68467235565 9.38426685333 10.9427728653 10.9418802261 9.37833595276 6.67770338058 3.82347178459 2.26470446587 
2.26485776901 3.83228302002 6.69137477875 9.39719104767 10.9592657089 10.9580307007 9.39126110077 6.68399429321 3.82571554184 2.26474928856 2.29091310501 5.03274488449 9.70590400696 14.1875972748 16.7327880859 16.7307720184 14.1778659821 9.69379806519 5.02179670334 2.29060196877 2.31513953209 5.92379045486 11.8119020462 17.376077652 20.698595047 20.6959514618 17.3637180328 11.7969236374 5.90972661972 2.31464219093 2.33170437813 6.45788669586 12.999581337 19.1402168274 22.8368587494 22.8339118958 19.1265239716 12.9830722809 6.44205093384 2.33108115196 2.3407793045 6.72627353668 13.5834531784 19.9894008636 23.8465194702 23.843454361 19.9751148224 13.5662250519 6.70959568024 2.34008741379 2.34077215195 6.72606182098 13.5830030441 19.9887466431 23.8457489014 23.8426856995 19.9744644165 13.5657787323 6.7093873024 2.34008049965 2.33166837692 6.45681381226 12.997218132 19.1367397308 22.8326873779 22.8297481537 19.1230888367 12.9807462692 6.44099712372 2.33104610443 2.31508755684 5.92195224762 11.8077774048 17.3698272705 20.6901473999 20.6876049042 17.3575572968 11.792889595 5.9079246521 2.31458997726 2.29083919525 5.03006458282 9.69923019409 14.1776294708 16.7199172974 16.7179870605 14.1681308746 9.68727874756 5.01920938492 2.29053211212 2.26481246948 3.82898139954 6.68274450302 9.38182830811 10.9400529861 10.9391613007 9.37589645386 6.67577934265 3.8225581646 2.26470422745 
2.26485800743 3.83229422569 6.69140338898 9.39723110199 10.9593133926 10.9580745697 9.39130115509 6.68402099609 3.82572650909 2.26474952698 2.29091310501 5.03276157379 9.7059431076 14.1876487732 16.732843399 16.7308292389 14.1779165268 9.69383621216 5.02181339264 2.29060196877 2.31514000893 5.92381238937 11.8119468689 17.3761405945 20.6986675262 20.6960201263 17.3637828827 11.7969703674 5.90974807739 2.31464219093 2.33170509338 6.45791244507 12.9996347427 19.140291214 22.8369445801 22.8339996338 19.1266021729 12.9831256866 6.44207668304 2.33108186722 2.34078001976 6.72630214691 13.5835123062 19.989484787 23.846622467 23.8435611725 19.9751968384 13.5662841797 6.70962238312 2.34008789062 2.34077310562 6.72608995438 13.5830583572 19.9888305664 23.8458538055 23.8427963257 19.9745502472 13.5658378601 6.70941448212 2.34008097649 2.3316693306 6.45683908463 12.9972734451 19.1368122101 22.8327770233 22.8298339844 19.123167038 12.9808006287 6.44102334976 2.33104658127 2.31508803368 5.92197418213 11.8078212738 17.3698883057 20.6902217865 20.6876716614 17.3576202393 11.7929372787 5.90794563293 2.3145904541 2.29083943367 5.03008127213 9.69926834106 14.1776800156 16.7199745178 16.718044281 14.168182373 9.68731594086 5.01922702789 2.29053235054 2.26481246948 3.82899236679 6.68277215958 9.38186645508 10.9400997162 10.9392051697 9.37593460083 6.67580747604 3.82256937027 2.26470446587 
2.26485800743 3.8323059082 6.69142818451 9.39726829529 10.959356308 10.9581193924 9.39134025574 6.68404865265 3.8257381916 2.26474952698 2.29091358185 5.03277921677 9.7059803009 14.1876983643 16.7328987122 16.7308826447 14.1779651642 9.69387531281 5.02183103561 2.2906024456 2.31514024734 5.92383432388 11.8119955063 17.376203537 20.6987380981 20.6960906982 17.3638439178 11.7970161438 5.90977096558 2.31464290619 2.33170604706 6.45793819427 12.9996862411 19.1403656006 22.8370380402 22.8340873718 19.1266765594 12.9831800461 6.44210243225 2.33108258247 2.34078097343 6.72632932663 13.5835695267 19.989566803 23.8467292786 23.843667984 19.9752807617 13.5663404465 6.70965051651 2.3400888443 2.34077358246 6.72611761093 13.5831184387 19.988910675 23.8459606171 23.8429031372 19.9746303558 13.5658931732 6.70944261551 2.34008169174 2.33167004585 6.45686531067 12.9973258972 19.1368846893 22.8328609467 22.8299236298 19.1232395172 12.9808530807 6.44104814529 2.33104729652 2.31508874893 5.92199611664 11.8078718185 17.3699531555 20.6902866364 20.6877422333 17.3576831818 11.7929801941 5.90796804428 2.31459116936 2.29083967209 5.0300989151 9.69930744171 14.1777305603 16.7200298309 16.7180995941 14.1682338715 9.68735408783 5.01924371719 2.29053282738 2.2648127079 3.82900333405 6.68279981613 9.3819065094 10.9401435852 10.939250946 9.37597370148 6.6758351326 3.82258009911 2.26470446587 
2.26485824585 3.83231663704 6.69145679474 9.39730834961 10.9593992233 10.9581651688 9.39137840271 6.68407535553 3.82574939728 2.2647497654 2.29091358185 5.03279685974 9.7060213089 14.1877479553 16.7329559326 16.7309398651 14.1780176163 9.69391345978 5.02184820175 2.29060268402 2.31514072418 5.92385673523 11.8120412827 17.3762664795 20.6988048553 20.6961593628 17.3639087677 11.7970628738 5.90979242325 2.31464338303 2.3317065239 6.45796346664 12.9997444153 19.1404418945 22.8371238708 22.8341789246 19.1267490387 12.9832324982 6.44212818146 2.33108305931 2.34078145027 6.72635746002 13.5836267471 19.9896507263 23.8468379974 23.8437767029 19.9753646851 13.5663986206 6.70967817307 2.34008908272 2.3407740593 6.72614622116 13.5831756592 19.9889984131 23.8460655212 23.8430137634 19.9747123718 13.565955162 6.70946979523 2.34008193016 2.33167076111 6.45689153671 12.9973802567 19.1369628906 22.8329524994 22.8300132751 19.1233119965 12.9809064865 6.44107341766 2.33104777336 2.31508922577 5.92201805115 11.8079166412 17.370016098 20.6903553009 20.6878108978 17.3577442169 11.7930278778 5.90798997879 2.31459116936 2.29084014893 5.03011655807 9.69934463501 14.177781105 16.7200870514 16.7181549072 14.1682844162 9.68739032745 5.01926136017 2.29053282738 2.2648127079 3.82901501656 6.68282604218 9.38194465637 10.9401874542 10.9392967224 9.37601280212 6.67586135864 3.82259178162 2.26470470428 
2.26485824585 3.83232831955 6.69148349762 9.39734649658 10.959444046 10.9582099915 9.39141654968 6.68410301208 3.82576036453 2.2647497654 2.29091405869 5.0328130722 9.70605754852 14.1877994537 16.7330112457 16.7309951782 14.178068161 9.6939535141 5.02186632156 2.29060316086 2.31514143944 5.9238781929 11.812087059 17.3763275146 20.6988754272 20.6962299347 17.3639717102 11.7971067429 5.90981388092 2.31464362144 2.33170700073 6.45798873901 12.9997940063 19.1405181885 22.8372173309 22.8342685699 19.1268234253 12.9832859039 6.44215297699 2.3310842514 2.34078240395 6.72638463974 13.5836849213 19.989730835 23.846944809 23.8438816071 19.9754447937 13.5664548874 6.70970535278 2.34009027481 2.34077501297 6.7261724472 13.5832338333 19.9890766144 23.8461742401 23.8431186676 19.9747962952 13.5660114288 6.70949840546 2.34008288383 2.33167147636 6.45691633224 12.9974336624 19.1370372772 22.8330402374 22.8301010132 19.1233882904 12.9809589386 6.44109916687 2.33104896545 2.31508970261 5.92203950882 11.8079624176 17.3700809479 20.6904277802 20.6878814697 17.3578090668 11.7930736542 5.90801143646 2.31459164619 2.29084014893 5.03013420105 9.69938373566 14.1778316498 16.7201385498 16.7182121277 14.1683349609 9.68742847443 5.01927804947 2.2905330658 2.26481294632 3.82902598381 6.68285369873 9.38198280334 10.9402341843 10.9393415451 9.37605190277 6.6758890152 3.82260227203 2.2647049427 
2.26485848427 3.8323392868 6.6915102005 9.39738559723 10.9594907761 10.9582557678 9.39145469666 6.68412971497 3.82577133179 2.26475000381 2.2909142971 5.03283119202 9.7060956955 14.1878499985 16.7330665588 16.7310504913 14.1781177521 9.69398975372 5.02188253403 2.29060316086 2.31514167786 5.92389917374 11.8121318817 17.3763923645 20.6989479065 20.6962985992 17.3640346527 11.7971563339 5.90983581543 2.3146443367 2.33170795441 6.45801544189 12.9998483658 19.1405925751 22.8373012543 22.8343544006 19.1268997192 12.983341217 6.44217824936 2.33108472824 2.3407831192 6.72641181946 13.5837450027 19.9898147583 23.8470573425 23.8439922333 19.975528717 13.5665140152 6.70973396301 2.34009075165 2.34077596664 6.72620153427 13.5832939148 19.9891624451 23.846282959 23.8432273865 19.9748802185 13.566069603 6.70952606201 2.34008407593 2.3316719532 6.45694208145 12.9974851608 19.1371116638 22.8331317902 22.8301906586 19.123462677 12.9810142517 6.44112539291 2.33104944229 2.31508994102 5.92206192017 11.8080091476 17.370141983 20.6904964447 20.687953949 17.3578720093 11.7931213379 5.90803289413 2.31459259987 2.29084038734 5.03015089035 9.69942092896 14.1778831482 16.7201957703 16.7182674408 14.1683835983 9.68746757507 5.01929569244 2.29053330421 2.26481294632 3.82903718948 6.68288135529 9.38202095032 10.9402770996 10.9393863678 9.37609100342 6.6759147644 3.82261395454 2.2647049427 
