0.981552243233 1.00625932217 1.03265941143 1.08739113808 1.16886115074 1.16883087158 1.08731782436 1.02370977402 1.00622749329 0.981605827808 0.972392141819 1.04499804974 1.16353750229 1.28950095177 1.3930567503 1.39303445816 1.28941774368 1.0943351984 1.04494071007 0.972452640533 0.969629764557 1.1355856657 1.27215206623 1.40287613869 1.52502155304 1.52500224113 1.40279555321 1.20308589935 1.13551342487 0.969672262669 0.968126058578 1.18130266666 1.31660270691 1.43465948105 1.54848027229 1.54846143723 1.43459057808 1.24858808517 1.18123495579 0.968157947063 0.966408908367 1.21682620049 1.35438454151 1.46982800961 1.57146561146 1.57145142555 1.46977162361 1.28610742092 1.21675443649 0.966439187527 0.966411054134 1.21681523323 1.35437428951 1.4698073864 1.5716201067 1.57159674168 1.46974337101 1.28610503674 1.21674370766 0.966441273689 0.968131124973 1.18125271797 1.31656444073 1.4345678091 1.54864311218 1.54860985279 1.43449389935 1.24855220318 1.18118691444 0.968163013458 0.97026604414 1.10237872601 1.23410713673 1.35682868958 1.47827720642 1.4782756567 1.35674667358 1.16618061066 1.10231876373 0.970309734344 0.972398042679 1.04491484165 1.16340517998 1.28953564167 1.39316797256 1.39309024811 1.2894961834 1.09423780441 1.04486060143 0.972457826138 0.981579124928 1.0062199831 1.03264570236 1.08715927601 1.1686372757 1.1687322855 1.08701181412 1.02370786667 1.00618958473 0.981630146503 
0.981551289558 1.00619781017 1.03257071972 1.08726906776 1.16870963573 1.16867923737 1.08719587326 1.02362155914 1.00616586208 0.981604754925 0.972391188145 1.04491198063 1.16343200207 1.28938043118 1.39293146133 1.3929091692 1.28929710388 1.0942325592 1.04485476017 0.972451686859 0.969626903534 1.13548433781 1.27204215527 1.40273559093 1.52493846416 1.52491939068 1.40265500546 1.20297932625 1.13541197777 0.969669342041 0.96812081337 1.18119692802 1.31649756432 1.43452513218 1.5488960743 1.54887807369 1.43445622921 1.24849116802 1.18112945557 0.968152761459 0.96640253067 1.21672284603 1.35426688194 1.46977841854 1.57322835922 1.57321453094 1.46972203255 1.28601443768 1.21665096283 0.966432571411 0.966404676437 1.21671199799 1.35425627232 1.46975851059 1.57340407372 1.57338047028 1.4696944952 1.28601193428 1.21664047241 0.966434836388 0.96812582016 1.18114721775 1.31645965576 1.43443334103 1.54907512665 1.54904234409 1.43435955048 1.24845528603 1.1810811758 0.96815776825 0.970263600349 1.10227847099 1.23399138451 1.35667943954 1.47813141346 1.47812962532 1.35659766197 1.16606593132 1.10221874714 0.970307230949 0.972397089005 1.04482901096 1.16329956055 1.28941512108 1.39304232597 1.39296483994 1.2893756628 1.09413552284 1.04477477074 0.972456693649 0.981578052044 1.00615847111 1.03255748749 1.08703708649 1.16848599911 1.16858077049 1.08688938618 1.023619771 1.00612843037 0.98162907362 
0.981551170349 1.0061981678 1.03257155418 1.08727037907 1.16871142387 1.16868114471 1.08719706535 1.0236222744 1.00616645813 0.981604814529 0.972391009331 1.04491281509 1.16343343258 1.2893819809 1.39293265343 1.3929104805 1.2892986536 1.0942337513 1.04485535622 0.972451448441 0.96962672472 1.1354855299 1.27204370499 1.4027377367 1.52494049072 1.52492153645 1.40265715122 1.20298075676 1.13541340828 0.969669103622 0.96812069416 1.18119859695 1.31649971008 1.43452715874 1.54890024662 1.54888224602 1.43445849419 1.24849283695 1.18113100529 0.968152582645 0.966402292252 1.21672451496 1.35426902771 1.46978151798 1.57323849201 1.57322466373 1.46972465515 1.28601634502 1.21665298939 0.966432452202 0.966404557228 1.21671390533 1.35425817966 1.46976137161 1.57341444492 1.57339096069 1.46969735622 1.28601408005 1.21664214134 0.966434895992 0.968125641346 1.18114876747 1.31646180153 1.43443572521 1.54907953739 1.54904687405 1.43436169624 1.24845707417 1.18108272552 0.968157410622 0.97026348114 1.10227966309 1.23399293423 1.3566814661 1.47813367844 1.47813177109 1.35659980774 1.16606712341 1.10222005844 0.970307230949 0.972396910191 1.04482984543 1.16330075264 1.28941679001 1.3930439949 1.39296627045 1.28937733173 1.09413647652 1.04477548599 0.972456693649 0.981578052044 1.00615882874 1.03255820274 1.08703839779 1.16848790646 1.16858291626 1.0868909359 1.02362048626 1.00612866879 0.98162907362 
0.98155105114 1.00619852543 1.03257226944 1.08727169037 1.16871321201 1.16868281364 1.08719825745 1.02362287045 1.00616681576 0.981604635715 0.972391009331 1.04491353035 1.16343438625 1.2893832922 1.39293444157 1.39291214943 1.2892999649 1.09423470497 1.04485619068 0.972451448441 0.969626665115 1.13548672199 1.27204549313 1.40273964405 1.52494251728 1.52492344379 1.40265929699 1.20298242569 1.13541460037 0.969668865204 0.968120574951 1.18120014668 1.31650185585 1.43452954292 1.54890704155 1.54888892174 1.43446063995 1.2484947443 1.18113255501 0.968152344227 0.966402053833 1.21672654152 1.35427129269 1.4697842598 1.57324790955 1.57323420048 1.46972775459 1.28601849079 1.21665465832 0.966432332993 0.96640431881 1.21671545506 1.35426068306 1.46976447105 1.57342386246 1.57340049744 1.46970021725 1.28601562977 1.21664392948 0.966434538364 0.968125343323 1.18115031719 1.31646358967 1.43443799019 1.54908788204 1.54905486107 1.43436431885 1.2484588623 1.18108439445 0.968157231808 0.970263421535 1.10228085518 1.23399412632 1.35668337345 1.47813594341 1.47813367844 1.35660147667 1.16606855392 1.10222113132 0.97030711174 0.972396850586 1.04483067989 1.16330182552 1.28941810131 1.39304542542 1.39296793938 1.28937864304 1.09413743019 1.04477632046 0.97245657444 0.981577992439 1.00615918636 1.03255903721 1.0870398283 1.1684896946 1.16858458519 1.08689212799 1.02362120152 1.00612902641 0.981628954411 
0.981551170349 1.00619888306 1.03257286549 1.08727288246 1.16871523857 1.16868472099 1.08719968796 1.02362346649 1.00616705418 0.981604576111 0.972390770912 1.04491436481 1.16343545914 1.28938484192 1.39293634892 1.39291381836 1.28930139542 1.09423565865 1.04485702515 0.972451269627 0.969626367092 1.13548791409 1.27204704285 1.40274202824 1.52494502068 1.52492594719 1.40266144276 1.2029838562 1.13541591167 0.96966868639 0.968120217323 1.1812016964 1.31650400162 1.43453204632 1.5489153862 1.5488973856 1.43446290493 1.24849641323 1.18113422394 0.968152284622 0.966401994228 1.21672809124 1.35427320004 1.46978712082 1.57325768471 1.57324373722 1.46973073483 1.28602015972 1.21665644646 0.966432094574 0.9664041996 1.2167173624 1.35426259041 1.46976733208 1.57343387604 1.57341003418 1.46970319748 1.28601777554 1.21664571762 0.96643435955 0.968125224113 1.18115186691 1.31646585464 1.43444037437 1.54909610748 1.54906332493 1.43436670303 1.24846053123 1.18108582497 0.968157052994 0.970263183117 1.10228204727 1.23399591446 1.3566852808 1.47813820839 1.47813606262 1.35660338402 1.16606974602 1.10222232342 0.970306932926 0.972396731377 1.04483127594 1.16330313683 1.28941965103 1.39304721355 1.39296960831 1.28938031197 1.09413862228 1.04477703571 0.972456395626 0.98157787323 1.0061596632 1.03255939484 1.08704090118 1.16849148273 1.16858625412 1.08689332008 1.02362155914 1.00612950325 0.981628954411 
0.981550812721 1.00619924068 1.03257346153 1.08727419376 1.1687169075 1.16868650913 1.08720111847 1.02362394333 1.0061674118 0.981604456902 0.972390592098 1.04491508007 1.16343688965 1.28938639164 1.39293789864 1.3929156065 1.28930306435 1.09423685074 1.0448577404 0.972451210022 0.969626307487 1.13548910618 1.27204871178 1.40274405479 1.52494704723 1.52492809296 1.40266335011 1.20298528671 1.13541722298 0.96966868639 0.968120098114 1.18120324612 1.31650590897 1.43453431129 1.54892385006 1.54890561104 1.43446540833 1.24849843979 1.18113565445 0.968151986599 0.96640175581 1.21672987938 1.35427510738 1.46978998184 1.57326686382 1.57325339317 1.46973347664 1.28602206707 1.2166582346 0.966431856155 0.966403961182 1.21671915054 1.35426449776 1.4697701931 1.57344305515 1.57341980934 1.46970593929 1.28601956367 1.21664750576 0.966434061527 0.968124985695 1.18115341663 1.3164678812 1.43444275856 1.54910433292 1.54907178879 1.4343688488 1.24846231937 1.1810874939 0.968156993389 0.970263183117 1.10228312016 1.23399734497 1.35668718815 1.47814035416 1.4781383276 1.35660541058 1.1660708189 1.10222327709 0.970306754112 0.972396731377 1.0448319912 1.16330420971 1.28942120075 1.39304876328 1.39297127724 1.28938174248 1.09413957596 1.04477787018 0.972456395626 0.981577754021 1.00615978241 1.03255999088 1.0870424509 1.16849327087 1.16858816147 1.0868947506 1.02362239361 1.00612974167 0.981628954411 
0.981550931931 1.0061994791 1.032574296 1.08727550507 1.16871869564 1.16868829727 1.08720219135 1.02362465858 1.00616765022 0.981604278088 0.972390651703 1.04491591454 1.16343784332 1.28938770294 1.39293944836 1.39291715622 1.28930437565 1.09423792362 1.04485857487 0.972451090813 0.969626247883 1.13549053669 1.27205038071 1.40274608135 1.524949193 1.52493047714 1.40266597271 1.20298695564 1.13541829586 0.969668388367 0.968119859695 1.18120467663 1.31650793552 1.43453657627 1.5489320755 1.5489140749 1.4344676733 1.24850010872 1.18113732338 0.96815174818 0.9664016366 1.21673178673 1.35427713394 1.46979308128 1.57327651978 1.57326304913 1.46973633766 1.28602397442 1.21666002274 0.966431796551 0.966403722763 1.21672081947 1.35426676273 1.4697728157 1.57345294952 1.57342910767 1.46970903873 1.28602170944 1.2166492939 0.966433882713 0.968124806881 1.18115496635 1.31647014618 1.43444502354 1.54911291599 1.54908001423 1.43437123299 1.24846434593 1.18108904362 0.968156754971 0.970263004303 1.10228419304 1.23399877548 1.35668897629 1.47814226151 1.47814023495 1.3566069603 1.1660721302 1.10222458839 0.970306694508 0.972396433353 1.04483282566 1.1633054018 1.28942251205 1.39305055141 1.39297282696 1.28938317299 1.09414064884 1.04477846622 0.972456157207 0.981577754021 1.00616025925 1.03256082535 1.087043643 1.16849505901 1.16859006882 1.0868960619 1.02362298965 1.0061300993 0.981628775597 
