14.0010662079 13.7826395035 13.0339260101 11.8747358322 11.1458234787 11.1464347839 11.87748909 13.0365333557 13.783911705 14.0010890961 21.9894256592 21.6043510437 20.5359783173 19.0130138397 18.0416412354 18.0424461365 19.0165977478 20.5395088196 21.6062774658 21.9895248413 29.9810371399 29.5258140564 28.564874649 27.2994670868 26.4599685669 26.4606590271 27.302488327 28.5678386688 29.5277557373 29.9811820984 37.9834938049 37.6488418579 37.0195922852 36.2432670593 35.734790802 35.735206604 36.2451057434 37.0214500427 37.6501655579 37.983631134 45.9990081787 45.8757171631 45.6576194763 45.3999099731 45.2328033447 45.2329330444 45.4005126953 45.6582603455 45.8761863708 45.9990615845 54.0210456848 54.1449775696 54.3642196655 54.6232719421 54.7914390564 54.7912826538 54.6226577759 54.3635902405 54.1445159912 54.0209846497 62.0365257263 62.3716201782 63.0018463135 63.7794456482 64.2888412476 64.2884216309 63.7776107788 63.0000038147 62.3703117371 62.0363883972 70.0389556885 70.4942703247 71.4557800293 72.7225494385 73.5621414185 73.5615005493 72.7195663452 71.4528274536 70.4923400879 70.03881073 78.0305480957 78.415222168 79.483505249 81.0070037842 81.9783706665 81.9775466919 81.0035247803 79.4799957275 78.4133300781 78.0304489136 86.0189285278 86.2369384766 86.9841461182 88.1399154663 88.8663482666 88.8660812378 88.1371002197 86.9816894531 86.2357025146 86.0189056396 
14.0009098053 13.7818098068 13.0332717896 11.8741827011 11.1453142166 11.1459274292 11.8769359589 13.0358743668 13.7830810547 14.0009326935 21.9892520905 21.603099823 20.533575058 19.0077896118 18.033493042 18.0343036652 19.0113830566 20.5371074677 21.6050300598 21.9893512726 29.980884552 29.5243015289 28.5609302521 27.2899723053 26.4421920776 26.442899704 27.2930164337 28.5639019012 29.5262451172 29.9810295105 37.9833869934 37.647567749 37.0157432556 36.2319717407 35.7126998901 35.7131271362 36.2338409424 37.017616272 37.6488952637 37.9835243225 45.9989585876 45.8752098083 45.6560020447 45.39453125 45.2234649658 45.2235984802 45.3951454163 45.6566390991 45.8756713867 45.9990119934 54.0210876465 54.1455001831 54.3658561707 54.6286849976 54.8008728027 54.8007202148 54.6280632019 54.3652229309 54.1450271606 54.0210418701 62.0366363525 62.3728942871 63.0057029724 63.7907447815 64.3109054565 64.3104858398 63.7888793945 63.0038414001 62.3715705872 62.0364990234 70.0391082764 70.4957885742 71.4597320557 72.7320404053 73.5798721313 73.5792160034 72.7290420532 71.4567718506 70.4938659668 70.0389709473 78.0307235718 78.4164733887 79.4859085083 81.0122070312 81.9864807129 81.9856643677 81.0087127686 79.4823989868 78.4145812988 78.0306167603 86.0190811157 86.23777771 86.9847946167 88.1404495239 88.8668212891 88.8665771484 88.1376495361 86.9823379517 86.2365341187 86.0190505981 
14.0009098053 13.7818050385 13.0332584381 11.8741636276 11.1452884674 11.1459035873 11.8769159317 13.03586483 13.7830781937 14.0009326935 21.9892520905 21.603094101 20.5335597992 19.0077552795 18.0334529877 18.0342617035 19.0113487244 20.5370883942 21.6050205231 21.9893512726 29.9808807373 29.5242958069 28.5609035492 27.2899341583 26.4421310425 26.4428386688 27.29296875 28.5638771057 29.5262393951 29.9810276031 37.9833831787 37.6475639343 37.0157241821 36.2319259644 35.7126045227 35.7130355835 36.2337913513 37.0176010132 37.6488876343 37.9835205078 45.9989547729 45.8751983643 45.6559944153 45.3945083618 45.2234153748 45.2235565186 45.3951187134 45.6566314697 45.875667572 45.9990119934 54.0210876465 54.1455039978 54.3658676147 54.6287078857 54.8009223938 54.8007659912 54.6280899048 54.3652381897 54.14503479 54.0210418701 62.0366363525 62.3728942871 63.0057296753 63.7907981873 64.3110046387 64.3105773926 63.7889251709 63.0038566589 62.3715858459 62.0364990234 70.0391082764 70.4957885742 71.4597473145 72.7320861816 73.5799407959 73.579284668 72.7290802002 71.4567871094 70.4938659668 70.0389709473 78.0307235718 78.4164733887 79.4859390259 81.0122451782 81.9865341187 81.9857025146 81.0087585449 79.4824142456 78.4145889282 78.0306243896 86.0190811157 86.23777771 86.9848022461 88.1404571533 88.8668441772 88.8666000366 88.1376647949 86.9823684692 86.236541748 86.0190505981 
14.0009098053 13.7818050385 13.0332517624 11.8741436005 11.1452655792 11.1458787918 11.8768978119 13.0358581543 13.78307724 14.0009326935 21.9892520905 21.6030921936 20.5335464478 19.0077323914 18.0334243774 18.0342330933 19.0113258362 20.5370769501 21.6050205231 21.9893512726 29.9808769226 29.5242900848 28.5608978271 27.2899093628 26.4420948029 26.4428062439 27.2929477692 28.563873291 29.5262336731 29.9810276031 37.9833831787 37.6475601196 37.0157165527 36.2318992615 35.7125663757 35.7129974365 36.2337646484 37.0175895691 37.6488876343 37.9835205078 45.9989547729 45.875202179 45.6559867859 45.3945007324 45.223400116 45.2235412598 45.3951187134 45.6566238403 45.875667572 45.9990119934 54.0210876465 54.1455039978 54.3658714294 54.6287231445 54.8009338379 54.8007774353 54.6280975342 54.3652381897 54.14503479 54.0210418701 62.0366363525 62.3728981018 63.0057411194 63.7908210754 64.311050415 64.3106155396 63.7889518738 63.0038719177 62.3715896606 62.0364990234 70.0391082764 70.4957885742 71.459777832 72.7321090698 73.5799865723 73.5793151855 72.7291183472 71.4567947388 70.4938659668 70.0389709473 78.0307235718 78.4164810181 79.4859390259 81.012260437 81.9865570068 81.9857330322 81.0087738037 79.4824295044 78.4145889282 78.0306243896 86.0190811157 86.23777771 86.9848022461 88.1404724121 88.8668746948 88.8666305542 88.1376876831 86.9823684692 86.236541748 86.0190505981 
14.0009098053 13.7818031311 13.0332460403 11.8741264343 11.1452407837 11.14585495 11.8768815994 13.0358476639 13.7830753326 14.0009326935 21.9892520905 21.6030883789 20.533531189 19.0077114105 18.0333976746 18.034204483 19.0113067627 20.5370674133 21.6050186157 21.9893512726 29.9808769226 29.5242881775 28.5608844757 27.2898845673 26.4420642853 26.4427700043 27.292924881 28.5638523102 29.5262317657 29.9810256958 37.9833831787 37.6475601196 37.0157089233 36.2318763733 35.7125396729 35.7129669189 36.2337379456 37.017578125 37.6488876343 37.9835205078 45.9989547729 45.8751983643 45.6559867859 45.3944854736 45.2233924866 45.223526001 45.3951072693 45.6566238403 45.875667572 45.9990119934 54.0210952759 54.1455001831 54.3658790588 54.6287307739 54.8009490967 54.8008003235 54.628112793 54.3652381897 54.14503479 54.0210418701 62.0366363525 62.3729019165 63.0057411194 63.7908401489 64.3110809326 64.3106536865 63.7889709473 63.0038795471 62.3715858459 62.0364990234 70.0391082764 70.4957962036 71.459777832 72.732131958 73.5800094604 73.5793457031 72.729133606 71.4568023682 70.4938812256 70.0389709473 78.0307235718 78.4164962769 79.4859542847 81.0122833252 81.986579895 81.9857711792 81.0087890625 79.4824447632 78.4145812988 78.0306243896 86.0190811157 86.23777771 86.9848175049 88.1405029297 88.8669052124 88.8666534424 88.1377029419 86.982383728 86.2365341187 86.0190505981 
14.0009098053 13.7818002701 13.0332355499 11.8741092682 11.1452150345 11.1458301544 11.8768625259 13.0358419418 13.7830734253 14.0009326935 21.9892520905 21.6030864716 20.5335254669 19.0076904297 18.0333690643 18.0341777802 19.0112838745 20.5370578766 21.605014801 21.9893512726 29.9808769226 29.5242881775 28.5608692169 27.2898578644 26.4420280457 26.442735672 27.2928981781 28.5638465881 29.5262298584 29.9810256958 37.9833831787 37.6475563049 37.0156974792 36.2318534851 35.7125015259 35.712928772 36.2337188721 37.0175666809 37.6488838196 37.9835205078 45.9989547729 45.8751983643 45.6559867859 45.3944816589 45.2233772278 45.2235107422 45.3950920105 45.6566123962 45.8756713867 45.9990119934 54.0210952759 54.1455001831 54.3658790588 54.6287384033 54.8009643555 54.8008079529 54.6281204224 54.3652420044 54.1450386047 54.0210418701 62.0366363525 62.3729057312 63.0057449341 63.7908630371 64.3111190796 64.3106842041 63.7890014648 63.0038909912 62.3715858459 62.0364990234 70.0391159058 70.4957962036 71.4597930908 72.7321548462 73.5800476074 73.5793762207 72.7291564941 71.456817627 70.4938735962 70.0389709473 78.0307235718 78.4164886475 79.4859619141 81.012298584 81.9866104126 81.9857940674 81.0088119507 79.4824447632 78.4145889282 78.0306243896 86.0190811157 86.23777771 86.9848403931 88.1405181885 88.86693573 88.86668396 88.1377105713 86.9823989868 86.236541748 86.0190505981 
14.0009098053 13.7817993164 13.0332279205 11.8740901947 11.1451911926 11.1458053589 11.8768453598 13.0358362198 13.7830715179 14.0009326935 21.9892520905 21.6030826569 20.5335102081 19.0076675415 18.0333404541 18.0341491699 19.0112628937 20.5370483398 21.6050109863 21.9893512726 29.9808769226 29.5242843628 28.5608577728 27.2898349762 26.4419937134 26.4427051544 27.2928771973 28.5638332367 29.5262241364 29.9810256958 37.9833831787 37.6475524902 37.0156898499 36.2318382263 35.7124633789 35.712890625 36.2337036133 37.0175590515 37.6488723755 37.9835205078 45.9989547729 45.8751945496 45.6559791565 45.3944664001 45.2233695984 45.2234954834 45.3950843811 45.6566047668 45.8756713867 45.9990081787 54.0210952759 54.1455001831 54.3658790588 54.6287536621 54.8009796143 54.800819397 54.6281280518 54.3652534485 54.14503479 54.0210418701 62.0366363525 62.3729133606 63.0057678223 63.79088974 64.3111495972 64.3107299805 63.789024353 63.0039024353 62.3715858459 62.0364990234 70.0391159058 70.4957962036 71.4598007202 72.7321777344 73.580078125 73.5794067383 72.7291870117 71.4568328857 70.4938812256 70.0389709473 78.0307235718 78.4164886475 79.4859695435 81.0123291016 81.9866333008 81.9858169556 81.0088424683 79.482460022 78.4145965576 78.0306243896 86.0190811157 86.23777771 86.9848251343 88.1405487061 88.8669586182 88.8667068481 88.1377334595 86.982383728 86.236541748 86.0190505981 
