1.0 1.00000011921 0.999499738216 1.03757953644 1.09724450111 1.09721827507 1.03749263287 1.00000023842 1.0 1.0 0.999999940395 1.00050187111 1.08167612553 1.18339002132 1.26740515232 1.26738286018 1.18331360817 1.03242349625 1.00049138069 1.0 1.0 1.05963182449 1.16513741016 1.27627491951 1.38117516041 1.38115799427 1.27620351315 1.11080253124 1.05956065655 1.00000011921 1.0 1.09600615501 1.20155847073 1.30421495438 1.40041387081 1.400395751 1.30415189266 1.14670157433 1.09594285488 1.00000011921 1.0 1.12277364731 1.23279559612 1.33473610878 1.41718363762 1.4171705246 1.33468484879 1.17470550537 1.12271225452 1.00000011921 1.0 1.12276411057 1.23278689384 1.33471679688 1.41728425026 1.41726458073 1.334659338 1.17470037937 1.12270283699 1.00000011921 1.0 1.0959610939 1.20152449608 1.30413067341 1.40051794052 1.40048933029 1.30406391621 1.14666330814 1.09589862823 1.0 1.0 1.03756117821 1.13701283932 1.24130058289 1.34254300594 1.34253811836 1.24121630192 1.0878663063 1.0374891758 1.00000011921 1.0 1.00049078465 1.08158624172 1.18338155746 1.26750409603 1.26743483543 1.1833344698 1.03234410286 1.00048053265 1.00000011921 1.0 1.00000011921 0.999503195286 1.03745174408 1.09700071812 1.09705305099 1.03732836246 1.00000011921 1.0 0.999999940395 
1.0 1.00000011921 0.999499738216 1.03757953644 1.09724450111 1.09721827507 1.03749263287 1.00000023842 1.0 1.0 0.999999940395 1.00050187111 1.08167612553 1.18339002132 1.26740515232 1.26738286018 1.18331360817 1.03242349625 1.00049138069 1.0 1.0 1.05963182449 1.16513741016 1.27627491951 1.38432264328 1.38430643082 1.27620351315 1.11080253124 1.05956065655 1.00000011921 1.0 1.09600615501 1.20155847073 1.30421495438 1.406427145 1.40641117096 1.30415189266 1.14670157433 1.09594285488 1.00000011921 1.0 1.12277364731 1.23279559612 1.33544504642 1.42874538898 1.42873382568 1.33539557457 1.17470550537 1.12271225452 1.00000011921 1.0 1.12276411057 1.23278689384 1.33542609215 1.42889964581 1.42887914181 1.33537006378 1.17470037937 1.12270283699 1.00000011921 1.0 1.0959610939 1.20152449608 1.30413067341 1.40658485889 1.40655624866 1.30406391621 1.14666330814 1.09589862823 1.0 1.0 1.03756117821 1.13701283932 1.24130058289 1.34254300594 1.34253811836 1.24121630192 1.0878663063 1.0374891758 1.00000011921 1.0 1.00049078465 1.08158624172 1.18338155746 1.26750409603 1.26743483543 1.1833344698 1.03234410286 1.00048053265 1.00000011921 1.0 1.00000011921 0.999503195286 1.03745174408 1.09700071812 1.09705305099 1.03732836246 1.00000011921 1.0 0.999999940395 
1.0 1.00000011921 0.999499738216 1.03757953644 1.09724450111 1.09721827507 1.03749263287 1.00000023842 1.0 1.0 0.999999940395 1.00050187111 1.08167612553 1.18339002132 1.26740515232 1.26738286018 1.18331360817 1.03242349625 1.00049138069 1.0 1.0 1.05963182449 1.16513741016 1.27627491951 1.38432264328 1.38430643082 1.27620351315 1.11080253124 1.05956065655 1.00000011921 1.0 1.09600615501 1.20155847073 1.30421495438 1.40642940998 1.40641379356 1.30415189266 1.14670157433 1.09594285488 1.00000011921 1.0 1.12277364731 1.23279559612 1.33544504642 1.4287879467 1.42877674103 1.33539557457 1.17470550537 1.12271225452 1.00000011921 1.0 1.12276411057 1.23278689384 1.33542609215 1.42894399166 1.42892336845 1.33537006378 1.17470037937 1.12270283699 1.00000011921 1.0 1.0959610939 1.20152449608 1.30413067341 1.40658867359 1.40655958652 1.30406391621 1.14666330814 1.09589862823 1.0 1.0 1.03756117821 1.13701283932 1.24130058289 1.34254300594 1.34253811836 1.24121630192 1.0878663063 1.0374891758 1.00000011921 1.0 1.00049078465 1.08158624172 1.18338155746 1.26750409603 1.26743483543 1.1833344698 1.03234410286 1.00048053265 1.00000011921 1.0 1.00000011921 0.999503195286 1.03745174408 1.09700071812 1.09705305099 1.03732836246 1.00000011921 1.0 0.999999940395 
1.0 1.00000011921 0.999499738216 1.03757953644 1.09724450111 1.09721827507 1.03749263287 1.00000023842 1.0 1.0 0.999999940395 1.00050187111 1.08167612553 1.18339002132 1.26740515232 1.26738286018 1.18331360817 1.03242349625 1.00049138069 1.0 1.0 1.05963182449 1.16513741016 1.27627491951 1.38432264328 1.38430643082 1.27620351315 1.11080253124 1.05956065655 1.00000011921 1.0 1.09600615501 1.20155847073 1.30421495438 1.40643656254 1.40642094612 1.30415189266 1.14670157433 1.09594285488 1.00000011921 1.0 1.12277364731 1.23279559612 1.33544504642 1.42879712582 1.4287853241 1.33539557457 1.17470550537 1.12271225452 1.00000011921 1.0 1.12276411057 1.23278689384 1.33542609215 1.42895257473 1.42893218994 1.33537006378 1.17470037937 1.12270283699 1.00000011921 1.0 1.0959610939 1.20152449608 1.30413067341 1.40659558773 1.40656685829 1.30406391621 1.14666330814 1.09589862823 1.0 1.0 1.03756117821 1.13701283932 1.24130058289 1.34254300594 1.34253811836 1.24121630192 1.0878663063 1.0374891758 1.00000011921 1.0 1.00049078465 1.08158624172 1.18338155746 1.26750409603 1.26743483543 1.1833344698 1.03234410286 1.00048053265 1.00000011921 1.0 1.00000011921 0.999503195286 1.03745174408 1.09700071812 1.09705305099 1.03732836246 1.00000011921 1.0 0.999999940395 
1.0 1.00000011921 0.999499738216 1.03757953644 1.09724450111 1.09721827507 1.03749263287 1.00000023842 1.0 1.0 0.999999940395 1.00050187111 1.08167612553 1.18339002132 1.26740515232 1.26738286018 1.18331360817 1.03242349625 1.00049138069 1.0 1.0 1.05963182449 1.16513741016 1.27627491951 1.38432252407 1.3843061924 1.27620351315 1.11080253124 1.05956065655 1.00000011921 1.0 1.09600615501 1.20155847073 1.30421495438 1.40644419193 1.40642857552 1.30415189266 1.14670157433 1.09594285488 1.00000011921 1.0 1.12277364731 1.23279559612 1.33544504642 1.42880582809 1.42879414558 1.33539557457 1.17470550537 1.12271225452 1.00000011921 1.0 1.12276411057 1.23278689384 1.33542609215 1.42896151543 1.42894101143 1.33537006378 1.17470037937 1.12270283699 1.00000011921 1.0 1.0959610939 1.20152449608 1.30413067341 1.40660333633 1.4065747261 1.30406391621 1.14666330814 1.09589862823 1.0 1.0 1.03756117821 1.13701283932 1.24130058289 1.34254300594 1.34253811836 1.24121630192 1.0878663063 1.0374891758 1.00000011921 1.0 1.00049078465 1.08158624172 1.18338155746 1.26750409603 1.26743483543 1.1833344698 1.03234410286 1.00048053265 1.00000011921 1.0 1.00000011921 0.999503195286 1.03745174408 1.09700071812 1.09705305099 1.03732836246 1.00000011921 1.0 0.999999940395 
1.0 1.00000011921 0.999499738216 1.03757953644 1.09724450111 1.09721827507 1.03749263287 1.00000023842 1.0 1.0 0.999999940395 1.00050187111 1.08167612553 1.18339002132 1.26740515232 1.26738286018 1.18331360817 1.03242349625 1.00049138069 1.0 1.0 1.05963182449 1.16513741016 1.27627491951 1.38432121277 1.38430523872 1.27620351315 1.11080253124 1.05956065655 1.00000011921 1.0 1.09600615501 1.20155847073 1.30421495438 1.40645194054 1.4064360857 1.30415189266 1.14670157433 1.09594285488 1.00000011921 1.0 1.12277364731 1.23279559612 1.33544504642 1.42881453037 1.42880284786 1.33539557457 1.17470550537 1.12271225452 1.00000011921 1.0 1.12276411057 1.23278689384 1.33542609215 1.4289700985 1.42894983292 1.33537006378 1.17470037937 1.12270283699 1.00000011921 1.0 1.0959610939 1.20152449608 1.30413067341 1.40661096573 1.4065823555 1.30406391621 1.14666330814 1.09589862823 1.0 1.0 1.03756117821 1.13701283932 1.24130058289 1.34254300594 1.34253811836 1.24121630192 1.0878663063 1.0374891758 1.00000011921 1.0 1.00049078465 1.08158624172 1.18338155746 1.26750409603 1.26743483543 1.1833344698 1.03234410286 1.00048053265 1.00000011921 1.0 1.00000011921 0.999503195286 1.03745174408 1.09700071812 1.09705305099 1.03732836246 1.00000011921 1.0 0.999999940395 
1.0 1.00000011921 0.999499738216 1.03757953644 1.09724450111 1.09721827507 1.03749263287 1.00000023842 1.0 1.0 0.999999940395 1.00050187111 1.08167612553 1.18339002132 1.26740515232 1.26738286018 1.18331360817 1.03242349625 1.00049138069 1.0 1.0 1.05963182449 1.16513741016 1.27627491951 1.38432002068 1.38430392742 1.27620351315 1.11080253124 1.05956065655 1.00000011921 1.0 1.09600615501 1.20155847073 1.30421495438 1.40645956993 1.40644359589 1.30415189266 1.14670157433 1.09594285488 1.00000011921 1.0 1.12277364731 1.23279559612 1.33544504642 1.42882323265 1.42881166935 1.33539557457 1.17470550537 1.12271225452 1.00000011921 1.0 1.12276411057 1.23278689384 1.33542609215 1.42897891998 1.42895829678 1.33537006378 1.17470037937 1.12270283699 1.00000011921 1.0 1.0959610939 1.20152449608 1.30413067341 1.40661847591 1.40658986568 1.30406391621 1.14666330814 1.09589862823 1.0 1.0 1.03756117821 1.13701283932 1.24130058289 1.34254300594 1.34253811836 1.24121630192 1.0878663063 1.0374891758 1.00000011921 1.0 1.00049078465 1.08158624172 1.18338155746 1.26750409603 1.26743483543 1.1833344698 1.03234410286 1.00048053265 1.00000011921 1.0 1.00000011921 0.999503195286 1.03745174408 1.09700071812 1.09705305099 1.03732836246 1.00000011921 1.0 0.999999940395 
