14.0006666183 13.7808647156 13.0418157578 11.8765144348 11.0927810669 11.0934448242 11.8793582916 13.0443897247 13.7821273804 14.0006904602 21.98985672 21.6011924744 20.5333309174 18.8846416473 17.7683372498 17.7692127228 18.8887844086 20.536939621 21.6031265259 21.9899559021 29.9807090759 29.5257816315 28.5491828918 27.1724357605 26.2080955505 26.2088451385 27.1759185791 28.5522594452 29.5277328491 29.9808559418 37.9825248718 37.6432571411 36.9999313354 36.1611709595 35.5870285034 35.5874900818 36.1632461548 37.0018539429 37.6445999146 37.9826660156 45.9988212585 45.8727684021 45.6491508484 45.3724060059 45.1850547791 45.1851997375 45.3730735779 45.6498069763 45.8732376099 45.9988746643 54.0212364197 54.1479911804 54.3728904724 54.6511878967 54.8398323059 54.8396682739 54.6504936218 54.3722229004 54.1475219727 54.0211715698 62.03748703 62.3772201538 63.0216598511 63.8619308472 64.4372177124 64.4367599487 63.8598670959 63.019733429 62.3758773804 62.0373535156 70.039276123 70.4942703247 71.4715576172 72.8501434326 73.8144836426 73.813835144 72.8467407227 71.46849823 70.4923248291 70.0391082764 78.0301208496 78.4183273315 79.4859924316 81.135559082 82.2520599365 82.2511901855 81.1316146851 79.4823532104 78.4163742065 78.0300064087 86.0193252563 86.2386016846 86.9758071899 88.137260437 88.9178771973 88.9178009033 88.1343994141 86.9731292725 86.2373199463 86.0192947388 
14.0002880096 13.7782888412 13.0374679565 11.8693189621 11.084936142 11.0856018066 11.8721694946 13.0400476456 13.7795581818 14.0003166199 21.989408493 21.5973358154 20.5245761871 18.8674640656 17.7444477081 17.7453308105 18.871629715 20.5281982422 21.5992774963 21.9895114899 29.9802703857 29.5213680267 28.5382156372 27.1486644745 26.163942337 26.1647281647 27.1521892548 28.5413150787 29.5233345032 29.9804210663 37.9822006226 37.6397781372 36.9908676147 36.1388092041 35.546169281 35.5466537476 36.1409263611 36.9928245544 37.6411247253 37.9823417664 45.9986953735 45.8714141846 45.6456489563 45.3632965088 45.1702613831 45.1704063416 45.363986969 45.6463127136 45.8719024658 45.9987564087 54.0213623047 54.1493530273 54.3764038086 54.660358429 54.8548469543 54.8546714783 54.65965271 54.3757400513 54.1488647461 54.0213012695 62.0378112793 62.3807067871 63.0307426453 63.8843307495 64.4780654907 64.4775924683 63.8822059631 63.0287818909 62.3793487549 62.0376663208 70.0397186279 70.4987030029 71.4825286865 72.8739242554 73.8585662842 73.8578643799 72.8704910278 71.4794464111 70.4967193604 70.03956604 78.0305633545 78.4221801758 79.494758606 81.1527252197 82.2759094238 82.2750244141 81.148765564 79.4910964966 78.4202194214 78.0304718018 86.0197067261 86.2411880493 86.9801254272 88.1444244385 88.9257049561 88.9256286621 88.1415252686 86.9774475098 86.2398834229 86.0196685791 
14.0002880096 13.7782878876 13.0374584198 11.8693027496 11.0849123001 11.0855770111 11.8721542358 13.0400419235 13.7795562744 14.0003166199 21.989408493 21.5973339081 20.5245628357 18.8674411774 17.7444171906 17.745300293 18.8716049194 20.5281887054 21.5992794037 21.9895114899 29.9802703857 29.5213661194 28.5382118225 27.1486434937 26.1639022827 26.1646900177 27.1521625519 28.5412998199 29.5233306885 29.9804210663 37.9822006226 37.6397743225 36.9908599854 36.1387825012 35.5461387634 35.5466117859 36.1409034729 36.9928207397 37.6411247253 37.9823417664 45.9986953735 45.8714103699 45.645652771 45.3632926941 45.1702461243 45.1703948975 45.3639717102 45.6463127136 45.8718948364 45.9987564087 54.0213623047 54.1493530273 54.3764152527 54.6603660583 54.8548622131 54.8546905518 54.65965271 54.3757362366 54.1488647461 54.0213012695 62.0378112793 62.3807106018 63.03074646 63.8843536377 64.4781036377 64.4776229858 63.8822364807 63.0288009644 62.3793525696 62.0376663208 70.0397186279 70.4987030029 71.4825286865 72.8739547729 73.8586044312 73.8579025269 72.870513916 71.4794387817 70.4967269897 70.03956604 78.0305633545 78.4221725464 79.494758606 81.1527481079 82.2759399414 82.275062561 81.1487960815 79.491104126 78.4202194214 78.0304718018 86.0197067261 86.2411880493 86.9801483154 88.1444396973 88.9257125854 88.9256515503 88.1415328979 86.9774627686 86.2398834229 86.0196685791 
14.0002880096 13.7782850266 13.0374526978 11.8692836761 11.0848855972 11.0855484009 11.8721351624 13.0400333405 13.7795543671 14.0003166199 21.989408493 21.5973320007 20.5245513916 18.8674182892 17.744386673 17.7452659607 18.8715820312 20.5281772614 21.599275589 21.9895114899 29.9802703857 29.52135849 28.538192749 27.1486167908 26.163860321 26.1646499634 27.152141571 28.5412960052 29.5233287811 29.9804210663 37.9822006226 37.6397781372 36.990852356 36.138759613 35.5461006165 35.546585083 36.1408805847 36.992816925 37.6411209106 37.9823417664 45.9986953735 45.8714103699 45.6456489563 45.3632850647 45.1702384949 45.1703796387 45.3639640808 45.6463088989 45.8718910217 45.9987564087 54.0213623047 54.1493530273 54.3764305115 54.6603775024 54.8548812866 54.8546981812 54.6596641541 54.375743866 54.1488685608 54.0213012695 62.0378112793 62.3807067871 63.0307540894 63.8843727112 64.4781341553 64.4776535034 63.8822593689 63.0288085938 62.379360199 62.0376663208 70.0397186279 70.4987030029 71.4825439453 72.8739776611 73.8586425781 73.8579483032 72.8705291748 71.4794692993 70.4967346191 70.03956604 78.0305633545 78.4221801758 79.4947662354 81.1527709961 82.2759780884 82.2750854492 81.1488113403 79.491104126 78.4202194214 78.0304718018 86.0197067261 86.2411880493 86.9801483154 88.1444549561 88.9257507324 88.9256896973 88.1415557861 86.9774627686 86.2398986816 86.0196685791 
14.0002880096 13.7782850266 13.0374450684 11.8692646027 11.0848560333 11.0855207443 11.8721151352 13.0400257111 13.7795543671 14.0003166199 21.989408493 21.5973262787 20.5245380402 18.8673934937 17.7443523407 17.7452354431 18.8715572357 20.5281677246 21.5992717743 21.9895114899 29.9802703857 29.5213565826 28.5381793976 27.1485881805 26.1638183594 26.1646003723 27.1521129608 28.5412826538 29.5233249664 29.9804210663 37.9822006226 37.6397705078 36.9908447266 36.1387405396 35.5460739136 35.546546936 36.1408615112 36.9928092957 37.6411170959 37.9823417664 45.9986953735 45.8714065552 45.6456413269 45.3632736206 45.1702232361 45.1703796387 45.3639602661 45.6463127136 45.8718910217 45.9987564087 54.0213623047 54.1493606567 54.3764228821 54.6603851318 54.8548927307 54.8547172546 54.6596755981 54.3757629395 54.1488647461 54.0213012695 62.0378112793 62.3807144165 63.0307731628 63.8843917847 64.4781646729 64.4776916504 63.8822746277 63.0288200378 62.3793563843 62.0376663208 70.0397186279 70.4987106323 71.4825592041 72.8740081787 73.8586883545 73.8579864502 72.870552063 71.4794769287 70.4967346191 70.03956604 78.0305633545 78.4221801758 79.4947814941 81.1527938843 82.276008606 82.2751235962 81.1488342285 79.4911270142 78.4202270508 78.0304718018 86.0197067261 86.2411880493 86.9801635742 88.1444625854 88.9257583618 88.9257049561 88.1415710449 86.9774627686 86.2398834229 86.0196685791 
14.0002889633 13.7782840729 13.037437439 11.8692455292 11.0848302841 11.0854949951 11.8720979691 13.0400190353 13.7795534134 14.0003185272 21.989408493 21.5973243713 20.5245285034 18.8673706055 17.7443199158 17.7452030182 18.8715324402 20.5281524658 21.5992679596 21.9895095825 29.9802703857 29.5213565826 28.5381717682 27.1485652924 26.1637802124 26.16456604 27.1520881653 28.5412750244 29.5233230591 29.9804210663 37.9822006226 37.6397666931 36.9908294678 36.1387176514 35.5460319519 35.5465126038 36.1408309937 36.9927902222 37.6411170959 37.9823417664 45.9986953735 45.8714103699 45.6456375122 45.3632621765 45.170211792 45.1703605652 45.363948822 45.6463012695 45.8718948364 45.9987564087 54.0213623047 54.1493530273 54.3764305115 54.6603965759 54.8549079895 54.8547172546 54.6596870422 54.3757591248 54.1488647461 54.0213012695 62.0378112793 62.3807144165 63.0307693481 63.8844223022 64.4782028198 64.4777297974 63.8823013306 63.0288276672 62.379360199 62.0376663208 70.0397186279 70.4987106323 71.4825668335 72.8740386963 73.8587417603 73.8580169678 72.87059021 71.4794998169 70.4967346191 70.03956604 78.0305633545 78.4221801758 79.4947891235 81.1528244019 82.2760391235 82.2751617432 81.1488647461 79.4911346436 78.4202270508 78.0304718018 86.0197067261 86.2411880493 86.980178833 88.144493103 88.9257965088 88.9257354736 88.1415863037 86.9774780273 86.2398986816 86.0196685791 
14.000289917 13.7782821655 13.0374298096 11.8692293167 11.0848035812 11.0854682922 11.8720788956 13.0400114059 13.779551506 14.0003185272 21.989408493 21.5973243713 20.5245170593 18.8673477173 17.7442893982 17.7451705933 18.871509552 20.5281429291 21.5992679596 21.9895095825 29.9802703857 29.5213470459 28.5381546021 27.1485366821 26.1637382507 26.1645240784 27.1520633698 28.5412559509 29.5233154297 29.9804210663 37.9822006226 37.6397628784 36.9908294678 36.1386909485 35.546005249 35.5464782715 36.1408119202 36.9927787781 37.6411170959 37.9823417664 45.9986953735 45.8714103699 45.6456336975 45.3632545471 45.1701965332 45.1703491211 45.3639450073 45.6463050842 45.8718948364 45.9987564087 54.0213623047 54.149356842 54.3764381409 54.6604003906 54.8549194336 54.8547286987 54.6596832275 54.3757591248 54.1488609314 54.0213050842 62.0378112793 62.3807144165 63.0307769775 63.8844451904 64.4782333374 64.4777603149 63.8823242188 63.0288238525 62.3793640137 62.0376663208 70.0397186279 70.4987106323 71.4825897217 72.8740539551 73.8587799072 73.8580703735 72.8706130981 71.4795074463 70.4967422485 70.03956604 78.0305633545 78.4221878052 79.4948043823 81.15284729 82.2760696411 82.2751922607 81.1488952637 79.4911575317 78.4202194214 78.0304718018 86.0197067261 86.2411956787 86.980178833 88.1445083618 88.925819397 88.9257583618 88.1416091919 86.9774780273 86.2398986816 86.0196685791 
