0.981880843639 1.00617206097 1.03171753883 1.08234643936 1.16590166092 1.16587591171 1.08228492737 1.02231431007 1.00614309311 0.981932163239 0.973311960697 1.05046153069 1.15972447395 1.29660582542 1.41780006886 1.41776990891 1.2964849472 1.10330498219 1.05040848255 0.973368346691 0.97091782093 1.14351928234 1.2701048851 1.41407167912 1.55395460129 1.55392515659 1.41394507885 1.2103395462 1.14345216751 0.970954537392 0.968709528446 1.18898773193 1.31656002998 1.44813108444 1.57022762299 1.57019078732 1.44803512096 1.25649189949 1.18892562389 0.968741238117 0.966751039028 1.22471964359 1.35633528233 1.4837423563 1.58691108227 1.58688056469 1.48365604877 1.29523360729 1.22465157509 0.96678352356 0.966751694679 1.22470700741 1.35631942749 1.48371899128 1.58707153797 1.58703148365 1.48362290859 1.29522788525 1.22463881969 0.966783821583 0.968713641167 1.18893122673 1.31650948524 1.44800519943 1.57040166855 1.57034695148 1.44790256023 1.2564470768 1.1888679266 0.968744397163 0.971349656582 1.11288285255 1.23196232319 1.36498725414 1.50688827038 1.50688445568 1.36486637592 1.17533671856 1.11282265186 0.971387803555 0.973320305347 1.05035161972 1.15956270695 1.29670989513 1.41805791855 1.41794586182 1.29670572281 1.10316061974 1.05029273033 0.973377346992 0.98191177845 1.00612604618 1.03164088726 1.08204567432 1.1655381918 1.16566693783 1.08185040951 1.02225840092 1.00609767437 0.981964826584 
0.981844186783 1.00561511517 1.03097951412 1.0814974308 1.16485035419 1.16482436657 1.08143627644 1.0215549469 1.00558698177 0.981895744801 0.973267376423 1.04974544048 1.15899157524 1.29582154751 1.4169074297 1.41687715054 1.2957007885 1.10252845287 1.04969274998 0.973323822021 0.970856547356 1.14271354675 1.26937186718 1.41315543652 1.55843353271 1.55840504169 1.41302907467 1.20958662033 1.14264667034 0.970893263817 0.968639731407 1.18813443184 1.31573152542 1.44720220566 1.57677161694 1.57673931122 1.44710731506 1.25572526455 1.18807208538 0.968671500683 0.966683268547 1.22386074066 1.35533285141 1.48299372196 1.59898281097 1.59895563126 1.48290967941 1.29442584515 1.22379219532 0.966715633869 0.966683864594 1.2238483429 1.3553160429 1.48297226429 1.59925377369 1.59921216965 1.4828774929 1.29441976547 1.22377943993 0.966716110706 0.968643784523 1.18807816505 1.3156825304 1.44707906246 1.57705521584 1.57700073719 1.44697654247 1.25568151474 1.18801450729 0.968674838543 0.971287965775 1.11206781864 1.2311617136 1.36404514313 1.5059119463 1.50591027737 1.36392378807 1.17453694344 1.11200773716 0.971326231956 0.973275780678 1.04963564873 1.15882980824 1.29592847824 1.41716253757 1.41705012321 1.29592561722 1.1023837328 1.04957723618 0.973332881927 0.981875360012 1.00556969643 1.03090262413 1.08119440079 1.16448938847 1.16461825371 1.08099889755 1.02149891853 1.00554192066 0.981928229332 
0.981844186783 1.005615592 1.03097987175 1.08149886131 1.16485238075 1.16482639313 1.08143770695 1.02155566216 1.0055873394 0.981895685196 0.973267197609 1.04974615574 1.15899264812 1.29582321644 1.41690921783 1.41687905788 1.29570233822 1.10252952576 1.04969370365 0.973323702812 0.970856249332 1.14271497726 1.26937365532 1.4131578207 1.55843698978 1.55840861797 1.41303181648 1.20958805084 1.14264810085 0.970893085003 0.968639552593 1.18813610077 1.31573367119 1.44720458984 1.57677483559 1.57674276829 1.44710993767 1.2557271719 1.18807387352 0.968671381474 0.966683089733 1.22386264801 1.3553352356 1.48299670219 1.59899199009 1.59896481037 1.48291277885 1.29442811012 1.22379410267 0.966715395451 0.96668368578 1.22385025024 1.35531818867 1.48297536373 1.59926331043 1.59922158718 1.48288059235 1.29442191124 1.22378110886 0.966715991497 0.968643605709 1.18807971478 1.31568443775 1.44708168507 1.57705926895 1.5770046711 1.44697928429 1.25568366051 1.18801617622 0.968674659729 0.971287846565 1.11206912994 1.23116350174 1.36404752731 1.5059145689 1.50591289997 1.36392629147 1.17453849316 1.11200892925 0.971325993538 0.973275661469 1.04963648319 1.15883088112 1.29593026638 1.41716432571 1.41705203056 1.29592716694 1.10238516331 1.04957818985 0.973332583904 0.981875360012 1.00557029247 1.03090333939 1.0811958313 1.16449129581 1.16462016106 1.08100020885 1.02149951458 1.00554227829 0.981928169727 
0.981844186783 1.00561606884 1.03098070621 1.08150005341 1.1648542881 1.16482818127 1.08143901825 1.02155613899 1.00558757782 0.981895506382 0.973267138004 1.04974710941 1.15899395943 1.29582464695 1.41691112518 1.41688072681 1.29570400715 1.10253059864 1.04969453812 0.973323702812 0.970855951309 1.14271616936 1.26937556267 1.41316044331 1.5584410429 1.55841243267 1.41303396225 1.20958948135 1.14264953136 0.97089278698 0.968639373779 1.1881377697 1.31573581696 1.44720733166 1.57678031921 1.57674813271 1.44711232185 1.25572896004 1.18807530403 0.96867120266 0.966682910919 1.22386455536 1.35533738136 1.48299956322 1.59900140762 1.59897422791 1.48291563988 1.29443001747 1.22379612923 0.966715157032 0.96668356657 1.22385203838 1.35532045364 1.48297822475 1.59927344322 1.59923136234 1.48288357258 1.29442405701 1.22378313541 0.966715753078 0.968643426895 1.18808150291 1.31568658352 1.44708418846 1.577064991 1.57701063156 1.44698143005 1.25568556786 1.18801784515 0.96867442131 0.971287727356 1.11207044125 1.23116493225 1.36404967308 1.50591683388 1.50591528416 1.36392843723 1.17454004288 1.11201024055 0.97132563591 0.973275601864 1.04963731766 1.15883219242 1.2959318161 1.41716611385 1.41705369949 1.29592883587 1.10238611698 1.04957890511 0.9733325243 0.981875181198 1.00557053089 1.03090405464 1.0811971426 1.16449344158 1.16462218761 1.08100152016 1.02150022984 1.00554275513 0.981928229332 
0.981844067574 1.00561630726 1.03098142147 1.08150136471 1.16485655308 1.16483008862 1.08144032955 1.02155685425 1.00558817387 0.981895506382 0.973267018795 1.04974794388 1.15899503231 1.29582607746 1.41691303253 1.41688251495 1.29570555687 1.10253190994 1.04969525337 0.973323523998 0.970856070518 1.14271771908 1.26937711239 1.41316270828 1.55844497681 1.55841624737 1.41303658485 1.20959115028 1.14265072346 0.970892965794 0.968639194965 1.18813931942 1.31573784351 1.44720959663 1.57678639889 1.57675433159 1.44711458683 1.2557311058 1.18807709217 0.968670964241 0.966682493687 1.22386646271 1.35533952713 1.48300266266 1.59901130199 1.59898376465 1.4829185009 1.29443204403 1.22379779816 0.966715037823 0.966683387756 1.22385394573 1.3553224802 1.48298096657 1.59928333759 1.5992410183 1.4828864336 1.29442596436 1.22378492355 0.966715455055 0.968643188477 1.18808317184 1.31568872929 1.44708669186 1.57707118988 1.57701659203 1.44698417187 1.25568723679 1.18801963329 0.968674242496 0.971287608147 1.11207151413 1.2311668396 1.36405181885 1.50591933727 1.50591754913 1.363930583 1.17454147339 1.11201155186 0.971325814724 0.973275482655 1.04963815212 1.1588332653 1.29593324661 1.4171680212 1.41705560684 1.29593026638 1.10238730907 1.04957997799 0.97333240509 0.981875121593 1.00557088852 1.03090465069 1.08119833469 1.16449546814 1.16462409496 1.08100271225 1.02150082588 1.00554311275 0.981928110123 
0.981843948364 1.0056167841 1.03098201752 1.08150267601 1.16485834122 1.16483223438 1.08144152164 1.02155745029 1.00558853149 0.981895387173 0.973266839981 1.04974853992 1.15899634361 1.29582762718 1.41691458225 1.41688430309 1.29570698738 1.10253274441 1.04969620705 0.973323464394 0.970855891705 1.14271914959 1.26937878132 1.41316521168 1.55844914913 1.55842041969 1.41303896904 1.2095925808 1.14265203476 0.97089266777 0.968639016151 1.18814110756 1.31573998928 1.44721221924 1.57679224014 1.57676029205 1.44711709023 1.25573277473 1.18807864189 0.968670845032 0.966682374477 1.22386825085 1.35534155369 1.4830057621 1.59902083874 1.59899353981 1.48292148113 1.29443430901 1.2237995863 0.966714859009 0.966683149338 1.22385585308 1.35532486439 1.48298406601 1.59929263592 1.59925079346 1.48288941383 1.2944278717 1.22378671169 0.966715216637 0.968643009663 1.18808472157 1.31569075584 1.44708907604 1.57707774639 1.57702338696 1.44698655605 1.25568950176 1.1880210638 0.968674004078 0.971287488937 1.11207282543 1.23116874695 1.36405432224 1.50592160225 1.50591981411 1.36393272877 1.17454278469 1.11201262474 0.97132563591 0.973275363445 1.04963898659 1.1588344574 1.29593491554 1.41716980934 1.41705751419 1.2959318161 1.10238814354 1.04958057404 0.97333240509 0.981875121593 1.00557112694 1.03090536594 1.081199646 1.16449701786 1.1646258831 1.08100414276 1.02150142193 1.00554335117 0.981927931309 
0.98184388876 1.00561702251 1.03098261356 1.08150398731 1.16486012936 1.16483414173 1.08144271374 1.02155804634 1.00558876991 0.981895446777 0.973266780376 1.0497494936 1.1589974165 1.29582929611 1.4169164896 1.41688609123 1.2957085371 1.10253405571 1.04969704151 0.973323404789 0.970855772495 1.14272034168 1.26938068867 1.41316723824 1.55845415592 1.5584256649 1.41304135323 1.20959424973 1.14265322685 0.970892548561 0.968638896942 1.18814253807 1.31574213505 1.44721460342 1.57679879665 1.57676672935 1.44711959362 1.25573480129 1.18808031082 0.968670666218 0.966682255268 1.2238701582 1.35534358025 1.48300862312 1.59903049469 1.59900295734 1.48292434216 1.29443597794 1.22380149364 0.966714560986 0.96668279171 1.22385764122 1.35532677174 1.48298704624 1.59930205345 1.5992603302 1.48289239407 1.29442965984 1.22378873825 0.966715097427 0.968642830849 1.1880863905 1.31569314003 1.44709146023 1.57708692551 1.57703256607 1.44698905945 1.25569140911 1.18802285194 0.968673884869 0.971287250519 1.11207413673 1.23116981983 1.36405622959 1.50592374802 1.5059221983 1.36393511295 1.17454409599 1.11201381683 0.971325397491 0.973275244236 1.04963970184 1.15883564949 1.29593634605 1.41717147827 1.41705918312 1.29593336582 1.10238945484 1.0495814085 0.973332285881 0.981875121593 1.00557160378 1.03090596199 1.08120083809 1.16449916363 1.16462802887 1.08100533485 1.02150189877 1.0055437088 0.981927931309 
