1.0 1.00000011921 0.999017238617 1.04058790207 1.10096955299 1.10094368458 1.04049479961 1.00000023842 1.0 1.0 0.999999940395 1.00084149837 1.08396446705 1.18436062336 1.26855993271 1.26853621006 1.18428111076 1.03596103191 1.0008251667 1.0 1.0 1.06312966347 1.16589331627 1.27654850483 1.38238787651 1.38236987591 1.27647268772 1.11365652084 1.06305968761 1.00000011921 1.0 1.09909594059 1.20173752308 1.30422401428 1.40106856823 1.40104925632 1.30415797234 1.14881885052 1.09903371334 1.00000011921 1.0 1.12521958351 1.23259806633 1.33461773396 1.41761565208 1.41760122776 1.33456373215 1.17609393597 1.12515962124 1.00000011921 1.0 1.12520992756 1.2325886488 1.33459830284 1.417719841 1.41769886017 1.33453798294 1.1760879755 1.12515044212 1.00000011921 1.0 1.09905087948 1.20170104504 1.30413722992 1.40117871761 1.40114927292 1.30406701565 1.14877915382 1.0989896059 1.0 1.0 1.04161071777 1.13860297203 1.24182987213 1.34379994869 1.3437974453 1.24174070358 1.09195232391 1.04153871536 1.00000011921 1.0 1.00082278252 1.08387470245 1.1843508482 1.26867234707 1.26860058308 1.18430113792 1.03587758541 1.00080728531 1.00000011921 1.0 1.00000011921 0.999024629593 1.04046189785 1.10070872307 1.10076189041 1.04033339024 1.00000011921 1.0 0.999999940395 
1.0 1.00000011921 0.999017238617 1.04058790207 1.10096955299 1.10094368458 1.04049479961 1.00000023842 1.0 1.0 0.999999940395 1.00084149837 1.08396446705 1.18436062336 1.26855993271 1.26853621006 1.18428111076 1.03596103191 1.0008251667 1.0 1.0 1.06312966347 1.16589331627 1.27654850483 1.38628435135 1.38626670837 1.27647268772 1.11365652084 1.06305968761 1.00000011921 1.0 1.09909594059 1.20173752308 1.30422401428 1.40772128105 1.40770447254 1.30415797234 1.14881885052 1.09903371334 1.00000011921 1.0 1.12521958351 1.23259806633 1.33543646336 1.42973148823 1.42971837521 1.33538460732 1.17609393597 1.12515962124 1.00000011921 1.0 1.12520992756 1.2325886488 1.33541762829 1.42989289761 1.42987084389 1.33535850048 1.1760879755 1.12515044212 1.00000011921 1.0 1.09905087948 1.20170104504 1.30413722992 1.40789091587 1.40786135197 1.30406701565 1.14877915382 1.0989896059 1.0 1.0 1.04161071777 1.13860297203 1.24182987213 1.34379994869 1.3437974453 1.24174070358 1.09195232391 1.04153871536 1.00000011921 1.0 1.00082278252 1.08387470245 1.1843508482 1.26867234707 1.26860058308 1.18430113792 1.03587758541 1.00080728531 1.00000011921 1.0 1.00000011921 0.999024629593 1.04046189785 1.10070872307 1.10076189041 1.04033339024 1.00000011921 1.0 0.999999940395 
1.0 1.00000011921 0.999017238617 1.04058790207 1.10096955299 1.10094368458 1.04049479961 1.00000023842 1.0 1.0 0.999999940395 1.00084149837 1.08396446705 1.18436062336 1.26855993271 1.26853621006 1.18428111076 1.03596103191 1.0008251667 1.0 1.0 1.06312966347 1.16589331627 1.27654850483 1.38628399372 1.38626623154 1.27647268772 1.11365652084 1.06305968761 1.00000011921 1.0 1.09909594059 1.20173752308 1.30422401428 1.40773820877 1.40772116184 1.30415797234 1.14881885052 1.09903371334 1.00000011921 1.0 1.12521958351 1.23259806633 1.33543646336 1.42983174324 1.42981874943 1.33538460732 1.17609393597 1.12515962124 1.00000011921 1.0 1.12520992756 1.2325886488 1.33541762829 1.42999529839 1.42997324467 1.33535850048 1.1760879755 1.12515044212 1.00000011921 1.0 1.09905087948 1.20170104504 1.30413722992 1.40790987015 1.40788030624 1.30406701565 1.14877915382 1.0989896059 1.0 1.0 1.04161071777 1.13860297203 1.24182987213 1.34379994869 1.3437974453 1.24174070358 1.09195232391 1.04153871536 1.00000011921 1.0 1.00082278252 1.08387470245 1.1843508482 1.26867234707 1.26860058308 1.18430113792 1.03587758541 1.00080728531 1.00000011921 1.0 1.00000011921 0.999024629593 1.04046189785 1.10070872307 1.10076189041 1.04033339024 1.00000011921 1.0 0.999999940395 
1.0 1.00000011921 0.999017238617 1.04058790207 1.10096955299 1.10094368458 1.04049479961 1.00000023842 1.0 1.0 0.999999940395 1.00084149837 1.08396446705 1.18436062336 1.26855993271 1.26853621006 1.18428111076 1.03596103191 1.0008251667 1.0 1.0 1.06312966347 1.16589331627 1.27654850483 1.38628268242 1.38626503944 1.27647268772 1.11365652084 1.06305968761 1.00000011921 1.0 1.09909594059 1.20173752308 1.30422401428 1.4077450037 1.40772783756 1.30415797234 1.14881885052 1.09903371334 1.00000011921 1.0 1.12521958351 1.23259806633 1.33543646336 1.42984294891 1.42982983589 1.33538460732 1.17609393597 1.12515962124 1.00000011921 1.0 1.12520992756 1.2325886488 1.33541762829 1.43000650406 1.42998468876 1.33535850048 1.1760879755 1.12515044212 1.00000011921 1.0 1.09905087948 1.20170104504 1.30413722992 1.40791702271 1.40788710117 1.30406701565 1.14877915382 1.0989896059 1.0 1.0 1.04161071777 1.13860297203 1.24182987213 1.34379994869 1.3437974453 1.24174070358 1.09195232391 1.04153871536 1.00000011921 1.0 1.00082278252 1.08387470245 1.1843508482 1.26867234707 1.26860058308 1.18430113792 1.03587758541 1.00080728531 1.00000011921 1.0 1.00000011921 0.999024629593 1.04046189785 1.10070872307 1.10076189041 1.04033339024 1.00000011921 1.0 0.999999940395 
1.0 1.00000011921 0.999017238617 1.04058790207 1.10096955299 1.10094368458 1.04049479961 1.00000023842 1.0 1.0 0.999999940395 1.00084149837 1.08396446705 1.18436062336 1.26855993271 1.26853621006 1.18428111076 1.03596103191 1.0008251667 1.0 1.0 1.06312966347 1.16589331627 1.27654850483 1.38628196716 1.38626432419 1.27647268772 1.11365652084 1.06305968761 1.00000011921 1.0 1.09909594059 1.20173752308 1.30422401428 1.40775251389 1.40773558617 1.30415797234 1.14881885052 1.09903371334 1.00000011921 1.0 1.12521958351 1.23259806633 1.33543741703 1.42985200882 1.42983877659 1.33538544178 1.17609393597 1.12515962124 1.00000011921 1.0 1.12520992756 1.2325886488 1.33541870117 1.43001544476 1.42999374866 1.33535933495 1.1760879755 1.12515044212 1.00000011921 1.0 1.09905087948 1.20170104504 1.30413722992 1.40792453289 1.40789449215 1.30406701565 1.14877915382 1.0989896059 1.0 1.0 1.04161071777 1.13860297203 1.24182987213 1.34379994869 1.3437974453 1.24174070358 1.09195232391 1.04153871536 1.00000011921 1.0 1.00082278252 1.08387470245 1.1843508482 1.26867234707 1.26860058308 1.18430113792 1.03587758541 1.00080728531 1.00000011921 1.0 1.00000011921 0.999024629593 1.04046189785 1.10070872307 1.10076189041 1.04033339024 1.00000011921 1.0 0.999999940395 
1.0 1.00000011921 0.999017238617 1.04058790207 1.10096955299 1.10094368458 1.04049479961 1.00000023842 1.0 1.0 0.999999940395 1.00084149837 1.08396446705 1.18436062336 1.26855993271 1.26853621006 1.18428111076 1.03596103191 1.0008251667 1.0 1.0 1.06312966347 1.16589331627 1.27654850483 1.38628733158 1.38627004623 1.27647268772 1.11365652084 1.06305968761 1.00000011921 1.0 1.09909594059 1.20173752308 1.30422401428 1.40776002407 1.40774309635 1.30415797234 1.14881885052 1.09903371334 1.00000011921 1.0 1.12521958351 1.23259806633 1.33543848991 1.42986035347 1.42984759808 1.33538687229 1.17609393597 1.12515962124 1.00000011921 1.0 1.12520992756 1.2325886488 1.33541989326 1.43002438545 1.43000257015 1.33536064625 1.1760879755 1.12515044212 1.00000011921 1.0 1.09905087948 1.20170104504 1.30413722992 1.40793216228 1.40790212154 1.30406701565 1.14877915382 1.0989896059 1.0 1.0 1.04161071777 1.13860297203 1.24182987213 1.34379994869 1.3437974453 1.24174070358 1.09195232391 1.04153871536 1.00000011921 1.0 1.00082278252 1.08387470245 1.1843508482 1.26867234707 1.26860058308 1.18430113792 1.03587758541 1.00080728531 1.00000011921 1.0 1.00000011921 0.999024629593 1.04046189785 1.10070872307 1.10076189041 1.04033339024 1.00000011921 1.0 0.999999940395 
1.0 1.00000011921 0.999017238617 1.04058790207 1.10096955299 1.10094368458 1.04049479961 1.00000023842 1.0 1.0 0.999999940395 1.00084149837 1.08396446705 1.18436062336 1.26855993271 1.26853621006 1.18428111076 1.03596103191 1.0008251667 1.0 1.0 1.06312966347 1.16589331627 1.27654850483 1.38629448414 1.38627684116 1.27647268772 1.11365652084 1.06305968761 1.00000011921 1.0 1.09909594059 1.20173752308 1.30422401428 1.40776705742 1.40775036812 1.30415797234 1.14881885052 1.09903371334 1.00000011921 1.0 1.12521958351 1.23259806633 1.33543968201 1.42986905575 1.42985630035 1.33538818359 1.17609393597 1.12515962124 1.00000011921 1.0 1.12520992756 1.2325886488 1.33542132378 1.43003332615 1.43001127243 1.33536207676 1.1760879755 1.12515044212 1.00000011921 1.0 1.09905087948 1.20170104504 1.30413722992 1.40793943405 1.40790951252 1.30406701565 1.14877915382 1.0989896059 1.0 1.0 1.04161071777 1.13860297203 1.24182987213 1.34379994869 1.3437974453 1.24174070358 1.09195232391 1.04153871536 1.00000011921 1.0 1.00082278252 1.08387470245 1.1843508482 1.26867234707 1.26860058308 1.18430113792 1.03587758541 1.00080728531 1.00000011921 1.0 1.00000011921 0.999024629593 1.04046189785 1.10070872307 1.10076189041 1.04033339024 1.00000011921 1.0 0.999999940395 
