13.9384031296 21.7157344818 29.3102455139 37.1945075989 45.6538543701 54.3679199219 62.8259162903 70.7088241577 78.3034210205 86.0813217163 13.9021434784 21.4891872406 28.5760536194 36.4068260193 45.3374404907 54.68592453 63.6142539978 71.4420700073 78.5287780762 86.1174240112 13.8829565048 21.3292942047 28.1378250122 35.9538841248 45.144947052 54.8793754578 64.0674667358 71.8798675537 78.6878814697 86.1365432739 13.8683815002 21.2424545288 27.9562911987 35.7692222595 45.0665817261 54.9581413269 64.2522583008 72.0612411499 78.7744140625 86.1510391235 13.8593292236 21.2050151825 27.8821392059 35.6916694641 45.0339927673 54.9908828735 64.329864502 72.1353302002 78.8117294312 86.1600723267 13.8593387604 21.2050418854 27.882194519 35.6917266846 45.0340194702 54.990852356 64.3298110962 72.1352767944 78.8117218018 86.1600494385 13.8684120178 21.242609024 27.9565887451 35.7695732117 45.0667114258 54.9579963684 64.251914978 72.0609512329 78.774269104 86.151008606 13.8829936981 21.3295917511 28.1385231018 35.9546012878 45.1454162598 54.87890625 64.0667572021 71.8791809082 78.6876068115 86.1364822388 13.9022064209 21.4896621704 28.5775337219 36.408241272 45.338104248 54.6852378845 63.6128692627 71.4405822754 78.5283203125 86.1173629761 13.9385414124 21.7164211273 29.3122005463 37.1970901489 45.6550483704 54.366771698 62.8233451843 70.7069625854 78.3027648926 86.0811691284 
13.9358329773 21.7100734711 29.3042507172 37.178527832 45.6403961182 54.3814544678 62.8418655396 70.7148132324 78.3090820312 86.0838775635 13.8977966309 21.4785842896 28.5436649323 36.3166046143 45.2743186951 54.7493629456 63.7043304443 71.4743423462 78.5393753052 86.1217498779 13.8760499954 21.3018798828 28.0521717072 35.7618560791 45.0304222107 54.9944915771 64.2593307495 71.9652633667 78.7152099609 86.1434173584 13.8587884903 21.1910552979 27.7948741913 35.5047683716 44.926410675 55.0990142822 64.5166168213 72.2223358154 78.8256225586 86.1605987549 13.8474655151 21.1352939606 27.6718730927 35.3939704895 44.8835372925 55.1420974731 64.627532959 72.3452377319 78.881187439 86.171875 13.8474769592 21.1353340149 27.6719646454 35.3940353394 44.8835830688 55.1420440674 64.6274642944 72.3451538086 78.8811264038 86.1718597412 13.8588266373 21.1912631989 27.7953453064 35.5052452087 44.9265785217 55.0988311768 64.5161514282 72.221862793 78.8254165649 86.1605758667 13.8760957718 21.302230835 28.0530338287 35.7628326416 45.0309638977 54.993938446 64.2583465576 71.9644241333 78.7148742676 86.143371582 13.8978614807 21.4790782928 28.5452518463 36.3182258606 45.2751808167 54.7484588623 63.7027587891 71.4727478027 78.5389022827 86.1216964722 13.9359645844 21.7107200623 29.3061199188 37.1812400818 45.6415977478 54.3803024292 62.8391418457 70.7130813599 78.3084793091 86.0837402344 
13.9355516434 21.7096824646 29.3044261932 37.1780738831 45.6396865845 54.3821716309 62.8423156738 70.714630127 78.3094863892 86.0841445923 13.8973169327 21.478017807 28.5413818359 36.3080825806 45.2679290771 54.7557754517 63.7128372192 71.4766235352 78.5399398804 86.1222305298 13.8752269745 21.2990760803 28.0422420502 35.7351036072 45.0084953308 55.0165176392 64.286026001 71.975151062 78.7180023193 86.144241333 13.8575115204 21.1842823029 27.7721652985 35.4494171143 44.8896980286 55.1359138489 64.5719070435 72.2449645996 78.8323669434 86.1618728638 13.8458061218 21.1250972748 27.6380710602 35.3199539185 44.8391304016 55.1867103577 64.7014923096 72.3789367676 78.8913269043 86.1735305786 13.8458175659 21.1251392365 27.6381721497 35.3200416565 44.8391799927 55.186668396 64.7014007568 72.3788452148 78.8912887573 86.1735153198 13.8575496674 21.1845035553 27.7726669312 35.4499511719 44.8898963928 55.1356925964 64.5713577271 72.2444610596 78.8321456909 86.161819458 13.8752708435 21.2994251251 28.0431346893 35.7361450195 45.0090942383 55.015914917 64.2849884033 71.9743041992 78.7176589966 86.1441955566 13.8973808289 21.4785118103 28.5429859161 36.3097229004 45.2688102722 54.7548599243 63.7112426758 71.4750061035 78.5394668579 86.1221618652 13.9356861115 21.7103233337 29.3062782288 37.1808013916 45.6408843994 54.3810310364 62.8395805359 70.7129211426 78.308883667 86.084022522 
13.9355106354 21.709646225 29.3045139313 37.1780853271 45.6396408081 54.3822097778 62.842300415 70.7145462036 78.3095245361 86.084197998 13.8972434998 21.4779758453 28.5411548615 36.3069763184 45.2671852112 54.7565307617 63.7139434814 71.4768371582 78.5399856567 86.1222991943 13.8750925064 21.298664093 28.0408306122 35.731338501 45.0052604675 55.0197639465 64.2897720337 71.9765701294 78.7184143066 86.1443634033 13.857301712 21.1831436157 27.7682800293 35.439666748 44.8824615479 55.1431846619 64.5816345215 72.2488327026 78.8334960938 86.1620864868 13.8455200195 21.1233005524 27.6319618225 35.3050689697 44.8293800354 55.1965103149 64.7163619995 72.3850479126 78.8931121826 86.1738128662 13.8455314636 21.123342514 27.6320648193 35.3051605225 44.8294334412 55.1964645386 64.7162628174 72.3849334717 78.893081665 86.1738052368 13.857339859 21.1833648682 27.7687854767 35.4402122498 44.8826713562 55.1429481506 64.5810928345 72.2483291626 78.8332824707 86.1620483398 13.8751392365 21.2990150452 28.0417118073 35.7323989868 45.0058670044 55.0191345215 64.2887191772 71.9757080078 78.7180557251 86.144317627 13.8973083496 21.4784755707 28.5427646637 36.3086242676 45.2680664062 54.7556037903 63.7123374939 71.475227356 78.5395050049 86.122253418 13.9356431961 21.7102851868 29.3063640594 37.1808242798 45.6408348083 54.3810844421 62.8395614624 70.7128295898 78.308921814 86.0840454102 
13.9355020523 21.7096366882 29.3045368195 37.1781005859 45.6396331787 54.3822135925 62.8422889709 70.7145233154 78.3095245361 86.0842056274 13.8972291946 21.4779682159 28.5411224365 36.3067779541 45.2670516968 54.7566604614 63.7141342163 71.4768600464 78.5399932861 86.1223144531 13.8750677109 21.2985801697 28.0405445099 35.730670929 45.0046958923 55.0203208923 64.2904434204 71.9768600464 78.7185134888 86.1444015503 13.8572559357 21.1828975677 27.7674503326 35.4376525879 44.8809013367 55.1447525024 64.5836334229 72.2496643066 78.8337478638 86.1621322632 13.8454589844 21.1229057312 27.6306056976 35.3016433716 44.8270835876 55.1988220215 64.7197647095 72.386390686 78.8935165405 86.173866272 13.8454694748 21.1229457855 27.6307048798 35.3017349243 44.8271408081 55.198764801 64.7196807861 72.3862915039 78.8934783936 86.173866272 13.8572950363 21.1831207275 27.7679538727 35.4382133484 44.8811225891 55.1445159912 64.5830841064 72.2491760254 78.8335342407 86.1620864868 13.8751106262 21.2989349365 28.0414333344 35.7317390442 45.0053253174 55.0197029114 64.289390564 71.975982666 78.7181472778 86.1443481445 13.8972930908 21.4784660339 28.5427341461 36.308429718 45.2679328918 54.7557373047 63.7125320435 71.4752578735 78.5395126343 86.1222610474 13.9356355667 21.7102775574 29.3063869476 37.1808319092 45.6408348083 54.3810882568 62.8395462036 70.7128067017 78.308921814 86.0840606689 
13.9355010986 21.7096366882 29.3045463562 37.1781005859 45.6396331787 54.3822135925 62.8422927856 70.7145309448 78.3095321655 86.0842056274 13.8972244263 21.4779663086 28.5411148071 36.3067359924 45.2670211792 54.756690979 63.7141838074 71.4768829346 78.5399856567 86.1223220825 13.8750572205 21.2985572815 28.0404644012 35.7305145264 45.0045890808 55.0204429626 64.2905883789 71.9769363403 78.7185211182 86.1444168091 13.8572444916 21.1828308105 27.7672214508 35.4371490479 44.8805122375 55.1451377869 64.5841445923 72.2499008179 78.8338088989 86.162147522 13.8454418182 21.1227931976 27.63022995 35.3007202148 44.8264694214 55.1994438171 64.7206954956 72.3867797852 78.8936233521 86.1738891602 13.8454532623 21.122838974 27.6303348541 35.3008079529 44.8265266418 55.1993865967 64.7206115723 72.3866729736 78.8935775757 86.1738739014 13.8572835922 21.183052063 27.7677364349 35.4377059937 44.8807373047 55.1449012756 64.5835876465 72.249382019 78.8336029053 86.1621017456 13.8751058578 21.2989082336 28.0413589478 35.7315826416 45.0052108765 55.0198020935 64.2895507812 71.9760665894 78.718170166 86.1443557739 13.8972902298 21.4784622192 28.5427207947 36.3083877563 45.2679100037 54.7557640076 63.7125701904 71.4752731323 78.5395202637 86.1222763062 13.9356327057 21.71027565 29.3063926697 37.1808319092 45.640827179 54.3810882568 62.8395462036 70.7128067017 78.308921814 86.0840606689 
13.9354991913 21.7096328735 29.3045349121 37.1780967712 45.6396255493 54.3822174072 62.8422927856 70.7145309448 78.3095245361 86.0842056274 13.8972234726 21.4779663086 28.5410995483 36.3067131042 45.2670173645 54.7567062378 63.7142028809 71.476890564 78.5400009155 86.1223144531 13.8750562668 21.2985420227 28.0404319763 35.7304573059 45.0045776367 55.0204658508 64.2906570435 71.9769668579 78.7185440063 86.1444015503 13.8572406769 21.1828022003 27.7671337128 35.4369888306 44.8804016113 55.1452560425 64.584312439 72.2499694824 78.8338470459 86.162147522 13.8454380035 21.1227550507 27.6301002502 35.3004150391 44.8262748718 55.1996459961 64.7210006714 72.3869018555 78.8936538696 86.1738967896 13.845448494 21.1227970123 27.6302013397 35.3005027771 44.8263244629 55.1995811462 64.7209014893 72.3868026733 78.8936157227 86.1738891602 13.8572797775 21.1830234528 27.7676429749 35.437538147 44.8806152344 55.1450233459 64.5837478638 72.2494735718 78.8336181641 86.1621017456 13.8751010895 21.2988967896 28.0413208008 35.7315254211 45.0051879883 55.0198364258 64.289604187 71.9760894775 78.7181777954 86.1443481445 13.8972892761 21.4784622192 28.5427093506 36.3083648682 45.2678947449 54.7557754517 63.7125968933 71.4752807617 78.5395126343 86.1222763062 13.9356327057 21.7102718353 29.3063850403 37.1808242798 45.640827179 54.3810844421 62.8395576477 70.7128143311 78.3089370728 86.0840606689 
