2.26490116119 3.86026000977 6.77690601349 9.47732925415 10.9608392715 10.9596672058 9.47162818909 6.76938819885 3.8535733223 2.2647922039 2.2907474041 5.05375671387 9.73540401459 14.0901994705 16.4760322571 16.4741420746 14.0810289383 9.72338104248 5.04275417328 2.29043722153 2.3152616024 5.9228272438 11.7978172302 17.1935577393 20.265630722 20.2631759644 17.1819820404 11.7829532623 5.90880537033 2.31476283073 2.33124232292 6.44628000259 12.9656448364 18.9067878723 22.3182983398 22.3155632019 18.8939990997 12.9492874146 6.43049907684 2.33062291145 2.34003472328 6.70893478394 13.5381002426 19.7315006256 23.2935466766 23.2906990051 19.7181625366 13.5210399628 6.69231462479 2.3393497467 2.34002828598 6.70873451233 13.5376644135 19.7308750153 23.2928085327 23.2899608612 19.7175369263 13.5206108093 6.69211387634 2.33934283257 2.33120727539 6.44524335861 12.9633541107 18.9034461975 22.3143234253 22.3115921021 18.8906803131 12.9470186234 6.4294719696 2.33058834076 2.31521224976 5.92106819153 11.7938089371 17.1875591278 20.2579231262 20.2555198669 17.1760292053 11.7789850235 5.90706539154 2.31471323967 2.29067206383 5.05115795135 9.72904586792 14.0807876587 16.464132309 16.4622821808 14.0717544556 9.71710109711 5.04020643234 2.29036474228 2.26485681534 3.85694289207 6.76824188232 9.46270465851 10.9431180954 10.9421806335 9.4570016861 6.76094770432 3.8503370285 2.26474833488 
2.26489925385 3.8598959446 6.77606201172 9.47618865967 10.9595947266 10.9584226608 9.47048664093 6.76854515076 3.85321092606 2.26479029655 2.29074025154 5.05325651169 9.73434638977 14.0888462067 16.4746055603 16.4727153778 14.0796766281 9.72232437134 5.04225492477 2.29043006897 2.31525015831 5.92226076126 11.7966527939 17.1920413971 20.2640457153 20.2615909576 17.1804637909 11.7817897797 5.90824079514 2.31475162506 2.33122849464 6.44568538666 12.964430809 18.9052314758 22.3167572021 22.3140239716 18.8924446106 12.9480772018 6.42990589142 2.33060908318 2.34001994133 6.70833301544 13.5368862152 19.7299900055 23.2923049927 23.2894554138 19.7166519165 13.519826889 6.69171333313 2.33933448792 2.34001350403 6.70813131332 13.5364513397 19.7293624878 23.2915668488 23.2887172699 19.7160263062 13.5193996429 6.69151306152 2.33932828903 2.33119297028 6.444647789 12.9621429443 18.9018936157 22.3127841949 22.310049057 18.8891277313 12.9458036423 6.42887878418 2.33057451248 2.31520056725 5.92050123215 11.7926445007 17.1860408783 20.2563381195 20.2539367676 17.1745166779 11.7778253555 5.90650129318 2.31470227242 2.29066538811 5.05065727234 9.7279882431 14.0794353485 16.4627056122 16.4608535767 14.0704040527 9.71604251862 5.03970766068 2.29035782814 2.26485538483 3.85657978058 6.76739835739 9.46156406403 10.9418716431 10.9409360886 9.45586204529 6.76010513306 3.8499751091 2.26474666595 
2.26489925385 3.85990953445 6.77609634399 9.47623443604 10.9596443176 10.9584732056 9.47053337097 6.76857757568 3.8532242775 2.26479029655 2.29074072838 5.05327653885 9.73438930511 14.0889024734 16.4746627808 16.4727725983 14.0797319412 9.72236633301 5.04227495193 2.29043030739 2.31525087357 5.92228555679 11.7967042923 17.1921062469 20.2641201019 20.2616615295 17.1805305481 11.7818374634 5.90826511383 2.3147521019 2.3312292099 6.4457116127 12.9644851685 18.9053077698 22.3168411255 22.3141021729 18.8925189972 12.9481315613 6.42993211746 2.33060956001 2.34002113342 6.70836114883 13.536942482 19.7300720215 23.2923908234 23.2895450592 19.7167301178 13.5198860168 6.6917424202 2.33933568001 2.34001398087 6.70815944672 13.5365066528 19.7294445038 23.2916545868 23.2888069153 19.7161083221 13.5194559097 6.69154167175 2.33932924271 2.33119392395 6.44467401505 12.9621963501 18.9019680023 22.3128623962 22.3101291656 18.8892002106 12.9458589554 6.42890453339 2.33057522774 2.3152012825 5.92052507401 11.7926940918 17.1861076355 20.2564048767 20.2540073395 17.1745758057 11.7778739929 5.90652418137 2.31470251083 2.29066538811 5.0506772995 9.72803020477 14.079492569 16.4627628326 16.4609146118 14.0704584122 9.71608448029 5.039727211 2.29035806656 2.26485562325 3.85659337044 6.76743125916 9.46161079407 10.9419221878 10.940987587 9.45590591431 6.76013803482 3.8499891758 2.26474642754 
2.26489925385 3.85992312431 6.77612781525 9.4762802124 10.959692955 10.9585227966 9.47057819366 6.76861047745 3.85323762894 2.26479029655 2.2907409668 5.05329561234 9.73443126678 14.0889587402 16.4747238159 16.4728317261 14.0797863007 9.72240829468 5.0422949791 2.29043078423 2.31525158882 5.92230892181 11.796749115 17.1921730042 20.2641868591 20.2617301941 17.1805934906 11.7818861008 5.90828800201 2.31475281715 2.33122968674 6.44573736191 12.9645395279 18.905380249 22.3169155121 22.3141822815 18.8925933838 12.9481859207 6.42995834351 2.33061027527 2.34002161026 6.70838928223 13.5370025635 19.7301502228 23.2924804688 23.2896327972 19.7168102264 13.519944191 6.69176959991 2.33933615685 2.34001493454 6.70818853378 13.5365657806 19.7295227051 23.2917404175 23.2888946533 19.7161827087 13.5195131302 6.69156980515 2.33932971954 2.33119440079 6.44470024109 12.9622516632 18.9020404816 22.3129386902 22.3102073669 18.8892726898 12.9459142685 6.4289317131 2.33057570457 2.31520152092 5.92054891586 11.7927417755 17.1861724854 20.2564811707 20.2540740967 17.1746425629 11.7779226303 5.90654802322 2.31470274925 2.29066586494 5.05069732666 9.72807312012 14.0795488358 16.4628219604 16.4609718323 14.0705137253 9.71612739563 5.03974676132 2.29035806656 2.26485562325 3.85660767555 6.76746416092 9.46165466309 10.9419727325 10.9410362244 9.45595264435 6.76017093658 3.85000228882 2.26474642754 
2.26489973068 3.85993671417 6.77615880966 9.47632312775 10.9597415924 10.9585704803 9.47062015533 6.76864242554 3.85325098038 2.26479077339 2.2907409668 5.0533156395 9.73447227478 14.0890130997 16.4747810364 16.4728908539 14.0798416138 9.72244930267 5.04231357574 2.29043102264 2.31525206566 5.92233228683 11.7967987061 17.1922340393 20.264257431 20.2617988586 17.1806583405 11.7819366455 5.90831136703 2.31475353241 2.33123016357 6.44576358795 12.9645957947 18.9054527283 22.3169975281 22.3142585754 18.892665863 12.9482393265 6.42998456955 2.33061122894 2.34002232552 6.70841789246 13.5370607376 19.7302284241 23.2925758362 23.2897281647 19.7168865204 13.5200014114 6.69179725647 2.3393368721 2.34001612663 6.7082157135 13.5366277695 19.7296047211 23.2918338776 23.2889862061 19.7162628174 13.5195703506 6.69159603119 2.3393304348 2.33119511604 6.44472694397 12.9623069763 18.9021129608 22.3130226135 22.3102874756 18.8893432617 12.9459686279 6.42895793915 2.33057618141 2.31520223618 5.92057228088 11.7927894592 17.1862354279 20.2565460205 20.2541446686 17.1747074127 11.7779693604 5.90657091141 2.31470370293 2.29066610336 5.05071544647 9.72811508179 14.0796012878 16.4628829956 16.4610309601 14.0705690384 9.7161693573 5.03976583481 2.2903585434 2.26485562325 3.85662007332 6.7674946785 9.4616985321 10.9420204163 10.9410839081 9.45599460602 6.760201931 3.85001587868 2.26474642754 
2.2648999691 3.85994935036 6.77618980408 9.47636604309 10.9597892761 10.9586181641 9.47066402435 6.76867198944 3.8532640934 2.26479053497 2.29074144363 5.05333423615 9.73451328278 14.0890665054 16.4748382568 16.4729480743 14.0798931122 9.72249126434 5.04233264923 2.29043149948 2.3152525425 5.92235469818 11.7968463898 17.1923007965 20.2643260956 20.2618656158 17.1807231903 11.7819843292 5.90833330154 2.31475400925 2.33123087883 6.44578933716 12.9646492004 18.9055252075 22.317073822 22.3143405914 18.8927383423 12.9482946396 6.43001079559 2.33061170578 2.34002327919 6.70844507217 13.5371170044 19.7303104401 23.2926692963 23.2898178101 19.7169685364 13.5200586319 6.69182443619 2.33933782578 2.34001636505 6.70824384689 13.5366859436 19.7296829224 23.2919273376 23.2890777588 19.7163467407 13.5196275711 6.69162416458 2.33933138847 2.33119559288 6.44475221634 12.9623622894 18.9021854401 22.3131027222 22.3103675842 18.8894176483 12.94602108 6.42898416519 2.33057713509 2.31520271301 5.92059516907 11.7928390503 17.1863002777 20.2566146851 20.2542133331 17.1747722626 11.7780170441 5.90659475327 2.31470417976 2.2906665802 5.05073547363 9.72815513611 14.0796546936 16.4629364014 16.4610900879 14.0706214905 9.71620941162 5.03978490829 2.29035878181 2.26485562325 3.85663366318 6.76752662659 9.46174049377 10.9420671463 10.9411325455 9.45603752136 6.76023292542 3.85002827644 2.26474666595 
2.2648999691 3.85996246338 6.77622032166 9.47640991211 10.9598350525 10.9586648941 9.4707069397 6.76870250702 3.85327720642 2.26479101181 2.29074192047 5.05335235596 9.73455524445 14.0891189575 16.4748954773 16.4730033875 14.0799474716 9.72253131866 5.04235124588 2.29043197632 2.31525301933 5.92237758636 11.7968959808 17.1923618317 20.2643909454 20.2619342804 17.1807861328 11.7820320129 5.90835666656 2.3147547245 2.33123159409 6.44581604004 12.9647035599 18.9055976868 22.317155838 22.3144187927 18.8928127289 12.9483470917 6.4300365448 2.33061242104 2.34002375603 6.70847225189 13.5371742249 19.7303848267 23.2927589417 23.2899074554 19.7170467377 13.520116806 6.69185256958 2.33933854103 2.34001731873 6.70827198029 13.5367412567 19.7297592163 23.2920150757 23.2891674042 19.71641922 13.5196866989 6.69165277481 2.33933210373 2.33119654655 6.44477844238 12.9624147415 18.9022598267 22.3131809235 22.3104476929 18.8894920349 12.9460754395 6.42900943756 2.3305773735 2.31520318985 5.92061805725 11.7928848267 17.1863632202 20.2566814423 20.2542819977 17.1748332977 11.7780685425 5.90661764145 2.31470489502 2.29066681862 5.05075454712 9.7281961441 14.0797071457 16.4629974365 16.461145401 14.0706729889 9.71625137329 5.03980350494 2.29035902023 2.26485562325 3.85664558411 6.76755666733 9.46178436279 10.9421157837 10.9411792755 9.45608139038 6.76026391983 3.85004115105 2.26474714279 
