13.9349517822 21.7050380707 29.2966098785 37.1700706482 45.6364822388 54.3853912354 62.850353241 70.7224349976 78.314125061 86.0847549438 13.8963651657 21.4731884003 28.5191192627 36.3170814514 45.2813339233 54.7423095703 63.7039489746 71.4988708496 78.5447540283 86.1231765747 13.8735818863 21.2938308716 28.0115699768 35.7622795105 45.0342559814 54.9906234741 64.2590103149 72.0058746338 78.7231445312 86.1458816528 13.8552474976 21.175151825 27.7542037964 35.4880256653 44.9163742065 55.1091041565 64.5334320068 72.2630004883 78.8414535522 86.1641387939 13.8430900574 21.1170768738 27.6298789978 35.3609466553 44.8647575378 55.1609687805 64.6605987549 72.3872146606 78.8993301392 86.1762390137 13.8430995941 21.1171150208 27.6299724579 35.361038208 44.8648147583 55.1609115601 64.6605224609 72.3871231079 78.8992919922 86.1762161255 13.8552913666 21.17537117 27.7546749115 35.4885444641 44.9165763855 55.1088867188 64.5329055786 72.2625198364 78.8412322998 86.1640930176 13.8736276627 21.2942028046 28.0124492645 35.7632751465 45.0348243713 54.9900512695 64.2580108643 72.0050048828 78.7227706909 86.1458435059 13.8964366913 21.4736824036 28.5207939148 36.3187026978 45.282169342 54.7414398193 63.7023544312 71.4971923828 78.5442733765 86.1231079102 13.9350881577 21.705696106 29.2984790802 37.172744751 45.6375999451 54.3843231201 62.8476753235 70.720664978 78.3134918213 86.0846176147 
13.9349555969 21.705072403 29.2967338562 37.1702003479 45.6365242004 54.3853340149 62.8502197266 70.7223205566 78.3140869141 86.0847473145 13.8963718414 21.4732685089 28.519329071 36.3172569275 45.2814025879 54.7422561646 63.7037773132 71.4986572266 78.544670105 86.1231765747 13.8735866547 21.2939376831 28.0118465424 35.7625045776 45.0343170166 54.990562439 64.2587890625 72.0056152344 78.7230377197 86.1458740234 13.8552522659 21.1752719879 27.7544822693 35.4881591797 44.9162940979 55.1091842651 64.5332946777 72.2627182007 78.8413391113 86.1641311646 13.8430967331 21.1171970367 27.6301517487 35.36095047 44.864276886 55.1614570618 64.6606063843 72.386932373 78.8992080688 86.1762161255 13.8431062698 21.1172389984 27.6302394867 35.361038208 44.8643264771 55.1613998413 64.6605148315 72.3868560791 78.8991699219 86.1762084961 13.8552951813 21.1754875183 27.7549552917 35.4886856079 44.9165039062 55.108959198 64.5327682495 72.2622375488 78.8411102295 86.1640777588 13.8736333847 21.2943058014 28.0127162933 35.7635040283 45.0348815918 54.9899902344 64.2577972412 72.0047531128 78.7226638794 86.1458282471 13.896443367 21.4737586975 28.5210037231 36.3188819885 45.2822303772 54.7413787842 63.7021827698 71.4969863892 78.5442047119 86.1231079102 13.9350910187 21.7057361603 29.2986011505 37.1728782654 45.6376419067 54.3842849731 62.8475341797 70.7205581665 78.3134460449 86.0846252441 
13.9349555969 21.7050704956 29.2967243195 37.1701965332 45.6365280151 54.3853378296 62.8502349854 70.722328186 78.3140869141 86.0847473145 13.8963699341 21.4732627869 28.5193157196 36.3172492981 45.2813949585 54.7422523499 63.7037773132 71.4986724854 78.5446777344 86.1231765747 13.873585701 21.2939300537 28.0118236542 35.7624893188 45.0343055725 54.9905738831 64.2587966919 72.0056228638 78.7230529785 86.1458740234 13.8552522659 21.1752624512 27.7544670105 35.4881439209 44.9162826538 55.1091957092 64.5333175659 72.2627334595 78.8413391113 86.1641235352 13.8430948257 21.1171875 27.6301250458 35.3609275818 44.8642654419 55.1614608765 64.6606216431 72.3869628906 78.8992233276 86.1762161255 13.8431053162 21.1172294617 27.6302223206 35.3610153198 44.864315033 55.1614151001 64.6605377197 72.3868789673 78.8991699219 86.1762161255 13.8552961349 21.1754837036 27.7549381256 35.4886627197 44.9164962769 55.1089782715 64.5327987671 72.262260437 78.8411254883 86.1640777588 13.8736333847 21.2943019867 28.0127067566 35.7634925842 45.0348777771 54.9899978638 64.2578125 72.0047607422 78.7226715088 86.1458358765 13.896443367 21.4737567902 28.5209941864 36.3188743591 45.2822265625 54.7413825989 63.7021865845 71.4969940186 78.5442047119 86.1231079102 13.935090065 21.7057342529 29.2985992432 37.172870636 45.637638092 54.3842773438 62.8475494385 70.7205581665 78.3134460449 86.0846252441 
13.9349555969 21.7050704956 29.2967166901 37.1701889038 45.6365242004 54.385345459 62.850227356 70.7223434448 78.3140869141 86.0847473145 13.8963708878 21.4732608795 28.5193061829 36.3172416687 45.2813873291 54.7422523499 63.7037887573 71.4986877441 78.5446853638 86.1231765747 13.873585701 21.2939243317 28.0118083954 35.7624778748 45.0343055725 54.9905853271 64.2588195801 72.0056533813 78.7230453491 86.1458740234 13.8552522659 21.1752548218 27.754447937 35.4881248474 44.9162712097 55.1091995239 64.5333328247 72.2627639771 78.8413543701 86.1641235352 13.8430948257 21.1171798706 27.6301040649 35.3609046936 44.8642425537 55.1614837646 64.6606369019 72.3869934082 78.899230957 86.1762313843 13.8431043625 21.1172218323 27.6301994324 35.3609886169 44.8642997742 55.1614303589 64.6605682373 72.3868865967 78.8991851807 86.1762161255 13.8552951813 21.1754760742 27.7549152374 35.4886398315 44.9164848328 55.1089782715 64.5328140259 72.2622833252 78.8411407471 86.1640777588 13.8736343384 21.294298172 28.0126895905 35.7634735107 45.0348739624 54.9900093079 64.2578277588 72.004776001 78.7226791382 86.1458358765 13.8964443207 21.4737510681 28.5209827423 36.318862915 45.2822227478 54.7413825989 63.7022018433 71.4970016479 78.5442123413 86.1231079102 13.935090065 21.7057304382 29.2985877991 37.1728630066 45.637638092 54.3842849731 62.8475532532 70.7205657959 78.3134613037 86.0846252441 
13.9349555969 21.7050666809 29.2967128754 37.1701812744 45.6365203857 54.385345459 62.8502426147 70.7223358154 78.3140869141 86.0847473145 13.8963708878 21.4732589722 28.5192966461 36.3172264099 45.2813873291 54.7422599792 63.7038002014 71.4986877441 78.5446853638 86.1231765747 13.873585701 21.2939186096 28.0117969513 35.7624588013 45.0342979431 54.9905776978 64.2588348389 72.0056533813 78.7230529785 86.1458816528 13.8552513123 21.1752490997 27.7544250488 35.4880981445 44.9162712097 55.1092071533 64.5333557129 72.2627716064 78.8413543701 86.1641235352 13.8430938721 21.1171722412 27.6300792694 35.3608779907 44.8642234802 55.1614952087 64.6606750488 72.3870010376 78.8992385864 86.1762313843 13.8431034088 21.1172103882 27.6301765442 35.3609695435 44.8642730713 55.1614456177 64.6605911255 72.3869171143 78.8992004395 86.1762161255 13.8552961349 21.1754665375 27.7548923492 35.4886283875 44.9164772034 55.1089820862 64.5328216553 72.262298584 78.8411331177 86.1640777588 13.873632431 21.2942905426 28.0126743317 35.7634544373 45.034866333 54.9900131226 64.2578353882 72.0047912598 78.7226867676 86.1458358765 13.8964424133 21.4737472534 28.5209712982 36.3188552856 45.2822227478 54.741394043 63.7022094727 71.4970169067 78.5442047119 86.1231079102 13.9350910187 21.7057266235 29.298582077 37.1728591919 45.637638092 54.3842926025 62.8475532532 70.7205657959 78.3134613037 86.0846252441 
13.9349546432 21.7050685883 29.296710968 37.1701774597 45.6365203857 54.3853492737 62.8502464294 70.7223510742 78.3140869141 86.0847473145 13.8963708878 21.4732532501 28.5192871094 36.3172225952 45.2813873291 54.7422637939 63.7038154602 71.4987106323 78.5447006226 86.1231765747 13.873585701 21.2939128876 28.0117816925 35.7624435425 45.0342903137 54.9905929565 64.2588500977 72.0056686401 78.7230682373 86.1458816528 13.8552513123 21.1752414703 27.754404068 35.4880828857 44.9162559509 55.1092224121 64.5333709717 72.262802124 78.8413619995 86.1641235352 13.8430929184 21.1171607971 27.6300601959 35.3608551025 44.8642082214 55.1615219116 64.660697937 72.3870239258 78.8992462158 86.1762313843 13.8431043625 21.1172027588 27.6301574707 35.3609390259 44.8642578125 55.1614646912 64.6606063843 72.3869400024 78.8992080688 86.1762161255 13.8552942276 21.1754627228 27.7548789978 35.4885978699 44.9164657593 55.1089935303 64.5328445435 72.2623214722 78.8411483765 86.1640777588 13.873632431 21.2942829132 28.0126628876 35.7634429932 45.0348625183 54.990020752 64.257850647 72.0048294067 78.7226867676 86.1458358765 13.8964424133 21.4737453461 28.5209598541 36.3188438416 45.2822151184 54.7413902283 63.7022247314 71.4970245361 78.5442123413 86.1231079102 13.9350910187 21.7057285309 29.2985801697 37.1728553772 45.6376304626 54.3842926025 62.8475723267 70.7205657959 78.3134613037 86.0846252441 
13.9349536896 21.7050647736 29.2967014313 37.1701698303 45.636516571 54.385345459 62.8502578735 70.7223510742 78.3140869141 86.0847473145 13.8963689804 21.4732494354 28.5192775726 36.3172111511 45.2813796997 54.7422676086 63.7038230896 71.4987182617 78.5447006226 86.1231765747 13.8735837936 21.2939071655 28.0117702484 35.7624282837 45.0342903137 54.9906005859 64.2588653564 72.0056762695 78.7230682373 86.1458816528 13.8552494049 21.1752357483 27.7543869019 35.4880599976 44.9162445068 55.1092224121 64.5334014893 72.2628250122 78.8413696289 86.1641235352 13.8430929184 21.1171531677 27.6300430298 35.360824585 44.8641853333 55.1615447998 64.6607208252 72.3870544434 78.8992538452 86.1762313843 13.8431034088 21.117193222 27.6301326752 35.360912323 44.864238739 55.1614837646 64.6606445312 72.3869552612 78.8992156982 86.1762161255 13.8552932739 21.175453186 27.7548599243 35.4885826111 44.9164505005 55.1090049744 64.532875061 72.2623443604 78.8411483765 86.1640853882 13.8736314774 21.2942810059 28.0126438141 35.7634277344 45.0348587036 54.9900283813 64.2578659058 72.0048294067 78.7227096558 86.1458358765 13.8964424133 21.473739624 28.5209522247 36.3188323975 45.2822151184 54.741394043 63.7022323608 71.4970397949 78.5442199707 86.1231079102 13.9350891113 21.7057266235 29.2985744476 37.1728477478 45.6376266479 54.3842926025 62.8475723267 70.7205886841 78.3134613037 86.0846252441 
