13.9471206665 21.7414550781 29.3495464325 37.2743415833 45.7044754028 54.3170547485 62.7461662292 70.6696090698 78.2777252197 86.0726165771 13.9160203934 21.5306091309 28.694562912 36.5965805054 45.4316139221 54.5912818909 63.4245223999 71.3238220215 78.4874725342 86.1035995483 13.9048938751 21.3915634155 28.340970993 36.1924667358 45.2571563721 54.7666168213 63.828868866 71.6769790649 78.6259307861 86.1146774292 13.8985137939 21.3224601746 28.1801700592 36.0133209229 45.1792373657 54.8449249268 64.0081176758 71.8375930786 78.6947784424 86.1210250854 13.894733429 21.2923316956 28.104850769 35.9308700562 45.1442947388 54.8800315857 64.090637207 71.9128417969 78.7247848511 86.1247711182 13.8947353363 21.2923469543 28.1049156189 35.9309387207 45.1443252563 54.8800048828 64.0905685425 71.9127807617 78.7247619629 86.1247634888 13.898522377 21.3225765228 28.1804542542 36.0136871338 45.1793823242 54.8447799683 64.0077438354 71.837310791 78.6946716309 86.1210098267 13.9049081802 21.3917999268 28.3415470123 36.1930999756 45.2576065063 54.766166687 63.8282546997 71.6764144897 78.6256866455 86.114654541 13.9160633087 21.531036377 28.6957397461 36.5978088379 45.4321136475 54.590763092 63.4233131409 71.3226318359 78.4870605469 86.1035461426 13.9472494125 21.7421455383 29.351518631 37.2765960693 45.7055587769 54.315990448 62.743927002 70.6676712036 78.2770462036 86.0724868774 
13.93937397 21.7195205688 29.3166122437 37.2077827454 45.6625747681 54.3591537476 62.8126487732 70.7024765015 78.2996368408 86.0803451538 13.903875351 21.495765686 28.5995368958 36.445941925 45.3579330444 54.6653213501 63.5751419067 71.4186325073 78.5222320557 86.1156997681 13.8854789734 21.3427085876 28.1854114532 36.013885498 45.1724243164 54.8517684937 64.0074539185 71.8323364258 78.6745223999 86.1340179443 13.8726062775 21.262878418 28.0198917389 35.8369293213 45.0961647034 54.9284133911 64.1845321655 71.997718811 78.7540893555 86.1468353271 13.864575386 21.2288475037 27.9510040283 35.76146698 45.0640068054 54.960723877 64.2600402832 72.0665435791 78.7880249023 86.1548156738 13.8645839691 21.2288665771 27.9510631561 35.7615280151 45.064037323 54.96068573 64.2599716187 72.0664978027 78.7880020142 86.1548156738 13.872631073 21.2630138397 28.0201644897 35.837272644 45.0962944031 54.9282722473 64.1841812134 71.9974517822 78.7539596558 86.1468276978 13.8855171204 21.3429813385 28.1860599518 36.0145606995 45.1729011536 54.8512916565 64.0067901611 71.8317260742 78.6742630005 86.1339874268 13.9039325714 21.4962329865 28.6009616852 36.4472923279 45.358543396 54.6646881104 63.5738296509 71.4171905518 78.521774292 86.1156463623 13.9395103455 21.7202091217 29.3185749054 37.2103118896 45.6637535095 54.3580284119 62.810131073 70.7006225586 78.2989730835 86.0802001953 
13.9368572235 21.7130012512 29.306974411 37.1874732971 45.6463775635 54.3754386902 62.8329238892 70.7121047974 78.3061523438 86.0828552246 13.8997192383 21.4832687378 28.5647239685 36.361656189 45.3070793152 54.7164382935 63.6593475342 71.4533309937 78.5346984863 86.1198425293 13.8791828156 21.3158607483 28.1036987305 35.8707084656 45.0983047485 54.9262619019 64.1505889893 71.9138946533 78.7012863159 86.1402893066 13.8637084961 21.2198295593 27.8883514404 35.6676940918 45.0144729614 55.0105133057 64.353767395 72.1290512085 78.7969665527 86.1556930542 13.8535795212 21.1754779816 27.7998161316 35.5831832886 44.9799690247 55.0451812744 64.4383239746 72.2175445557 78.8411560059 86.1657791138 13.8535881042 21.1755104065 27.7998790741 35.583240509 44.9799995422 55.0451431274 64.4382705688 72.2174911499 78.8411178589 86.1657485962 13.863740921 21.2200031281 27.8887214661 35.6680679321 45.0146102905 55.0103683472 64.3533859253 72.128692627 78.7967910767 86.155670166 13.8792238235 21.3161716461 28.1044807434 35.8715133667 45.0987854004 54.9257621765 64.1497955322 71.9131240845 78.7009811401 86.1402511597 13.8997821808 21.4837589264 28.5662498474 36.3631706238 45.3078231812 54.7156524658 63.6578636169 71.4518203735 78.5342254639 86.1197967529 13.9369926453 21.7136669159 29.308883667 37.1901321411 45.6476249695 54.3742523193 62.8302726746 70.7103118896 78.3055267334 86.0827102661 
13.9358863831 21.7106437683 29.3038291931 37.1808013916 45.6419296265 54.3799133301 62.8395996094 70.7152328491 78.3085098267 86.0838165283 13.8980884552 21.4790668488 28.551366806 36.3264083862 45.2807502747 54.742893219 63.6945343018 71.4666519165 78.5388946533 86.1214523315 13.8766088486 21.3052711487 28.0703468323 35.7900161743 45.0493087769 54.9755020142 64.2311782837 71.9471206665 78.7118453979 86.142868042 13.8600902557 21.199634552 27.8240909576 35.5536689758 44.9538955688 55.0713882446 64.4677352905 72.1931762695 78.8170776367 86.1593093872 13.8492250443 21.1474571228 27.7112426758 35.4540634155 44.9149131775 55.1105575562 64.5674362183 72.3059463501 78.8690643311 86.1701126099 13.849237442 21.1474914551 27.7113227844 35.4541244507 44.9149475098 55.1105232239 64.5673675537 72.3058700562 78.8690185547 86.1701202393 13.860124588 21.1998271942 27.8245334625 35.5541000366 44.9540519714 55.0712203979 64.4673156738 72.1927337646 78.8168869019 86.1592712402 13.8766527176 21.30560112 28.0711841583 35.7909431458 45.0498275757 54.9749717712 64.2302627563 71.9463119507 78.7115249634 86.1428146362 13.8981513977 21.4795589447 28.5529308319 36.3279953003 45.2815704346 54.7420272827 63.6929779053 71.4650802612 78.5384292603 86.1213989258 13.9360227585 21.7112941742 29.3057060242 37.1834983826 45.6431541443 54.3787384033 62.8368988037 70.7135009766 78.3078918457 86.0836791992 
13.935500145 21.7098331451 29.3030166626 37.1789474487 45.6404953003 54.3813552856 62.8414382935 70.7160415649 78.3093261719 86.084197998 13.8974285126 21.477684021 28.5467243195 36.3132896423 45.2708816528 54.752822876 63.7076339722 71.4712982178 78.5402755737 86.1221160889 13.8755426407 21.3010826111 28.0559520721 35.7538414001 45.0227432251 55.0021972656 64.267288208 71.961479187 78.7160339355 86.1439285278 13.8584794998 21.1908893585 27.7960395813 35.4914093018 44.9167098999 55.108757019 64.5299530029 72.2211380005 78.8257980347 86.1609039307 13.8472356796 21.1349124908 27.6706523895 35.3777122498 44.8729248047 55.1527557373 64.6437530518 72.3464431763 78.8815460205 86.1721038818 13.84724617 21.1349525452 27.6707515717 35.3777961731 44.8729705811 55.1527175903 64.6436767578 72.3463363647 78.8815231323 86.172088623 13.8585186005 21.1910972595 27.7965164185 35.4918823242 44.9168930054 55.1085662842 64.5294723511 72.2206497192 78.825592041 86.1608734131 13.8755865097 21.3014202118 28.0568218231 35.7548408508 45.0233001709 55.001625061 64.2662963867 71.960647583 78.7156906128 86.1438674927 13.8974933624 21.478181839 28.5482978821 36.3149185181 45.2717399597 54.7519073486 63.7060470581 71.4697036743 78.5397949219 86.1220550537 13.9356336594 21.7104721069 29.3048839569 37.1816673279 45.6417160034 54.3801956177 62.8387107849 70.7143096924 78.3087310791 86.0840759277 
13.9353408813 21.7095451355 29.3028678894 37.178440094 45.640007019 54.3818435669 62.8419456482 70.7162017822 78.3096160889 86.0843582153 13.8971614838 21.4772434235 28.5451068878 36.3083648682 45.267250061 54.7564659119 63.7125396729 71.4728851318 78.540725708 86.1223907471 13.8750925064 21.2994098663 28.0501976013 35.7390518188 45.0104980469 55.0144958496 64.2820587158 71.9672317505 78.7176895142 86.1443786621 13.8577928543 21.1871089935 27.7834625244 35.4611663818 44.8967132568 55.1288604736 64.5601425171 72.2336807251 78.8295593262 86.161605835 13.8463449478 21.1293373108 27.652349472 35.3376235962 44.8490028381 55.1767959595 64.6838226318 72.3647079468 78.8871078491 86.172996521 13.8463563919 21.1293754578 27.6524429321 35.3376960754 44.8490447998 55.1767425537 64.6837310791 72.3646011353 78.8870697021 86.1729888916 13.8578271866 21.1873245239 27.7839622498 35.4616737366 44.8969039917 55.1286582947 64.5596389771 72.2332000732 78.8293533325 86.1615447998 13.8751392365 21.2997570038 28.051076889 35.7400856018 45.0110855103 55.0139122009 64.281036377 71.9663543701 78.7173614502 86.1443252563 13.8972263336 21.4777412415 28.5466976166 36.3100013733 45.2681236267 54.7555427551 63.7109565735 71.4712982178 78.5402374268 86.1223144531 13.9354724884 21.7101821899 29.3047218323 37.1811676025 45.6412239075 54.3806915283 62.839214325 70.7144927979 78.3090209961 86.0842285156 
13.9352741241 21.7094421387 29.3028640747 37.1783180237 45.6398773193 54.3819656372 62.8420677185 70.7161941528 78.309715271 86.0844192505 13.8970508575 21.4770965576 28.5445384979 36.3064918518 45.266040802 54.7576828003 63.7144088745 71.4734573364 78.5408554077 86.1224899292 13.8748950958 21.2987289429 28.0478668213 35.7330284119 45.0056381226 55.0193786621 64.2880630493 71.969543457 78.7183837891 86.1445770264 13.8574905396 21.1854438782 27.7778606415 35.4473190308 44.8868179321 55.1388015747 64.57396698 72.2392730713 78.8312149048 86.1618881226 13.8459453583 21.1268100739 27.6439228058 35.3179244995 44.8364334106 55.1894264221 64.7034912109 72.373085022 78.8896331787 86.1734008789 13.845954895 21.1268520355 27.64402771 35.3180084229 44.8364830017 55.1893692017 64.703414917 72.3729782104 78.8895950317 86.1733932495 13.8575286865 21.1856613159 27.7783622742 35.4478492737 44.8870201111 55.1385803223 64.5734405518 72.2387695312 78.8310089111 86.161857605 13.8749418259 21.299074173 28.0487499237 35.7340736389 45.0062408447 55.0187759399 64.2870330811 71.9686813354 78.7180328369 86.14453125 13.8971157074 21.4775943756 28.5461273193 36.3081359863 45.2669143677 54.7567596436 63.7128143311 71.4718704224 78.5403823853 86.1224441528 13.9354057312 21.7100772858 29.3047084808 37.1810493469 45.6410865784 54.3808326721 62.8393211365 70.7145080566 78.3091278076 86.0842819214 
