0.98189663887 1.01835942268 1.05579602718 1.12317800522 1.19538414478 1.19536042213 1.12310504913 1.04145526886 1.01831054688 0.981950283051 0.973052680492 1.06311607361 1.18003094196 1.29155707359 1.36177504063 1.361754179 1.291482687 1.11524581909 1.06304180622 0.973113417625 0.970946073532 1.14772069454 1.27528190613 1.37256908417 1.42766261101 1.42764151096 1.37248969078 1.20984637737 1.14763450623 0.97098761797 0.969909965992 1.19091141224 1.30839657784 1.39290833473 1.44106543064 1.44105088711 1.39283919334 1.25176620483 1.19084000587 0.969941437244 0.968889117241 1.2243680954 1.33117687702 1.40748202801 1.44799435139 1.44798576832 1.40742218494 1.28179228306 1.2242988348 0.968917310238 0.968890786171 1.22435867786 1.33116853237 1.40746974945 1.44802570343 1.44801521301 1.40740811825 1.28178596497 1.22428929806 0.968919038773 0.969912707806 1.19086432457 1.30836105347 1.39284014702 1.44107842445 1.44106137753 1.39276838303 1.25172579288 1.19079399109 0.969944477081 0.971427679062 1.11952626705 1.24671983719 1.35376381874 1.41862380505 1.41861331463 1.35368061066 1.17858123779 1.11945021152 0.971470832825 0.973058342934 1.06302857399 1.179931283 1.29152548313 1.36180496216 1.36175310612 1.29147291183 1.11516451836 1.06295585632 0.973118782043 0.981924414635 1.01831030846 1.05574774742 1.12301695347 1.19518601894 1.19524526596 1.1229057312 1.04143047333 1.01826226711 0.981976807117 
0.981438994408 1.00889575481 1.04206967354 1.10468363762 1.17672431469 1.17670321465 1.10461699963 1.02797269821 1.00885856152 0.981492161751 0.972309350967 1.05066680908 1.16529250145 1.27837884426 1.37462151051 1.37460505962 1.27830958366 1.10098791122 1.05060207844 0.972370684147 0.96959233284 1.13392686844 1.26948368549 1.39251732826 1.48986113071 1.48984599113 1.39245331287 1.19758725166 1.13384711742 0.969636142254 0.96813595295 1.17691743374 1.31401753426 1.42482173443 1.51173698902 1.511723876 1.42476642132 1.2408452034 1.17684412003 0.96817022562 0.966814219952 1.21112215519 1.35206508636 1.45347309113 1.52746915817 1.52745997906 1.45342421532 1.27689659595 1.21104574203 0.966844797134 0.966815948486 1.21111261845 1.35205626488 1.45345330238 1.52753996849 1.52752637863 1.45339989662 1.27689385414 1.21103668213 0.966846764088 0.968139529228 1.17687153816 1.3139783144 1.42473840714 1.51180315018 1.51178336143 1.42467844486 1.24081170559 1.17679917812 0.968173742294 0.97014272213 1.10565447807 1.23311543465 1.34954607487 1.45783913136 1.4578346014 1.34947896004 1.16512799263 1.10558617115 0.970188319683 0.972315788269 1.05058372021 1.16518378258 1.27839004993 1.37468910217 1.37462878227 1.27835118771 1.10089945793 1.05052113533 0.972376763821 0.981466174126 1.00885510445 1.04203784466 1.10449564457 1.17655205727 1.17662072182 1.10438299179 1.02795946598 1.00881898403 0.981517791748 
0.981396257877 1.0074532032 1.03995966911 1.10179555416 1.17347848415 1.17345786095 1.10173034668 1.0258988142 1.00741779804 0.981449365616 0.972240447998 1.04873490334 1.162966609 1.27580976486 1.372189641 1.37217402458 1.27574014664 1.09872817993 1.04867208004 0.972301781178 0.969442367554 1.13179039955 1.2672110796 1.39089500904 1.50191855431 1.50190711021 1.39082884789 1.19548261166 1.13171124458 0.969486355782 0.96790099144 1.1747879982 1.31198263168 1.42637705803 1.52837812901 1.52836680412 1.42632591724 1.23913097382 1.17471468449 0.967935502529 0.966497838497 1.2091088295 1.35137939453 1.46163928509 1.55090618134 1.5508992672 1.46159720421 1.27611756325 1.20903217793 0.966529011726 0.966499567032 1.20909929276 1.35136973858 1.46161723137 1.5510109663 1.55099773407 1.46156907082 1.27611541748 1.20902299881 0.96653085947 0.967904806137 1.17474246025 1.31194281578 1.42628979683 1.52848386765 1.52846312523 1.42623281479 1.23909580708 1.174669981 0.967939436436 0.970008730888 1.10351729393 1.23069918156 1.34647643566 1.4586802721 1.45867860317 1.34641003609 1.16275823116 1.10344982147 0.970054149628 0.972247123718 1.04865276814 1.1628562212 1.27582490444 1.37225162983 1.37219202518 1.27578651905 1.09863853455 1.0485919714 0.972307980061 0.981423258781 1.00741398335 1.03993022442 1.10160434246 1.17330992222 1.17338001728 1.10149168968 1.02588760853 1.00737965107 0.981474757195 
0.981390357018 1.00721037388 1.03959977627 1.10130000114 1.17291784286 1.17289698124 1.10123479366 1.02554178238 1.00717508793 0.981443524361 0.972231030464 1.04840862751 1.16256725788 1.27535164356 1.37173199654 1.37171638012 1.27528190613 1.09833371639 1.04834604263 0.972292244434 0.969418466091 1.13142871857 1.26684141159 1.39042949677 1.50339615345 1.50338459015 1.39036369324 1.19512498379 1.13134980202 0.969462454319 0.967862904072 1.17442929745 1.31160485744 1.42607009411 1.53124165535 1.5312308073 1.42601931095 1.23881268501 1.17435586452 0.96789753437 0.966443359852 1.20877444744 1.35118985176 1.46310067177 1.55627048016 1.55626451969 1.46305978298 1.27600800991 1.20869791508 0.966474711895 0.966445088387 1.20876502991 1.3511800766 1.46307849884 1.55639028549 1.55637729168 1.46303129196 1.27600598335 1.20868849754 0.96647632122 0.967866778374 1.17438352108 1.31156480312 1.42598330975 1.53136372566 1.53134250641 1.4259262085 1.23877775669 1.17431116104 0.967901349068 0.969985485077 1.10314893723 1.23030233383 1.34597873688 1.4582695961 1.45826888084 1.34591269493 1.16239213943 1.10308146477 0.97003108263 0.972237586975 1.04832661152 1.16245687008 1.27536725998 1.37179291248 1.37173318863 1.27532887459 1.09824407101 1.04826593399 0.972298443317 0.981417417526 1.00717127323 1.03957056999 1.10110807419 1.17274963856 1.17281997204 1.1009953022 1.02553081512 1.00713729858 0.981468737125 
0.981389343739 1.00716042519 1.0395257473 1.10119819641 1.17280185223 1.17278087139 1.10113310814 1.02546846867 1.00712537766 0.981442451477 0.972229123116 1.0483417511 1.16248488426 1.27525675297 1.37163615227 1.37162053585 1.27518677711 1.09825217724 1.04827916622 0.9722905159 0.96941357851 1.13135504723 1.26676571369 1.39032578468 1.50351703167 1.50350570679 1.39025998116 1.19505000114 1.13127613068 0.969457626343 0.967854917049 1.1743568182 1.31153070927 1.42599844933 1.53176796436 1.53175711632 1.42594778538 1.23874735832 1.17428338528 0.967889487743 0.96643191576 1.20870828629 1.35115134716 1.46343290806 1.55758810043 1.55758178234 1.46339273453 1.27598524094 1.2086315155 0.966463387012 0.966433882713 1.20869874954 1.35114192963 1.46341180801 1.55771350861 1.55770039558 1.46336424351 1.27598309517 1.20862221718 0.966465115547 0.967858672142 1.17431104183 1.31149113178 1.42591178417 1.53189563751 1.53187441826 1.42585504055 1.23871231079 1.17423856258 0.96789342165 0.969980716705 1.10307359695 1.23022043705 1.34587919712 1.45819032192 1.45818984509 1.34581243992 1.1623146534 1.1030061245 0.970026373863 0.972235798836 1.04825973511 1.16237449646 1.27527236938 1.3716968298 1.37163710594 1.2752341032 1.09816265106 1.04819917679 0.972296535969 0.981416165829 1.00712132454 1.03949677944 1.10100626945 1.17263364792 1.17270433903 1.10089361668 1.02545750141 1.0070874691 0.981467604637 
0.981388807297 1.00714826584 1.03950798512 1.10117423534 1.17277443409 1.17275357246 1.10110914707 1.0254509449 1.00711321831 0.981442093849 0.972228467464 1.04832577705 1.16246533394 1.27523446083 1.37161386013 1.37159800529 1.27516484261 1.09823262691 1.04826295376 0.972289800644 0.969412267208 1.13133752346 1.26674735546 1.39030075073 1.50350296497 1.50349211693 1.39023506641 1.19503164291 1.13125872612 0.96945643425 0.967852711678 1.17434000969 1.31151485443 1.42597997189 1.53187584877 1.53186488152 1.42592918873 1.23873233795 1.17426657677 0.967887461185 0.966428995132 1.20869338512 1.35114347935 1.46352791786 1.55795705318 1.55795109272 1.46348774433 1.2759809494 1.20861685276 0.966460287571 0.966430783272 1.20868396759 1.35113370419 1.46350705624 1.5580855608 1.55807209015 1.46345973015 1.27597880363 1.20860755444 0.966462016106 0.967856645584 1.17429447174 1.31147515774 1.42589354515 1.53200554848 1.53198444843 1.4258364439 1.238697052 1.17422199249 0.967891275883 0.969979643822 1.10305571556 1.23020064831 1.3458532095 1.45816886425 1.45816791058 1.34578680992 1.16229486465 1.10298836231 0.970025360584 0.972235202789 1.04824352264 1.16235494614 1.27525019646 1.37167429924 1.3716146946 1.27521181107 1.09814357758 1.04818296432 0.972295999527 0.981415748596 1.0071092844 1.03947913647 1.10098218918 1.1726064682 1.17267680168 1.10086965561 1.02543997765 1.00707542896 0.981467247009 
0.981388866901 1.00714504719 1.03950321674 1.10116827488 1.17276763916 1.17274689674 1.10110318661 1.02544617653 1.00711011887 0.98144197464 0.972228288651 1.04832160473 1.16246032715 1.27522921562 1.3716083765 1.37159252167 1.27515912056 1.09822785854 1.04825890064 0.972289741039 0.96941190958 1.13133347034 1.26674318314 1.39029479027 1.50349617004 1.50348484516 1.39022910595 1.19502711296 1.13125455379 0.969455778599 0.967852115631 1.17433607578 1.31151175499 1.42597579956 1.53190267086 1.53189194202 1.42592537403 1.23872923851 1.17426276207 0.96788662672 0.966427981853 1.20869028568 1.35114324093 1.46356296539 1.55807721615 1.55807137489 1.46352255344 1.27598166466 1.20861363411 0.966459274292 0.966429710388 1.20868074894 1.35113334656 1.46354222298 1.55820667744 1.558193326 1.46349489689 1.27597928047 1.20860433578 0.966461062431 0.967855811119 1.17429053783 1.31147217751 1.42588961124 1.53203368187 1.53201270103 1.42583250999 1.23869407177 1.17421805859 0.967890441418 0.969979047775 1.10305142403 1.23019599915 1.34584677219 1.4581631422 1.45816218853 1.34578037262 1.16228985786 1.10298407078 0.970024764538 0.972235023975 1.04823946953 1.16235017776 1.27524471283 1.37166905403 1.37160921097 1.27520644665 1.09813845158 1.04817891121 0.972295701504 0.981415629387 1.00710606575 1.0394744873 1.10097622871 1.17259979248 1.17267024517 1.10086333752 1.02543544769 1.00707221031 0.981467008591 
