1.0 1.00000011921 1.00000023842 1.00254535675 1.06458282471 1.06455922127 1.00251936913 1.00000023842 1.0 1.0 0.999999940395 1.00000011921 1.06265962124 1.18572413921 1.28223466873 1.28221547604 1.18566393852 1.00238823891 1.0 1.0 1.0 1.03512692451 1.17328810692 1.29344081879 1.36226320267 1.36224138737 1.29338252544 1.09999871254 1.03505313396 1.00000011921 1.0 1.08011198044 1.21498739719 1.31719315052 1.37071621418 1.37070024014 1.31712412834 1.1453243494 1.08005046844 1.00000011921 1.0 1.11594295502 1.2494225502 1.33423650265 1.37542307377 1.37541174889 1.33417606354 1.18175899982 1.11588335037 1.00000011921 1.0 1.11593341827 1.24941504002 1.33422541618 1.37546133995 1.37544810772 1.33416187763 1.18175494671 1.11587405205 1.00000011921 1.0 1.0800652504 1.21495461464 1.31712675095 1.37075459957 1.37073469162 1.31705522537 1.14528810978 1.08000516891 1.0 1.0 1.00302755833 1.13135993481 1.25423717499 1.34886229038 1.34885334969 1.2541642189 1.05861401558 1.00296807289 1.00000011921 1.0 1.0 1.06254792213 1.18572640419 1.28229737282 1.28223097324 1.18570101261 1.00233078003 1.0 1.00000011921 1.0 1.00000011921 1.00000011921 1.00242829323 1.06445491314 1.06454956532 1.00235557556 1.00000011921 1.0 0.999999940395 
1.0 1.00000011921 1.00000023842 1.00254535675 1.06458282471 1.06455922127 1.00251936913 1.00000023842 1.0 1.0 0.999999940395 1.00000011921 1.06265962124 1.18572413921 1.28223466873 1.28221547604 1.18566393852 1.00238823891 1.0 1.0 1.0 1.03512692451 1.17328810692 1.29443192482 1.39705204964 1.39703476429 1.29437577724 1.09999871254 1.03505313396 1.00000011921 1.0 1.08011198044 1.21498739719 1.32401955128 1.41943871975 1.4194226265 1.32395529747 1.1453243494 1.08005046844 1.00000011921 1.0 1.11594295502 1.24992334843 1.35310947895 1.43971729279 1.4397059679 1.35305511951 1.18175899982 1.11588335037 1.00000011921 1.0 1.11593341827 1.24991559982 1.35309040546 1.43983793259 1.43981957436 1.35303092003 1.18175494671 1.11587405205 1.00000011921 1.0 1.0800652504 1.21495461464 1.3239389658 1.41955792904 1.41953122616 1.32387137413 1.14528810978 1.08000516891 1.0 1.0 1.00302755833 1.13135993481 1.25423717499 1.35993039608 1.35992228985 1.2541642189 1.05861401558 1.00296807289 1.00000011921 1.0 1.0 1.06254792213 1.18572640419 1.28229737282 1.28223097324 1.18570101261 1.00233078003 1.0 1.00000011921 1.0 1.00000011921 1.00000011921 1.00242829323 1.06445491314 1.06454956532 1.00235557556 1.00000011921 1.0 0.999999940395 
1.0 1.00000011921 1.00000023842 1.00254535675 1.06458282471 1.06455922127 1.00251936913 1.00000023842 1.0 1.0 0.999999940395 1.00000011921 1.06265962124 1.18572413921 1.28223466873 1.28221547604 1.18566393852 1.00238823891 1.0 1.0 1.0 1.03512692451 1.17328810692 1.29443192482 1.39705204964 1.39703476429 1.29437577724 1.09999871254 1.03505313396 1.00000011921 1.0 1.08011198044 1.21498739719 1.32401955128 1.41943871975 1.4194226265 1.32395529747 1.1453243494 1.08005046844 1.00000011921 1.0 1.11594295502 1.24992334843 1.35310947895 1.43971729279 1.4397059679 1.35305511951 1.18175899982 1.11588335037 1.00000011921 1.0 1.11593341827 1.24991559982 1.35309040546 1.43983793259 1.43981957436 1.35303092003 1.18175494671 1.11587405205 1.00000011921 1.0 1.0800652504 1.21495461464 1.3239389658 1.41955792904 1.41953122616 1.32387137413 1.14528810978 1.08000516891 1.0 1.0 1.00302755833 1.13135993481 1.25423717499 1.35993039608 1.35992228985 1.2541642189 1.05861401558 1.00296807289 1.00000011921 1.0 1.0 1.06254792213 1.18572640419 1.28229737282 1.28223097324 1.18570101261 1.00233078003 1.0 1.00000011921 1.0 1.00000011921 1.00000011921 1.00242829323 1.06445491314 1.06454956532 1.00235557556 1.00000011921 1.0 0.999999940395 
1.0 1.00000011921 1.00000023842 1.00254535675 1.06458282471 1.06455922127 1.00251936913 1.00000023842 1.0 1.0 0.999999940395 1.00000011921 1.06265962124 1.18572413921 1.28223466873 1.28221547604 1.18566393852 1.00238823891 1.0 1.0 1.0 1.03512692451 1.17328810692 1.29443192482 1.39705204964 1.39703476429 1.29437577724 1.09999871254 1.03505313396 1.00000011921 1.0 1.08011198044 1.21498739719 1.32401955128 1.41943871975 1.4194226265 1.32395529747 1.1453243494 1.08005046844 1.00000011921 1.0 1.11594295502 1.24992334843 1.35310947895 1.43971729279 1.4397059679 1.35305511951 1.18175899982 1.11588335037 1.00000011921 1.0 1.11593341827 1.24991559982 1.35309040546 1.43983793259 1.43981957436 1.35303092003 1.18175494671 1.11587405205 1.00000011921 1.0 1.0800652504 1.21495461464 1.3239389658 1.41955792904 1.41953122616 1.32387137413 1.14528810978 1.08000516891 1.0 1.0 1.00302755833 1.13135993481 1.25423717499 1.35993039608 1.35992228985 1.2541642189 1.05861401558 1.00296807289 1.00000011921 1.0 1.0 1.06254792213 1.18572640419 1.28229737282 1.28223097324 1.18570101261 1.00233078003 1.0 1.00000011921 1.0 1.00000011921 1.00000011921 1.00242829323 1.06445491314 1.06454956532 1.00235557556 1.00000011921 1.0 0.999999940395 
1.0 1.00000011921 1.00000023842 1.00254535675 1.06458282471 1.06455922127 1.00251936913 1.00000023842 1.0 1.0 0.999999940395 1.00000011921 1.06265962124 1.18572413921 1.28223466873 1.28221547604 1.18566393852 1.00238823891 1.0 1.0 1.0 1.03512692451 1.17328810692 1.29443192482 1.39705204964 1.39703476429 1.29437577724 1.09999871254 1.03505313396 1.00000011921 1.0 1.08011198044 1.21498739719 1.32401955128 1.41943871975 1.4194226265 1.32395529747 1.1453243494 1.08005046844 1.00000011921 1.0 1.11594295502 1.24992334843 1.35310947895 1.43971729279 1.4397059679 1.35305511951 1.18175899982 1.11588335037 1.00000011921 1.0 1.11593341827 1.24991559982 1.35309040546 1.43983793259 1.43981957436 1.35303092003 1.18175494671 1.11587405205 1.00000011921 1.0 1.0800652504 1.21495461464 1.3239389658 1.41955792904 1.41953122616 1.32387137413 1.14528810978 1.08000516891 1.0 1.0 1.00302755833 1.13135993481 1.25423717499 1.35993039608 1.35992228985 1.2541642189 1.05861401558 1.00296807289 1.00000011921 1.0 1.0 1.06254792213 1.18572640419 1.28229737282 1.28223097324 1.18570101261 1.00233078003 1.0 1.00000011921 1.0 1.00000011921 1.00000011921 1.00242829323 1.06445491314 1.06454956532 1.00235557556 1.00000011921 1.0 0.999999940395 
1.0 1.00000011921 1.00000023842 1.00254535675 1.06458282471 1.06455922127 1.00251936913 1.00000023842 1.0 1.0 0.999999940395 1.00000011921 1.06265962124 1.18572413921 1.28223466873 1.28221547604 1.18566393852 1.00238823891 1.0 1.0 1.0 1.03512692451 1.17328810692 1.29443192482 1.39705204964 1.39703476429 1.29437577724 1.09999871254 1.03505313396 1.00000011921 1.0 1.08011198044 1.21498739719 1.32401955128 1.41943871975 1.4194226265 1.32395529747 1.1453243494 1.08005046844 1.00000011921 1.0 1.11594295502 1.24992334843 1.35310947895 1.43971729279 1.4397059679 1.35305511951 1.18175899982 1.11588335037 1.00000011921 1.0 1.11593341827 1.24991559982 1.35309040546 1.43983793259 1.43981957436 1.35303092003 1.18175494671 1.11587405205 1.00000011921 1.0 1.0800652504 1.21495461464 1.3239389658 1.41955792904 1.41953122616 1.32387137413 1.14528810978 1.08000516891 1.0 1.0 1.00302755833 1.13135993481 1.25423717499 1.35993039608 1.35992228985 1.2541642189 1.05861401558 1.00296807289 1.00000011921 1.0 1.0 1.06254792213 1.18572640419 1.28229737282 1.28223097324 1.18570101261 1.00233078003 1.0 1.00000011921 1.0 1.00000011921 1.00000011921 1.00242829323 1.06445491314 1.06454956532 1.00235557556 1.00000011921 1.0 0.999999940395 
1.0 1.00000011921 1.00000023842 1.00254535675 1.06458282471 1.06455922127 1.00251936913 1.00000023842 1.0 1.0 0.999999940395 1.00000011921 1.06265962124 1.18572413921 1.28223466873 1.28221547604 1.18566393852 1.00238823891 1.0 1.0 1.0 1.03512692451 1.17328810692 1.29443192482 1.39705204964 1.39703476429 1.29437577724 1.09999871254 1.03505313396 1.00000011921 1.0 1.08011198044 1.21498739719 1.32401955128 1.41943871975 1.4194226265 1.32395529747 1.1453243494 1.08005046844 1.00000011921 1.0 1.11594295502 1.24992334843 1.35310947895 1.43971729279 1.4397059679 1.35305511951 1.18175899982 1.11588335037 1.00000011921 1.0 1.11593341827 1.24991559982 1.35309040546 1.43983793259 1.43981957436 1.35303092003 1.18175494671 1.11587405205 1.00000011921 1.0 1.0800652504 1.21495461464 1.3239389658 1.41955792904 1.41953122616 1.32387137413 1.14528810978 1.08000516891 1.0 1.0 1.00302755833 1.13135993481 1.25423717499 1.35993039608 1.35992228985 1.2541642189 1.05861401558 1.00296807289 1.00000011921 1.0 1.0 1.06254792213 1.18572640419 1.28229737282 1.28223097324 1.18570101261 1.00233078003 1.0 1.00000011921 1.0 1.00000011921 1.00000011921 1.00242829323 1.06445491314 1.06454956532 1.00235557556 1.00000011921 1.0 0.999999940395 
