13.940032959 21.7322826385 29.3587779999 37.2112312317 45.6482086182 54.3736038208 62.8090133667 70.6603546143 78.2869262695 86.0796890259 13.9033088684 21.5135974884 28.6395664215 36.368812561 45.3010787964 54.7224617004 63.6519546509 71.3784942627 78.5044555664 86.1162719727 13.8832540512 21.3548641205 28.2238960266 35.9191474915 45.100982666 54.9235610962 64.10181427 71.7937393188 78.6624679565 86.1362457275 13.8675098419 21.2740154266 28.0460739136 35.7469902039 45.0264663696 54.9984588623 64.2740707397 71.9714508057 78.7430114746 86.1519165039 13.8564367294 21.2412986755 27.9792938232 35.6762504578 44.996006012 55.0290756226 64.3448486328 72.0381851196 78.7755966187 86.1629486084 13.8564434052 21.241317749 27.9793395996 35.6763038635 44.9960327148 55.0290527344 64.3448028564 72.0381469727 78.7755813599 86.1629257202 13.8675451279 21.2741470337 28.0463485718 35.7473258972 45.0266036987 54.998336792 64.2737579346 71.9711761475 78.7429046631 86.1518783569 13.8832893372 21.3551254272 28.2245292664 35.9198150635 45.1015396118 54.9230575562 64.1011886597 71.7931747437 78.6622314453 86.1361999512 13.9033727646 21.5140914917 28.6410293579 36.3702354431 45.3018188477 54.7217330933 63.6506576538 71.3770294189 78.5039749146 86.1161956787 13.9401760101 21.733001709 29.3608932495 37.2141532898 45.6496315002 54.3722839355 62.806060791 70.6581344604 78.2861938477 86.0795288086 
13.9364948273 21.7206115723 29.3353595734 37.1818008423 45.6329421997 54.3889465332 62.8384552002 70.6837310791 78.298576355 86.0832138062 13.8983383179 21.4972629547 28.5879611969 36.2629890442 45.2318153381 54.7920799255 63.7576599121 71.4299697876 78.5207595825 86.1212158203 13.8764352798 21.3260364532 28.1300354004 35.7030830383 44.9654541016 55.0597877502 64.3176193237 71.887336731 78.6912002563 86.1430358887 13.8587751389 21.2275352478 27.8936691284 35.4423179626 44.8576774597 55.1681098938 64.5785369873 72.1234588623 78.7893218994 86.1606140137 13.8462944031 21.1802444458 27.7781257629 35.3286056519 44.8145141602 55.2114830017 64.6923675537 72.2388916016 78.8364181519 86.1730499268 13.8463001251 21.180267334 27.7782096863 35.328666687 44.8145637512 55.2114448547 64.6923141479 72.238822937 78.8363952637 86.1730270386 13.8588132858 21.2277088165 27.8940753937 35.4427833557 44.8578567505 55.1679458618 64.5781021118 72.1230545044 78.7891616821 86.1605834961 13.8764801025 21.3263778687 28.130865097 35.7040367126 44.9661369324 55.0591621399 64.316734314 71.8865814209 78.6908721924 86.1429824829 13.8984127045 21.497833252 28.589679718 36.2645874023 45.2327423096 54.7911529541 63.7562026978 71.428237915 78.5201797485 86.121131897 13.9366455078 21.7213439941 29.3375148773 37.184879303 45.6343536377 54.3876571655 62.8353271484 70.6814498901 78.2978286743 86.0830535889 
13.9363079071 21.720085144 29.3344364166 37.1806564331 45.6324996948 54.3893966675 62.8396072388 70.6846542358 78.2991104126 86.0834121704 13.8980674744 21.4965515137 28.585515976 36.2582054138 45.2292060852 54.7947006226 63.7624320984 71.4323959351 78.5214691162 86.1214904785 13.876039505 21.3245029449 28.1246700287 35.6912384033 44.9552192688 55.0700721741 64.3294525146 71.8926849365 78.6927337646 86.1434326172 13.8582668304 21.2248535156 27.8841495514 35.4166908264 44.8360939026 55.1897964478 64.6041030884 72.1329498291 78.7919998169 86.1611099243 13.8456993103 21.176656723 27.7652778625 35.2917404175 44.7866210938 55.2395248413 64.7291488647 72.251701355 78.8399887085 86.1736297607 13.8457050323 21.1766815186 27.7653694153 35.291809082 44.7866821289 55.2394714355 64.729095459 72.2516174316 78.8399581909 86.1736221313 13.8583049774 21.2250328064 27.8845691681 35.4171905518 44.8362922668 55.1896057129 64.6036376953 72.1325531006 78.7918319702 86.1610794067 13.8760852814 21.324848175 28.1255149841 35.6922264099 44.9559745789 55.0693702698 64.3285217285 71.8919067383 78.6924209595 86.1433868408 13.8981456757 21.4971256256 28.5872459412 36.2598228455 45.2301483154 54.793762207 63.7609786987 71.4306640625 78.5208892822 86.1214065552 13.9364585876 21.7208156586 29.3365955353 37.1837501526 45.6338920593 54.3881072998 62.8364524841 70.6823883057 78.2983474731 86.0832290649 
13.936296463 21.7200565338 29.3343906403 37.1805953979 45.6324691772 54.3894195557 62.8396682739 70.6847076416 78.2991409302 86.083404541 13.8980531693 21.4965133667 28.5853862762 36.2579650879 45.2290802002 54.7948303223 63.7626724243 71.4325332642 78.5215148926 86.1215133667 13.8760175705 21.3244152069 28.124376297 35.6906661987 44.9547157288 55.0705680847 64.3300170898 71.8929824829 78.692817688 86.1434555054 13.8582372665 21.2246990204 27.8836021423 35.4152946472 44.8347854614 55.1911087036 64.605506897 72.1334991455 78.7921524048 86.1611557007 13.845664978 21.1764450073 27.7645225525 35.2894096375 44.7847518921 55.2413864136 64.7314758301 72.2524642944 78.8401947021 86.1736602783 13.8456726074 21.1764736176 27.7646083832 35.2894821167 44.7848167419 55.2413368225 64.7314071655 72.2523803711 78.840171814 86.1736450195 13.8582773209 21.2248744965 27.884016037 35.4157981873 44.8349914551 55.1909217834 64.6050262451 72.1330947876 78.7919921875 86.1611175537 13.8760662079 21.3247642517 28.1252117157 35.69165802 44.9554748535 55.0698623657 64.3290939331 71.8922042847 78.6924972534 86.1434020996 13.8981304169 21.4970874786 28.5871200562 36.2595787048 45.2300262451 54.7938842773 63.7612113953 71.4307861328 78.5209197998 86.121421814 13.9364490509 21.7207870483 29.3365459442 37.1836853027 45.6338768005 54.3881416321 62.8365135193 70.6824188232 78.2983856201 86.0832672119 
13.936296463 21.7200546265 29.3343830109 37.1805839539 45.6324615479 54.3894271851 62.8396835327 70.6847076416 78.2991485596 86.083404541 13.8980522156 21.4965057373 28.5853633881 36.2579307556 45.2290611267 54.7948455811 63.7627182007 71.4325561523 78.5215148926 86.1215133667 13.8760128021 21.3243999481 28.124332428 35.6905937195 44.9546585083 55.0706291199 64.3300933838 71.8930206299 78.6928329468 86.143447876 13.8582344055 21.2246761322 27.883518219 35.4151229858 44.8346405029 55.1912536621 64.6056671143 72.1335678101 78.7921829224 86.1611633301 13.8456630707 21.1764125824 27.7644176483 35.2891235352 44.784538269 55.2416000366 64.7317657471 72.2525634766 78.8402252197 86.1736679077 13.8456687927 21.1764392853 27.7645015717 35.2891998291 44.7845954895 55.2415466309 64.7317047119 72.2524871826 78.8402023315 86.1736679077 13.8582715988 21.2248516083 27.8839435577 35.4156303406 44.834854126 55.1910667419 64.6051940918 72.1331634521 78.7920150757 86.1611251831 13.8760614395 21.3247489929 28.1251716614 35.6915855408 44.9554252625 55.0699119568 64.3291702271 71.8922576904 78.6925125122 86.1434173584 13.8981275558 21.4970836639 28.5871047974 36.2595481873 45.2300071716 54.7939033508 63.7612495422 71.4308166504 78.5209274292 86.121421814 13.9364471436 21.7207832336 29.3365421295 37.1836738586 45.6338691711 54.3881378174 62.8365249634 70.682434082 78.2983932495 86.0832595825 
13.936296463 21.7200508118 29.3343677521 37.1805725098 45.6324615479 54.3894195557 62.8396949768 70.6847076416 78.2991409302 86.0834121704 13.8980522156 21.4965000153 28.5853538513 36.2579116821 45.2290611267 54.7948493958 63.7627296448 71.4325637817 78.521522522 86.1215133667 13.8760137558 21.3243923187 28.1243152618 35.6905670166 44.9546356201 55.0706481934 64.3301239014 71.8930511475 78.6928405762 86.1434555054 13.8582334518 21.2246627808 27.8834877014 35.4150733948 44.8346061707 55.1912918091 64.60572052 72.1335983276 78.7921905518 86.1611709595 13.8456583023 21.1763973236 27.7643795013 35.2890396118 44.7844924927 55.2416572571 64.731842041 72.2525939941 78.8402404785 86.1736755371 13.8456668854 21.1764259338 27.7644634247 35.2891159058 44.7845535278 55.2416000366 64.7317886353 72.2525253296 78.8402252197 86.1736679077 13.8582725525 21.2248382568 27.8839092255 35.4155769348 44.8348121643 55.1911010742 64.6052474976 72.1332015991 78.7920303345 86.1611251831 13.8760604858 21.3247394562 28.1251468658 35.6915588379 44.9554138184 55.0699310303 64.3291931152 71.8922653198 78.6925201416 86.1434173584 13.8981266022 21.4970760345 28.5870857239 36.2595329285 45.2299957275 54.7939147949 63.7612686157 71.4308166504 78.5209274292 86.121421814 13.9364461899 21.7207832336 29.3365306854 37.1836662292 45.6338653564 54.3881378174 62.8365287781 70.682434082 78.2983932495 86.0832595825 
13.9362955093 21.7200508118 29.3343715668 37.1805648804 45.6324615479 54.3894271851 62.8396949768 70.6847229004 78.2991409302 86.0834121704 13.8980522156 21.4964962006 28.5853443146 36.2579040527 45.2290534973 54.7948532104 63.7627334595 71.4325714111 78.521522522 86.1215057373 13.8760147095 21.324388504 28.1242904663 35.6905441284 44.9546279907 55.0706558228 64.3301391602 71.8930511475 78.6928482056 86.1434555054 13.8582315445 21.2246551514 27.8834629059 35.4150352478 44.8345832825 55.1913108826 64.605758667 72.1336288452 78.7921981812 86.1611709595 13.845659256 21.1763896942 27.7643451691 35.2889976501 44.7844619751 55.24168396 64.7318954468 72.2526168823 78.8402557373 86.1736755371 13.8456668854 21.1764163971 27.7644405365 35.2890586853 44.7845230103 55.2416305542 64.7318344116 72.2525558472 78.8402252197 86.1736679077 13.8582696915 21.2248306274 27.8838844299 35.4155426025 44.8347854614 55.1911239624 64.6052932739 72.1332321167 78.7920303345 86.1611175537 13.8760614395 21.3247356415 28.1251354218 35.6915359497 44.9553947449 55.0699424744 64.3292160034 71.8922805786 78.692527771 86.1434173584 13.8981266022 21.4970741272 28.5870704651 36.2595214844 45.2299957275 54.7939186096 63.7612800598 71.4308319092 78.5209350586 86.121421814 13.9364461899 21.7207813263 29.3365249634 37.1836585999 45.6338615417 54.3881416321 62.8365402222 70.6824417114 78.2983932495 86.0832595825 
