0.0000369680
0.0000214236
0.0000113711
0.0000059773
0.0000036743
0.0000022107
0.0000015754
0.0000012725
0.0000010568
0.0000009508
0.0000008567
0.0000007945
0.0000007512
0.0000007097
0.0000006844
0.0000006645
0.0000006500
0.0000006350
0.0000006310
0.0000006249
0.0000006222
0.0000006203
0.0000006186
0.0000006206
0.0000006217
0.0000006238
0.0000006253
0.0000006270
0.0000006269
0.0000006269
0.0000006288
0.0000006293
0.0000006304
0.0000006305
0.0000006297
0.0000006283
0.0000006289
0.0000006291
0.0000006288
0.0000006278
0.0000006270
0.0000006277
0.0000006279
0.0000006256
0.0000006266
0.0000006247
0.0000006243
0.0000006255
0.0000006265
0.0000006236
0.0000006224
0.0000006238
0.0000006204
0.0000006220
0.0000006233
0.0000006240
0.0000006220
0.0000006214
0.0000006194
0.0000006222
0.0000006197
0.0000006221
0.0000006216
0.0000006212
0.0000006202
0.0000006200
0.0000006222
0.0000006189
0.0000006220
0.0000006200
0.0000006189
0.0000006191
0.0000006194
0.0000006209
0.0000006216
0.0000006188
0.0000006208
0.0000006217
0.0000006194
0.0000006209
0.0000006187
0.0000006193
0.0000006185
0.0000006190
0.0000006192
0.0000006200
0.0000006177
0.0000006174
0.0000006185
0.0000006182
0.0000006204
0.0000006191
0.0000006203
0.0000006188
0.0000006202
0.0000006195
0.0000006209
0.0000006193
0.0000006205
0.0000006194
0.0000006200
0.0000006182
0.0000006186
