0.0001972748
0.0001597691
0.0001341795
0.0001120463
0.0001002314
0.0000907485
0.0000745017
0.0000692106
0.0000690451
0.0000731536
0.0000831740
0.0000831344
0.0000880433
0.0000825612
0.0000787377
0.0000752769
0.0000708751
0.0000670590
0.0000623967
0.0000610431
0.0000594537
0.0000604665
0.0000590600
0.0000607732
0.0000564845
0.0000533234
0.0000533536
0.0000496110
0.0000480411
0.0000461262
0.0000466891
0.0000465595
0.0000428245
0.0000409766
0.0000409800
0.0000437770
0.0000391525
0.0000393294
0.0000356007
0.0000375513
0.0000355077
0.0000349037
0.0000354059
0.0000369885
0.0000348896
0.0000349805
0.0000344189
0.0000346332
0.0000345367
0.0000345198
0.0000345526
0.0000339489
0.0000339606
0.0000338822
0.0000341583
0.0000340694
0.0000336367
0.0000340738
0.0000343586
0.0000342511
0.0000336336
0.0000341498
0.0000335717
0.0000335977
0.0000346962
0.0000341591
0.0000333480
0.0000341329
0.0000339727
0.0000340589
0.0000335062
0.0000340147
0.0000330890
0.0000338963
0.0000344081
0.0000338225
0.0000345188
0.0000346714
0.0000343717
0.0000344405
0.0000335668
0.0000341355
0.0000337446
0.0000338701
0.0000346757
0.0000339384
0.0000348371
0.0000360362
0.0000347127
0.0000358514
0.0000347354
0.0000342489
0.0000337419
0.0000351843
0.0000343940
0.0000356035
0.0000347504
0.0000340591
0.0000348291
0.0000342820
0.0000357028
0.0000352145
0.0000363466
