0.0001433118
0.0001385100
0.0001449281
0.0001339082
0.0001334473
0.0001361137
0.0001347534
0.0001278057
0.0001342701
0.0001297055
0.0001283277
0.0001354969
0.0001448454
0.0001312197
0.0001305757
0.0001215794
0.0001352208
0.0001266594
0.0001182340
0.0001244667
0.0001169173
0.0001264854
0.0001278128
0.0001233908
0.0001189279
0.0001176600
0.0001152055
0.0001213457
0.0001213952
0.0001210024
0.0001160211
0.0001088804
0.0001205318
0.0001204600
0.0001109605
0.0001132672
0.0001136579
0.0001045432
0.0001102981
0.0001023487
0.0001063232
0.0001048995
0.0001029703
0.0001032115
0.0001024158
0.0001029515
0.0001013511
0.0001023954
0.0000994954
0.0001015575
0.0001060637
0.0000996707
0.0001010553
0.0000964784
0.0000933345
0.0000907415
0.0000969948
0.0000943289
0.0000949733
0.0000950459
0.0000968227
0.0000897937
0.0000958855
0.0000979095
0.0000892270
0.0000929748
0.0000943602
0.0000932379
0.0000907514
0.0000924146
0.0000912337
0.0000928194
0.0000911271
0.0000920057
0.0000912885
0.0000920262
0.0000925204
0.0000908925
0.0000881759
0.0000896548
0.0000912419
0.0000918999
0.0000928682
0.0000928584
0.0000905639
0.0000903220
0.0000917550
0.0000946927
0.0000917693
0.0000898093
0.0000912469
0.0000912759
0.0000939069
0.0000913744
0.0000931033
0.0000926506
0.0000921952
0.0000908413
0.0000931992
0.0000888513
0.0000906132
0.0000899795
0.0000898323
