13.9794692993 21.7558689117 29.4004154205 37.2379150391 45.6814956665 54.3400802612 62.7826881409 70.6186599731 78.2633972168 86.0402832031 13.9742183685 21.5403900146 28.7505588531 36.4716796875 45.376373291 54.6466903687 63.5497055054 71.2674789429 78.4778518677 86.0454559326 13.9740371704 21.3851795197 28.3971977234 36.0837097168 45.2088432312 54.8150062561 63.9379844666 71.6204833984 78.6324996948 86.0455780029 13.9700336456 21.2995243073 28.2447738647 35.9064445496 45.1311225891 54.8930969238 64.1153640747 71.7727584839 78.717956543 86.0495147705 13.967546463 21.2615299225 28.1726646423 35.8354759216 45.1002197266 54.9241333008 64.1863861084 71.8447875977 78.7558898926 86.0519638062 13.9675483704 21.2615737915 28.1727485657 35.8355484009 45.1002578735 54.9241027832 64.1863098145 71.8446884155 78.7558441162 86.0519638062 13.970041275 21.2996635437 28.2450275421 35.906703949 45.13123703 54.8929786682 64.1151046753 71.7724990845 78.7178268433 86.0495071411 13.9740467072 21.3854732513 28.3977603912 36.0843544006 45.2091255188 54.8147239685 63.937335968 71.6199417114 78.6322250366 86.0455780029 13.9742126465 21.5408744812 28.751909256 36.4731559753 45.3769874573 54.6460723877 63.5482368469 71.2661209106 78.4773864746 86.0454711914 13.9795207977 21.7564678192 29.4021720886 37.2401847839 45.6823806763 54.3391838074 62.7804145813 70.6169128418 78.262802124 86.0402297974 
13.9720211029 21.7447566986 29.3699474335 37.1858978271 45.6509361267 54.3707733154 62.8346939087 70.6490631104 78.2745132446 86.047706604 13.9639377594 21.5204811096 28.6775760651 36.3094902039 45.2805023193 54.7430114746 63.7118148804 71.3402709961 78.4977264404 86.0557098389 13.9609632492 21.3434963226 28.2479248047 35.8056678772 45.0705566406 54.9539451599 64.2160644531 71.7694091797 78.6740264893 86.0586013794 13.9536848068 21.2335567474 28.0230407715 35.5811080933 44.9791717529 55.0457725525 64.4408493042 71.9940567017 78.7836227417 86.0657958984 13.9493732452 21.1813964844 27.9292907715 35.4964370728 44.9453277588 55.0797729492 64.5256118774 72.0877532959 78.8356246948 86.0700683594 13.9493789673 21.1814575195 27.929391861 35.4965286255 44.9453620911 55.0797348022 64.5255126953 72.0876541138 78.8355712891 86.0700683594 13.9537010193 21.2337417603 28.0233898163 35.5814285278 44.9793014526 55.0456428528 64.4405288696 71.9937133789 78.7834396362 86.0657806396 13.9609794617 21.3438491821 28.2487068176 35.8065185547 45.0709075928 54.9536018372 64.2152099609 71.7686309814 78.6736679077 86.05859375 13.9639368057 21.5210056305 28.679069519 36.3112983704 45.2812728882 54.742225647 63.7100105286 71.3387756348 78.4972076416 86.0556945801 13.9720783234 21.745349884 29.3717556 37.1883087158 45.6519355774 54.3697738647 62.83228302 70.6472549438 78.2739181519 86.0476379395 
13.9705848694 21.7437477112 29.3655815125 37.177822113 45.6467208862 54.3750076294 62.8427772522 70.6534194946 78.2755203247 86.0491409302 13.9619503021 21.5187263489 28.6659450531 36.283454895 45.2622413635 54.7613258362 63.7378387451 71.351890564 78.4994812012 86.0576934814 13.9584007263 21.3366012573 28.2196063995 35.7372779846 45.0159072876 55.008846283 64.2843551636 71.7976379395 78.6809005737 86.061164856 13.9503488541 21.2180500031 27.9699707031 35.4550209045 44.8987808228 55.1265220642 64.5668258667 72.0470046997 78.7990646362 86.0691223145 13.9454097748 21.1587371826 27.8561382294 35.3403930664 44.854637146 55.1708755493 64.6815795898 72.1607437134 78.858215332 86.0740127563 13.9454154968 21.1588077545 27.8562660217 35.3405189514 44.8546867371 55.1708259583 64.6814575195 72.1606140137 78.8581390381 86.0740127563 13.9503669739 21.2182617188 27.9703865051 35.4554481506 44.8989486694 55.1263580322 64.56640625 72.0466079712 78.7988510132 86.0690994263 13.9584197998 21.336977005 28.2204456329 35.7382698059 45.0163459778 55.0084075928 64.2833557129 71.7968063354 78.6805267334 86.0611419678 13.9619541168 21.5192565918 28.66746521 36.2853279114 45.2630767822 54.7604904175 63.7359695435 71.3503646851 78.4989471436 86.0576782227 13.9706420898 21.7443408966 29.3673973083 37.1802520752 45.6477355957 54.3739929199 62.8403396606 70.6516036987 78.2749404907 86.049079895 
13.9704284668 21.7437095642 29.3652667999 37.177192688 45.6464004517 54.375328064 62.8433990479 70.6537246704 78.2755508423 86.0492858887 13.9617395401 21.518705368 28.6650505066 36.2813224792 45.2609367371 54.7626419067 63.7399597168 71.3527755737 78.4994888306 86.0578994751 13.9581270218 21.3360404968 28.2169380188 35.7311820984 45.0107154846 55.0140647888 64.2904434204 71.8003158569 78.6814575195 86.0614395142 13.9499721527 21.2163677216 27.9640045166 35.4401779175 44.8844985962 55.14087677 64.5816421509 72.0529632568 78.800743103 86.0694961548 13.9449415207 21.15599823 27.847038269 35.3166847229 44.8351097107 55.1904945374 64.7052459717 72.1698074341 78.8609466553 86.0744934082 13.9449462891 21.1560707092 27.8471698761 35.316822052 44.8351631165 55.1904373169 64.7051086426 72.1696777344 78.8608627319 86.0744781494 13.9499893188 21.2165794373 27.964427948 35.4406356812 44.8846817017 55.1406860352 64.5811920166 72.0525360107 78.80052948 86.0694885254 13.9581422806 21.3364181519 28.2177829742 35.7321929932 45.0111694336 55.0136070251 64.2894287109 71.7994766235 78.6810760498 86.061416626 13.9617424011 21.519235611 28.6665725708 36.2831993103 45.2617797852 54.7617950439 63.7380867004 71.3512496948 78.4989624023 86.0578994751 13.9704856873 21.7443008423 29.3670883179 37.1796264648 45.6474151611 54.3743133545 62.840965271 70.6519241333 78.2749786377 86.0492401123 
13.9704198837 21.7437095642 29.3652591705 37.1771583557 45.6463813782 54.3753547668 62.8434333801 70.6537399292 78.2755584717 86.0493087769 13.9617271423 21.5187072754 28.6649990082 36.2812194824 45.2608795166 54.7627067566 63.7400665283 71.3528289795 78.4994888306 86.0579071045 13.9581098557 21.3360118866 28.2167854309 35.7308654785 45.0104942322 55.0142707825 64.2907562256 71.800453186 78.6814804077 86.0614471436 13.9499483109 21.2162628174 27.9636287689 35.4393081665 44.8835639954 55.1418037415 64.5825119019 72.0533294678 78.8008499146 86.069519043 13.9449100494 21.1558151245 27.8464260101 35.3150749207 44.8334312439 55.1921882629 64.7068634033 72.1704177856 78.8611297607 86.074508667 13.9449176788 21.1558876038 27.8465576172 35.3152122498 44.8334770203 55.1921310425 64.7067260742 72.1702880859 78.8610458374 86.0745162964 13.9499664307 21.2164745331 27.9640522003 35.4397659302 44.8837585449 55.1416168213 64.5820617676 72.0528945923 78.8006286621 86.0694961548 13.9581289291 21.3363838196 28.2176303864 35.7318687439 45.0109481812 55.0138206482 64.2897491455 71.799621582 78.681098938 86.0614471436 13.9617290497 21.5192394257 28.6665248871 36.2830886841 45.26171875 54.7618598938 63.7382049561 71.35131073 78.4989624023 86.0578994751 13.9704771042 21.7443008423 29.3670749664 37.179599762 45.6473960876 54.3743362427 62.8409996033 70.6519393921 78.2749633789 86.0492401123 
13.9704198837 21.7437076569 29.3652477264 37.177154541 45.6463890076 54.3753547668 62.8434448242 70.653755188 78.2755584717 86.0493087769 13.9617271423 21.518705368 28.6649913788 36.2811965942 45.2608718872 54.7627182007 63.7400856018 71.3528366089 78.4995040894 86.0579071045 13.9581108093 21.3360042572 28.2167701721 35.7308349609 45.0104827881 55.0142936707 64.2907867432 71.8004760742 78.6814804077 86.0614471436 13.9499483109 21.2162475586 27.9635982513 35.4392547607 44.8835296631 55.1418457031 64.5825653076 72.0533599854 78.8008804321 86.069519043 13.9449090958 21.1557998657 27.8463802338 35.3149719238 44.8333358765 55.1922683716 64.7069625854 72.1704711914 78.8611373901 86.074508667 13.9449148178 21.1558704376 27.8465118408 35.3151092529 44.8333892822 55.1922111511 64.7068252563 72.1703414917 78.8610610962 86.0745162964 13.9499645233 21.2164592743 27.9640254974 35.4397125244 44.8837203979 55.1416511536 64.5821075439 72.0529403687 78.8006591797 86.0694961548 13.9581279755 21.3363800049 28.2176151276 35.7318458557 45.0109367371 55.013835907 64.2897720337 71.7996444702 78.6811141968 86.0614395142 13.9617290497 21.5192375183 28.666513443 36.2830734253 45.2617149353 54.7618713379 63.7382125854 71.3513183594 78.4989776611 86.0578994751 13.9704771042 21.7443008423 29.3670635223 37.1795845032 45.6473999023 54.3743362427 62.841003418 70.6519393921 78.2749633789 86.0492401123 
13.9704189301 21.7437076569 29.3652439117 37.1771430969 45.6463775635 54.3753471375 62.8434486389 70.653755188 78.2755508423 86.0493087769 13.961725235 21.518699646 28.6649837494 36.2811889648 45.2608757019 54.7627182007 63.7400970459 71.3528366089 78.4995040894 86.0579071045 13.9581108093 21.3359947205 28.216753006 35.7308120728 45.0104789734 55.0142936707 64.2908096313 71.8004989624 78.6814956665 86.0614471436 13.9499473572 21.2162399292 27.9635772705 35.4392242432 44.8835105896 55.1418647766 64.5825958252 72.0533905029 78.8008880615 86.069519043 13.9449081421 21.1557884216 27.8463478088 35.3149299622 44.8333206177 55.1922912598 64.7070083618 72.1704940796 78.8611526489 86.074508667 13.9449148178 21.1558589935 27.8464775085 35.3150672913 44.833366394 55.192237854 64.7068634033 72.1703643799 78.861076355 86.0745162964 13.949962616 21.2164516449 27.9639987946 35.4396820068 44.8836936951 55.1416778564 64.5821456909 72.0529632568 78.8006668091 86.0695037842 13.9581279755 21.3363742828 28.2175960541 35.7318305969 45.0109329224 55.0138435364 64.2897949219 71.7996520996 78.6811141968 86.0614395142 13.961728096 21.5192298889 28.6665077209 36.2830619812 45.2617111206 54.7618713379 63.7382240295 71.3513183594 78.4989700317 86.0578994751 13.9704771042 21.7443008423 29.367061615 37.1795806885 45.6473922729 54.3743286133 62.8410072327 70.6519470215 78.2749633789 86.0492401123 
