13.9752731323 21.7624511719 29.4197750092 37.2151451111 45.647731781 54.3739852905 62.8053131104 70.599319458 78.2568740845 86.0444717407 13.9659814835 21.5404129028 28.7038612366 36.2158660889 45.2250480652 54.7987098694 63.8054046631 71.3138275146 78.4779129028 86.0536727905 13.9661397934 21.3509807587 28.2176914215 35.6652984619 44.9868888855 55.0380058289 64.356338501 71.7995529175 78.6663970947 86.0534591675 13.956073761 21.2207260132 27.9805793762 35.4263648987 44.8891410828 55.1362075806 64.5955047607 72.0364532471 78.796333313 86.0634307861 13.9489927292 21.1622390747 27.8842029572 35.3404159546 44.8550262451 55.1704788208 64.6815414429 72.1327667236 78.8546905518 86.0704345703 13.9490022659 21.1623020172 27.884305954 35.3405075073 44.8550567627 55.1704521179 64.6814498901 72.1326522827 78.854637146 86.0704345703 13.9561004639 21.2209396362 27.9809379578 35.4266967773 44.8892669678 55.1360740662 64.5951766968 72.0360946655 78.7961120605 86.0634002686 13.9661569595 21.3514080048 28.2185440063 35.6662139893 44.9872703552 55.0376243591 64.3554153442 71.7986755371 78.6659698486 86.0534515381 13.9659805298 21.540927887 28.7055950165 36.2178688049 45.2259407043 54.7978172302 63.803401947 71.3120880127 78.4774017334 86.0536727905 13.9753322601 21.76304245 29.421497345 37.2178001404 45.6488304138 54.3728790283 62.8026580811 70.5975875854 78.2562942505 86.0444107056 
13.9740228653 21.7625808716 29.4185161591 37.2121734619 45.6464309692 54.3752861023 62.8082962036 70.6005706787 78.2567596436 86.0457305908 13.9642868042 21.542098999 28.7014064789 36.2053184509 45.2172775269 54.8065071106 63.8159408569 71.3162612915 78.476234436 86.0553665161 13.9642267227 21.3516178131 28.2090759277 35.6325073242 44.9524154663 55.0726356506 64.3890533447 71.8081207275 78.665763855 86.0553741455 13.9537963867 21.218126297 27.9602680206 35.3529090881 44.8266944885 55.1989364624 64.6688232422 72.0566940308 78.7989120483 86.0656890869 13.9463615417 21.1561965942 27.8526706696 35.2405357361 44.7793540955 55.2464981079 64.7812805176 72.1642074585 78.8607025146 86.0730667114 13.9463691711 21.1562652588 27.8527889252 35.2406578064 44.7794036865 55.2464485168 64.7811584473 72.1640930176 78.8606338501 86.073059082 13.9538230896 21.2183494568 27.9606590271 35.3533287048 44.8268699646 55.1987533569 64.6684112549 72.0562973022 78.7986984253 86.0656661987 13.9642419815 21.3520526886 28.2099494934 35.6335105896 44.9528808594 55.0721740723 64.388053894 71.807258606 78.6653137207 86.0553588867 13.9642868042 21.5426158905 28.7031459808 36.207359314 45.2181930542 54.8055839539 63.8139038086 71.3145370483 78.4757156372 86.0553588867 13.9740829468 21.7631607056 29.4202346802 37.2148399353 45.6475448608 54.3741760254 62.8056335449 70.5988540649 78.2561798096 86.0456619263 
13.9740228653 21.7625846863 29.4185199738 37.2121772766 45.6464347839 54.3752861023 62.8082962036 70.6005706787 78.2567596436 86.0457305908 13.9642858505 21.5421028137 28.7014141083 36.2053222656 45.2172775269 54.8065071106 63.8159255981 71.3162536621 78.4762268066 86.0553665161 13.9642295837 21.3516178131 28.2090778351 35.6325187683 44.952419281 55.0726203918 64.3890457153 71.8081130981 78.6657485962 86.0553741455 13.953795433 21.218132019 27.9602737427 35.3529205322 44.8266944885 55.198928833 64.6688156128 72.0566864014 78.7989044189 86.0656890869 13.9463615417 21.1562004089 27.8526744843 35.2405433655 44.7793579102 55.2464942932 64.7812805176 72.1641921997 78.8606948853 86.0730667114 13.9463701248 21.1562690735 27.8527984619 35.2406692505 44.7794075012 55.2464370728 64.7811508179 72.1640701294 78.8606262207 86.073059082 13.9538221359 21.2183551788 27.9606647491 35.3533401489 44.826877594 55.1987571716 64.6684036255 72.0562896729 78.7986907959 86.0656661987 13.9642429352 21.3520565033 28.2099571228 35.6335220337 44.95287323 55.0721626282 64.3880386353 71.8072433472 78.6653137207 86.0553588867 13.9642839432 21.5426177979 28.7031555176 36.207359314 45.2181930542 54.8055839539 63.8138961792 71.3145217896 78.4757080078 86.0553588867 13.9740829468 21.7631626129 29.4202423096 37.2148361206 45.6475448608 54.3741722107 62.8056259155 70.5988540649 78.2561798096 86.0456619263 
13.9740228653 21.7625827789 29.4185123444 37.2121658325 45.6464309692 54.375289917 62.8082962036 70.6005859375 78.2567596436 86.0457305908 13.9642868042 21.5420951843 28.7014007568 36.2053108215 45.2172737122 54.8065185547 63.8159408569 71.3162689209 78.476234436 86.0553665161 13.9642276764 21.3516120911 28.2090606689 35.6324920654 44.9524040222 55.0726318359 64.3890686035 71.8081283569 78.665763855 86.0553741455 13.953795433 21.2181186676 27.9602489471 35.3528900146 44.8266868591 55.1989440918 64.668838501 72.0567245483 78.7989196777 86.0656890869 13.9463615417 21.1561889648 27.8526535034 35.2405166626 44.7793502808 55.2465057373 64.7813110352 72.1642379761 78.8607025146 86.0730667114 13.9463701248 21.1562595367 27.8527736664 35.2406387329 44.7793922424 55.2464523315 64.7811737061 72.1641082764 78.8606338501 86.073059082 13.9538211823 21.2183418274 27.9606437683 35.3533096313 44.8268699646 55.1987609863 64.6684188843 72.0563278198 78.7986984253 86.0656661987 13.9642419815 21.3520450592 28.2099304199 35.6335029602 44.95287323 55.0721664429 64.3880691528 71.807258606 78.6653289795 86.0553665161 13.9642868042 21.5426101685 28.7031364441 36.2073516846 45.2181930542 54.8055915833 63.8139038086 71.3145370483 78.4757232666 86.0553588867 13.9740848541 21.7631607056 29.4202327728 37.2148323059 45.6475372314 54.3741760254 62.8056259155 70.5988540649 78.2561798096 86.0456619263 
13.9740219116 21.7625808716 29.4185085297 37.2121620178 45.6464233398 54.3752861023 62.808303833 70.6005859375 78.2567596436 86.0457305908 13.9642858505 21.542093277 28.7013912201 36.205291748 45.2172660828 54.8065185547 63.8159637451 71.3162765503 78.4762496948 86.0553665161 13.9642295837 21.3515987396 28.2090435028 35.6324768066 44.9523963928 55.07264328 64.3890914917 71.8081588745 78.6657714844 86.0553741455 13.9537944794 21.2181091309 27.960226059 35.3528709412 44.826675415 55.1989440918 64.6688690186 72.0567321777 78.7989501953 86.0656890869 13.9463596344 21.1561737061 27.8526229858 35.2404899597 44.7793273926 55.2465209961 64.7813262939 72.1642532349 78.8607177734 86.0730667114 13.9463682175 21.1562423706 27.8527450562 35.24061203 44.7793807983 55.246471405 64.7812042236 72.1641311646 78.8606491089 86.0730514526 13.9538211823 21.218334198 27.9606170654 35.3532905579 44.8268585205 55.1987609863 64.6684570312 72.0563430786 78.7987213135 86.0656661987 13.9642419815 21.3520374298 28.2099151611 35.6334838867 44.9528617859 55.072177887 64.3880844116 71.8072891235 78.6653366089 86.0553665161 13.9642848969 21.5426063538 28.7031288147 36.207321167 45.2181854248 54.8055915833 63.8139305115 71.3145446777 78.4757385254 86.0553665161 13.9740829468 21.7631587982 29.4202289581 37.2148284912 45.6475334167 54.3741760254 62.8056373596 70.5988616943 78.2561798096 86.0456619263 
13.9740219116 21.7625789642 29.418504715 37.2121543884 45.6464195251 54.3752861023 62.8083114624 70.6005859375 78.2567596436 86.0457305908 13.9642858505 21.5420856476 28.7013759613 36.205280304 45.2172622681 54.8065185547 63.8159713745 71.3162918091 78.4762649536 86.0553665161 13.9642276764 21.3515930176 28.2090244293 35.6324501038 44.9524002075 55.0726509094 64.3891067505 71.8081588745 78.6657867432 86.0553741455 13.953795433 21.2180938721 27.9602012634 35.3528442383 44.8266677856 55.1989593506 64.6688919067 72.0567626953 78.7989501953 86.0656890869 13.9463605881 21.1561603546 27.852596283 35.2404556274 44.7793197632 55.2465324402 64.7813568115 72.1642837524 78.8607254028 86.0730667114 13.9463710785 21.1562309265 27.8527164459 35.2405776978 44.7793693542 55.2464752197 64.7812347412 72.1641540527 78.8606643677 86.0730514526 13.9538211823 21.2183189392 27.9605960846 35.353263855 44.8268508911 55.1987838745 64.66847229 72.0563659668 78.7987213135 86.0656661987 13.9642429352 21.3520298004 28.2098999023 35.6334609985 44.9528541565 55.0721969604 64.3880996704 71.8072967529 78.6653442383 86.0553665161 13.9642858505 21.5426006317 28.7031154633 36.2073173523 45.2181854248 54.8056030273 63.8139343262 71.3145599365 78.4757385254 86.0553665161 13.9740829468 21.7631568909 29.4202232361 37.2148170471 45.6475334167 54.3741722107 62.8056411743 70.5988616943 78.2561798096 86.0456619263 
13.9740219116 21.7625751495 29.4185009003 37.2121505737 45.6464233398 54.3753013611 62.8083152771 70.6005935669 78.2567596436 86.0457305908 13.9642858505 21.5420799255 28.7013626099 36.2052688599 45.2172584534 54.8065299988 63.8159866333 71.3163070679 78.4762573242 86.0553665161 13.9642276764 21.3515834808 28.2090072632 35.632434845 44.9523887634 55.0726585388 64.3891296387 71.8081893921 78.6657943726 86.0553741455 13.953795433 21.2180843353 27.9601764679 35.3528137207 44.8266639709 55.19896698 64.6689147949 72.0567779541 78.7989501953 86.0657043457 13.9463596344 21.1561489105 27.852563858 35.2404289246 44.7793159485 55.2465400696 64.7813873291 72.1643218994 78.8607406616 86.0730667114 13.9463682175 21.1562175751 27.8526821136 35.2405471802 44.7793655396 55.2464828491 64.7812652588 72.1641921997 78.8606719971 86.0730514526 13.9538221359 21.2183074951 27.9605770111 35.3532333374 44.826839447 55.1987915039 64.6685028076 72.056388855 78.7987289429 86.0656738281 13.9642438889 21.352022171 28.2098808289 35.6334381104 44.9528465271 55.0721969604 64.3881149292 71.8073196411 78.6653442383 86.0553665161 13.9642858505 21.5425949097 28.7031002045 36.2073020935 45.2181777954 54.8056182861 63.8139457703 71.3145751953 78.4757461548 86.0553665161 13.9740829468 21.7631549835 29.4202213287 37.2148132324 45.6475334167 54.3741836548 62.8056526184 70.5988693237 78.2561798096 86.0456619263 
