0.984993636608 1.01682424545 1.04863274097 1.13618445396 1.19824182987 1.19821453094 1.13611268997 1.04476523399 1.01681816578 0.985112607479 0.98003590107 1.05244326591 1.13300657272 1.2883746624 1.36517834663 1.36513590813 1.28828024864 1.10996067524 1.05243933201 0.980167448521 0.978876531124 1.12864673138 1.23466134071 1.38295137882 1.44476878643 1.44471561909 1.38284087181 1.20719587803 1.12865793705 0.978989899158 0.977890312672 1.1816920042 1.28904616833 1.41643452644 1.46858942509 1.46853208542 1.41632318497 1.26218688488 1.18168890476 0.977976739407 0.977245151997 1.20872044563 1.31278073788 1.4299684763 1.47655653954 1.47649991512 1.429859519 1.28826010227 1.20870876312 0.97731924057 0.977246046066 1.20870947838 1.31277120113 1.42996096611 1.47655081749 1.47649419308 1.4298517704 1.2882502079 1.20869755745 0.977320194244 0.977893292904 1.18165826797 1.28901720047 1.41640722752 1.46856760979 1.46851027012 1.41629588604 1.26215648651 1.18165516853 0.977979779243 0.978687226772 1.11443507671 1.21823358536 1.3731482029 1.43865060806 1.43859672546 1.37303459644 1.19115006924 1.1144490242 0.978802800179 0.98004001379 1.05236101151 1.13291227818 1.28827512264 1.36505830288 1.36501610279 1.2881809473 1.1098741293 1.05235695839 0.980171561241 0.985012590885 1.01675963402 1.04853630066 1.13601708412 1.19806909561 1.19804179668 1.13594532013 1.04467272758 1.01675331593 0.985131502151 
0.984483480453 1.00953865051 1.03879117966 1.12437939644 1.18492078781 1.18489599228 1.12431502342 1.03475797176 1.00953722 0.984596550465 0.979304969311 1.04321169853 1.122787714 1.27630376816 1.36004054546 1.36000907421 1.27622449398 1.0996505022 1.04320883751 0.97943174839 0.977754414082 1.1185644865 1.22431564331 1.39487683773 1.49059426785 1.49055600166 1.39479088783 1.19709432125 1.11857175827 0.977864682674 0.976379871368 1.17168176174 1.28194642067 1.44878685474 1.53277897835 1.53273546696 1.4487016201 1.25362551212 1.17166996002 0.976463317871 0.975518882275 1.19901752472 1.31084907055 1.47106254101 1.54756462574 1.54751992226 1.4709764719 1.28233408928 1.19899368286 0.975588083267 0.975520193577 1.19900643826 1.31083965302 1.47105526924 1.54755878448 1.54751384258 1.47096896172 1.28232455254 1.19898271561 0.975589334965 0.976383447647 1.17164850235 1.28191685677 1.44876432419 1.53275835514 1.53271520138 1.44867944717 1.25359606743 1.17163670063 0.976467072964 0.977598249912 1.10430347919 1.2075086832 1.37544357777 1.47285687923 1.4728178978 1.37535738945 1.18066489697 1.10431361198 0.977710843086 0.979309797287 1.0431330204 1.12269532681 1.27620780468 1.35993802547 1.35990655422 1.27612841129 1.09956550598 1.0431303978 0.979436457157 0.984502613544 1.00947999954 1.03869855404 1.12421381474 1.18474924564 1.18472445011 1.12414932251 1.03466916084 1.00947844982 0.984615564346 
0.984447717667 1.00888073444 1.03789186478 1.12329363823 1.1836823225 1.18365764618 1.12322986126 1.03384196758 1.00887966156 0.984560310841 0.97925567627 1.0423681736 1.12184941769 1.27520370483 1.35884809494 1.35881686211 1.27512526512 1.09869742393 1.04236543179 0.979382038116 0.977674126625 1.11763501167 1.22336983681 1.3938267231 1.49357306957 1.49353766441 1.39374184608 1.19615399837 1.1176418066 0.977784216404 0.976255834103 1.17076778412 1.28111064434 1.45013284683 1.54224979877 1.54221081734 1.45005190372 1.25283265114 1.17075514793 0.976339221001 0.975357532501 1.19815099239 1.31015145779 1.47505390644 1.56021976471 1.56017947197 1.47497403622 1.28172194958 1.19812607765 0.975426495075 0.975358963013 1.19813990593 1.31014192104 1.47504663467 1.56021392345 1.56017351151 1.47496676445 1.28171241283 1.1981151104 0.975427985191 0.976259589195 1.17073440552 1.28108084202 1.45010995865 1.54222977161 1.54219067097 1.45002913475 1.25280332565 1.17072188854 0.976342916489 0.977520644665 1.10336899757 1.20652651787 1.37432813644 1.472905159 1.47286951542 1.37424278259 1.17968988419 1.10337877274 0.977632939816 0.979260444641 1.0422898531 1.12175726891 1.27510774136 1.35874533653 1.35871398449 1.27502918243 1.09861278534 1.0422873497 0.979386746883 0.984466791153 1.00882256031 1.03779923916 1.12312817574 1.18351078033 1.18348610401 1.12306439877 1.0337536335 1.00882160664 0.984579145908 
0.984444737434 1.00882482529 1.03781557083 1.12320113182 1.18357658386 1.18355214596 1.12313747406 1.03376412392 1.00882363319 0.984557211399 0.979251801968 1.04229664803 1.12176954746 1.27510905266 1.35874438286 1.35871326923 1.27503073215 1.09861624241 1.04229402542 0.979378044605 0.977667570114 1.11755597591 1.22328865528 1.39373171329 1.49348533154 1.49345004559 1.39364683628 1.19607245922 1.11756265163 0.977777600288 0.976245284081 1.17069077492 1.28103995323 1.45008325577 1.54316043854 1.54312205315 1.45000231266 1.25276565552 1.17067813873 0.976328730583 0.9753434062 1.19807934761 1.31009829044 1.47537887096 1.56181013584 1.56177043915 1.47529959679 1.28167641163 1.19805443287 0.975412428379 0.975344777107 1.19806826115 1.3100887537 1.47537171841 1.56180417538 1.5617647171 1.47529256344 1.2816671133 1.19804358482 0.975413858891 0.976249098778 1.17065739632 1.28101027012 1.45006048679 1.54314041138 1.54310190678 1.44997942448 1.25273621082 1.17064499855 0.976332426071 0.977514505386 1.10328924656 1.20644211769 1.3742300272 1.47280657291 1.47277104855 1.37414515018 1.17960572243 1.10329914093 0.977626860142 0.979256570339 1.04221844673 1.12167751789 1.2750133276 1.35864138603 1.3586101532 1.27493464947 1.09853160381 1.04221582413 0.979382812977 0.984463751316 1.00876677036 1.03772306442 1.12303578854 1.18340504169 1.183380723 1.12297213078 1.03367602825 1.00876569748 0.984576225281 
0.984444439411 1.00881969929 1.03780889511 1.12319326401 1.18356800079 1.18354356289 1.12312972546 1.03375720978 1.00881886482 0.984556853771 0.979251384735 1.04229021072 1.12176275253 1.27510130405 1.358735919 1.35870480537 1.27502286434 1.09860932827 1.04228758812 0.979377686977 0.977666974068 1.11754953861 1.22328197956 1.39372384548 1.49347543716 1.49344027042 1.39363908768 1.19606554508 1.11755609512 0.977777004242 0.976244270802 1.17068493366 1.28103506565 1.45008015633 1.54324889183 1.54321086407 1.44999933243 1.25276076794 1.17067241669 0.976327478886 0.975341796875 1.1980741024 1.31009531021 1.47541320324 1.56201612949 1.56197655201 1.47533428669 1.28167438507 1.19804906845 0.975410878658 0.975343227386 1.19806313515 1.31008589268 1.47540605068 1.56201028824 1.56197082996 1.47532701492 1.28166520596 1.19803833961 0.975412249565 0.976248025894 1.17065155506 1.28100526333 1.45005726814 1.54322874546 1.54319047928 1.44997644424 1.25273144245 1.17063891888 0.976331353188 0.977513849735 1.10328280926 1.20643508434 1.37422227859 1.47279918194 1.47276353836 1.37413716316 1.1795989275 1.10329258442 0.977626085281 0.979256153107 1.04221212864 1.12167096138 1.27500534058 1.35863304138 1.35860180855 1.27492702007 1.09852457047 1.04220962524 0.979382276535 0.984463453293 1.00876176357 1.0377163887 1.12302815914 1.18339645863 1.1833717823 1.12296438217 1.03366911411 1.0087608099 0.984575986862 
0.984444260597 1.0088198185 1.03780865669 1.12319386005 1.18356835842 1.18354392052 1.12313008308 1.03375709057 1.0088186264 0.984556674957 0.979251265526 1.04229021072 1.12176299095 1.27510178089 1.35873651505 1.35870540142 1.27502334118 1.09860932827 1.04228782654 0.979377448559 0.977666735649 1.11754989624 1.2232824564 1.39372491837 1.49347603321 1.49344098568 1.39363992214 1.19606626034 1.11755633354 0.977776706219 0.976243972778 1.17068552971 1.28103601933 1.45008230209 1.54326403141 1.54322576523 1.4500015974 1.25276196003 1.17067277431 0.976327240467 0.975341618061 1.19807505608 1.31009721756 1.47542440891 1.56205189228 1.56201243401 1.47534537315 1.281676054 1.19805026054 0.975410580635 0.975342869759 1.19806420803 1.31008756161 1.47541713715 1.56204617023 1.56200647354 1.4753382206 1.28166675568 1.19803929329 0.975411891937 0.976247668266 1.17065215111 1.281006217 1.4500592947 1.54324388504 1.54320561886 1.4499784708 1.25273239613 1.17063951492 0.97633099556 0.977513492107 1.10328292847 1.20643556118 1.37422287464 1.47280013561 1.47276461124 1.37413787842 1.17959940434 1.10329294205 0.977625846863 0.979255914688 1.04221224785 1.12167108059 1.2750056982 1.35863363743 1.35860240459 1.2749273777 1.09852457047 1.04220974445 0.979382157326 0.984463334084 1.00876176357 1.03771603107 1.12302839756 1.18339693546 1.18337237835 1.1229647398 1.03366911411 1.00876057148 0.984575688839 
0.984444081783 1.0088198185 1.03780901432 1.12319469452 1.18356990814 1.18354535103 1.12313103676 1.0337574482 1.00881886482 0.984556674957 0.979251027107 1.04229092598 1.12176382542 1.27510309219 1.35873806477 1.35870695114 1.27502465248 1.09861028194 1.04228818417 0.97937721014 0.977666676044 1.11755096912 1.22328388691 1.39372646809 1.49347794056 1.49344289303 1.39364171028 1.19606757164 1.11755752563 0.977776765823 0.976243674755 1.1706867218 1.28103756905 1.45008480549 1.54327380657 1.54323542118 1.45000374317 1.25276362896 1.17067420483 0.976327061653 0.975341260433 1.19807672501 1.31009924412 1.47543394566 1.56206548214 1.56202590466 1.47535479069 1.28167808056 1.19805169106 0.975410223007 0.97534263134 1.19806551933 1.31008970737 1.47542655468 1.56205952168 1.56202030182 1.47534751892 1.28166878223 1.1980407238 0.975411593914 0.976247370243 1.17065346241 1.28100800514 1.4500617981 1.5432536602 1.54321539402 1.4499809742 1.25273406506 1.17064106464 0.976330816746 0.977513372898 1.10328400135 1.20643699169 1.37422466278 1.47280216217 1.47276651859 1.37413966656 1.17960059643 1.10329377651 0.977625668049 0.979255795479 1.04221272469 1.12167203426 1.27500700951 1.35863506794 1.35860383511 1.274928689 1.09852564335 1.0422103405 0.979381978512 0.984463393688 1.00876176357 1.03771650791 1.12302935123 1.18339824677 1.18337368965 1.12296569347 1.03366947174 1.0087608099 0.98457556963 
