2.25817418098 4.12654304504 7.20750665665 10.047123909 11.5753583908 11.5735712051 10.0417032242 7.19974565506 4.11945295334 2.25784444809 2.27451562881 5.34624195099 10.154296875 14.7182617188 17.1103515625 17.1075572968 14.7097454071 10.1419887543 5.33502340317 2.27377891541 2.29022359848 6.2195391655 12.1126184464 17.6148204803 20.5508003235 20.5472869873 17.6044521332 12.0976715088 6.20547103882 2.28911590576 2.3012368679 6.76670837402 13.2444963455 19.2120399475 22.4245033264 22.4206180573 19.2007350922 13.2282152176 6.75103855133 2.29987311363 2.30726909637 7.03032112122 13.7694749832 19.9202003479 23.2475128174 23.2434692383 19.9085006714 13.7526063919 7.01390647888 2.30576968193 2.30726146698 7.0300154686 13.7688732147 19.9194030762 23.2465877533 23.2425479889 19.9077072144 13.7520065308 7.01360273361 2.30576252937 2.30121636391 6.76576900482 13.2426109314 19.2094650269 22.4215011597 22.4176139832 19.1981620789 13.2263317108 6.75010108948 2.29985260963 2.29019021988 6.21777153015 12.1088523865 17.6093978882 20.5443954468 20.5408859253 17.599029541 12.0939102173 6.20371007919 2.28908371925 2.27447366714 5.34357404709 10.1479291916 14.7085647583 17.0987930298 17.0960006714 14.700056076 10.1356306076 5.33236408234 2.27373838425 2.25813293457 4.12308979034 7.1990981102 10.0335330963 11.5592012405 11.5574178696 10.0281229019 7.19134950638 4.11601114273 2.25780463219 
2.25924396515 3.95033693314 6.89563465118 9.69790744781 11.2242822647 11.222486496 9.69251155853 6.88805627823 3.94378995895 2.25895094872 2.27407217026 5.16243743896 9.84778213501 14.4033489227 16.8990364075 16.8960647583 14.3945789337 9.83566761017 5.1517124176 2.27340722084 2.29067373276 6.06160259247 11.8503742218 17.4417114258 20.5936946869 20.589881897 17.4306945801 11.8355817795 6.047935009 2.28963470459 2.30485916138 6.63564395905 13.0340385437 19.1743221283 22.6398429871 22.635602951 19.16223526 13.0177736282 6.62031173706 2.30353331566 2.31258654594 6.90902233124 13.5841941833 19.9549503326 23.542804718 23.5383987427 19.9424381256 13.5672721863 6.89291858673 2.31111335754 2.3125770092 6.9087061882 13.5835638046 19.9540672302 23.5417900085 23.5373840332 19.9415550232 13.5666427612 6.89260482788 2.3111038208 2.30483222008 6.63466501236 13.0320606232 19.1714916229 22.6365509033 22.6323127747 19.1594085693 13.0157966614 6.61933374405 2.30350708961 2.29063344002 6.05975627899 11.8464756012 17.4358959198 20.5867366791 20.5829200745 17.4248828888 11.8316888809 6.04609584808 2.28959488869 2.27403378487 5.15973854065 9.84133815765 14.3934192657 16.8868942261 16.8839225769 14.3846559525 9.82923221588 5.14902305603 2.2733695507 2.25920701027 3.94699001312 6.88733530045 9.68444919586 11.208240509 11.2064476013 9.67906188965 6.87976980209 3.94045448303 2.25891470909 
2.25945258141 3.90358161926 6.81184434891 9.60348320007 11.1259679794 11.1241779327 9.59810352325 6.80431556702 3.89718222618 2.25916862488 2.27383351326 5.11122465134 9.76223278046 14.3073148727 16.8067970276 16.803817749 14.2985439301 9.75016689301 5.1006398201 2.27318811417 2.29009795189 6.0145277977 11.772939682 17.3602466583 20.5659809113 20.562040329 17.3491477966 11.7582044601 6.0009765625 2.28908371925 2.30424499512 6.59609413147 12.9697771072 19.1272850037 22.701965332 22.6975250244 19.114938736 12.9535646439 6.58085298538 2.30294466019 2.31205582619 6.87544870377 13.5306215286 19.9361553192 23.6550331116 23.6504039764 19.9233016968 13.5137395859 6.85941982269 2.31060624123 2.31204652786 6.87512493134 13.5299777985 19.9352302551 23.6539554596 23.6493263245 19.9223823547 13.5130987167 6.85909748077 2.3105969429 2.3042178154 6.59509658813 12.9677648544 19.1243667603 22.6985015869 22.6940612793 19.1120204926 12.9515514374 6.57985782623 2.30291795731 2.29005789757 6.0126657486 11.7690134048 17.3543624878 20.5587768555 20.5548381805 17.3432712555 11.754281044 5.99912071228 2.28904509544 2.27379584312 5.10852479935 9.75577831268 14.2973718643 16.7946090698 16.7916316986 14.28860569 9.743724823 5.09795045853 2.27315163612 2.25941634178 3.90026760101 6.80357933044 9.59006118774 11.1099691391 11.1081809998 9.58469009399 6.79606389999 3.89388012886 2.25913357735 
2.25947475433 3.89789319038 6.80157184601 9.59176826477 11.1136465073 11.1118574142 9.58638954163 6.79405069351 3.89151072502 2.25919246674 2.27379989624 5.10487365723 9.75151157379 14.2950239182 16.794467926 16.7914867401 14.2862510681 9.73945236206 5.09430599213 2.27315688133 2.29002141953 6.0085978508 11.7630167007 17.349111557 20.5571327209 20.5531864166 17.3380088806 11.7482852936 5.99506235123 2.28901028633 2.30416607857 6.59120130539 12.9617347717 19.1196365356 22.7069549561 22.7024784088 19.1072731018 12.9455242157 6.57597112656 2.30286931992 2.31199455261 6.87150669098 13.5244779587 19.9322509766 23.6729240417 23.6682434082 19.9193592072 13.507601738 6.85548686981 2.31054782867 2.31198525429 6.87118244171 13.5238304138 19.9313220978 23.6718292236 23.6671524048 19.9184322357 13.5069551468 6.85516309738 2.31053829193 2.30413913727 6.59019947052 12.9597158432 19.1167068481 22.7034511566 22.6989746094 19.1043434143 12.9435062408 6.57497358322 2.30284261703 2.28998160362 6.0067358017 11.7590856552 17.3432273865 20.5499153137 20.5459690094 17.3321285248 11.7443599701 5.99320554733 2.2889714241 2.27376246452 5.1021733284 9.74505615234 14.2850790024 16.7822723389 16.779296875 14.2763147354 9.73300647736 5.09161615372 2.27312088013 2.25943899155 3.89458346367 6.79331207275 9.57835102081 11.0976524353 11.095867157 9.57298278809 6.78580331802 3.88821291924 2.2591574192 
2.25947618484 3.89755296707 6.80096101761 9.59107303619 11.1129131317 11.1111249924 9.58569335938 6.79343891144 3.89117217064 2.25919389725 2.27379775047 5.10449314117 9.75087070465 14.2942886353 16.7937278748 16.7907447815 14.2855176926 9.73881435394 5.09392690659 2.2731552124 2.29001688957 6.00824403763 11.7624225616 17.3484401703 20.5565624237 20.552614212 17.3373355865 11.7476921082 5.99470806122 2.28900623322 2.30416178703 6.59091615677 12.9612703323 19.1191978455 22.7070903778 22.7026119232 19.1068344116 12.9450597763 6.57568693161 2.30286502838 2.31199145317 6.87129306793 13.5241632462 19.9320850372 23.6743125916 23.6696243286 19.9191913605 13.5072841644 6.85527276993 2.31054472923 2.31198215485 6.87096881866 13.523516655 19.9311542511 23.6732177734 23.6685295105 19.918264389 13.5066394806 6.85494995117 2.31053543091 2.30413460732 6.58991527557 12.9592523575 19.1162662506 22.7035808563 22.6991024017 19.1039047241 12.9430408478 6.5746884346 2.30283808708 2.28997635841 6.00638008118 11.7584924698 17.3425502777 20.5493392944 20.5453929901 17.3314552307 11.743768692 5.99285173416 2.28896641731 2.27376055717 5.10179328918 9.74441623688 14.2843456268 16.7815361023 16.7785568237 14.2755823135 9.73236942291 5.09123754501 2.27311873436 2.25944018364 3.89424347878 6.79270219803 9.57765388489 11.0969219208 11.0951347351 9.57228374481 6.78519201279 3.88787460327 2.25915837288 
2.25947642326 3.89755249023 6.80096578598 9.59108352661 11.1129302979 11.1111412048 9.58570480347 6.79344367981 3.89117145538 2.25919365883 2.27379775047 5.10449695587 9.75088214874 14.2943115234 16.793756485 16.7907733917 14.2855396271 9.73882675171 5.09392976761 2.2731552124 2.29001688957 6.0082526207 11.7624464035 17.3484764099 20.556602478 20.5526580811 17.3373718262 11.7477149963 5.99471712112 2.28900623322 2.30416226387 6.59093141556 12.9613037109 19.1192512512 22.7071762085 22.7026977539 19.1068897247 12.9450950623 6.57570314407 2.3028652668 2.31199240685 6.87131357193 13.5242052078 19.9321594238 23.6744670868 23.6697788239 19.9192657471 13.5073299408 6.85529327393 2.31054544449 2.3119828701 6.87098836899 13.5235595703 19.9312324524 23.6733722687 23.6686859131 19.9183387756 13.5066871643 6.85497045517 2.31053614616 2.30413508415 6.5899310112 12.9592857361 19.1163196564 22.7036647797 22.6991863251 19.1039581299 12.9430761337 6.57470321655 2.30283880234 2.28997659683 6.00638961792 11.7585144043 17.3425884247 20.5493812561 20.5454387665 17.331489563 11.7437906265 5.9928612709 2.28896689415 2.27376031876 5.10179710388 9.74443054199 14.2843694687 16.7815628052 16.7785835266 14.275604248 9.73238182068 5.09124040604 2.27311897278 2.25944018364 3.89424324036 6.79270553589 9.57766628265 11.0969371796 11.0951509476 9.57229614258 6.78519630432 3.8878736496 2.25915884972 
2.25947618484 3.89756345749 6.80099010468 9.59112071991 11.1129684448 11.1111803055 9.58574104309 6.79346752167 3.89118218422 2.25919389725 2.27379798889 5.10451316833 9.75091934204 14.2943620682 16.7938079834 16.7908267975 14.2855892181 9.73886299133 5.09394693375 2.2731552124 2.29001688957 6.00827503204 11.7624874115 17.3485355377 20.5566730499 20.5527248383 17.3374328613 11.7477588654 5.99473953247 2.28900647163 2.30416274071 6.59095668793 12.9613552094 19.1193256378 22.7072677612 22.7027854919 19.106962204 12.9451436996 6.57572793961 2.30286574364 2.3119931221 6.87134218216 13.5242652893 19.9322414398 23.6745758057 23.6698875427 19.9193458557 13.5073871613 6.85532188416 2.31054592133 2.31198310852 6.87101697922 13.5236167908 19.931312561 23.6734771729 23.6687927246 19.9184207916 13.5067415237 6.8549990654 2.31053638458 2.30413532257 6.5899553299 12.9593372345 19.116394043 22.703754425 22.6992759705 19.1040306091 12.9431276321 6.57472896576 2.30283880234 2.28997707367 6.00641059875 11.758556366 17.3426494598 20.549451828 20.545507431 17.3315505981 11.7438344955 5.99288272858 2.28896713257 2.27376055717 5.10181331635 9.74446392059 14.2844190598 16.7816143036 16.7786369324 14.2756538391 9.73241710663 5.09125709534 2.27311897278 2.25944042206 3.89425373077 6.79273080826 9.57770252228 11.0969762802 11.0951890945 9.57233333588 6.78522109985 3.88788461685 2.2591586113 
