14.0053310394 13.7934818268 13.0173196793 11.8381938934 11.1543827057 11.1552038193 11.8405714035 13.0200300217 13.7945680618 14.0053520203 21.9938812256 21.6359405518 20.5864944458 19.1377239227 18.2712936401 18.2723731995 19.1406803131 20.5899333954 21.6375102997 21.9940414429 29.9798431396 29.5477714539 28.6411437988 27.4828681946 26.7722702026 26.7731704712 27.4852771759 28.6439380646 29.5494041443 29.9801235199 37.9813346863 37.6506080627 37.0588684082 36.3526306152 35.9207229614 35.9212760925 36.354095459 37.0606193542 37.6517486572 37.981590271 45.9987945557 45.8773040771 45.6730918884 45.4394111633 45.2967681885 45.2969551086 45.4398956299 45.6736831665 45.8777122498 45.9988899231 54.0212554932 54.1433372498 54.3485679626 54.5834197998 54.7267837524 54.726600647 54.5829353333 54.3479766846 54.1429252625 54.0211524963 62.0386924744 62.3698654175 62.96251297 63.6699371338 64.1025848389 64.1020202637 63.66847229 62.960773468 62.3687171936 62.0384368896 70.0401382446 70.4722518921 71.3795013428 72.5387878418 73.2500228882 73.2491149902 72.5363845825 71.3767089844 70.4706268311 70.039855957 78.0260848999 78.3836898804 79.4329376221 80.8818969727 81.7482757568 81.7472000122 80.8789367676 79.4294891357 78.3821105957 78.0259246826 86.0146560669 86.2261199951 87.0010452271 88.1780471802 88.8608169556 88.8600006104 88.1756591797 86.998336792 86.2250518799 86.0146331787 
14.004901886 13.7917490005 13.0165605545 11.8365068436 11.1507949829 11.1516189575 11.8388881683 13.0192708969 13.7928342819 14.0049266815 21.9934272766 21.6329898834 20.5805549622 19.1233673096 18.2476406097 18.2487316132 19.1263523102 20.5840110779 21.6345729828 21.9935932159 29.9794139862 29.5439414978 28.6304702759 27.4553775787 26.7226524353 26.7235927582 27.4578437805 28.6332893372 29.545589447 29.9797077179 37.9809913635 37.6470756531 37.047492981 36.3207435608 35.8710441589 35.8716278076 36.322265625 37.0492782593 37.6482315063 37.9812545776 45.9986610413 45.8758239746 45.6680030823 45.4256248474 45.2766952515 45.276889801 45.4261245728 45.6686172485 45.8762435913 45.9987678528 54.0213813782 54.1448249817 54.3536834717 54.5972862244 54.7469482422 54.746761322 54.5967788696 54.3530654907 54.1444168091 54.0212783813 62.0390319824 62.3734054565 62.973903656 63.7018547058 64.1523132324 64.151725769 63.7003326416 62.9721221924 62.3722457886 62.0387687683 70.0405654907 70.4760818481 71.3901748657 72.5662765503 73.2995986938 73.2986526489 72.5637969971 71.3873596191 70.4744338989 70.0402832031 78.0265350342 78.3866271973 79.4388580322 80.8962173462 81.7718811035 81.7707901001 80.8932189941 79.4354019165 78.385055542 78.0263671875 86.015083313 86.2278594971 87.0018005371 88.1797027588 88.8643722534 88.8635559082 88.1773147583 86.9990844727 86.2267684937 86.0150604248 
14.0048789978 13.791642189 13.0164804459 11.8363580704 11.1505470276 11.1513710022 11.8387393951 13.0191888809 13.7927274704 14.0049057007 21.9934005737 21.6328086853 20.5801696777 19.1225185394 18.2463531494 18.2474460602 19.1255054474 20.5836277008 21.6343860626 21.993560791 29.9793872833 29.5436973572 28.6297855377 27.4537372589 26.7199440002 26.7208843231 27.4562072754 28.6326065063 29.5453472137 29.9796772003 37.98097229 37.6468391418 37.046710968 36.3185462952 35.8672676086 35.8678436279 36.3200683594 37.0484886169 37.6479911804 37.9812316895 45.9986534119 45.8757362366 45.6676292419 45.4244613647 45.2749633789 45.2751541138 45.4249687195 45.6682395935 45.8761482239 45.9987602234 54.0213928223 54.1449279785 54.3540496826 54.5984458923 54.7486953735 54.7484970093 54.5979309082 54.3534431458 54.1445159912 54.0212936401 62.0390510559 62.3736419678 62.9746818542 63.7040481567 64.1560821533 64.1555023193 63.7025222778 62.9729003906 62.3724746704 62.0387954712 70.0405883789 70.4763259888 71.3908615112 72.5679092407 73.3022994995 73.3013458252 72.5654220581 71.3880462646 70.4746780396 70.0402984619 78.0265655518 78.3868179321 79.4392547607 80.897064209 81.7731628418 81.7720718384 80.8940887451 79.4357833862 78.3852386475 78.0263977051 86.0150985718 86.2279510498 87.0018615723 88.1798629761 88.8646240234 88.8637924194 88.1774749756 86.9991760254 86.2268676758 86.015083313 
14.0048761368 13.7916240692 13.016459465 11.8363189697 11.1504898071 11.1513147354 11.8387012482 13.0191640854 13.7927093506 14.004901886 21.9933948517 21.6327781677 20.5801029205 19.122379303 18.2461490631 18.2472419739 19.1253662109 20.5835590363 21.634355545 21.9935588837 29.9793872833 29.5436592102 28.6296653748 27.4534816742 26.7195453644 26.7204856873 27.455953598 28.6324882507 29.5453071594 29.9796733856 37.98097229 37.6468009949 37.0465812683 36.3181877136 35.8666534424 35.8672332764 36.3197135925 37.0483627319 37.6479568481 37.9812316895 45.9986572266 45.8757095337 45.6675643921 45.4242553711 45.2746620178 45.2748527527 45.4247627258 45.668182373 45.8761253357 45.9987602234 54.0214004517 54.1449356079 54.3541145325 54.5986442566 54.7490005493 54.7488021851 54.5981445312 54.3535118103 54.1445236206 54.0212936401 62.0390510559 62.3736724854 62.974811554 63.7043991089 64.1566925049 64.1561050415 63.7028694153 62.973033905 62.3725090027 62.0387954712 70.0405883789 70.4763641357 71.3909912109 72.5681686401 73.302696228 73.3017425537 72.5656814575 71.3881530762 70.4747161865 70.0402984619 78.0265731812 78.3868484497 79.4393081665 80.8972015381 81.7733764648 81.7722702026 80.8942260742 79.4358444214 78.3852767944 78.0264053345 86.0151138306 86.2279815674 87.0018920898 88.1798858643 88.8646697998 88.8638534546 88.1775131226 86.9991912842 86.2268829346 86.0150756836 
14.0048742294 13.7916193008 13.0164470673 11.8362960815 11.1504602432 11.1512842178 11.8386793137 13.0191526413 13.7927036285 14.0049009323 21.9933929443 21.6327667236 20.580072403 19.1223258972 18.2460823059 18.2471752167 19.1253147125 20.583530426 21.6343479156 21.9935588837 29.979385376 29.5436477661 28.6296291351 27.4534053802 26.7194309235 26.7203712463 27.4558773041 28.6324577332 29.545293808 29.9796733856 37.9809684753 37.6467971802 37.0465393066 36.3180885315 35.8664894104 35.8670730591 36.3196144104 37.048324585 37.6479454041 37.9812316895 45.9986572266 45.875705719 45.667552948 45.4241981506 45.2745780945 45.274772644 45.4247093201 45.6681632996 45.8761177063 45.9987602234 54.0214004517 54.1449508667 54.3541412354 54.5987091064 54.7490768433 54.7488861084 54.598197937 54.3535270691 54.1445350647 54.0212936401 62.0390510559 62.3736801147 62.9748535156 63.7045059204 64.1568603516 64.1562805176 63.7029800415 62.9730606079 62.3725242615 62.0387992859 70.0405883789 70.4763717651 71.3910140991 72.5682296753 73.3028030396 73.301864624 72.5657501221 71.3882064819 70.4747238159 70.0402984619 78.0265731812 78.3868560791 79.4393386841 80.8972549438 81.7734375 81.7723464966 80.8942642212 79.4358673096 78.3852920532 78.0264053345 86.0151062012 86.2279815674 87.0018997192 88.179901123 88.8647003174 88.8638839722 88.177520752 86.999206543 86.2268829346 86.0150756836 
14.0048732758 13.7916154861 13.0164375305 11.8362798691 11.150434494 11.1512584686 11.8386611938 13.0191431046 13.7926998138 14.0048999786 21.9933948517 21.6327610016 20.5800609589 19.1222991943 18.2460422516 18.2471351624 19.1252841949 20.5835170746 21.6343402863 21.9935588837 29.979385376 29.5436401367 28.6296024323 27.4533653259 26.719373703 26.7203140259 27.4558353424 28.6324367523 29.5452880859 29.9796695709 37.9809684753 37.6467819214 37.0465202332 36.3180427551 35.8664169312 35.8669967651 36.319568634 37.0483016968 37.6479377747 37.9812316895 45.9986572266 45.875705719 45.6675415039 45.4241752625 45.2745475769 45.2747383118 45.4246788025 45.6681518555 45.8761177063 45.9987602234 54.0214004517 54.1449546814 54.35414505 54.5987358093 54.7491111755 54.7489242554 54.5982246399 54.3535346985 54.1445426941 54.0212936401 62.0390510559 62.3736953735 62.9748764038 63.7045631409 64.1569442749 64.1563568115 63.7030296326 62.9730834961 62.3725357056 62.0387992859 70.0405883789 70.4763793945 71.3910446167 72.5682754517 73.3028564453 73.3019180298 72.565788269 71.3882064819 70.4747390747 70.0402984619 78.0265731812 78.3868637085 79.4393615723 80.897277832 81.773475647 81.7723846436 80.8942947388 79.4358978271 78.3852767944 78.0264053345 86.0151062012 86.2279891968 87.001914978 88.1799240112 88.8647384644 88.8639068604 88.1775512695 86.9992141724 86.2268981934 86.0150756836 
14.0048732758 13.7916126251 13.0164260864 11.8362598419 11.1504125595 11.1512355804 11.838643074 13.0191345215 13.7927007675 14.0048999786 21.9933929443 21.6327571869 20.5800418854 19.1222724915 18.2460098267 18.2471027374 19.1252593994 20.5835056305 21.6343364716 21.9935588837 29.979385376 29.5436325073 28.6295948029 27.4533290863 26.7193336487 26.7202720642 27.4558010101 28.6324195862 29.5452842712 29.9796714783 37.9809684753 37.6467819214 37.0465087891 36.3180084229 35.8663673401 35.8669509888 36.3195304871 37.0482826233 37.6479377747 37.9812278748 45.9986572266 45.875705719 45.6675338745 45.4241600037 45.2745246887 45.2747192383 45.4246673584 45.6681442261 45.8761138916 45.9987602234 54.0214004517 54.1449546814 54.3541488647 54.5987434387 54.7491378784 54.7489471436 54.5982398987 54.3535461426 54.1445388794 54.0212936401 62.0390510559 62.3737030029 62.9748878479 63.7045898438 64.1569824219 64.1564025879 63.7030639648 62.9731063843 62.3725395203 62.0387992859 70.0405883789 70.4763946533 71.3910598755 72.5683135986 73.3029098511 73.3019638062 72.5658340454 71.3882217407 70.4747467041 70.0402984619 78.0265731812 78.3868637085 79.4393692017 80.8973083496 81.7735061646 81.7724151611 80.8943252563 79.4358978271 78.3852920532 78.0264053345 86.0151062012 86.2279891968 87.0019378662 88.1799468994 88.8647613525 88.8639373779 88.1775665283 86.9992218018 86.2268981934 86.0150756836 
