0.985866367817 1.02504169941 1.05941021442 1.14872360229 1.21597826481 1.21594238281 1.14863848686 1.05493187904 1.02503097057 0.985987305641 0.981402039528 1.06276929379 1.15065455437 1.29926741123 1.35698270798 1.35693264008 1.29913496971 1.12811243534 1.06277048588 0.981534361839 0.980247616768 1.14773368835 1.24859344959 1.36199295521 1.40672600269 1.40666723251 1.36186301708 1.22588837147 1.14775526524 0.980366945267 0.97914659977 1.20043694973 1.28664493561 1.38563525677 1.42268395424 1.4226231575 1.38551294804 1.27242863178 1.20044767857 0.979255974293 0.978549182415 1.22687840462 1.30259621143 1.39451849461 1.42776250839 1.4277023077 1.39439988136 1.29098510742 1.2268819809 0.978653788567 0.978549957275 1.2268652916 1.3025854826 1.39451050758 1.42775702477 1.42769682407 1.39439189434 1.29097378254 1.22686874866 0.978654563427 0.97914904356 1.20040011406 1.28661155701 1.38560760021 1.42266345024 1.42260289192 1.38548541069 1.27239274979 1.2004108429 0.979258477688 0.980132162571 1.13358569145 1.2365899086 1.35889530182 1.40531051159 1.40525102615 1.35876357555 1.21097052097 1.13360762596 0.980253100395 0.981405854225 1.06268560886 1.15055286884 1.29914069176 1.35684370995 1.35679388046 1.29900860786 1.1280194521 1.06268668175 0.981538236141 0.985883593559 1.02497076988 1.05931007862 1.14855623245 1.21579647064 1.21576046944 1.14847135544 1.05483901501 1.02496004105 0.986004412174 
0.984523534775 1.01077449322 1.04070472717 1.12726259232 1.1907800436 1.19075322151 1.12718892097 1.03591251373 1.01077246666 0.984634637833 0.979513168335 1.04506397247 1.13104653358 1.28634893894 1.37030220032 1.3702673912 1.28626716137 1.10842657089 1.04506635666 0.979638576508 0.977804303169 1.12850296497 1.23264336586 1.40286898613 1.4794075489 1.47935378551 1.40277373791 1.20665729046 1.12851440907 0.977912604809 0.976552307606 1.1812582016 1.28833520412 1.44539070129 1.50722801685 1.50716567039 1.44527804852 1.26161384583 1.18124639988 0.976634323597 0.975885391235 1.20825827122 1.31585037708 1.46193742752 1.51612448692 1.516061306 1.46182286739 1.28906464577 1.20823585987 0.975953161716 0.97588634491 1.20824694633 1.31584000587 1.46192896366 1.51611816883 1.51605522633 1.46181404591 1.28905487061 1.20822441578 0.975954174995 0.976555347443 1.18122327328 1.28830349445 1.44536364079 1.50720441341 1.50714206696 1.44525098801 1.2615827322 1.18121170998 0.976637303829 0.977693915367 1.11421561241 1.21653842926 1.38553857803 1.47061216831 1.4705568552 1.38544023037 1.19085896015 1.1142282486 0.977804481983 0.979518413544 1.04498660564 1.13095128536 1.28625631332 1.37019908428 1.37016427517 1.28617441654 1.10833919048 1.04498898983 0.979643642902 0.98454117775 1.01071453094 1.04061055183 1.12709546089 1.19060707092 1.19058036804 1.12702155113 1.035826087 1.0107126236 0.984652221203 
0.984336853027 1.00790143013 1.03686833382 1.1229698658 1.18574166298 1.18571639061 1.12289953232 1.0319930315 1.00790143013 0.984445512295 0.979261755943 1.04142916203 1.12713253498 1.28186440468 1.36536955833 1.3653383255 1.28178691864 1.10443198681 1.04143190384 0.979384958744 0.977418959141 1.12452030182 1.22868227959 1.39961159229 1.4990760088 1.49903953075 1.39952397346 1.20273661613 1.12452995777 0.977526068687 0.976000130177 1.17730021477 1.28469979763 1.45349359512 1.54450631142 1.54446423054 1.45341050625 1.25819337368 1.17728531361 0.976081252098 0.97520160675 1.20443844795 1.31257593632 1.47773718834 1.56002271175 1.5599783659 1.47765719891 1.28612983227 1.20441150665 0.975268900394 0.975202798843 1.20442712307 1.31256592274 1.47772955894 1.56001675129 1.55997264385 1.4776494503 1.28611981869 1.20440030098 0.975270152092 0.976003527641 1.17726540565 1.28466916084 1.45346987247 1.54448616505 1.54444408417 1.45338690281 1.25816297531 1.17725038528 0.976084649563 0.977319359779 1.11021113396 1.21242082119 1.38081848621 1.47898805141 1.47895181179 1.38073074818 1.18677473068 1.11022245884 0.977428436279 0.979266881943 1.04135322571 1.1270377636 1.28177177906 1.36526358128 1.36523246765 1.28169453144 1.10434556007 1.04135608673 0.979390323162 0.984354555607 1.00784385204 1.03677535057 1.12280189991 1.18556880951 1.18554353714 1.12273144722 1.03190767765 1.00784397125 0.984463214874 
0.984327554703 1.00773739815 1.03664779663 1.12271940708 1.18544638157 1.18542134762 1.12264919281 1.03176808357 1.00773751736 0.984436154366 0.979249894619 1.04121947289 1.1269056797 1.28159785271 1.36506986618 1.36503887177 1.28152060509 1.10419940948 1.04122245312 0.97937309742 0.977400004864 1.12428760529 1.22844684124 1.39934313297 1.4987950325 1.49875950813 1.39925611019 1.20250082016 1.12429726124 0.977506995201 0.975970625877 1.17706954479 1.28448593616 1.45333242416 1.54730820656 1.54726958275 1.45324969292 1.25798976421 1.17705464363 0.976051568985 0.975162684917 1.20421981812 1.31239831448 1.47779560089 1.56510543823 1.56506562233 1.47771656513 1.2859736681 1.20419239998 0.975229918957 0.97516387701 1.20420825481 1.3123884201 1.4777879715 1.56509959698 1.56505978107 1.47770893574 1.28596389294 1.20418119431 0.975231170654 0.975974023342 1.17703485489 1.28445506096 1.45330905914 1.54728841782 1.54724979401 1.4532263279 1.25795924664 1.17701971531 0.976055145264 0.977301001549 1.10997724533 1.2121771574 1.3805372715 1.47871077061 1.47867524624 1.38044989109 1.18653070927 1.109988451 0.977410137653 0.979255139828 1.04114365578 1.12681114674 1.28150546551 1.36496400833 1.3649327755 1.28142809868 1.10411298275 1.04114639759 0.979378342628 0.984345376492 1.00767993927 1.0365550518 1.12255144119 1.1852735281 1.18524837494 1.12248110771 1.03168272972 1.00768005848 0.98445379734 
0.984327435493 1.00773537159 1.03664541245 1.12271690369 1.18544375896 1.1854184866 1.12264668941 1.03176522255 1.00773537159 0.984436035156 0.9792496562 1.0412170887 1.12690329552 1.28159546852 1.36506724358 1.36503636837 1.2815182209 1.10419690609 1.04121994972 0.979372739792 0.977399766445 1.12428545952 1.22844493389 1.399340868 1.4987924099 1.49875700474 1.39925372601 1.20249867439 1.12429499626 0.977506637573 0.975970029831 1.17706763744 1.28448450565 1.45333254337 1.54734063148 1.54730188847 1.45324993134 1.25798857212 1.17705261707 0.976051092148 0.975161790848 1.20421814919 1.31239759922 1.47779893875 1.56524610519 1.56520664692 1.47771990299 1.2859736681 1.20419120789 0.975229203701 0.975162982941 1.2042068243 1.31238794327 1.47779142857 1.56524050236 1.56520092487 1.47771239281 1.28596389294 1.20417952538 0.975230455399 0.975973427296 1.17703282833 1.28445374966 1.45330905914 1.54732072353 1.54728221893 1.45322644711 1.25795805454 1.17701792717 0.976054608822 0.97730076313 1.10997498035 1.21217513084 1.3805347681 1.47870850563 1.47867321968 1.3804475069 1.18652820587 1.10998618603 0.977409780025 0.979254901409 1.04114127159 1.12680876255 1.2815028429 1.36496126652 1.3649302721 1.28142559528 1.10411036015 1.0411440134 0.979377985001 0.984345197678 1.00767803192 1.03655254841 1.12254881859 1.18527066708 1.18524551392 1.12247860432 1.03167998791 1.00767803192 0.984453558922 
0.984327435493 1.00773584843 1.03664588928 1.12271809578 1.18544530869 1.18542015553 1.12264800072 1.03176593781 1.00773584843 0.984435856342 0.979249596596 1.04121804237 1.12690448761 1.28159701824 1.36506903172 1.36503791809 1.28151965141 1.10419797897 1.0412209034 0.979372859001 0.977399647236 1.12428665161 1.2284463644 1.39934301376 1.49879455566 1.49875879288 1.39925587177 1.2025001049 1.12429630756 0.977506637573 0.975969910622 1.17706918716 1.28448653221 1.45333492756 1.54735016823 1.54731154442 1.45325243473 1.25799024105 1.177054286 0.976051032543 0.975161671638 1.20421981812 1.31239998341 1.47780227661 1.5652577877 1.5652179718 1.47772336006 1.28597605228 1.2041926384 0.975228965282 0.975162923336 1.20420849323 1.31239020824 1.47779464722 1.56525206566 1.56521224976 1.47771573067 1.28596615791 1.20418131351 0.975230157375 0.975973308086 1.17703437805 1.28445577621 1.45331168175 1.54733026028 1.54729187489 1.45322906971 1.25795972347 1.17701947689 0.976054549217 0.977300465107 1.10997617245 1.21217632294 1.38053703308 1.47871100903 1.47867536545 1.38044977188 1.18652963638 1.10998725891 0.977409541607 0.9792547822 1.04114210606 1.12680995464 1.28150427341 1.36496293545 1.36493206024 1.28142702579 1.10411179066 1.04114508629 0.979377925396 0.984345138073 1.00767850876 1.03655302525 1.12255012989 1.18527233601 1.18524718285 1.12248003483 1.03168082237 1.00767850876 0.984453618526 
0.984327316284 1.00773608685 1.03664672375 1.1227196455 1.18544697762 1.18542182446 1.12264943123 1.03176641464 1.00773608685 0.984435856342 0.979249477386 1.04121887684 1.12690544128 1.28159856796 1.36507093906 1.36503994465 1.28152108192 1.10419905186 1.04122161865 0.979372560978 0.977399528027 1.1242878437 1.22844803333 1.39934504032 1.49879670143 1.49876093864 1.39925801754 1.20250165462 1.12429738045 0.977506399155 0.975969612598 1.17707073689 1.28448843956 1.45333755016 1.54735946655 1.54732096195 1.45325493813 1.2579921484 1.17705571651 0.976050794125 0.975161552429 1.20422160625 1.31240212917 1.4778059721 1.56526768208 1.5652282238 1.47772693634 1.28597795963 1.20419442654 0.975228786469 0.975162565708 1.20421016216 1.31239235401 1.47779846191 1.56526219845 1.56522250175 1.47771942616 1.28596830368 1.20418298244 0.975229978561 0.975973069668 1.17703604698 1.28445756435 1.45331418514 1.54733967781 1.54730117321 1.4532315731 1.25796163082 1.1770209074 0.976054191589 0.977300405502 1.10997724533 1.21217775345 1.38053882122 1.47871315479 1.47867751122 1.38045167923 1.1865311861 1.109988451 0.977409362793 0.979254662991 1.04114294052 1.12681090832 1.28150606155 1.36496496201 1.36493384838 1.28142857552 1.10411262512 1.04114580154 0.979377806187 0.984345078468 1.00767874718 1.03655397892 1.12255144119 1.18527400494 1.18524897099 1.12248122692 1.03168129921 1.00767874718 0.984453439713 
