13.9728050232 21.7282485962 29.3300952911 37.1896743774 45.6551437378 54.3665466309 62.8309631348 70.688911438 78.2909698486 86.0469207764 13.9629306793 21.4869651794 28.5861949921 36.3133354187 45.3026123047 54.7207984924 63.708152771 71.4315261841 78.5311965942 86.0566864014 13.9633398056 21.2913036346 28.0645122528 35.7907791138 45.0888023376 54.9356269836 64.2312164307 71.9527587891 78.7258605957 86.0562286377 13.9541759491 21.1335010529 27.7781429291 35.533164978 44.9850006104 55.039932251 64.4890899658 72.2389602661 78.8832168579 86.0652923584 13.9456529617 21.0587272644 27.6527328491 35.4294242859 44.9442825317 55.0808486938 64.5929412842 72.3643188477 78.9578018188 86.0737609863 13.9456615448 21.0588111877 27.6528720856 35.4295349121 44.9443244934 55.0808067322 64.5928268433 72.3641815186 78.9577331543 86.0737457275 13.9542045593 21.1337776184 27.7786045074 35.5335578918 44.9851493835 55.0397796631 64.4887084961 72.238494873 78.8829498291 86.0652618408 13.963350296 21.2917728424 28.065486908 35.7917022705 45.0891799927 54.935256958 64.2302932739 71.9517822266 78.7253875732 86.0562362671 13.962934494 21.4875068665 28.587928772 36.3151741028 45.303352356 54.7200469971 63.706325531 71.4297943115 78.5306549072 86.0566711426 13.9728679657 21.7289047241 29.3320121765 37.1921539307 45.6561508179 54.3655319214 62.8284797668 70.6870040894 78.2903289795 86.0468521118 
13.9713745117 21.7376842499 29.3520965576 37.2039604187 45.6575088501 54.3641662598 62.8166313171 70.6669311523 78.281578064 86.0483474731 13.9606809616 21.5055999756 28.619562149 36.3084716797 45.2883796692 54.735080719 63.7129364014 71.3981552124 78.5126419067 86.0589523315 13.96089077 21.3115749359 28.089963913 35.7450866699 45.0506210327 54.97397995 64.2768096924 71.9272232056 78.7056503296 86.0586929321 13.9512500763 21.1485366821 27.7843437195 35.4478683472 44.9278144836 55.0973815918 64.5742874146 72.2326431274 78.8682174683 86.0682373047 13.9420194626 21.0664863586 27.6413059235 35.3215866089 44.8773880005 55.1480484009 64.7007064819 72.3755874634 78.9500579834 86.0773849487 13.9420309067 21.0665817261 27.6414756775 35.321723938 44.8774375916 55.1479949951 64.7005691528 72.3754272461 78.9499664307 86.0773696899 13.9512815475 21.1488304138 27.7848567963 35.4483375549 44.9280014038 55.0971908569 64.5738296509 72.2321243286 78.8679275513 86.0681991577 13.9609022141 21.3120517731 28.0909786224 35.7461128235 45.0510559082 54.9735488892 64.2757644653 71.9262313843 78.7051773071 86.0586776733 13.960682869 21.5061321259 28.6212921143 36.310382843 45.2891845703 54.7342834473 63.711025238 71.3964233398 78.5121231079 86.0589447021 13.9714374542 21.7383079529 29.3539485931 37.2064399719 45.6585273743 54.3631324768 62.8141517639 70.6650848389 78.2809524536 86.048286438 
13.9713916779 21.7382278442 29.3534603119 37.2053375244 45.6580200195 54.3636512756 62.8152580261 70.6655731201 78.2810287476 86.048324585 13.9606952667 21.5067424774 28.6221866608 36.3106079102 45.2891578674 54.7343139648 63.7107887268 71.3955307007 78.511505127 86.0589370728 13.9609384537 21.3133125305 28.0937595367 35.7479782104 45.0516357422 54.9729690552 64.2739028931 71.9234237671 78.7039260864 86.0586471558 13.951338768 21.1508178711 27.7891902924 35.451385498 44.9290351868 55.0961494446 64.5707550049 72.2277832031 78.8659439087 86.0681381226 13.9421310425 21.0690765381 27.6467266083 35.3254585266 44.8787307739 55.1466941833 64.6968307495 72.3701858521 78.9474716187 86.0772628784 13.9421415329 21.0691719055 27.6468887329 35.325592041 44.8787841797 55.1466331482 64.696685791 72.3700180054 78.9473800659 86.0772628784 13.9513683319 21.1511096954 27.7897033691 35.4518547058 44.9292297363 55.0959625244 64.5703125 72.2272720337 78.8656539917 86.0681152344 13.9609498978 21.3137874603 28.0947704315 35.7490081787 45.0520706177 54.9725418091 64.272857666 71.9224243164 78.7034454346 86.058631897 13.9606990814 21.5072746277 28.6239128113 36.3125190735 45.2899589539 54.7335128784 63.7088775635 71.3937988281 78.5109786987 86.0589294434 13.971455574 21.7388515472 29.3553085327 37.2078094482 45.6590461731 54.3626251221 62.8127822876 70.663734436 78.2804031372 86.0482711792 
13.9713907242 21.7382392883 29.3534832001 37.2053604126 45.6580276489 54.3636398315 62.8152313232 70.6655349731 78.2810211182 86.0483169556 13.9606971741 21.5067634583 28.6222324371 36.3106422424 45.2891654968 54.7342987061 63.7107505798 71.3954849243 78.51146698 86.0589294434 13.960940361 21.3133449554 28.0938262939 35.7480278015 45.051651001 54.9729537964 64.2738571167 71.9233703613 78.7038803101 86.0586471558 13.951341629 21.1508579254 27.7892780304 35.4514503479 44.929058075 55.0961265564 64.5707015991 72.2276916504 78.8658981323 86.0681381226 13.9421310425 21.0691223145 27.6468238831 35.3255271912 44.8787498474 55.1466751099 64.696762085 72.3700790405 78.9474334717 86.0772628784 13.9421434402 21.0692157745 27.646987915 35.3256645203 44.8788070679 55.1466140747 64.6966171265 72.3699188232 78.9473419189 86.0772628784 13.9513702393 21.1511478424 27.7897930145 35.451915741 44.9292449951 55.0959434509 64.5702362061 72.2271881104 78.8656005859 86.068107605 13.9609527588 21.3138179779 28.0948352814 35.7490501404 45.0520896912 54.9725189209 64.2728118896 71.9223632812 78.7033843994 86.058631897 13.9607019424 21.5072917938 28.6239585876 36.3125572205 45.2899703979 54.7334938049 63.7088394165 71.3937606812 78.5109481812 86.058921814 13.971455574 21.7388572693 29.3553295135 37.2078323364 45.6590538025 54.3626174927 62.8127593994 70.6637039185 78.2803955078 86.0482711792 
13.9713926315 21.7382354736 29.3534736633 37.2053565979 45.6580238342 54.3636512756 62.8152427673 70.6655426025 78.2810211182 86.0483169556 13.9606962204 21.5067558289 28.6222190857 36.3106384277 45.2891693115 54.7343063354 63.7107543945 71.3954925537 78.5114822388 86.0589294434 13.960940361 21.3133335114 28.0938072205 35.7480125427 45.0516433716 54.9729614258 64.2738723755 71.9233856201 78.7038955688 86.0586471558 13.9513406754 21.1508483887 27.7892494202 35.4514312744 44.9290466309 55.0961418152 64.5707244873 72.2277297974 78.8659057617 86.0681381226 13.9421300888 21.0691051483 27.6467952728 35.3255081177 44.878742218 55.1466751099 64.6967849731 72.3701171875 78.9474487305 86.0772628784 13.9421415329 21.0692024231 27.6469573975 35.3256492615 44.8788032532 55.1466217041 64.6966400146 72.3699569702 78.9473571777 86.0772628784 13.9513692856 21.1511383057 27.7897624969 35.4518966675 44.9292411804 55.095954895 64.5702667236 72.2272033691 78.8656234741 86.068107605 13.9609527588 21.3138065338 28.0948162079 35.749042511 45.0520782471 54.9725189209 64.2728347778 71.92237854 78.7034225464 86.058631897 13.9607009888 21.5072860718 28.6239414215 36.3125457764 45.2899665833 54.7335014343 63.7088508606 71.3937683105 78.5109634399 86.058921814 13.971455574 21.7388553619 29.3553237915 37.2078285217 45.6590461731 54.3626213074 62.8127670288 70.6637115479 78.2803955078 86.0482711792 
13.9713916779 21.7382316589 29.3534660339 37.2053451538 45.6580162048 54.3636474609 62.8152542114 70.6655654907 78.2810287476 86.0483169556 13.9606952667 21.5067481995 28.6222038269 36.3106193542 45.2891578674 54.7343101501 63.7107620239 71.3955154419 78.5114822388 86.0589370728 13.960940361 21.313325882 28.0937786102 35.7479896545 45.0516433716 54.9729652405 64.2738876343 71.9234008789 78.7039108276 86.0586471558 13.951338768 21.1508312225 27.7892131805 35.4514083862 44.9290428162 55.0961380005 64.5707473755 72.2277603149 78.8659286499 86.0681381226 13.9421310425 21.0690917969 27.6467590332 35.3254814148 44.8787384033 55.1466941833 64.6968078613 72.3701553345 78.9474563599 86.0772628784 13.9421415329 21.069185257 27.6469230652 35.3256225586 44.8787918091 55.1466369629 64.6966705322 72.3699874878 78.9473724365 86.0772628784 13.9513692856 21.1511230469 27.7897262573 35.451877594 44.929233551 55.0959587097 64.5702896118 72.2272491455 78.8656387329 86.068107605 13.9609518051 21.3137969971 28.094789505 35.7490234375 45.0520706177 54.9725341797 64.2728424072 71.9224090576 78.7034301758 86.058631897 13.9607000351 21.507276535 28.6239242554 36.3125267029 45.2899627686 54.7335014343 63.70885849 71.3937835693 78.5109710693 86.0589294434 13.971455574 21.7388496399 29.3553161621 37.2078170776 45.6590461731 54.3626213074 62.8127822876 70.6637115479 78.2803955078 86.0482711792 
13.9713916779 21.7382278442 29.3534603119 37.2053375244 45.6580200195 54.363658905 62.8152580261 70.6655731201 78.2810287476 86.048324585 13.960694313 21.5067424774 28.6221809387 36.3105964661 45.2891578674 54.7343139648 63.7107925415 71.3955383301 78.511505127 86.0589370728 13.9609384537 21.3133125305 28.0937595367 35.7479782104 45.0516357422 54.9729690552 64.2739181519 71.9234466553 78.703918457 86.0586471558 13.9513397217 21.1508178711 27.789182663 35.451385498 44.9290351868 55.096157074 64.5707702637 72.2277984619 78.8659362793 86.0681381226 13.9421310425 21.0690727234 27.6467247009 35.3254547119 44.8787231445 55.1467018127 64.6968383789 72.3701858521 78.9474868774 86.0772628784 13.9421424866 21.0691680908 27.6468887329 35.325592041 44.878780365 55.1466407776 64.6966934204 72.3700180054 78.9473876953 86.0772628784 13.9513692856 21.1511058807 27.7896976471 35.4518470764 44.9292221069 55.0959739685 64.5703125 72.2272872925 78.8656463623 86.0681152344 13.9609498978 21.313785553 28.0947704315 35.749004364 45.0520706177 54.9725341797 64.2728729248 71.9224243164 78.7034454346 86.058631897 13.9606990814 21.507270813 28.6239032745 36.3125114441 45.2899513245 54.733505249 63.7088890076 71.3938140869 78.5109786987 86.0589294434 13.971455574 21.7388515472 29.3553066254 37.2078094482 45.6590461731 54.3626251221 62.8127822876 70.663734436 78.2804031372 86.0482711792 
