14.0074501038 13.799870491 13.0110340118 11.8074331284 11.0615386963 11.0624599457 11.8099660873 13.0137615204 13.8009710312 14.0074501038 21.9945144653 21.6404285431 20.560344696 18.9985275269 18.0714664459 18.0726108551 19.001701355 20.5640220642 21.6420059204 21.9946651459 29.9785327911 29.5263786316 28.5447845459 27.3236885071 26.582818985 26.5837554932 27.3262042999 28.5477619171 29.5281467438 29.9788284302 37.9766998291 37.6045150757 36.9743995667 36.2417106628 35.7960853577 35.7966575623 36.243221283 36.9762268066 37.6057853699 37.9770011902 45.9964027405 45.8581428528 45.641658783 45.4005470276 45.2539787292 45.2541656494 45.4010467529 45.6422805786 45.8585929871 45.9965248108 54.0236473083 54.1626052856 54.380153656 54.6224822998 54.7697906494 54.7695999146 54.6219787598 54.3795394897 54.162147522 54.0235366821 62.0433273315 62.4159851074 63.0471038818 63.7810287476 64.2274017334 64.2268295288 63.7795181274 63.0452613831 62.4147186279 62.0430297852 70.0414428711 70.4934921265 71.4757995605 72.6980285645 73.4395828247 73.4386444092 72.695526123 71.4728240967 70.4917144775 70.0411376953 78.0254440308 78.3791885376 79.458946228 81.0208892822 81.9479827881 81.9468383789 81.0177078247 79.4552688599 78.3776092529 78.0252838135 86.0125427246 86.2197418213 87.0073242188 88.208442688 88.9531860352 88.9522628784 88.2059249878 87.0045928955 86.2186431885 86.0125350952 
14.0066385269 13.8009567261 13.0304279327 11.8461236954 11.1092367172 11.1101446152 11.8486232758 13.0331001282 13.8020324707 14.0066452026 21.9938755035 21.6422462463 20.5781612396 19.0256729126 18.0981292725 18.0992774963 19.0288410187 20.5817947388 21.6438026428 21.9940338135 29.9782276154 29.5280170441 28.5553512573 27.3322277069 26.577255249 26.5782165527 27.3347797394 28.5583076477 29.5297718048 29.9785251617 37.9765510559 37.6052589417 36.9783477783 36.2350616455 35.7741737366 35.7747650146 36.2366218567 36.980178833 37.6065216064 37.9768486023 45.9963569641 45.8582649231 45.6421012878 45.3955612183 45.2429618835 45.2431640625 45.3960762024 45.6427154541 45.8587112427 45.9964790344 54.0236968994 54.1624755859 54.3797111511 54.627494812 54.7808532715 54.7806587219 54.6269760132 54.3790969849 54.162021637 54.0235786438 62.0434684753 62.4152488708 63.0431289673 63.7876663208 64.2493286133 64.2487182617 63.7861022949 63.0413017273 62.4139862061 62.0431785583 70.0417480469 70.491859436 71.4652175903 72.6894607544 73.4450759888 73.4441070557 72.6869049072 71.4622573853 70.4901123047 70.0414352417 78.0260925293 78.3773651123 79.4411239624 80.9937057495 81.9212646484 81.9201049805 80.9905395508 79.4374923706 78.3758239746 78.025932312 86.0133514404 86.2186508179 86.987953186 88.1697769165 88.9054870605 88.9045944214 88.1672744751 86.9852981567 86.2175827026 86.0133514404 
14.0066261292 13.8010044098 13.0308094025 11.8468828201 11.1101980209 11.1111049652 11.8493824005 13.0334787369 13.8020811081 14.0066337585 21.9938716888 21.642326355 20.5785884857 19.0264167786 18.0990142822 18.1001625061 19.029586792 20.5822219849 21.6438789368 21.9940299988 29.9782314301 29.5281009674 28.5557003021 27.3328380585 26.5779514313 26.5789146423 27.3353862762 28.5586528778 29.5298538208 29.9785289764 37.9765510559 37.6053314209 36.9786071777 36.2354545593 35.7746200562 35.7752151489 36.2370071411 36.980430603 37.6065864563 37.9768486023 45.9963569641 45.8582878113 45.6421890259 45.3956985474 45.2431144714 45.2433166504 45.3962097168 45.6428070068 45.8587341309 45.9964752197 54.0237007141 54.1624450684 54.3796272278 54.6273612976 54.7806930542 54.7805023193 54.6268386841 54.3790092468 54.1619911194 54.0235786438 62.04347229 62.4151763916 63.042881012 63.7872772217 64.2488708496 64.2482757568 63.7857131958 63.0410423279 62.4139175415 62.0431785583 70.0417480469 70.4917602539 71.4648513794 72.6888427734 73.4443817139 73.4434204102 72.6862869263 71.4619064331 70.4900131226 70.0414352417 78.0260925293 78.3772888184 79.4406967163 80.9929428101 81.9203567505 81.9192123413 80.9897842407 79.4370651245 78.3757324219 78.0259399414 86.0133590698 86.2186126709 86.9875564575 88.1690139771 88.9045333862 88.9036254883 88.166519165 86.9849090576 86.2175369263 86.0133590698 
14.0066261292 13.8010025024 13.0308017731 11.8468694687 11.1101799011 11.1110877991 11.8493690491 13.0334720612 13.8020792007 14.0066337585 21.9938716888 21.642326355 20.5785827637 19.0264072418 18.0989971161 18.1001472473 19.0295734406 20.5822162628 21.6438789368 21.9940299988 29.9782314301 29.5280990601 28.5556945801 27.3328285217 26.5779418945 26.5789012909 27.3353767395 28.5586490631 29.5298538208 29.9785289764 37.9765510559 37.6053237915 36.9786071777 36.2354545593 35.7746200562 35.7752113342 36.2370033264 36.980430603 37.6065788269 37.9768486023 45.9963569641 45.8582878113 45.6421852112 45.395690918 45.2431144714 45.2433166504 45.3962059021 45.6428070068 45.8587341309 45.9964752197 54.0237007141 54.1624526978 54.3796272278 54.6273574829 54.7807006836 54.7805023193 54.6268463135 54.3790054321 54.1619987488 54.0235786438 62.04347229 62.415184021 63.0428733826 63.7872695923 64.2488861084 64.2482833862 63.7857208252 63.0410499573 62.4139251709 62.0431785583 70.0417480469 70.4917678833 71.4648666382 72.6888580322 73.4443817139 73.4434204102 72.6862945557 71.4619216919 70.490020752 70.0414352417 78.0260925293 78.3772888184 79.4407119751 80.9929733276 81.9203796387 81.9192276001 80.9897994995 79.4370651245 78.3757324219 78.0259399414 86.0133590698 86.2186126709 86.9875640869 88.169052124 88.9045562744 88.9036483765 88.1665420532 86.984916687 86.2175369263 86.0133590698 
14.0066280365 13.8010025024 13.030790329 11.8468484879 11.1101531982 11.1110610962 11.8493471146 13.0334596634 13.8020772934 14.0066337585 21.9938716888 21.6423225403 20.5785694122 19.026386261 18.0989723206 18.1001205444 19.0295524597 20.5822029114 21.6438751221 21.9940261841 29.9782314301 29.5280971527 28.5556869507 27.3328056335 26.5779209137 26.5788860321 27.335357666 28.5586395264 29.5298500061 29.9785289764 37.9765510559 37.6053237915 36.9785919189 36.2354393005 35.7746047974 35.7751960754 36.2369918823 36.9804229736 37.6065826416 37.9768486023 45.9963569641 45.8582878113 45.6421890259 45.395690918 45.2431106567 45.2433052063 45.3962020874 45.6427993774 45.8587303162 45.9964752197 54.0237007141 54.1624450684 54.3796272278 54.6273651123 54.7806968689 54.7805023193 54.6268501282 54.3790130615 54.1619987488 54.0235786438 62.04347229 62.415184021 63.0428886414 63.7872772217 64.2488937378 64.248298645 63.7857284546 63.0410614014 62.4139289856 62.0431785583 70.0417480469 70.4917678833 71.464881897 72.688873291 73.4444122314 73.4434432983 72.6863174438 71.4619369507 70.490020752 70.0414352417 78.0260925293 78.3772964478 79.4407196045 80.9929885864 81.9204101562 81.9192581177 80.9898147583 79.4370727539 78.3757400513 78.0259399414 86.0133590698 86.2186126709 86.9875869751 88.1690597534 88.9045791626 88.903678894 88.166557312 86.9849319458 86.2175369263 86.0133590698 
14.0066280365 13.8010005951 13.0307807922 11.846824646 11.1101226807 11.1110305786 11.8493242264 13.0334482193 13.802075386 14.0066337585 21.9938716888 21.6423187256 20.5785541534 19.0263576508 18.0989456177 18.1000938416 19.0295295715 20.5821914673 21.6438751221 21.9940261841 29.9782314301 29.528093338 28.5556716919 27.3327903748 26.5778999329 26.5788631439 27.3353385925 28.5586242676 29.5298480988 29.9785289764 37.9765510559 37.6053237915 36.9785842896 36.2354316711 35.7745895386 35.775188446 36.2369804382 36.9804191589 37.6065864563 37.9768486023 45.9963569641 45.8582878113 45.6421813965 45.3956871033 45.243106842 45.2433052063 45.3962020874 45.6427993774 45.8587303162 45.9964752197 54.0237007141 54.1624450684 54.3796310425 54.6273651123 54.7807159424 54.7805175781 54.6268463135 54.3790130615 54.1619987488 54.0235786438 62.04347229 62.4151763916 63.0428924561 63.7873039246 64.2489013672 64.2483062744 63.7857398987 63.0410652161 62.4139251709 62.0431785583 70.0417480469 70.4917678833 71.4648971558 72.6888809204 73.444442749 73.4434661865 72.6863479614 71.4619522095 70.4900283813 70.0414352417 78.0260925293 78.3772888184 79.4407272339 80.9930038452 81.9204330444 81.9192810059 80.9898376465 79.4370956421 78.3757400513 78.0259399414 86.0133590698 86.2186126709 86.9875946045 88.1690826416 88.9046096802 88.9036941528 88.1665802002 86.9849319458 86.2175369263 86.0133590698 
14.0066299438 13.8009996414 13.0307683945 11.8468008041 11.1100940704 11.1110019684 11.8493003845 13.0334367752 13.8020744324 14.0066356659 21.9938716888 21.6423187256 20.578540802 19.026342392 18.0989170074 18.1000671387 19.029510498 20.5821723938 21.6438713074 21.9940261841 29.9782314301 29.528093338 28.5556602478 27.3327713013 26.5778751373 26.5788421631 27.335319519 28.5586166382 29.5298461914 29.9785289764 37.9765510559 37.6053237915 36.9785766602 36.2354125977 35.7745742798 35.7751731873 36.2369689941 36.9804077148 37.6065826416 37.9768486023 45.9963569641 45.8582878113 45.6421813965 45.3956794739 45.2430992126 45.2433013916 45.396194458 45.6427993774 45.8587341309 45.9964752197 54.0237007141 54.1624526978 54.3796348572 54.627368927 54.780708313 54.7805175781 54.6268539429 54.3790168762 54.1620063782 54.0235786438 62.04347229 62.4151763916 63.0429077148 63.7873039246 64.2489089966 64.2483215332 63.7857475281 63.0410728455 62.4139251709 62.0431785583 70.0417480469 70.4917755127 71.4649124146 72.688911438 73.4444580078 73.4434967041 72.6863479614 71.4619522095 70.490020752 70.0414352417 78.0260925293 78.3772888184 79.4407348633 80.9930343628 81.920463562 81.9193191528 80.9898681641 79.4370880127 78.3757476807 78.0259399414 86.0133590698 86.2186126709 86.9876098633 88.1691131592 88.9046401978 88.9037322998 88.1666107178 86.984954834 86.2175369263 86.0133590698 
