2.25734305382 4.02526283264 7.08804130554 9.85186290741 11.2862100601 11.2845191956 9.8467912674 7.08023643494 4.01843261719 2.25705528259 2.2756228447 5.26941204071 9.98649311066 14.3837680817 16.7007484436 16.6979885101 14.3756341934 9.97437858582 5.25847768784 2.2748966217 2.29424023628 6.137819767 11.9501829147 17.3478775024 20.2577476501 20.2542152405 17.3377246857 11.9353380203 6.12416362762 2.29311466217 2.30932927132 6.70010280609 13.1644573212 19.0645675659 22.2747783661 22.2708473206 19.0533752441 13.1480941772 6.68463039398 2.30791068077 2.31753253937 6.9834151268 13.7420148849 19.8474273682 23.1787700653 23.1746845245 19.8358078003 13.7249956131 6.96712017059 2.31596446037 2.31752276421 6.98308420181 13.7413511276 19.8465385437 23.1777496338 23.173664093 19.8349208832 13.7243309021 6.96679210663 2.31595468521 2.30930137634 6.69909858704 13.1623868942 19.0617351532 22.2714939117 22.2675704956 19.0505485535 13.1460266113 6.68362760544 2.3078827858 2.29419636726 6.136095047 11.9462633133 17.3421611786 20.250957489 20.2474308014 17.3320140839 11.9314231873 6.12244462967 2.29307126999 2.27557301521 5.26663780212 9.98028278351 14.3741664886 16.6891555786 16.6863937378 14.3660373688 9.96817779541 5.25571250916 2.27484846115 2.25730895996 4.02182769775 7.07959604263 9.83856201172 11.2705106735 11.2688236237 9.83349895477 7.07180404663 4.01500940323 2.25702238083 
2.25733137131 3.89981555939 6.83593702316 9.54463291168 10.9688014984 10.9671173096 9.53960990906 6.82836103439 3.89339447021 2.25707125664 2.27427148819 5.11494445801 9.69446182251 14.056725502 16.3942165375 16.391412735 14.0485572815 9.68259143829 5.10446214676 2.27360510826 2.29145002365 5.97565507889 11.6524620056 17.0535945892 20.0351066589 20.031457901 17.0432701111 11.6378583908 5.962433815 2.29040956497 2.30579733849 6.53896522522 12.8758068085 18.8276767731 22.146654129 22.1425495148 18.8162117004 12.8596363068 6.52390956879 2.30447626114 2.31383037567 6.82593250275 13.4678115845 19.649274826 23.1077003479 23.1034049988 19.6373214722 13.4509439468 6.81003570557 2.31236338615 2.31382060051 6.82559490204 13.4671220779 19.6483325958 23.1066055298 23.1023139954 19.6363811493 13.4502592087 6.80970048904 2.31235313416 2.30576968193 6.53795146942 12.8736982346 18.824716568 22.1431770325 22.1390724182 18.8132534027 12.8575296402 6.52289772034 2.30444931984 2.29140925407 5.9739356041 11.6485385895 17.0477409363 20.0280647278 20.0244159698 17.0374202728 11.6339387894 5.96072053909 2.29036927223 2.27422595024 5.11220979691 9.68829154968 14.0471143723 16.3825035095 16.3797016144 14.0389528275 9.67643165588 5.10173654556 2.27356052399 2.25729966164 3.89650678635 6.82769823074 9.53151226044 10.9532527924 10.9515724182 9.52649688721 6.82013463974 3.89009737968 2.25704050064 
2.25731945038 3.8960723877 6.82774066925 9.53390693665 10.9572696686 10.9555873871 9.52888679504 6.82017421722 3.88966417313 2.25706028938 2.27421474457 5.10965681076 9.6836977005 14.0434932709 16.3802261353 16.3774242401 14.035326004 9.67183876038 5.09919071198 2.27355027199 2.29133224487 5.96934604645 11.639995575 17.0384025574 20.0191650391 20.0155162811 17.0280780792 11.6254043579 5.95614290237 2.29029464722 2.30563116074 6.53195619583 12.8619756699 18.810968399 22.1290493011 22.1249446869 18.7995071411 12.8458223343 6.51691913605 2.30431365967 2.31364035606 6.81856489182 13.4532575607 19.6317424774 23.0891704559 23.0848808289 19.6197929382 13.4364061356 6.8026881218 2.31217718124 2.3136305809 6.81822824478 13.4525709152 19.6308040619 23.0880813599 23.0837917328 19.6188564301 13.4357213974 6.80235481262 2.31216716766 2.3056037426 6.53094339371 12.8598690033 18.808013916 22.1255779266 22.1214733124 18.7965545654 12.8437166214 6.51590824127 2.30428695679 2.29129123688 5.96762943268 11.6360769272 17.0325508118 20.0121307373 20.008480072 17.0222301483 11.6214914322 5.95443296432 2.2902545929 2.27416944504 5.10692501068 9.67753124237 14.0338850021 16.3685188293 16.3657207489 14.0257263184 9.66568279266 5.09646892548 2.27350592613 2.25728797913 3.89276885986 6.81951093674 9.52079486847 10.9417324066 10.9400510788 9.51578426361 6.81195688248 3.88637208939 2.2570297718 
2.2573196888 3.89600777626 6.82759809494 9.5337228775 10.9570684433 10.9553861618 9.5287027359 6.82003259659 3.88959956169 2.25706028938 2.27421426773 5.10956430435 9.68350982666 14.0432605743 16.3799819946 16.3771800995 14.0350952148 9.67165088654 5.0990986824 2.27354931831 2.29133033752 5.96923685074 11.6397771835 17.0381336212 20.0188865662 20.0152378082 17.0278129578 11.6251859665 5.95603322983 2.29029297829 2.30562806129 6.53183364868 12.8617343903 18.8106803894 22.1287441254 22.1246395111 18.7992172241 12.8455810547 6.51679754257 2.30431127548 2.31363654137 6.81843662262 13.4530057907 19.6314373016 23.0888442993 23.0845584869 19.6194896698 13.4361543655 6.80256080627 2.31217360497 2.31362700462 6.81809997559 13.4523181915 19.6305007935 23.0877571106 23.0834674835 19.6185512543 13.43546772 6.80222606659 2.31216406822 2.30560064316 6.53082084656 12.8596277237 18.807723999 22.1252708435 22.1211662292 18.7962646484 12.8434782028 6.5157866478 2.30428385735 2.29128956795 5.96751976013 11.6358613968 17.0322856903 20.0118484497 20.0082035065 17.0219707489 11.6212739944 5.95432376862 2.29025292397 2.27416825294 5.10683250427 9.67734527588 14.0336561203 16.3682727814 16.3654747009 14.0254955292 9.66549491882 5.0963768959 2.27350497246 2.25728821754 3.89270401001 6.81936836243 9.52061080933 10.9415330887 10.9398517609 9.51559925079 6.81181526184 3.88630747795 2.2570297718 
2.2573196888 3.89602780342 6.82764387131 9.53378105164 10.9571323395 10.9554491043 9.52875995636 6.82007646561 3.88961935043 2.25706005096 2.27421450615 5.10959291458 9.68356800079 14.0433340073 16.3800582886 16.3772583008 14.0351676941 9.67171096802 5.09912776947 2.27354979515 2.2913312912 5.96927165985 11.6398439407 17.0382213593 20.0189723969 20.0153255463 17.0278987885 11.625254631 5.9560675621 2.29029369354 2.30562901497 6.53187274933 12.8618125916 18.8107700348 22.1288394928 22.1247367859 18.7993087769 12.8456573486 6.51683616638 2.30431199074 2.31363773346 6.81847763062 13.453083992 19.6315364838 23.0889492035 23.0846614838 19.6195850372 13.4362335205 6.8026008606 2.31217503548 2.31362819672 6.81814098358 13.4523954391 19.6305942535 23.0878582001 23.0835704803 19.6186466217 13.4355478287 6.80226707458 2.31216526031 2.30560135841 6.53086042404 12.8597021103 18.8078155518 22.1253681183 22.121263504 18.7963562012 12.8435535431 6.51582574844 2.30428504944 2.29128980637 5.96755313873 11.635928154 17.0323677063 20.0119380951 20.0082893372 17.0220508575 11.6213407516 5.95435714722 2.29025316238 2.27416872978 5.10686159134 9.67740345001 14.0337285995 16.3683509827 16.3655529022 14.0255689621 9.66555404663 5.0964050293 2.2735054493 2.25728821754 3.89272403717 6.81941413879 9.52066898346 10.9415950775 10.9399147034 9.5156583786 6.8118596077 3.88632726669 2.2570297718 
2.2573196888 3.89605283737 6.82769727707 9.53385162354 10.9572105408 10.9555263519 9.52883148193 6.82013082504 3.88964509964 2.25706028938 2.27421450615 5.10962867737 9.68363952637 14.0434236526 16.3801555634 16.3773517609 14.0352573395 9.67178153992 5.09916257858 2.27355003357 2.29133200645 5.96931409836 11.6399278641 17.0383205414 20.0190753937 20.0154323578 17.0279979706 11.6253376007 5.95611000061 2.2902944088 2.30562996864 6.53191947937 12.861905098 18.810880661 22.1289615631 22.1248550415 18.7994194031 12.8457489014 6.51688337326 2.30431318283 2.31363940239 6.81852579117 13.4531822205 19.631652832 23.0890731812 23.0847816467 19.6197013855 13.4363288879 6.80264949799 2.31217598915 2.31362938881 6.81818914413 13.4524936676 19.6307106018 23.0879821777 23.0836906433 19.61876297 13.4356431961 6.80231523514 2.31216621399 2.30560278893 6.53090667725 12.859796524 18.807926178 22.1254844666 22.1213798523 18.7964668274 12.8436431885 6.51587247849 2.30428624153 2.29129076004 5.9675951004 11.63601017 17.0324745178 20.0120410919 20.0083942413 17.0221538544 11.621424675 5.95439910889 2.29025435448 2.27416920662 5.10689687729 9.67747497559 14.0338163376 16.3684463501 16.3656482697 14.0256567001 9.6656255722 5.09644079208 2.27350568771 2.25728845596 3.89274930954 6.81946849823 9.52074050903 10.9416704178 10.9399909973 9.51572799683 6.81191396713 3.88635253906 2.25703001022 
2.2573196888 3.89607715607 6.82775115967 9.53392124176 10.9572839737 10.9556016922 9.52890205383 6.82018470764 3.88966941833 2.25706028938 2.27421498299 5.10966300964 9.68371200562 14.0435094833 16.3802452087 16.3774452209 14.0353431702 9.67185401917 5.09919786453 2.27355051041 2.29133272171 5.96935462952 11.6400136948 17.0384216309 20.0191822052 20.015537262 17.0281009674 11.6254205704 5.95615148544 2.29029512405 2.30563139915 6.53196525574 12.8619947433 18.8109931946 22.1290779114 22.1249713898 18.7995300293 12.8458395004 6.51692867279 2.30431389809 2.3136408329 6.8185749054 13.4532775879 19.6317672729 23.0891952515 23.0849075317 19.6198177338 13.4364261627 6.80269813538 2.31217765808 2.31363081932 6.8182387352 13.4525880814 19.6308288574 23.088104248 23.083814621 19.6188793182 13.4357395172 6.80236434937 2.3121676445 2.30560398102 6.53095245361 12.8598871231 18.8080348969 22.1256027222 22.1214981079 18.7965774536 12.8437337875 6.51591777802 2.30428719521 2.29129171371 5.96763706207 11.6360960007 17.0325698853 20.0121459961 20.0085010529 17.0222530365 11.6215047836 5.95444011688 2.29025483131 2.27416968346 5.10693120956 9.67754650116 14.0339040756 16.3685379028 16.365737915 14.0257444382 9.66569900513 5.0964756012 2.27350592613 2.25728821754 3.89277362823 6.81952238083 9.52080917358 10.9417457581 10.9400672913 9.51579856873 6.81196737289 3.88637661934 2.25703001022 
