2.25842928886 3.92758750916 6.88137960434 9.65224742889 11.1060266495 11.1043195724 9.64710903168 6.87374210358 3.92109537125 2.25815057755 2.27426171303 5.13890790939 9.77556037903 14.2015705109 16.5519218445 16.5491161346 14.1933288574 9.76351833344 5.12830734253 2.27359580994 2.29063153267 6.00434541702 11.7284631729 17.1585483551 20.1497993469 20.1461429596 17.1481819153 11.7138090134 5.99091529846 2.28959941864 2.30464625359 6.57309103012 12.9156913757 18.8817176819 22.2065505981 22.2024459839 18.8702220917 12.899559021 6.55794668198 2.30333447456 2.31254029274 6.85258722305 13.4822225571 19.6715354919 23.1310558319 23.1267776489 19.6595611572 13.465426445 6.83664369583 2.31108045578 2.31253051758 6.85226106644 13.4815654755 19.6706352234 23.1300125122 23.1257324219 19.6586608887 13.4647741318 6.83632040024 2.31107091904 2.30461883545 6.57209777832 12.9136667252 18.8788642883 22.2031955719 22.1990909576 18.8673744202 12.8975381851 6.55695533752 2.30330753326 2.29059171677 6.00255346298 11.7246131897 17.1528282166 20.1428928375 20.1392364502 17.1424694061 11.7099599838 5.98912858963 2.28956031799 2.27422213554 5.13620948792 9.76930046082 14.1919670105 16.5402584076 16.5374546051 14.1837329865 9.75726890564 5.12561750412 2.27355742455 2.25839352608 3.92425632477 6.87310314178 9.63889884949 11.0903158188 11.0886106491 9.63376712799 6.86547899246 3.91777610779 2.25811553001 
2.25845384598 3.91186618805 6.85135602951 9.6175661087 11.0706100464 11.068903923 9.61242866516 6.84374094009 3.9054248333 2.25817847252 2.27412629128 5.12056446075 9.74250030518 14.1653490067 16.5174160004 16.5146064758 14.1571025848 9.73048305511 5.1100153923 2.27346730232 2.29035782814 5.98648118973 11.6970319748 17.1277885437 20.1305618286 20.1268768311 17.1174030304 11.6824016571 5.97309732437 2.28933501244 2.3043422699 6.55739498138 12.8886957169 18.8658714294 22.2222919464 22.2181282043 18.8543109894 12.8725824356 6.54228973389 2.30304050446 2.31226229668 6.83892822266 13.4593029022 19.6709938049 23.1727218628 23.1683654785 19.6589241028 13.4425172806 6.8230175972 2.3108112812 2.3122522831 6.83859872818 13.4586410522 19.6700687408 23.1716442108 23.1672878265 19.6580028534 13.4418592453 6.82269144058 2.31080126762 2.30431509018 6.5563955307 12.8866605759 18.8629703522 22.2188510895 22.2146835327 18.8514099121 12.8705482483 6.54129171371 2.30301356316 2.29031801224 5.98468589783 11.6931734085 17.1220397949 20.1235866547 20.1199016571 17.1116600037 11.6785469055 5.97130870819 2.28929615021 2.27408719063 5.11786794662 9.73624324799 14.1557426453 16.505739212 16.5029335022 14.1475048065 9.72423553467 5.10732841492 2.27342891693 2.25841832161 3.90854859352 6.84309911728 9.60423755646 11.0549201965 11.0532169342 9.59910869598 6.83549594879 3.90211892128 2.25814390182 
2.25845551491 3.91103506088 6.84978342056 9.61575984955 11.0687665939 11.0670623779 9.61062240601 6.84217071533 3.90459609032 2.25818014145 2.27411913872 5.11960268021 9.74078369141 14.1634712219 16.5156116486 16.5128040314 14.1552257538 9.72877025604 5.10905647278 2.27346038818 2.29034352303 5.98556184769 11.6954288483 17.1261997223 20.1293525696 20.1256637573 17.1158161163 11.6807975769 5.97218036652 2.28932142258 2.3043282032 6.55662822723 12.8874158859 18.8651504517 22.2233257294 22.2191562653 18.8535861969 12.8713026047 6.54152345657 2.30302619934 2.31225061417 6.83831310272 13.4583435059 19.6715965271 23.1762199402 23.1718540192 19.6595249176 13.4415597916 6.82240438461 2.31080007553 2.31224060059 6.83798360825 13.4576807022 19.6706733704 23.1751365662 23.1707725525 19.6586017609 13.4408988953 6.82207679749 2.31079053879 2.30430078506 6.5556268692 12.8853778839 18.8622455597 22.219877243 22.2157096863 18.8506832123 12.86926651 6.54052591324 2.3029999733 2.29030370712 5.98376512527 11.6915683746 17.1204547882 20.1223716736 20.1186847687 17.1100730896 11.6769418716 5.97038984299 2.28928232193 2.27408003807 5.11690568924 9.73452758789 14.1538658142 16.5039329529 16.5011291504 14.1456260681 9.72252178192 5.10636901855 2.27342247963 2.25842022896 3.90771770477 6.84152889252 9.60243320465 11.0530776978 11.0513744354 9.59730434418 6.83392572403 3.90129113197 2.25814557076 
2.25845575333 3.91092920303 6.84958934784 9.61554050446 11.0685443878 11.0668392181 9.61040401459 6.8419752121 3.90449094772 2.25818037987 2.27411842346 5.11948394775 9.7405796051 14.1632518768 16.5154075623 16.5125999451 14.155008316 9.72856426239 5.10893917084 2.27345967293 2.29034233093 5.98545455933 11.6952466965 17.1260318756 20.1292362213 20.1255493164 17.1156482697 11.6806125641 5.97207212448 2.28931999207 2.30432701111 6.55654668808 12.8872928619 18.8651199341 22.2235374451 22.2193641663 18.8535556793 12.8711767197 6.54144382477 2.30302500725 2.31224989891 6.83825683594 13.4582710266 19.6718025208 23.1768665314 23.1725006104 19.6597251892 13.4414863586 6.82234859467 2.31079959869 2.31224012375 6.8379278183 13.457608223 19.6708755493 23.17578125 23.1714172363 19.6588039398 13.4408245087 6.82202196121 2.31079006195 2.30429935455 6.55554676056 12.8852519989 18.8622150421 22.2200889587 22.2159156799 18.8506546021 12.869143486 6.54044532776 2.30299830437 2.29030227661 5.98365783691 11.6913852692 17.1202869415 20.12225914 20.1185703278 17.1099071503 11.6767578125 5.97028207779 2.28928089142 2.27407932281 5.11678743362 9.73432254791 14.1536464691 16.5037345886 16.5009269714 14.1454086304 9.72231674194 5.10625171661 2.27342176437 2.25842046738 3.9076128006 6.84133195877 9.60221385956 11.0528564453 11.051153183 9.59708595276 6.83373069763 3.90118575096 2.25814628601 
2.25845599174 3.91091418266 6.84956502914 9.61551856995 11.0685272217 11.066822052 9.61038208008 6.84195184708 3.90447640419 2.2581808567 2.27411842346 5.11947107315 9.74056434631 14.1632423401 16.5154037476 16.512594223 14.1549959183 9.72854709625 5.10892534256 2.27345967293 2.29034209251 5.98544692993 11.6952409744 17.1260433197 20.1292610168 20.1255741119 17.1156597137 11.680606842 5.97206497192 2.28931999207 2.30432724953 6.5565495491 12.887304306 18.8651714325 22.2236480713 22.2194747925 18.8536052704 12.8711900711 6.54144525528 2.30302548409 2.31225013733 6.83826780319 13.4583015442 19.671918869 23.1770935059 23.1727294922 19.6598434448 13.4415168762 6.82235956192 2.31079959869 2.31224060059 6.83793830872 13.4576387405 19.6709918976 23.1760082245 23.1716423035 19.6589202881 13.4408550262 6.82203197479 2.31079030037 2.30429983139 6.55554866791 12.8852653503 18.8622665405 22.220199585 22.2160263062 18.8507041931 12.8691558838 6.54044818878 2.30299830437 2.29030227661 5.98365068436 11.6913814545 17.1202926636 20.1222801208 20.1185970306 17.1099128723 11.6767520905 5.97027635574 2.28928112984 2.27407956123 5.11677408218 9.73430728912 14.153635025 16.5037250519 16.5009174347 14.1453952789 9.72229957581 5.10623836517 2.27342176437 2.25842046738 3.90759778023 6.84130907059 9.60219287872 11.0528373718 11.0511341095 9.59706497192 6.83370780945 3.90117120743 2.25814628601 
2.25845575333 3.91091775894 6.84957695007 9.61553764343 11.0685501099 11.0668439865 9.61039924622 6.84196424484 3.90447974205 2.25818061829 2.27411842346 5.11948108673 9.7405834198 14.1632728577 16.5154361725 16.5126304626 14.1550273895 9.72856807709 5.10893583298 2.27345991135 2.29034233093 5.98546123505 11.695271492 17.126083374 20.1293125153 20.1256256104 17.1156978607 11.680639267 5.97208023071 2.28931999207 2.30432748795 6.55656909943 12.8873472214 18.8652381897 22.2237453461 22.2195739746 18.8536739349 12.8712310791 6.54146623611 2.3030257225 2.31225085258 6.83829164505 13.4583539963 19.6720180511 23.1772384644 23.172870636 19.659942627 13.4415693283 6.8223824501 2.31080055237 2.312240839 6.83796262741 13.4576883316 19.6710929871 23.176153183 23.171787262 19.6590194702 13.4409074783 6.82205677032 2.31079077721 2.30430030823 6.55556821823 12.8853092194 18.8623352051 22.2202949524 22.2161235809 18.8507709503 12.8691959381 6.54046678543 2.30299901962 2.29030251503 5.98366594315 11.6914138794 17.1203403473 20.1223316193 20.1186504364 17.1099586487 11.6767845154 5.97029066086 2.28928089142 2.27407956123 5.11678409576 9.73432636261 14.1536655426 16.5037612915 16.5009536743 14.1454277039 9.72232055664 5.10624837875 2.27342200279 2.25842046738 3.90760159492 6.84132099152 9.60221099854 11.05286026 11.0511579514 9.59708309174 6.83372020721 3.90117430687 2.25814580917 
2.25845599174 3.91092705727 6.84959793091 9.61556720734 11.0685825348 11.0668773651 9.61042976379 6.84198379517 3.90448832512 2.25818061829 2.2741189003 5.11949443817 9.74061489105 14.1633138657 16.5154819489 16.5126724243 14.1550664902 9.72860050201 5.10894870758 2.27346014977 2.29034280777 5.98548030853 11.695315361 17.1261348724 20.1293773651 20.1256904602 17.1157531738 11.680683136 5.9720993042 2.2893204689 2.3043282032 6.55659389496 12.8873987198 18.8653087616 22.2238368988 22.2196655273 18.8537445068 12.8712844849 6.54149007797 2.30302643776 2.31225156784 6.83831882477 13.4584102631 19.6721096039 23.1773605347 23.1729984283 19.6600341797 13.4416246414 6.82241010666 2.31080102921 2.3122420311 6.83799028397 13.4577465057 19.6711845398 23.1762771606 23.1719150543 19.6591110229 13.4409627914 6.82208347321 2.31079149246 2.30430078506 6.55559301376 12.8853607178 18.8624038696 22.2203865051 22.216217041 18.8508415222 12.8692502975 6.5404920578 2.30299949646 2.29030299187 5.98368453979 11.6914548874 17.1203937531 20.1223926544 20.1187095642 17.1100139618 11.6768245697 5.97030878067 2.28928136826 2.27408003807 5.1167974472 9.73435688019 14.1537046432 16.5038051605 16.5009975433 14.1454677582 9.72235298157 5.10626220703 2.27342224121 2.25842022896 3.90761017799 6.84134149551 9.60223865509 11.0528945923 11.0511903763 9.59711170197 6.8337392807 3.90118336678 2.25814604759 
