13.9753370285 21.7519989014 29.3908214569 37.2087554932 45.6602859497 54.3613815308 62.8118171692 70.6282272339 78.267288208 86.0443954468 13.9679737091 21.5308055878 28.7053871155 36.3448219299 45.3050765991 54.7183151245 63.6765136719 71.3124923706 78.4874343872 86.0516891479 13.9664649963 21.3586769104 28.286781311 35.879863739 45.1084136963 54.9159049988 64.1418609619 71.7305984497 78.6588745117 86.0531387329 13.9598608017 21.2540454865 28.0836372375 35.6733856201 45.0207672119 55.0039672852 64.3485107422 71.9336090088 78.7631835938 86.0596389771 13.9558744431 21.2065238953 28.0054664612 35.5937957764 44.987701416 55.0372009277 64.4281768799 72.0117340088 78.8105773926 86.063583374 13.9558773041 21.2065792084 28.0055484772 35.5938796997 44.9877319336 55.0371627808 64.4280929565 72.0116577148 78.8105239868 86.063583374 13.9598751068 21.2542190552 28.0839328766 35.6736831665 45.0209007263 55.0038452148 64.3482208252 71.9333114624 78.7630157471 86.0596389771 13.9664802551 21.3590221405 28.2875080109 35.8806381226 45.1087379456 54.9155731201 64.1410903931 71.729888916 78.6585388184 86.0531234741 13.9679727554 21.5313129425 28.7068729401 36.3465614319 45.3058052063 54.7175865173 63.6747779846 71.3110198975 78.4869308472 86.0516815186 13.9753923416 21.7525959015 29.3925914764 37.2111587524 45.6612701416 54.3603897095 62.8094024658 70.6264648438 78.2666931152 86.0443496704 
13.9718379974 21.7483444214 29.378288269 37.1869049072 45.6485557556 54.3731689453 62.8336753845 70.6407241821 78.2709274292 86.0478820801 13.9631233215 21.5243492126 28.6739234924 36.2754554749 45.2565345764 54.767074585 63.7458267212 71.3438568115 78.4938735962 86.0565261841 13.9602918625 21.3401470184 28.2167472839 35.719379425 45.0078544617 55.0169334412 64.3022460938 71.800491333 78.6773376465 86.0592880249 13.9520072937 21.2175045013 27.961233139 35.4368171692 44.8904380798 55.1349029541 64.5850448608 72.0557250977 78.7996063232 86.0674819946 13.9466619492 21.1561660767 27.8453979492 35.3239059448 44.8459243774 55.1796264648 64.6980743408 72.1714782715 78.8607559204 86.0727767944 13.9466686249 21.1562347412 27.8455257416 35.3240318298 44.8459663391 55.1795845032 64.6979522705 72.1713256836 78.8606796265 86.072769165 13.9520254135 21.2177181244 27.9616527557 35.4372406006 44.8906135559 55.1347389221 64.5846252441 72.0552902222 78.7993850708 86.0674514771 13.960310936 21.3405303955 28.2176017761 35.7203903198 45.0082931519 55.0164985657 64.3012390137 71.7996368408 78.6769561768 86.0592651367 13.9631242752 21.5248756409 28.6754760742 36.2773551941 45.2573890686 54.7662162781 63.7439193726 71.3423156738 78.4933624268 86.0565032959 13.9718961716 21.7489318848 29.3800773621 37.1893692017 45.6495780945 54.3721313477 62.8312072754 70.6389389038 78.2703399658 86.0478363037 
13.9715566635 21.7482147217 29.3775920868 37.1856269836 45.6479034424 54.3738136292 62.8349494934 70.6414108276 78.2710647583 86.0481643677 13.9627380371 21.5241909027 28.6720676422 36.2712783813 45.2539558411 54.769657135 63.7499961853 71.345703125 78.4940338135 86.0569152832 13.9598007202 21.3390293121 28.2117137909 35.7078399658 44.9977226257 55.0271148682 64.3137664795 71.8055038452 78.6784515381 86.0597763062 13.9513473511 21.2145500183 27.9507865906 35.4106903076 44.8703079224 55.155128479 64.6111450195 72.0661468506 78.802520752 86.0681381226 13.9458560944 21.1515426636 27.8299560547 35.2867012024 44.8207206726 55.20495224 64.7352523804 72.1868667603 78.8653564453 86.0735626221 13.9458627701 21.1516189575 27.8300914764 35.2868347168 44.8207702637 55.2048950195 64.7351226807 72.1867218018 78.8652801514 86.0735626221 13.9513664246 21.2147750854 27.9512214661 35.4111442566 44.8704986572 55.1549377441 64.6106948853 72.0657196045 78.8023071289 86.068107605 13.95981884 21.3394203186 28.2125835419 35.7088775635 44.9981842041 55.0266532898 64.3127365112 71.8046417236 78.6780548096 86.059753418 13.9627399445 21.5247192383 28.673625946 36.2731933594 45.2548179626 54.7687911987 63.7480812073 71.3441543579 78.4935150146 86.0569000244 13.9716148376 21.7488040924 29.3793811798 37.1880950928 45.6489334106 54.3727798462 62.8324813843 70.6396255493 78.2704772949 86.0481185913 
13.9715337753 21.7482070923 29.3775405884 37.1855316162 45.647857666 54.3738708496 62.8350448608 70.6414642334 78.2710647583 86.0481872559 13.9627094269 21.5241851807 28.6719360352 36.2709846497 45.2537879944 54.7698287964 63.7502822876 71.3458480835 78.4940338135 86.0569458008 13.9597578049 21.3389453888 28.2113304138 35.7070007324 44.9971008301 55.0277328491 64.3146057129 71.8059005737 78.678527832 86.0598068237 13.951292038 21.2142963409 27.9498748779 35.4085273743 44.8682899475 55.1571540833 64.6132965088 72.0670394897 78.8028030396 86.0681915283 13.9457845688 21.1511192322 27.8285312653 35.2829475403 44.8177719116 55.2079162598 64.7389984131 72.1883010864 78.8657836914 86.0736465454 13.9457931519 21.1511955261 27.828666687 35.2830810547 44.8178291321 55.2078590393 64.738861084 72.1881408691 78.8656997681 86.073638916 13.9513101578 21.2145175934 27.9503116608 35.408996582 44.8684844971 55.1569671631 64.6128387451 72.066619873 78.8025665283 86.0681686401 13.9597787857 21.3393383026 28.2121982574 35.7080383301 44.9975700378 55.0272712708 64.3135681152 71.805015564 78.6781463623 86.0597915649 13.9627094269 21.5247116089 28.673494339 36.2728996277 45.254650116 54.7689628601 63.7483825684 71.344291687 78.493522644 86.0569381714 13.9715909958 21.7487983704 29.3793334961 37.18800354 45.6488952637 54.372833252 62.8325691223 70.6396789551 78.2704849243 86.0481338501 
13.9715328217 21.7482070923 29.377532959 37.1855239868 45.647857666 54.3738708496 62.8350563049 70.6414718628 78.2710723877 86.0481948853 13.9627046585 21.5241794586 28.6719207764 36.2709541321 45.2537727356 54.7698516846 63.7503204346 71.3458633423 78.4940338135 86.0569458008 13.9597578049 21.3389339447 28.2112731934 35.7069206238 44.9970474243 55.0277862549 64.3146896362 71.8059310913 78.6785430908 86.0598144531 13.9512882233 21.214263916 27.9497756958 35.4083061218 44.8680877686 55.1573638916 64.6135177612 72.0671463013 78.8028182983 86.0681991577 13.9457788467 21.1510677338 27.8283672333 35.2825241089 44.8174324036 55.2082595825 64.7394180298 72.1884613037 78.8658294678 86.0736465454 13.9457855225 21.151140213 27.8285064697 35.282661438 44.8174781799 55.2081985474 64.7392807007 72.1883087158 78.8657531738 86.0736465454 13.9513063431 21.2144889832 27.9502124786 35.4087715149 44.8682746887 55.1571769714 64.613067627 72.0667266846 78.8025970459 86.0681686401 13.9597740173 21.3393230438 28.2121486664 35.7079582214 44.9975128174 55.0273246765 64.3136520386 71.8050689697 78.6781692505 86.0598068237 13.9627065659 21.5247077942 28.6734790802 36.2728652954 45.2546348572 54.768989563 63.7484054565 71.3443145752 78.4935302734 86.056930542 13.9715900421 21.748796463 29.379327774 37.1879920959 45.6488876343 54.3728370667 62.8325843811 70.6396865845 78.2704849243 86.0481414795 
13.971531868 21.7482032776 29.3775253296 37.1855163574 45.647857666 54.373878479 62.8350601196 70.6414794922 78.2710723877 86.0481948853 13.9627056122 21.5241794586 28.6719093323 36.2709388733 45.2537612915 54.769859314 63.7503356934 71.3458862305 78.4940414429 86.0569458008 13.9597558975 21.3389263153 28.2112579346 35.7068939209 44.9970283508 55.0278015137 64.3147201538 71.8059616089 78.6785507202 86.0598220825 13.9512863159 21.2142524719 27.9497451782 35.4082565308 44.8680534363 55.1573982239 64.613571167 72.0671691895 78.8028259277 86.0681991577 13.9457769394 21.1510505676 27.828327179 35.2824440002 44.8173713684 55.208316803 64.7395019531 72.1884918213 78.865852356 86.0736465454 13.9457855225 21.1511268616 27.8284645081 35.2825775146 44.8174209595 55.2082633972 64.739364624 72.1883392334 78.865776062 86.073638916 13.9513044357 21.2144756317 27.9501781464 35.4087219238 44.8682403564 55.1572036743 64.6131134033 72.0667572021 78.8026123047 86.0681686401 13.959774971 21.3393154144 28.2121276855 35.7079353333 44.9974975586 55.0273323059 64.3136749268 71.8050689697 78.6781692505 86.0598068237 13.9627065659 21.5247058868 28.6734695435 36.272857666 45.2546195984 54.7689933777 63.7484207153 71.3443222046 78.4935302734 86.056930542 13.9715900421 21.7487945557 29.3793182373 37.1879920959 45.6488800049 54.3728370667 62.8325881958 70.6396865845 78.2704849243 86.0481414795 
13.971531868 21.7482013702 29.3775196075 37.185508728 45.647857666 54.3738708496 62.8350639343 70.6414794922 78.2710723877 86.0481948853 13.9627056122 21.5241756439 28.6718959808 36.2709236145 45.2537574768 54.7698631287 63.7503509521 71.3458938599 78.4940490723 86.0569458008 13.9597539902 21.3389205933 28.2112426758 35.7068786621 44.9970245361 55.0278167725 64.3147354126 71.8059921265 78.6785583496 86.0598220825 13.9512844086 21.2142410278 27.9497203827 35.4082221985 44.8680381775 55.1574172974 64.6136016846 72.0672149658 78.8028335571 86.0681991577 13.9457759857 21.1510410309 27.8282928467 35.2823944092 44.8173522949 55.2083320618 64.7395477295 72.1885299683 78.865852356 86.0736618042 13.9457836151 21.1511154175 27.8284339905 35.282535553 44.8174057007 55.2082748413 64.7394180298 72.1883773804 78.8657836914 86.0736465454 13.9513053894 21.214466095 27.9501552582 35.4086875916 44.8682250977 55.1572303772 64.6131439209 72.0667877197 78.8026123047 86.0681686401 13.959774971 21.3393115997 28.2121105194 35.7079162598 44.9974937439 55.0273399353 64.3136901855 71.8050994873 78.6781768799 86.0597915649 13.9627056122 21.5247001648 28.6734542847 36.2728424072 45.2546157837 54.7689971924 63.7484321594 71.3443374634 78.4935455322 86.056930542 13.9715900421 21.7487888336 29.3793144226 37.1879806519 45.6488800049 54.3728370667 62.8325920105 70.6397018433 78.2704849243 86.0481414795 
