14.0078554153 13.8081417084 13.05909729 11.8933115005 11.193649292 11.1944818497 11.8957672119 13.0616836548 13.8091993332 14.0078601837 21.9969520569 21.6513748169 20.6413421631 19.185754776 18.3150310516 18.316078186 19.1887989044 20.6446685791 21.6529350281 21.9970874786 29.9836978912 29.582075119 28.7191295624 27.5894985199 26.8948230743 26.89569664 27.5918827057 28.7218093872 29.58360672 29.9839496613 37.9857521057 37.6844367981 37.1324310303 36.4549636841 36.0331306458 36.0336723328 36.4563980103 37.134059906 37.6854972839 37.9859771729 46.0006027222 45.8907852173 45.7034492493 45.4795684814 45.3400421143 45.340221405 45.4800415039 45.703994751 45.8911628723 46.0006942749 54.0194320679 54.1298027039 54.3180770874 54.5430679321 54.6832962036 54.6831207275 54.5425949097 54.3175354004 54.1294250488 54.0193405151 62.0342712402 62.3359985352 62.8888778687 63.5675048828 63.990032196 63.989490509 63.5660476685 62.8872489929 62.3349342346 62.0340461731 70.0362854004 70.4379730225 71.3015670776 72.4322662354 73.1275558472 73.1266784668 72.4298629761 71.2988739014 70.4364471436 70.0360336304 78.0230026245 78.3682403564 79.3781433105 80.8339614868 81.7047729492 81.7037277222 80.8309173584 79.3748321533 78.3666915894 78.0228805542 86.0121307373 86.2114715576 86.9593276978 88.1228790283 88.8214187622 88.8205947876 88.1204376221 86.956741333 86.2104187012 86.0121307373 
14.0040626526 13.7885093689 13.0306406021 11.8392858505 11.1142110825 11.1150779724 11.8418130875 13.0332679749 13.7895879745 14.0040960312 21.9927158356 21.619977951 20.5692672729 19.0307731628 18.0564441681 18.0576572418 19.0341014862 20.5727348328 21.6216087341 21.9928836823 29.9795131683 29.5444507599 28.6208515167 27.3680496216 26.5567321777 26.5577640533 27.3708057404 28.6237449646 29.5460891724 29.9797973633 37.9822692871 37.6522598267 37.0444831848 36.2738380432 35.782081604 35.7827110291 36.2755050659 37.0463142395 37.6534194946 37.9825248718 45.9992103577 45.8779220581 45.6679458618 45.4119491577 45.2500801086 45.250289917 45.4125022888 45.6685676575 45.8783302307 45.9993057251 54.0208435059 54.1427307129 54.3537330627 54.6110305786 54.7737045288 54.7735023499 54.6104736328 54.3531150818 54.1423110962 54.0207443237 62.0377540588 62.3682022095 62.9769210815 63.7488555908 64.2414398193 64.2408065796 63.7471809387 62.9750862122 62.3670501709 62.0374984741 70.0404815674 70.4755935669 71.399810791 72.6536636353 73.4656829834 73.4646530151 72.6509170532 71.3969268799 70.4739608765 70.040184021 78.0272521973 78.3996124268 79.4501266479 80.9886932373 81.9629058838 81.9616928101 80.9853668213 79.4466629028 78.3979873657 78.0270843506 86.015914917 86.2310791016 86.987663269 88.1766738892 88.9005050659 88.8996429443 88.174156189 86.9850616455 86.2300033569 86.0158920288 
14.0037212372 13.7867593765 13.0282592773 11.8350954056 11.1084890366 11.1093597412 11.8376283646 13.0308895111 13.7878417969 14.0037584305 21.9923267365 21.6171379089 20.5628547668 19.0177383423 18.0364189148 18.0376415253 19.0210857391 20.5663356781 21.6187763214 21.9924983978 29.9791316986 29.5409851074 28.611574173 27.3467712402 26.5172901154 26.5183544159 27.349571228 28.6144886017 29.5426330566 29.9794235229 37.9819717407 37.6492500305 37.03565979 36.2509918213 35.7430419922 35.7436981201 36.2527084351 37.0375061035 37.6504211426 37.9822235107 45.9990882874 45.8766975403 45.6641845703 45.4020881653 45.2345466614 45.2347679138 45.4026641846 45.6648139954 45.8771095276 45.9991874695 54.0209503174 54.143951416 54.3575134277 54.620929718 54.78931427 54.789100647 54.6203651428 54.3568878174 54.143535614 54.02085495 62.0380516052 62.3712234497 62.9857597351 63.7717323303 64.2805252075 64.2798614502 63.7700042725 62.9839096069 62.3700637817 62.0378036499 70.0408630371 70.4790649414 71.409072876 72.6749267578 73.5050964355 73.5040283203 72.67212677 71.4061584473 70.4774093628 70.0405731201 78.027633667 78.4024581909 79.45652771 81.0017242432 81.9828948975 81.9816589355 80.9983673096 79.4530334473 78.4008102417 78.0274581909 86.0162658691 86.2328186035 86.9900512695 88.1808624268 88.9062042236 88.9053421021 88.1783218384 86.987411499 86.2317428589 86.0162277222 
14.003692627 13.786605835 13.0280456543 11.8347387314 11.1080207825 11.1088886261 11.8372716904 13.0306749344 13.7876853943 14.0037279129 21.9922962189 21.6168899536 20.562286377 19.0166320801 18.0348014832 18.036026001 19.0199813843 20.5657691956 21.6185245514 21.9924697876 29.979101181 29.5406703949 28.6107368469 27.3449058533 26.5140838623 26.5151557922 27.3477077484 28.6136436462 29.5423145294 29.979391098 37.9819412231 37.6489715576 37.0348167419 36.2487411499 35.7386283875 35.7392921448 36.2504615784 37.0366706848 37.6501312256 37.9821968079 45.9990768433 45.8765830994 45.6638145447 45.4009780884 45.2325401306 45.2327613831 45.4015464783 45.6644477844 45.8769989014 45.9991798401 54.0209655762 54.1440658569 54.3578910828 54.6220436096 54.7913284302 54.7911109924 54.621471405 54.357257843 54.1436500549 54.0208702087 62.0380859375 62.3714981079 62.9865913391 63.7739677429 64.2849349976 64.2842712402 63.7722511292 62.9847450256 62.3703308105 62.0378303528 70.0408935547 70.4793777466 71.4099197388 72.6768035889 73.5083007812 73.5072250366 72.6739883423 71.4070129395 70.4777450562 70.0405883789 78.0276641846 78.4027023315 79.4570922852 81.0028076172 81.9845046997 81.9832763672 80.999458313 79.4536056519 78.4010696411 78.0274963379 86.0162887573 86.2329864502 86.9902648926 88.1811981201 88.9066619873 88.9057998657 88.1786727905 86.9876327515 86.2318954468 86.0162506104 
14.0036878586 13.7865886688 13.0280189514 11.834690094 11.1079559326 11.1088256836 11.837223053 13.0306501389 13.7876691818 14.0037260056 21.9922904968 21.616859436 20.5622234344 19.0165100098 18.0346260071 18.0358467102 19.019859314 20.5657062531 21.6184978485 21.9924621582 29.979101181 29.5406360626 28.6106414795 27.344707489 26.5137729645 26.514837265 27.3475055695 28.6135559082 29.5422840118 29.9793872833 37.9819450378 37.64894104 37.0347213745 36.2484931946 35.7381210327 35.73878479 36.250213623 37.0365829468 37.6501083374 37.9821968079 45.9990768433 45.8765716553 45.6637763977 45.4008369446 45.2322807312 45.2324981689 45.4014091492 45.6644058228 45.8769874573 45.9991760254 54.0209655762 54.1440811157 54.3579330444 54.6221847534 54.7915878296 54.7913703918 54.6216163635 54.3573036194 54.143661499 54.0208740234 62.0380821228 62.3715362549 62.9866828918 63.7742195129 64.2854385376 64.2847747803 63.7724914551 62.9848403931 62.3703689575 62.0378227234 70.0408935547 70.4794082642 71.4100189209 72.6769943237 73.5086135864 73.5075454712 72.6741867065 71.4071121216 70.4777603149 70.0405960083 78.027671814 78.4027328491 79.4571609497 81.0029449463 81.9846572876 81.9834442139 80.9995880127 79.4536743164 78.4011001587 78.0275039673 86.0162887573 86.2329940796 86.9902954102 88.1812515259 88.9067459106 88.9058761597 88.1787261963 86.9876556396 86.2319107056 86.0162506104 
14.0036888123 13.7865867615 13.0280094147 11.8346691132 11.1079273224 11.1087989807 11.8372020721 13.0306406021 13.7876701355 14.0037260056 21.9922924042 21.6168556213 20.562204361 19.0164756775 18.0345821381 18.0358066559 19.0198287964 20.5656833649 21.6184940338 21.9924659729 29.9790973663 29.5406284332 28.610622406 27.344669342 26.5137023926 26.5147705078 27.3474674225 28.6135387421 29.5422782898 29.979385376 37.9819450378 37.6489295959 37.0347061157 36.2484474182 35.7380409241 35.7387008667 36.2501678467 37.0365600586 37.6500930786 37.9821968079 45.9990768433 45.8765716553 45.6637611389 45.4008178711 45.2322349548 45.2324485779 45.401386261 45.6643981934 45.8769874573 45.9991760254 54.0209693909 54.1440811157 54.3579406738 54.622215271 54.7916412354 54.7914199829 54.6216392517 54.3573112488 54.1436576843 54.0208778381 62.0380821228 62.3715438843 62.98670578 63.7742652893 64.2855224609 64.284866333 63.7725410461 62.9848594666 62.3703727722 62.0378227234 70.0408859253 70.4794235229 71.4100494385 72.6770248413 73.508682251 73.5076065063 72.6742324829 71.4071273804 70.4777755737 70.0405960083 78.027671814 78.4027328491 79.4571762085 81.0029830933 81.9847259521 81.9834899902 80.9996261597 79.4536895752 78.4010925293 78.0275039673 86.0162887573 86.233001709 86.9903106689 88.1812744141 88.90675354 88.9058914185 88.1787490845 86.9876556396 86.231918335 86.0162506104 
14.0036888123 13.7865858078 13.0279998779 11.8346509933 11.1079025269 11.1087722778 11.8371829987 13.0306310654 13.7876663208 14.0037260056 21.9922924042 21.6168518066 20.5621891022 19.0164489746 18.0345497131 18.035774231 19.0198001862 20.5656738281 21.6184883118 21.9924659729 29.979095459 29.5406265259 28.6106128693 27.3446369171 26.5136642456 26.5147323608 27.3474369049 28.6135177612 29.5422725677 29.979385376 37.9819450378 37.6489295959 37.0346984863 36.2484169006 35.7380027771 35.7386627197 36.2501411438 37.0365447998 37.6500968933 37.9821968079 45.9990768433 45.8765716553 45.6637649536 45.4008026123 45.2322158813 45.2324371338 45.4013748169 45.6643943787 45.8769874573 45.9991760254 54.0209693909 54.1440849304 54.3579559326 54.6222190857 54.7916526794 54.7914352417 54.6216545105 54.3573188782 54.143661499 54.0208778381 62.0380821228 62.3715438843 62.9867210388 63.7742958069 64.2855682373 64.28490448 63.7725639343 62.9848670959 62.3703765869 62.0378227234 70.0408859253 70.4794235229 71.4100494385 72.6770782471 73.5087280273 73.5076522827 72.6742630005 71.4071350098 70.4777755737 70.0405960083 78.027671814 78.4027328491 79.4571838379 81.0030136108 81.9847488403 81.9835205078 80.9996490479 79.453704834 78.4010925293 78.0275039673 86.0162887573 86.233001709 86.9903106689 88.1812820435 88.9067840576 88.9059143066 88.1787567139 86.9876556396 86.231918335 86.0162506104 
