13.9705810547 21.7395172119 29.3512706757 37.1727333069 45.6476554871 54.3740844727 62.8478889465 70.667678833 78.2797317505 86.0491333008 13.9620962143 21.5144329071 28.6360149384 36.3049087524 45.2838821411 54.7396011353 63.7164611816 71.3817901611 78.5037460327 86.0575408936 13.959936142 21.3285999298 28.1888504028 35.7790603638 45.0534591675 54.9711303711 64.2426681519 71.828414917 78.6888046265 86.0596313477 13.9509353638 21.2071495056 27.9412345886 35.511341095 44.9447669983 55.0803375244 64.5106430054 72.0757675171 78.8099212646 86.0685424805 13.945438385 21.1481685638 27.8290100098 35.4038276672 44.9035224915 55.1217727661 64.6182785034 72.1878967285 78.8687286377 86.0739898682 13.9454460144 21.148235321 27.8291416168 35.4039421082 44.9035682678 55.1217269897 64.6181564331 72.1877670288 78.8686599731 86.0739822388 13.9509553909 21.207359314 27.9416370392 35.5117416382 44.9449119568 55.0801811218 64.5102386475 72.0753555298 78.8096923828 86.0685272217 13.9599523544 21.3289909363 28.1896781921 35.7800216675 45.0538635254 54.9707221985 64.2417221069 71.8275756836 78.6884307861 86.0596160889 13.9620962143 21.5149478912 28.637556076 36.3067131042 45.2846717834 54.7388114929 63.7146492004 71.3802490234 78.5032424927 86.0575408936 13.9706392288 21.7401237488 29.3531017303 37.1751708984 45.6486320496 54.3730926514 62.845451355 70.6658554077 78.2791366577 86.0490875244 
13.9702615738 21.7398414612 29.351770401 37.1725654602 45.6473731995 54.3743591309 62.8480567932 70.6671829224 78.2794113159 86.0494537354 13.961643219 21.5150413513 28.6358737946 36.3019256592 45.2814598083 54.7420349121 63.7194366455 71.3819198608 78.5031433105 86.0579833984 13.9593429565 21.328163147 28.1851005554 35.767288208 45.0420570374 54.9825820923 64.2544326782 71.8321533203 78.689239502 86.0602340698 13.9501209259 21.2043304443 27.9300956726 35.480140686 44.9179458618 55.1072807312 64.5417785645 72.0868759155 78.8127288818 86.0693511963 13.944439888 21.1432552338 27.8112220764 35.3559074402 44.8679466248 55.1575088501 64.6661300659 72.2056350708 78.8736114502 86.0749740601 13.9444475174 21.1433258057 27.8113555908 35.3560409546 44.8680000305 55.1574516296 64.6659851074 72.2054977417 78.8735351562 86.0749664307 13.9501409531 21.2045440674 27.9305267334 35.4805984497 44.9181289673 55.107093811 64.5413284302 72.0864562988 78.8125 86.0693359375 13.9593601227 21.3285560608 28.1859416962 35.7682723999 45.0424995422 54.982131958 64.2534484863 71.8313140869 78.688873291 86.0602111816 13.9616413116 21.5155582428 28.6374168396 36.3037452698 45.2822608948 54.7412338257 63.7176208496 71.3803787231 78.5026321411 86.0579910278 13.9703197479 21.7404441833 29.353603363 37.1750068665 45.6483573914 54.3733634949 62.8456115723 70.6653671265 78.2788162231 86.0494003296 
13.9702568054 21.7398414612 29.3517684937 37.1725616455 45.6473693848 54.3743667603 62.8480644226 70.6671829224 78.2794113159 86.0494613647 13.9616394043 21.5150432587 28.6358661652 36.3018951416 45.2814407349 54.7420578003 63.7194633484 71.3819198608 78.5031433105 86.0579910278 13.9593391418 21.3281574249 28.1850528717 35.7671928406 45.0419998169 54.982635498 64.254524231 71.8321990967 78.6892547607 86.0602340698 13.9501142502 21.2042922974 27.9299812317 35.4798774719 44.9177093506 55.107509613 64.5420379639 72.0869903564 78.81275177 86.0693588257 13.9444332123 21.1431922913 27.8110084534 35.3553886414 44.8675384521 55.157913208 64.6666488647 72.2058486938 78.8736801147 86.0749893188 13.944439888 21.1432647705 27.8111438751 35.3555221558 44.8675918579 55.1578598022 64.6665039062 72.2057113647 78.8736190796 86.0749740601 13.950135231 21.2045097351 27.9304103851 35.4803352356 44.9179000854 55.1073188782 64.5415878296 72.086555481 78.8125228882 86.0693511963 13.9593572617 21.3285484314 28.1858997345 35.7681808472 45.0424423218 54.9821929932 64.2535324097 71.8313751221 78.6888656616 86.0602035522 13.9616394043 21.5155601501 28.6374111176 36.3037109375 45.2822380066 54.7412528992 63.7176513672 71.3803787231 78.5026245117 86.0579986572 13.9703168869 21.740442276 29.353603363 37.1749992371 45.6483573914 54.373374939 62.8456192017 70.6653594971 78.2788238525 86.0494003296 
13.9702568054 21.7398414612 29.351764679 37.1725540161 45.6473693848 54.3743667603 62.8480606079 70.6671829224 78.2794113159 86.0494613647 13.961640358 21.5150375366 28.6358547211 36.3018875122 45.2814407349 54.742061615 63.7194747925 71.3819351196 78.5031433105 86.0579910278 13.9593391418 21.3281497955 28.1850376129 35.7671737671 45.0419883728 54.982635498 64.2545394897 71.8322143555 78.6892700195 86.0602340698 13.9501142502 21.2042808533 27.9299526215 35.4798431396 44.9176902771 55.1075363159 64.5420837402 72.087020874 78.8127670288 86.0693588257 13.9444313049 21.1431789398 27.8109722137 35.3553276062 44.8675117493 55.157951355 64.6667098999 72.2058792114 78.8736953735 86.0749893188 13.9444389343 21.1432514191 27.8111095428 35.3554611206 44.867565155 55.1578941345 64.6665649414 72.2057418823 78.873626709 86.0749740601 13.9501333237 21.204498291 27.9303798676 35.4803009033 44.9178733826 55.1073493958 64.5416259766 72.0865936279 78.8125457764 86.0693511963 13.9593572617 21.3285446167 28.1858825684 35.768157959 45.0424346924 54.9822006226 64.2535629272 71.8313751221 78.6888809204 86.0602035522 13.9616394043 21.5155563354 28.6373977661 36.3037033081 45.2822418213 54.7412567139 63.7176628113 71.3803863525 78.5026245117 86.0579986572 13.9703168869 21.740442276 29.353597641 37.174987793 45.6483573914 54.3733711243 62.8456268311 70.6653594971 78.2788162231 86.0494003296 
13.9702587128 21.7398395538 29.3517608643 37.1725463867 45.6473655701 54.3743667603 62.8480682373 70.6671905518 78.2794113159 86.0494613647 13.961640358 21.5150375366 28.6358413696 36.3018760681 45.2814331055 54.7420654297 63.7194900513 71.381942749 78.5031509399 86.0579986572 13.9593391418 21.3281402588 28.1850223541 35.7671546936 45.0419845581 54.9826507568 64.2545547485 71.8322296143 78.6892700195 86.0602493286 13.9501132965 21.2042732239 27.9299240112 35.4798126221 44.9176750183 55.1075515747 64.5421142578 72.0870285034 78.8127822876 86.0693664551 13.9444313049 21.143163681 27.8109416962 35.3552818298 44.8674888611 55.1579704285 64.6667480469 72.2059020996 78.8737106323 86.0749893188 13.944437027 21.1432361603 27.8110733032 35.3554191589 44.8675422668 55.157913208 64.6666030884 72.2057800293 78.8736419678 86.0749816895 13.9501342773 21.2044868469 27.930355072 35.4802742004 44.9178619385 55.1073684692 64.5416564941 72.0866165161 78.8125610352 86.0693511963 13.9593572617 21.3285388947 28.1858692169 35.7681541443 45.042427063 54.9822006226 64.2535629272 71.8313827515 78.6888809204 86.0602035522 13.9616394043 21.5155525208 28.6373901367 36.303691864 45.2822341919 54.7412643433 63.7176780701 71.3803939819 78.5026473999 86.0579986572 13.9703168869 21.7404403687 29.3535919189 37.174987793 45.648349762 54.373374939 62.8456268311 70.6653747559 78.2788162231 86.0494003296 
13.9702587128 21.7398395538 29.3517570496 37.172542572 45.6473579407 54.374370575 62.848072052 70.6671905518 78.2794113159 86.0494613647 13.9616394043 21.5150299072 28.6358337402 36.3018684387 45.2814292908 54.7420692444 63.7194976807 71.381942749 78.5031585693 86.0579986572 13.9593391418 21.3281364441 28.1850032806 35.7671356201 45.0419769287 54.9826507568 64.2545700073 71.832244873 78.6892852783 86.0602493286 13.9501132965 21.2042655945 27.9299030304 35.4797782898 44.9176559448 55.1075668335 64.5421295166 72.087059021 78.8127746582 86.0693664551 13.9444303513 21.1431522369 27.8109130859 35.3552436829 44.8674736023 55.1579856873 64.6667861938 72.205947876 78.8737182617 86.0749893188 13.9444379807 21.1432247162 27.8110466003 35.3553771973 44.8675308228 55.1579360962 64.6666488647 72.2058181763 78.8736495972 86.0749816895 13.9501333237 21.2044811249 27.9303283691 35.4802398682 44.9178466797 55.1073760986 64.5416870117 72.0866394043 78.8125610352 86.0693511963 13.959356308 21.3285293579 28.1858539581 35.7681350708 45.0424232483 54.9822158813 64.2535858154 71.8314056396 78.6888809204 86.060218811 13.9616394043 21.5155487061 28.6373767853 36.3036842346 45.2822265625 54.741268158 63.7176780701 71.3804016113 78.5026473999 86.0579986572 13.9703168869 21.7404384613 29.3535861969 37.1749763489 45.648349762 54.3733787537 62.8456344604 70.6653671265 78.2788162231 86.0494003296 
13.9702568054 21.7398357391 29.3517532349 37.1725387573 45.647354126 54.3743743896 62.8480796814 70.6671981812 78.2794189453 86.0494613647 13.9616394043 21.5150299072 28.6358261108 36.3018493652 45.2814254761 54.7420730591 63.7195053101 71.3819580078 78.5031585693 86.0579986572 13.9593391418 21.3281326294 28.1849880219 35.7671279907 45.041973114 54.9826583862 64.2545928955 71.8322677612 78.6892776489 86.0602493286 13.9501132965 21.204252243 27.9298839569 35.4797477722 44.9176445007 55.1075820923 64.5421676636 72.0870819092 78.812789917 86.0693664551 13.9444303513 21.1431446075 27.8108787537 35.3552055359 44.8674507141 55.1580085754 64.6668243408 72.2059707642 78.8737335205 86.0749893188 13.944437027 21.1432132721 27.8110141754 35.355342865 44.8675041199 55.157951355 64.6666946411 72.2058181763 78.8736572266 86.0749816895 13.9501333237 21.2044715881 27.9303092957 35.4802093506 44.9178314209 55.1073913574 64.5417098999 72.0866470337 78.8125762939 86.0693511963 13.9593553543 21.3285255432 28.1858386993 35.7681121826 45.0424079895 54.9822158813 64.2536087036 71.831413269 78.6888885498 86.060218811 13.961640358 21.5155448914 28.6373729706 36.3036727905 45.2822265625 54.741268158 63.7176856995 71.3804016113 78.5026473999 86.0579986572 13.9703149796 21.740436554 29.3535842896 37.1749725342 45.6483421326 54.3733825684 62.8456420898 70.6653747559 78.2788314819 86.0494003296 
