0.983709692955 1.01045310497 1.04448449612 1.13791251183 1.19713377953 1.19710624218 1.13784813881 1.03922712803 1.01044952869 0.983829379082 0.978615522385 1.04480361938 1.13124465942 1.26711642742 1.34050345421 1.34047329426 1.26703643799 1.09810483456 1.04479241371 0.978744268417 0.977337241173 1.11251354218 1.22930085659 1.36905503273 1.44686102867 1.44682407379 1.36897170544 1.19389677048 1.11252224445 0.977451622486 0.975745141506 1.16531848907 1.28443384171 1.41563165188 1.48269355297 1.48265302181 1.41554737091 1.24708771706 1.1653175354 0.975833714008 0.97458845377 1.19138276577 1.312261343 1.43551778793 1.4955688715 1.4955290556 1.43543696404 1.27374243736 1.19137012959 0.97466391325 0.974590063095 1.19137215614 1.31225132942 1.43550992012 1.49556279182 1.49552333355 1.43542909622 1.27373313904 1.19135987759 0.974665403366 0.97574955225 1.16528737545 1.28440248966 1.41560697556 1.48267281055 1.48263239861 1.4155228138 1.24705827236 1.16528642178 0.975838184357 0.977164030075 1.09715902805 1.2131510973 1.35289752483 1.4334372282 1.43339931965 1.35281288624 1.17800414562 1.09717214108 0.977280437946 0.978620052338 1.04472470284 1.13116896152 1.2670276165 1.34041368961 1.34038352966 1.26694750786 1.09803080559 1.04471361637 0.978748619556 0.983729958534 1.01039350033 1.04438912868 1.13775849342 1.19694697857 1.19691956043 1.13769435883 1.03913807869 1.01039004326 0.983849585056 
0.983706355095 1.00920975208 1.04253673553 1.13532352448 1.19422519207 1.19419777393 1.13526010513 1.03730094433 1.00920701027 0.983824729919 0.97861045599 1.04311692715 1.12900650501 1.26463317871 1.33791053295 1.33788061142 1.26455438137 1.09593999386 1.0431060791 0.978737711906 0.977297723293 1.11059141159 1.22685825825 1.36677253246 1.45091044903 1.45087707043 1.36669135094 1.19160842896 1.11059939861 0.977411031723 0.975638389587 1.16342496872 1.28209125996 1.41722154617 1.49787068367 1.49783587456 1.41714346409 1.24500906467 1.16342258453 0.975726306438 0.974417626858 1.18960273266 1.31010401249 1.44181358814 1.51664328575 1.5166093111 1.44173824787 1.27197062969 1.18958818913 0.974492549896 0.974419236183 1.18959236145 1.31009376049 1.44180619717 1.51663720608 1.51660311222 1.44173073769 1.27196085453 1.18957769871 0.974494159222 0.97564291954 1.16339373589 1.28206062317 1.41719889641 1.49785077572 1.49781596661 1.41712093353 1.24498033524 1.16339147091 0.975730895996 0.977129161358 1.09524035454 1.2106782198 1.35042870045 1.43357157707 1.43353807926 1.35034644604 1.17567121983 1.09525322914 0.977244734764 0.978614926338 1.04303884506 1.12893140316 1.26454460621 1.3378200531 1.33779013157 1.26446557045 1.09586656094 1.04302835464 0.978742241859 0.983726561069 1.00915145874 1.04244267941 1.135171175 1.19404029846 1.19401288033 1.13510775566 1.0372133255 1.00914883614 0.983844816685 
0.98370629549 1.00919115543 1.0425080061 1.1352853775 1.19418203831 1.19415462017 1.13522183895 1.03727245331 1.00918829441 0.98382461071 0.978610277176 1.0430918932 1.12897372246 1.26459610462 1.3378713131 1.33784151077 1.26451730728 1.09590828419 1.04308116436 0.978737711906 0.977297127247 1.1105632782 1.22682213783 1.36673521996 1.45086562634 1.45083236694 1.36665380001 1.19157409668 1.11057150364 0.977410435677 0.975636422634 1.16339814663 1.28205919266 1.41720211506 1.49810314178 1.49806857109 1.41712403297 1.24498009682 1.16339576244 0.975724160671 0.974414169788 1.18957912922 1.310074687 1.4418463707 1.51725196838 1.51721835136 1.44177114964 1.27194845676 1.18956458569 0.974489092827 0.974415838718 1.18956875801 1.31006467342 1.4418387413 1.51724636555 1.51721251011 1.44176352024 1.2719386816 1.18955421448 0.974490761757 0.975641012192 1.1633669138 1.28202843666 1.41717922688 1.49808323383 1.49804878235 1.41710150242 1.24495100975 1.16336464882 0.975728869438 0.977128624916 1.09521210194 1.21064138412 1.35039067268 1.4335321188 1.43349897861 1.35030889511 1.1756362915 1.09522473812 0.977244198322 0.978614926338 1.04301381111 1.12889838219 1.26450741291 1.33778083324 1.33775115013 1.26442861557 1.09583473206 1.04300320148 0.97874212265 0.98372644186 1.00913274288 1.04241394997 1.13513290882 1.19399726391 1.19396984577 1.13506960869 1.03718471527 1.00913012028 0.98384475708 
0.983706057072 1.00919091702 1.04250764847 1.13528513908 1.19418227673 1.19415473938 1.13522195816 1.03727185726 1.0091881752 0.983824491501 0.978610157967 1.04309177399 1.12897372246 1.26459598541 1.3378714323 1.33784162998 1.26451730728 1.09590816498 1.04308104515 0.978737473488 0.977296829224 1.1105632782 1.22682261467 1.36673521996 1.45086586475 1.45083272457 1.36665403843 1.19157445431 1.11057126522 0.977410197258 0.975636065006 1.16339850426 1.28206026554 1.41720366478 1.4981148243 1.49808013439 1.4171255827 1.24498105049 1.16339623928 0.975723981857 0.97441381216 1.18957984447 1.3100758791 1.44185066223 1.51728832722 1.51725494862 1.44177532196 1.27194952965 1.18956530094 0.974488735199 0.974415540695 1.18956935406 1.31006586552 1.44184303284 1.51728248596 1.51724898815 1.44176793098 1.2719398737 1.18955481052 0.974490404129 0.975640654564 1.16336739063 1.28202939034 1.4171807766 1.49809491634 1.49806010723 1.41710305214 1.24495196342 1.16336512566 0.97572851181 0.977128386497 1.09521222115 1.21064162254 1.3503909111 1.43353247643 1.43349921703 1.35030901432 1.17563652992 1.09522485733 0.977243900299 0.978614747524 1.0430136919 1.1288985014 1.26450741291 1.33778107166 1.33775115013 1.26442873478 1.09583461285 1.04300308228 0.978742003441 0.98372644186 1.00913262367 1.04241359234 1.1351326704 1.19399726391 1.19396996498 1.13506960869 1.03718423843 1.00912976265 0.983844578266 
0.983706116676 1.00919103622 1.04250812531 1.13528633118 1.19418370724 1.19415616989 1.13522291183 1.03727269173 1.00918829441 0.983824491501 0.978610038757 1.04309213161 1.12897467613 1.26459741592 1.3378726244 1.33784306049 1.26451861858 1.09590899944 1.04308140278 0.978737473488 0.97729665041 1.11056423187 1.22682404518 1.36673665047 1.45086729527 1.45083403587 1.36665558815 1.19157576561 1.11057221889 0.977409958839 0.975635886192 1.16339993477 1.28206217289 1.41720581055 1.49812316895 1.49808835983 1.41712808609 1.24498271942 1.16339766979 0.975723743439 0.974413692951 1.1895813942 1.31007778645 1.4418554306 1.51729989052 1.5172662735 1.44178032875 1.27195155621 1.18956685066 0.97448861599 0.974415361881 1.18957090378 1.31006777287 1.44184803963 1.51729416847 1.51726031303 1.44177293777 1.27194201946 1.18955647945 0.974490106106 0.97564047575 1.16336870193 1.28203141689 1.41718327999 1.49810326099 1.4980686903 1.41710531712 1.24495387077 1.16336631775 0.975728392601 0.977128386497 1.09521305561 1.21064305305 1.35039246082 1.43353426456 1.43350088596 1.35031044483 1.17563784122 1.095225811 0.97724378109 0.978614628315 1.04301416874 1.12889945507 1.264508605 1.33778238297 1.33775269985 1.26442992687 1.09583544731 1.04300355911 0.978741884232 0.983726322651 1.00913262367 1.04241406918 1.1351339817 1.19399881363 1.19397139549 1.13507080078 1.03718483448 1.00913000107 0.983844578266 
0.983705997467 1.00919127464 1.04250895977 1.13528752327 1.19418501854 1.1941576004 1.13522410393 1.03727316856 1.00918865204 0.983824312687 0.978609859943 1.04309284687 1.12897574902 1.26459860802 1.33787429333 1.33784461021 1.26451981068 1.09590995312 1.04308211803 0.978737235069 0.977296411991 1.11056542397 1.22682583332 1.36673820019 1.4508690834 1.45083594322 1.36665701866 1.1915769577 1.11057341099 0.977409720421 0.975635588169 1.16340124607 1.28206408024 1.41720807552 1.49813127518 1.49809670448 1.41713023186 1.24498462677 1.16339898109 0.975723385811 0.974413275719 1.18958294392 1.31008017063 1.44186079502 1.51730966568 1.51727592945 1.44178569317 1.27195370197 1.18956840038 0.974488198757 0.974414825439 1.18957257271 1.31007015705 1.44185352325 1.51730358601 1.51726996899 1.44177818298 1.27194416523 1.18955802917 0.974489808083 0.975640177727 1.16337013245 1.28203332424 1.41718542576 1.49811136723 1.49807679653 1.41710758209 1.2449555397 1.16336774826 0.975728034973 0.97712802887 1.09521412849 1.21064448357 1.35039401054 1.43353593349 1.43350255489 1.35031211376 1.17563927174 1.09522688389 0.977243542671 0.978614330292 1.0430150032 1.12890040874 1.2645097971 1.33778393269 1.33775401115 1.26443111897 1.09583628178 1.04300427437 0.978741705418 0.983726263046 1.00913286209 1.04241478443 1.1351351738 1.19400024414 1.19397258759 1.13507187366 1.03718543053 1.0091303587 0.983844459057 
0.983705937862 1.00919151306 1.04250943661 1.13528871536 1.19418656826 1.19415915012 1.13522529602 1.03727376461 1.00918889046 0.983824372292 0.978609740734 1.04309344292 1.12897670269 1.26459991932 1.33787584305 1.33784615993 1.26452100277 1.095911026 1.04308271408 0.978737175465 0.977296352386 1.11056637764 1.22682726383 1.36673974991 1.45087051392 1.45083761215 1.36665856838 1.19157850742 1.11057424545 0.977409720421 0.975635349751 1.16340255737 1.2820661068 1.4172103405 1.49813985825 1.49810528755 1.41713249683 1.24498653412 1.1634002924 0.975723147392 0.974412858486 1.18958461285 1.31008255482 1.44186627865 1.51731908321 1.5172855854 1.44179105759 1.27195560932 1.1895699501 0.974487662315 0.974414587021 1.18957400322 1.31007242203 1.44185900688 1.51731324196 1.51727950573 1.44178366661 1.271946311 1.18955945969 0.974489331245 0.975639939308 1.16337132454 1.28203558922 1.41718792915 1.49812018871 1.49808549881 1.41711008549 1.24495768547 1.16336917877 0.975727915764 0.977127969265 1.09521520138 1.21064591408 1.35039567947 1.43353784084 1.43350446224 1.35031378269 1.17564058304 1.09522783756 0.977243363857 0.978614270687 1.04301548004 1.12890148163 1.2645111084 1.33778524399 1.33775556087 1.26443243027 1.09583747387 1.04300487041 0.978741645813 0.983726203442 1.00913321972 1.04241549969 1.13513612747 1.19400179386 1.19397425652 1.13507306576 1.03718626499 1.00913047791 0.983844399452 
