14.003821373 13.7857084274 13.0142335892 11.820271492 11.1290988922 11.1299228668 11.8226852417 13.0169315338 13.7868003845 14.0038576126 21.9923152924 21.6200523376 20.5674705505 19.0990352631 18.207775116 18.2088813782 19.1020812988 20.5709018707 21.6216678619 21.9924888611 29.9789600372 29.5415687561 28.6385726929 27.4595851898 26.723897934 26.7248287201 27.4620838165 28.641368866 29.5432071686 29.9792518616 37.9820861816 37.655708313 37.066619873 36.3431777954 35.8988304138 35.8994026184 36.3446846008 37.0683746338 37.6568412781 37.9823303223 45.9993019104 45.88048172 45.6774253845 45.4374465942 45.2911834717 45.2913665771 45.4379425049 45.6780204773 45.8808746338 45.9994010925 54.0207443237 54.1401557922 54.3442153931 54.5854034424 54.7324028015 54.732219696 54.584903717 54.343624115 54.1397476196 54.0206451416 62.037940979 62.3647613525 62.9547767639 63.6794128418 64.1245117188 64.1239547729 63.6779098511 62.9530143738 62.3636360168 62.0376930237 70.0410385132 70.4784927368 71.3821258545 72.5621261597 73.2984619141 73.2975234985 72.5596237183 71.3793334961 70.4768676758 70.0407333374 78.0276412964 78.399559021 79.451965332 80.9205856323 81.8117828369 81.8106689453 80.9175415039 79.4485321045 78.39793396 78.0274734497 86.0161590576 86.2338790894 87.0041046143 88.1958694458 88.8859786987 88.8851547241 88.1934738159 87.0013885498 86.2328033447 86.01612854 
14.0033903122 13.7839164734 13.0131921768 11.8188419342 11.1262197495 11.1270446777 11.8212604523 13.0158882141 13.7850084305 14.0034284592 21.9918556213 21.6170768738 20.5614528656 19.0862388611 18.1866264343 18.1877441406 19.0893058777 20.5648937225 21.6187000275 21.9920330048 29.9785327911 29.5378131866 28.6283798218 27.4350070953 26.6768245697 26.6777973175 27.4375591278 28.6311969757 29.5394592285 29.9788303375 37.981754303 37.6523323059 37.0560340881 36.3142242432 35.845867157 35.8464736938 36.3157997131 37.0578308105 37.6534767151 37.982006073 45.9991760254 45.879108429 45.6728591919 45.423828125 45.2690200806 45.2692222595 45.4243545532 45.6734657288 45.8795127869 45.9992752075 54.0208778381 54.1415328979 54.3488044739 54.5990829468 54.7546691895 54.7544670105 54.5985565186 54.3482017517 54.14112854 54.020778656 62.0382804871 62.3681488037 62.9653701782 63.7083892822 64.1775283813 64.1769256592 63.7068061829 62.9635658264 62.3670043945 62.0380172729 70.0414505005 70.4822463989 71.3923187256 72.5866851807 73.3454818726 73.3444976807 72.5841293335 71.3894882202 70.4805984497 70.0411605835 78.0280990601 78.4025192261 79.4579696655 80.9333572388 81.8328933716 81.8317642212 80.9302902222 79.4545288086 78.4009017944 78.0279388428 86.0165863037 86.2356567383 87.0051422119 88.1972885132 88.8888320923 88.8880081177 88.1948852539 87.0024261475 86.2345733643 86.0165557861 
14.0033864975 13.7838983536 13.0131731033 11.8188076019 11.1261711121 11.126996994 11.82122612 13.0158691406 13.784989357 14.0034255981 21.9918556213 21.6170501709 20.5613918304 19.0861148834 18.1864395142 18.1875591278 19.0891838074 20.56483078 21.6186733246 21.9920310974 29.9785289764 29.5377750397 28.6282806396 27.4347763062 26.6764583588 26.6774349213 27.4373283386 28.6310997009 29.5394210815 29.9788265228 37.9817504883 37.6522979736 37.0559272766 36.3139190674 35.8452529907 35.8458557129 36.3154907227 37.0577125549 37.6534385681 37.982006073 45.9991760254 45.8790893555 45.6728096008 45.4236564636 45.2686843872 45.2688865662 45.4241714478 45.6734161377 45.8794898987 45.9992752075 54.0208740234 54.1415481567 54.3488578796 54.5992736816 54.7550048828 54.7548065186 54.5987472534 54.3482551575 54.1411399841 54.020778656 62.0382843018 62.3681869507 62.9654655457 63.7086982727 64.1781387329 64.1775360107 63.7071151733 62.9636802673 62.3670501709 62.0380249023 70.0414505005 70.4822921753 71.3924026489 72.5869140625 73.3458480835 73.344871521 72.5843505859 71.3896102905 70.4806365967 70.0411682129 78.0281066895 78.402557373 79.4580383301 80.9334716797 81.8330688477 81.8319473267 80.9304046631 79.4545822144 78.4009399414 78.0279388428 86.0165939331 86.2356796265 87.0051498413 88.1973114014 88.8888778687 88.8880615234 88.1949005127 87.002456665 86.2346038818 86.0165634155 
14.0033864975 13.7838983536 13.0131626129 11.8187894821 11.1261472702 11.1269712448 11.8212089539 13.0158576965 13.7849903107 14.0034255981 21.9918556213 21.6170444489 20.5613765717 19.0860862732 18.1864051819 18.1875247955 19.0891551971 20.5648193359 21.6186695099 21.9920310974 29.9785289764 29.537771225 28.6282615662 27.4347419739 26.676410675 26.6773853302 27.4372940063 28.6310825348 29.5394172668 29.9788265228 37.9817504883 37.6522903442 37.0559082031 36.3138885498 35.8451919556 35.8457984924 36.3154640198 37.0577011108 37.6534347534 37.982006073 45.9991760254 45.8790893555 45.6727981567 45.4236221313 45.2686576843 45.2688598633 45.4241523743 45.6734046936 45.8794937134 45.9992752075 54.0208740234 54.1415481567 54.348865509 54.5992889404 54.7550354004 54.7548332214 54.5987663269 54.3482589722 54.1411361694 54.020778656 62.0382843018 62.3681945801 62.9654960632 63.708732605 64.1782073975 64.1775970459 63.7071533203 62.9636993408 62.3670425415 62.0380249023 70.0414581299 70.4822998047 71.3924331665 72.5869522095 73.3458862305 73.3449020386 72.5843811035 71.3896102905 70.4806442261 70.0411682129 78.0281066895 78.402557373 79.4580535889 80.9335174561 81.8331069946 81.8319778442 80.9304428101 79.4546051025 78.4009399414 78.0279388428 86.0165939331 86.2356796265 87.0051574707 88.1973495483 88.8888931274 88.8880767822 88.1949234009 87.002456665 86.2346038818 86.0165634155 
14.0033864975 13.7838954926 13.0131540298 11.8187704086 11.1261234283 11.126947403 11.8211889267 13.0158519745 13.784986496 14.0034255981 21.9918556213 21.6170406342 20.5613651276 19.0860614777 18.1863765717 18.1874980927 19.0891304016 20.5648059845 21.6186637878 21.9920310974 29.9785289764 29.5377635956 28.6282501221 27.4347171783 26.6763744354 26.6773509979 27.4372673035 28.6310749054 29.5394096375 29.9788265228 37.9817504883 37.6522865295 37.0559005737 36.3138618469 35.8451576233 35.8457603455 36.3154373169 37.0576896667 37.6534309387 37.982006073 45.9991760254 45.8790893555 45.6727905273 45.4236068726 45.2686462402 45.2688407898 45.4241294861 45.673412323 45.8794937134 45.9992752075 54.0208740234 54.1415519714 54.3488807678 54.5993003845 54.7550430298 54.7548446655 54.5987739563 54.3482627869 54.1411399841 54.0207748413 62.0382843018 62.3681907654 62.9655036926 63.7087631226 64.1782455444 64.1776351929 63.7071838379 62.9637069702 62.3670539856 62.0380249023 70.0414581299 70.4822998047 71.3924407959 72.5869750977 73.3459320068 73.3449478149 72.5844116211 71.3896179199 70.4806518555 70.0411605835 78.0281066895 78.4025650024 79.4580535889 80.9335327148 81.8331298828 81.8320159912 80.9304656982 79.4546127319 78.4009628296 78.0279388428 86.0165939331 86.2356796265 87.0051727295 88.1973724365 88.888923645 88.8880996704 88.1949462891 87.0024642944 86.2346038818 86.0165634155 
14.0033864975 13.7838945389 13.0131464005 11.8187541962 11.1261005402 11.1269245148 11.8211708069 13.0158433914 13.784986496 14.0034255981 21.9918556213 21.6170368195 20.5613517761 19.0860366821 18.1863479614 18.1874656677 19.0891056061 20.5647964478 21.6186618805 21.9920310974 29.9785289764 29.5377635956 28.628238678 27.4346904755 26.6763420105 26.6773166656 27.4372386932 28.6310577393 29.5394077301 29.9788265228 37.9817504883 37.6522827148 37.0558891296 36.3138237 35.8451156616 35.8457221985 36.3154067993 37.0576820374 37.653427124 37.982006073 45.9991760254 45.8790855408 45.6727905273 45.4235877991 45.2686309814 45.2688293457 45.4241142273 45.6733932495 45.8794937134 45.9992752075 54.0208740234 54.1415557861 54.3488845825 54.5993232727 54.7550582886 54.7548561096 54.5987930298 54.3482780457 54.1411514282 54.0207748413 62.0382843018 62.3681983948 62.965511322 63.7087860107 64.178276062 64.1776657104 63.7072029114 62.9637145996 62.3670501709 62.0380249023 70.0414505005 70.4822998047 71.3924560547 72.5869979858 73.3459701538 73.3449783325 72.5844421387 71.3896560669 70.4806442261 70.0411605835 78.0281066895 78.402557373 79.4580841064 80.9335632324 81.8331604004 81.8320388794 80.9304885864 79.4546203613 78.4009552002 78.0279388428 86.0165939331 86.2356796265 87.0051879883 88.1973800659 88.8889541626 88.8881225586 88.1949691772 87.0024719238 86.2346038818 86.0165634155 
14.0033864975 13.7838916779 13.0131368637 11.8187351227 11.1260757446 11.1269016266 11.8211555481 13.015835762 13.7849826813 14.0034255981 21.9918556213 21.6170368195 20.5613422394 19.0860137939 18.1863174438 18.1874389648 19.0890827179 20.5647830963 21.6186599731 21.9920310974 29.9785251617 29.5377597809 28.6282234192 27.4346694946 26.6763038635 26.6772823334 27.4372177124 28.6310482025 29.5394058228 29.9788227081 37.9817504883 37.6522865295 37.0558815002 36.3138008118 35.8450775146 35.8456840515 36.3153800964 37.0576705933 37.6534233093 37.9820022583 45.9991760254 45.8790893555 45.6727828979 45.423576355 45.2686195374 45.2688140869 45.4241027832 45.6733970642 45.8794975281 45.9992752075 54.0208740234 54.1415557861 54.3488807678 54.5993385315 54.7550735474 54.7548828125 54.5988082886 54.3482818604 54.1411514282 54.0207748413 62.0382843018 62.3682022095 62.9655189514 63.708820343 64.1783218384 64.1777114868 63.7072372437 62.9637298584 62.3670578003 62.0380249023 70.0414505005 70.4822998047 71.3924713135 72.587020874 73.3460006714 73.3450164795 72.5844573975 71.3896560669 70.4806518555 70.0411605835 78.0281066895 78.402557373 79.4580841064 80.9335784912 81.8331832886 81.8320617676 80.9305038452 79.4546356201 78.4009552002 78.0279388428 86.0165939331 86.2356796265 87.0051803589 88.1974029541 88.8889694214 88.8881378174 88.194984436 87.002494812 86.2346038818 86.0165634155 
