14.0045986176 13.7878370285 13.0024137497 11.8326482773 11.1650381088 11.1658363342 11.8349790573 13.0051517487 13.788936615 14.0046272278 21.9933052063 21.6296195984 20.581319809 19.1706619263 18.3340911865 18.3351287842 19.1735267639 20.5847244263 21.6312103271 21.993473053 29.9797821045 29.5493412018 28.6556243896 27.5340709686 26.8536872864 26.8545417786 27.5363903046 28.6583614349 29.5509662628 29.9800624847 37.982006073 37.6578063965 37.0771789551 36.3962860107 35.9849357605 35.9854621887 36.3976821899 37.0788841248 37.6589241028 37.982257843 45.9991722107 45.8807830811 45.6809997559 45.4562492371 45.3205947876 45.3207702637 45.4567146301 45.6815834045 45.8811759949 45.9992675781 54.020866394 54.1398468018 54.3406295776 54.566493988 54.7028388977 54.7026672363 54.5660324097 54.3400535583 54.1394500732 54.0207748413 62.0380172729 62.3626708984 62.9441947937 63.6262397766 64.0382766724 64.0377502441 63.6248321533 62.9424781799 62.3615455627 62.0377693176 70.0401992798 70.470703125 71.3650741577 72.4876098633 73.1686019897 73.1677322388 72.4852905273 71.3623275757 70.4690856934 70.0399169922 78.0266494751 78.390007019 79.4381561279 80.849029541 81.6855926514 81.6845474243 80.8461761475 79.4347610474 78.3884124756 78.0264892578 86.0153884888 86.2317657471 87.0159301758 88.1836853027 88.8503112793 88.8495025635 88.181350708 87.0131912231 86.2306747437 86.0153579712 
14.0040416718 13.785823822 13.0025014877 11.8321437836 11.162197113 11.1630001068 11.834479332 13.005235672 13.7869215012 14.0040740967 21.9927368164 21.62616539 20.5747509003 19.153503418 18.3047580719 18.3058128357 19.1564025879 20.578163147 21.6277618408 21.9929046631 29.9792690277 29.5448093414 28.6428108215 27.4994220734 26.7889251709 26.7898349762 27.5018157959 28.6455898285 29.5464439392 29.9795589447 37.9816093445 37.6535682678 37.0631828308 36.3554229736 35.9170303345 35.9175949097 36.3569107056 37.0649261475 37.6547050476 37.9818611145 45.9990158081 45.8790016174 45.6746520996 45.4379081726 45.2928161621 45.293006897 45.4384002686 45.6752510071 45.8794021606 45.9991149902 54.0210342407 54.1416358948 54.3470115662 54.5849380493 54.7307472229 54.7305641174 54.5844421387 54.346408844 54.1412277222 54.0209388733 62.0384216309 62.366897583 62.9582061768 63.6671218872 64.1062393188 64.1056747437 63.6656341553 62.9564590454 62.3657608032 62.0381660461 70.040725708 70.4752426147 71.3778533936 72.5222244263 73.2333068848 73.232383728 72.5198287964 71.3750839233 70.4736022949 70.040435791 78.0272293091 78.3934555054 79.4447174072 80.8661499023 81.7148361206 81.7137832642 80.8632583618 79.4412841797 78.3918533325 78.027053833 86.0159454346 86.2337875366 87.0158233643 88.1841506958 88.8531112671 88.8523101807 88.1818237305 87.0130996704 86.2326812744 86.015914917 
14.004032135 13.785785675 13.0024900436 11.8321151733 11.1621379852 11.1629400253 11.8344516754 13.0052194595 13.7868852615 14.0040645599 21.9927272797 21.6261062622 20.5746269226 19.1532211304 18.3043289185 18.3053874969 19.1561222076 20.5780467987 21.6277046204 21.9928951263 29.9792575836 29.5447254181 28.6425819397 27.4988536835 26.7879962921 26.7889080048 27.5012512207 28.6453514099 29.5463600159 29.9795475006 37.9816017151 37.6534919739 37.0629005432 36.3546066284 35.9154090881 35.915977478 36.3560905457 37.0646476746 37.6546287537 37.9818572998 45.9990119934 45.8789596558 45.6745185852 45.4373931885 45.2919387817 45.2921257019 45.4378890991 45.6751098633 45.8793754578 45.9991073608 54.0210418701 54.1416778564 54.3471412659 54.5854492188 54.7316322327 54.7314453125 54.5849571228 54.3465461731 54.1412696838 54.0209388733 62.0384254456 62.3669815063 62.9584846497 63.6679382324 64.1078720093 64.1073074341 63.6664543152 62.9567298889 62.3658447266 62.0381698608 70.0407333374 70.4753189087 71.3780975342 72.5227890015 73.2342224121 73.2333068848 72.5203857422 71.3753356934 70.4736862183 70.040435791 78.0272369385 78.3935165405 79.4448547363 80.8664321899 81.7152633667 81.7142105103 80.86353302 79.44140625 78.3919219971 78.0270614624 86.015953064 86.2338027954 87.0158462524 88.1841888428 88.8531570435 88.8523635864 88.1818466187 87.0131072998 86.2326965332 86.0159225464 
14.004032135 13.7857847214 13.0024766922 11.8320970535 11.162115097 11.1629161835 11.8344335556 13.0052099228 13.7868833542 14.0040645599 21.9927253723 21.6261024475 20.5746116638 19.1531944275 18.3042888641 18.3053455353 19.1560916901 20.5780277252 21.627696991 21.9928951263 29.979259491 29.5447216034 28.6425533295 27.4988117218 26.7879390717 26.7888507843 27.5012054443 28.6453323364 29.5463542938 29.9795475006 37.9816017151 37.6534805298 37.062877655 36.354549408 35.9153213501 35.9158821106 36.3560371399 37.0646324158 37.6546134949 37.9818572998 45.9990119934 45.8789634705 45.674495697 45.4373626709 45.2918891907 45.2920761108 45.4378547668 45.6750984192 45.8793678284 45.9991073608 54.0210418701 54.1416778564 54.3471603394 54.585483551 54.7316818237 54.731502533 54.5849838257 54.3465538025 54.1412734985 54.0209350586 62.0384254456 62.3669815063 62.9584999084 63.6679916382 64.1079559326 64.1073913574 63.6665039062 62.9567451477 62.3658409119 62.0381698608 70.0407333374 70.4753265381 71.3781204224 72.5228347778 73.2342834473 73.2333602905 72.5204315186 71.3753509521 70.4737091064 70.040435791 78.0272521973 78.3935317993 79.4448547363 80.8664550781 81.7153167725 81.7142486572 80.8635482788 79.4414367676 78.3919372559 78.0270767212 86.015953064 86.2338180542 87.0158462524 88.1842041016 88.853187561 88.8523864746 88.1818695068 87.0131149292 86.232711792 86.0159225464 
14.004032135 13.7857837677 13.0024690628 11.8320798874 11.1620931625 11.1628932953 11.8344163895 13.0052022934 13.7868824005 14.0040645599 21.9927253723 21.6260948181 20.5746021271 19.1531734467 18.3042621613 18.305316925 19.1560707092 20.5780124664 21.6276912689 21.9928951263 29.979259491 29.5447101593 28.6425418854 27.4987812042 26.7879047394 26.7888126373 27.5011768341 28.6453208923 29.5463485718 29.9795475006 37.9816017151 37.6534767151 37.0628662109 36.3545265198 35.9152870178 35.9158477783 36.3560066223 37.064617157 37.6546096802 37.9818572998 45.9990119934 45.8789558411 45.6744880676 45.4373512268 45.2918701172 45.2920532227 45.4378433228 45.6750984192 45.8793678284 45.9991073608 54.0210418701 54.1416854858 54.3471679688 54.5854949951 54.7316970825 54.7315139771 54.5849990845 54.3465614319 54.1412849426 54.0209350586 62.0384254456 62.3669891357 62.9585151672 63.6680221558 64.108001709 64.1074295044 63.6665344238 62.9567604065 62.3658561707 62.0381698608 70.0407333374 70.4753341675 71.3781356812 72.5228424072 73.2343139648 73.2333984375 72.5204544067 71.3753585815 70.4737014771 70.040435791 78.0272521973 78.3935317993 79.4448776245 80.8664855957 81.7153396606 81.7142944336 80.8635787964 79.4414367676 78.3919372559 78.0270767212 86.015953064 86.2338180542 87.0158538818 88.1842193604 88.8532104492 88.8524169922 88.1818847656 87.013130188 86.232711792 86.0159225464 
14.004032135 13.7857809067 13.0024595261 11.8320617676 11.162068367 11.1628723145 11.8343982697 13.0051927567 13.7868795395 14.0040645599 21.9927253723 21.6260929108 20.5745887756 19.1531524658 18.304233551 18.3052902222 19.156047821 20.5780029297 21.6276874542 21.9928951263 29.979259491 29.5447101593 28.6425304413 27.4987602234 26.7878684998 26.7887783051 27.5011577606 28.6453037262 29.5463466644 29.9795475006 37.9815979004 37.6534805298 37.0628547668 36.3544998169 35.9152412415 35.9158096313 36.3559875488 37.0646018982 37.6546134949 37.9818572998 45.9990119934 45.8789596558 45.6744880676 45.437335968 45.2918624878 45.2920455933 45.4378318787 45.6750907898 45.879360199 45.9991073608 54.0210418701 54.1416778564 54.3471679688 54.5855064392 54.731716156 54.7315292358 54.5850143433 54.3465690613 54.1412811279 54.0209350586 62.0384216309 62.3670005798 62.958530426 63.6680450439 64.108039856 64.1074676514 63.666557312 62.9567642212 62.3658599854 62.0381698608 70.0407333374 70.4753341675 71.3781585693 72.5228729248 73.2343444824 73.2334289551 72.5204772949 71.3753585815 70.4737014771 70.040435791 78.0272521973 78.3935317993 79.4448928833 80.8665008545 81.7153701782 81.7143096924 80.8636016846 79.4414520264 78.3919372559 78.0270767212 86.015953064 86.2338180542 87.0158615112 88.1842269897 88.8532333374 88.8524246216 88.1819000244 87.0131378174 86.232711792 86.0159225464 
14.004032135 13.7857780457 13.0024518967 11.8320446014 11.1620464325 11.1628484726 11.8343811035 13.0051841736 13.7868785858 14.0040645599 21.9927272797 21.6260890961 20.5745773315 19.1531276703 18.3042049408 18.3052616119 19.1560249329 20.5779876709 21.6276836395 21.992893219 29.979259491 29.5447044373 28.6425151825 27.4987373352 26.7878360748 26.7887477875 27.501127243 28.6452941895 29.546339035 29.9795475006 37.9815979004 37.6534729004 37.0628433228 36.354473114 35.9152107239 35.9157791138 36.3559646606 37.0645904541 37.6546134949 37.9818572998 45.9990119934 45.8789558411 45.6744804382 45.4373245239 45.2918434143 45.2920303345 45.4378204346 45.675075531 45.8793640137 45.9991073608 54.0210418701 54.1416778564 54.3471755981 54.5855178833 54.7317314148 54.7315444946 54.5850219727 54.3465843201 54.1412734985 54.0209350586 62.0384216309 62.3670120239 62.9585456848 63.6680793762 64.1080780029 64.1075057983 63.6665840149 62.9567756653 62.3658638 62.0381698608 70.0407333374 70.4753341675 71.3781661987 72.5229034424 73.2343902588 73.2334671021 72.5205154419 71.3753890991 70.4737091064 70.040435791 78.0272521973 78.3935317993 79.4448928833 80.8665313721 81.7154006958 81.7143478394 80.8636322021 79.4414672852 78.3919525146 78.0270767212 86.015953064 86.2338180542 87.0158920288 88.1842422485 88.8532562256 88.8524551392 88.1819152832 87.0131378174 86.2327041626 86.0159225464 
