1.00000011921 1.0 0.999607682228 1.06458628178 1.11043202877 1.11040258408 1.06451368332 1.0 1.0 1.0 1.0 1.0 1.05369794369 1.16913938522 1.2333214283 1.23328602314 1.1690518856 1.03529977798 1.0 1.0 1.00000011921 1.0435860157 1.12688755989 1.25275814533 1.30462169647 1.30458390713 1.25267016888 1.10516810417 1.04360795021 1.0 1.0 1.08331108093 1.17003118992 1.28277373314 1.32069504261 1.3206590414 1.28268790245 1.14630115032 1.08332586288 1.0 1.0 1.10330510139 1.19262611866 1.29381978512 1.32538604736 1.32535266876 1.29373836517 1.16740643978 1.10331165791 1.0 1.0 1.10329473019 1.19261658192 1.29381370544 1.3253827095 1.32534909248 1.2937322855 1.16739726067 1.10330140591 1.0 1.00000011921 1.08328032494 1.17000329494 1.28275263309 1.32068109512 1.32064497471 1.2826666832 1.14627206326 1.08329498768 1.0 1.0 1.03382122517 1.11574602127 1.24208128452 1.29985320568 1.29981338978 1.24198949337 1.09503781796 1.03384160995 1.0 1.00000011921 0.999999940395 1.05362081528 1.16904985905 1.2332290411 1.23319363594 1.16896247864 1.03522264957 1.0 0.999999940395 0.999999940395 1.0 0.999615848064 1.06442797184 1.11025631428 1.11022663116 1.06435537338 1.00000011921 1.00000011921 1.0 
1.00000011921 1.0 0.999607682228 1.06458628178 1.11043202877 1.11040258408 1.06451368332 1.0 1.0 1.0 1.0 1.0 1.05369794369 1.16913938522 1.23334038258 1.23330509663 1.1690518856 1.03529977798 1.0 1.0 1.00000011921 1.0435860157 1.12688755989 1.25714111328 1.34016013145 1.34012782574 1.25705981255 1.10516810417 1.04360795021 1.0 1.0 1.08331108093 1.17003118992 1.30335795879 1.38180732727 1.38177156448 1.30328309536 1.14630115032 1.08332586288 1.0 1.0 1.10330510139 1.19262611866 1.32460105419 1.39736068249 1.39732420444 1.32452583313 1.16740643978 1.10331165791 1.0 1.0 1.10329473019 1.19261658192 1.32459485531 1.39735555649 1.39731884003 1.32451951504 1.16739726067 1.10330140591 1.0 1.00000011921 1.08328032494 1.17000329494 1.30333805084 1.38178932667 1.38175356388 1.30326318741 1.14627206326 1.08329498768 1.0 1.0 1.03382122517 1.11574602127 1.24297213554 1.32323610783 1.32320213318 1.24288332462 1.09503781796 1.03384160995 1.0 1.00000011921 0.999999940395 1.05362081528 1.16904985905 1.23324799538 1.23321282864 1.16896247864 1.03522264957 1.0 0.999999940395 0.999999940395 1.0 0.999615848064 1.06442797184 1.11025631428 1.11022663116 1.06435537338 1.00000011921 1.00000011921 1.0 
1.00000011921 1.0 0.999607682228 1.06458628178 1.11043202877 1.11040258408 1.06451368332 1.0 1.0 1.0 1.0 1.0 1.05369794369 1.16913938522 1.23334038258 1.23330509663 1.1690518856 1.03529977798 1.0 1.0 1.00000011921 1.0435860157 1.12688755989 1.25714111328 1.34050583839 1.34047365189 1.25705981255 1.10516810417 1.04360795021 1.0 1.0 1.08331108093 1.17003118992 1.30352818966 1.38429713249 1.38426244259 1.30345404148 1.14630115032 1.08332586288 1.0 1.0 1.10330510139 1.19262611866 1.32574546337 1.40110647678 1.40107119083 1.32567167282 1.16740643978 1.10331165791 1.0 1.0 1.10329473019 1.19261658192 1.3257393837 1.40110111237 1.40106582642 1.32566571236 1.16739726067 1.10330140591 1.0 1.00000011921 1.08328032494 1.17000329494 1.30350780487 1.38427913189 1.38424444199 1.30343413353 1.14627206326 1.08329498768 1.0 1.0 1.03382122517 1.11574602127 1.24297213554 1.32323610783 1.32320213318 1.24288332462 1.09503781796 1.03384160995 1.0 1.00000011921 0.999999940395 1.05362081528 1.16904985905 1.23324799538 1.23321282864 1.16896247864 1.03522264957 1.0 0.999999940395 0.999999940395 1.0 0.999615848064 1.06442797184 1.11025631428 1.11022663116 1.06435537338 1.00000011921 1.00000011921 1.0 
1.00000011921 1.0 0.999607682228 1.06458628178 1.11043202877 1.11040258408 1.06451368332 1.0 1.0 1.0 1.0 1.0 1.05369794369 1.16913938522 1.23334038258 1.23330509663 1.1690518856 1.03529977798 1.0 1.0 1.00000011921 1.0435860157 1.12688755989 1.25714111328 1.34050583839 1.34047365189 1.25705981255 1.10516810417 1.04360795021 1.0 1.0 1.08331108093 1.17003118992 1.30352818966 1.38458251953 1.38454830647 1.30345404148 1.14630115032 1.08332586288 1.0 1.0 1.10330510139 1.19262611866 1.32590925694 1.40159237385 1.40155720711 1.3258357048 1.16740643978 1.10331165791 1.0 1.0 1.10329473019 1.19261658192 1.32590317726 1.40158689022 1.40155184269 1.32582962513 1.16739726067 1.10330140591 1.0 1.00000011921 1.08328032494 1.17000329494 1.30350780487 1.38456487656 1.38453030586 1.30343413353 1.14627206326 1.08329498768 1.0 1.0 1.03382122517 1.11574602127 1.24297213554 1.32323610783 1.32320213318 1.24288332462 1.09503781796 1.03384160995 1.0 1.00000011921 0.999999940395 1.05362081528 1.16904985905 1.23324799538 1.23321282864 1.16896247864 1.03522264957 1.0 0.999999940395 0.999999940395 1.0 0.999615848064 1.06442797184 1.11025631428 1.11022663116 1.06435537338 1.00000011921 1.00000011921 1.0 
1.00000011921 1.0 0.999607682228 1.06458628178 1.11043202877 1.11040258408 1.06451368332 1.0 1.0 1.0 1.0 1.0 1.05369794369 1.16913938522 1.23334038258 1.23330509663 1.1690518856 1.03529977798 1.0 1.0 1.00000011921 1.0435860157 1.12688755989 1.25714111328 1.34050583839 1.34047365189 1.25705981255 1.10516810417 1.04360795021 1.0 1.0 1.08331108093 1.17003118992 1.30352818966 1.38464653492 1.38461220264 1.30345404148 1.14630115032 1.08332586288 1.0 1.0 1.10330510139 1.19262611866 1.3259524107 1.40170705318 1.40167188644 1.32587909698 1.16740643978 1.10331165791 1.0 1.0 1.10329473019 1.19261658192 1.32594645023 1.40170168877 1.40166652203 1.32587301731 1.16739726067 1.10330140591 1.0 1.00000011921 1.08328032494 1.17000329494 1.30350780487 1.38462853432 1.38459408283 1.30343413353 1.14627206326 1.08329498768 1.0 1.0 1.03382122517 1.11574602127 1.24297213554 1.32323610783 1.32320213318 1.24288332462 1.09503781796 1.03384160995 1.0 1.00000011921 0.999999940395 1.05362081528 1.16904985905 1.23324799538 1.23321282864 1.16896247864 1.03522264957 1.0 0.999999940395 0.999999940395 1.0 0.999615848064 1.06442797184 1.11025631428 1.11022663116 1.06435537338 1.00000011921 1.00000011921 1.0 
1.00000011921 1.0 0.999607682228 1.06458628178 1.11043202877 1.11040258408 1.06451368332 1.0 1.0 1.0 1.0 1.0 1.05369794369 1.16913938522 1.23334038258 1.23330509663 1.1690518856 1.03529977798 1.0 1.0 1.00000011921 1.0435860157 1.12688755989 1.25714111328 1.34050583839 1.34047365189 1.25705981255 1.10516810417 1.04360795021 1.0 1.0 1.08331108093 1.17003118992 1.30352818966 1.3846694231 1.38463521004 1.30345404148 1.14630115032 1.08332586288 1.0 1.0 1.10330510139 1.19262611866 1.32597029209 1.40174758434 1.4017124176 1.32589673996 1.16740643978 1.10331165791 1.0 1.0 1.10329473019 1.19261658192 1.32596421242 1.40174221992 1.40170705318 1.32589066029 1.16739726067 1.10330140591 1.0 1.00000011921 1.08328032494 1.17000329494 1.30350780487 1.3846514225 1.38461709023 1.30343413353 1.14627206326 1.08329498768 1.0 1.0 1.03382122517 1.11574602127 1.24297213554 1.32323610783 1.32320213318 1.24288332462 1.09503781796 1.03384160995 1.0 1.00000011921 0.999999940395 1.05362081528 1.16904985905 1.23324799538 1.23321282864 1.16896247864 1.03522264957 1.0 0.999999940395 0.999999940395 1.0 0.999615848064 1.06442797184 1.11025631428 1.11022663116 1.06435537338 1.00000011921 1.00000011921 1.0 
1.00000011921 1.0 0.999607682228 1.06458628178 1.11043202877 1.11040258408 1.06451368332 1.0 1.0 1.0 1.0 1.0 1.05369794369 1.16913938522 1.23334038258 1.23330509663 1.1690518856 1.03529977798 1.0 1.0 1.00000011921 1.0435860157 1.12688755989 1.25714111328 1.34050583839 1.34047365189 1.25705981255 1.10516810417 1.04360795021 1.0 1.0 1.08331108093 1.17003118992 1.30352818966 1.38468170166 1.38464736938 1.30345404148 1.14630115032 1.08332586288 1.0 1.0 1.10330510139 1.19262611866 1.32598078251 1.40176773071 1.40173268318 1.32590734959 1.16740643978 1.10331165791 1.0 1.0 1.10329473019 1.19261658192 1.32597446442 1.40176236629 1.40172743797 1.3259011507 1.16739726067 1.10330140591 1.0 1.00000011921 1.08328032494 1.17000329494 1.30350780487 1.38466382027 1.38462936878 1.30343413353 1.14627206326 1.08329498768 1.0 1.0 1.03382122517 1.11574602127 1.24297213554 1.32323610783 1.32320213318 1.24288332462 1.09503781796 1.03384160995 1.0 1.00000011921 0.999999940395 1.05362081528 1.16904985905 1.23324799538 1.23321282864 1.16896247864 1.03522264957 1.0 0.999999940395 0.999999940395 1.0 0.999615848064 1.06442797184 1.11025631428 1.11022663116 1.06435537338 1.00000011921 1.00000011921 1.0 
