2.25907373428 3.91975426674 6.85699033737 9.65363407135 11.1410732269 11.1393260956 9.64837646484 6.84937906265 3.91329836845 2.25879049301 2.2743396759 5.13142108917 9.7827167511 14.2803411484 16.6920261383 16.6891536713 14.2718763351 9.77062129974 5.12081336975 2.27368116379 2.29024243355 6.01080465317 11.7667169571 17.2729873657 20.3414440155 20.3376903534 17.2623577118 11.7519836426 5.99727869034 2.28922271729 2.30403232574 6.58453178406 12.9489250183 19.0018081665 22.4083862305 22.4041843414 18.9900302887 12.9327402115 6.56932163239 2.30273365974 2.31171989441 6.86073446274 13.5023412704 19.7908039093 23.3298912048 23.3255119324 19.7785606384 13.485499382 6.84474658966 2.3102748394 2.31171059608 6.860414505 13.5017023087 19.7899112701 23.3288516998 23.3244762421 19.7776660919 13.4848623276 6.84442853928 2.31026554108 2.30400538445 6.58354473114 12.9469385147 18.9989528656 22.4050350189 22.4008331299 18.9871768951 12.9307546616 6.56833648682 2.30270719528 2.29020357132 6.00897741318 11.7628355026 17.2672290802 20.3344707489 20.3307189941 17.2566051483 11.7481079102 5.99545860291 2.28918457031 2.27430272102 5.12872886658 9.77633666992 14.2705774307 16.6801548004 16.6772842407 14.2621212006 9.76424884796 5.11813116074 2.27364516258 2.2590367794 3.91642189026 6.84872150421 9.64018535614 11.1251735687 11.1234302521 9.6349363327 6.84112071991 3.90997767448 2.25875425339 
2.25911188126 3.90503358841 6.82904052734 9.62042427063 11.1064319611 11.1046848297 9.6151714325 6.82144975662 3.89862537384 2.25883150101 2.27423286438 5.11452960968 9.75264549255 14.2447109222 16.6567993164 16.653924942 14.2362480164 9.74057292938 5.10397005081 2.27358078957 2.29001832008 5.99468946457 11.7385158539 17.2405395508 20.3164596558 20.3126869202 17.2299003601 11.7238073349 5.98120498657 2.28900694847 2.30379533768 6.57083368301 12.9256210327 18.9794998169 22.4163303375 22.4120521545 18.967672348 12.9094562531 6.55565738678 2.30250501633 2.31151294708 6.84910058975 13.483124733 19.7806224823 23.3655071259 23.3610286713 19.768289566 13.4663009644 6.83313989639 2.31007575989 2.31150341034 6.848777771 13.4824819565 19.7797031403 23.3644294739 23.359954834 19.767370224 13.4656610489 6.83281898499 2.31006646156 2.30376887321 6.56984043121 12.9236221313 18.9766178131 22.4128894806 22.4086112976 18.9647903442 12.9074554443 6.55466556549 2.3024790287 2.28997969627 5.99285697937 11.7346286774 17.2347660065 20.309431076 20.3056564331 17.2241287231 11.7199268341 5.97937822342 2.28896903992 2.27419614792 5.1118388176 9.74626541138 14.2349491119 16.6449203491 16.6420478821 14.2264938354 9.7342004776 5.10128879547 2.27354502678 2.25907516479 3.90171313286 6.82078695297 9.60699272156 11.0905532837 11.088809967 9.60175037384 6.81320810318 3.89531683922 2.2587954998 
2.25911259651 3.90493440628 6.82885885239 9.62021541595 11.1062135696 11.1044692993 9.61496162415 6.82126760483 3.89852666855 2.25883197784 2.27423238754 5.11441993713 9.75245571136 14.2444963455 16.6565895081 16.653717041 14.2360334396 9.74038600922 5.10385990143 2.27357959747 2.29001760483 5.99459075928 11.7383527756 17.2403583527 20.3163166046 20.3125419617 17.2297115326 11.7236452103 5.98110580444 2.2890059948 2.303794384 6.57076406479 12.9255123138 18.9794216156 22.4164409637 22.4121665955 18.9675941467 12.9093456268 6.55558776855 2.30250477791 2.31151270866 6.84906005859 13.4830780029 19.7806816101 23.3660564423 23.361579895 19.7683467865 13.4662570953 6.8330988884 2.31007504463 2.31150317192 6.84873771667 13.4824352264 19.7797622681 23.3649806976 23.3605041504 19.7674293518 13.4656181335 6.83277845383 2.31006598473 2.30376791954 6.56977033615 12.9235134125 18.9765357971 22.4129981995 22.4087238312 18.9647083282 12.9073467255 6.55459690094 2.30247831345 2.28997850418 5.99275875092 11.7344636917 17.234582901 20.3092861176 20.3055114746 17.2239456177 11.7197628021 5.9792804718 2.28896784782 2.27419543266 5.11172866821 9.74607563019 14.2347335815 16.6447105408 16.6418399811 14.2262763977 9.73401260376 5.1011800766 2.2735440731 2.25907564163 3.90161371231 6.82060480118 9.60678482056 11.0903367996 11.0885944366 9.60154151917 6.81302452087 3.89521813393 2.25879597664 
2.25911259651 3.904941082 6.82887506485 9.62024116516 11.1062459946 11.1044988632 9.61498832703 6.82128429413 3.89853310585 2.25883173943 2.27423262596 5.11443138123 9.75248432159 14.2445344925 16.6566333771 16.6537590027 14.2360706329 9.74041080475 5.10387277603 2.27358007431 2.29001760483 5.99460744858 11.7383880615 17.2404098511 20.3163738251 20.3125991821 17.2297649384 11.7236824036 5.98112344742 2.2890059948 2.30379533768 6.57078742981 12.9255590439 18.9794921875 22.4165306091 22.4122524261 18.9676628113 12.9093923569 6.55561113358 2.30250477791 2.31151342392 6.8490858078 13.4831342697 19.7807693481 23.3661823273 23.3617038727 19.7684345245 13.4663105011 6.8331246376 2.31007599831 2.31150388718 6.84876346588 13.4824924469 19.7798480988 23.36510849 23.3606300354 19.7675170898 13.4656705856 6.83280515671 2.31006669998 2.30376839638 6.56979370117 12.9235582352 18.9766044617 22.4130916595 22.4088115692 18.9647769928 12.9073934555 6.55461883545 2.30247879028 2.2899787426 5.99277544022 11.7344989777 17.2346324921 20.309343338 20.3055706024 17.2239952087 11.7197980881 5.97929763794 2.28896808624 2.2741959095 5.11174106598 9.74610328674 14.2347698212 16.6447525024 16.6418800354 14.2263154984 9.73403930664 5.10119152069 2.27354454994 2.25907564163 3.90162062645 6.82062101364 9.60681056976 11.0903682709 11.0886249542 9.60156822205 6.81304216385 3.89522409439 2.25879621506 
2.25911259651 3.90495061874 6.82889938354 9.62027359009 11.1062822342 11.1045379639 9.6150226593 6.82130765915 3.89854288101 2.25883197784 2.27423262596 5.11444759369 9.75251865387 14.2445802689 16.6566810608 16.6538105011 14.2361183167 9.74044322968 5.10388755798 2.27358055115 2.29001808167 5.99462795258 11.7384309769 17.2404651642 20.3164405823 20.312664032 17.2298259735 11.7237243652 5.98114395142 2.28900647163 2.30379581451 6.5708117485 12.9256086349 18.9795608521 22.4166202545 22.4123420715 18.9677314758 12.9094409943 6.55563497543 2.30250549316 2.31151390076 6.84911394119 13.4831895828 19.7808551788 23.3662929535 23.3618183136 19.7685184479 13.4663658142 6.83315181732 2.31007671356 2.31150460243 6.8487906456 13.4825468063 19.7799339294 23.3652172089 23.360742569 19.7676048279 13.4657249451 6.83283138275 2.31006717682 2.30376887321 6.56981754303 12.9236078262 18.9766731262 22.4131774902 22.4089012146 18.9648475647 12.9074420929 6.55464315414 2.30247926712 2.28997921944 5.99279546738 11.7345428467 17.2346935272 20.3094100952 20.3056354523 17.2240524292 11.7198390961 5.97931814194 2.2889688015 2.2741959095 5.11175632477 9.74613761902 14.2348184586 16.6448020935 16.6419334412 14.2263622284 9.73407173157 5.10120582581 2.27354454994 2.25907588005 3.90163064003 6.82064533234 9.60684394836 11.0904054642 11.0886621475 9.6015996933 6.81306552887 3.89523434639 2.25879597664 
2.25911235809 3.904961586 6.82892370224 9.62030887604 11.1063222885 11.1045780182 9.6150560379 6.82133102417 3.89855337143 2.25883197784 2.27423286438 5.11446237564 9.75255012512 14.2446250916 16.6567344666 16.6538600922 14.236164093 9.74047756195 5.10390281677 2.27358031273 2.2900185585 5.99464797974 11.7384748459 17.240524292 20.3165054321 20.3127288818 17.2298812866 11.7237663269 5.98116350174 2.28900694847 2.30379605293 6.5708360672 12.9256601334 18.9796352386 22.4167098999 22.4124336243 18.9678039551 12.909491539 6.55565834045 2.30250573158 2.31151485443 6.84914112091 13.4832458496 19.7809410095 23.3664054871 23.3619270325 19.7686061859 13.4664211273 6.83317995071 2.31007742882 2.31150555611 6.84881877899 13.4826021194 19.7800197601 23.3653278351 23.3608531952 19.7676887512 13.4657802582 6.83285903931 2.31006813049 2.30376935005 6.56984233856 12.923658371 18.9767436981 22.413269043 22.4089889526 18.9649200439 12.9074926376 6.554666996 2.30247974396 2.28997945786 5.99281644821 11.7345838547 17.234752655 20.3094711304 20.3057022095 17.2241134644 11.7198848724 5.9793381691 2.2889688015 2.27419614792 5.11177253723 9.74617004395 14.2348642349 16.6448554993 16.6419830322 14.2264089584 9.73410797119 5.10122251511 2.27354502678 2.25907564163 3.90164113045 6.82067012787 9.60687732697 11.0904445648 11.0887031555 9.60163402557 6.81308937073 3.89524483681 2.25879573822 
2.25911283493 3.90497112274 6.82894611359 9.62034130096 11.1063594818 11.1046152115 9.6150894165 6.82135438919 3.89856290817 2.25883173943 2.27423286438 5.1144785881 9.75258541107 14.2446718216 16.656785965 16.6539134979 14.2362108231 9.74051094055 5.10391902924 2.27358007431 2.29001879692 5.99466753006 11.7385168076 17.2405853271 20.316570282 20.312795639 17.2299442291 11.7238073349 5.9811835289 2.28900694847 2.30379676819 6.57086038589 12.9257097244 18.9797077179 22.4168014526 22.4125232697 18.9678764343 12.9095411301 6.55568361282 2.30250620842 2.31151533127 6.84916734695 13.483300209 19.7810230255 23.3665122986 23.3620357513 19.7686901093 13.4664764404 6.83320665359 2.31007814407 2.31150579453 6.84884500504 13.4826593399 19.7801055908 23.365436554 23.3609600067 19.7677745819 13.4658346176 6.83288574219 2.31006908417 2.30376982689 6.56986618042 12.923707962 18.9768218994 22.4133605957 22.4090805054 18.9649944305 12.9075422287 6.55469179153 2.30248022079 2.28997969627 5.99283599854 11.7346248627 17.2348117828 20.3095378876 20.305765152 17.2241706848 11.7199230194 5.97935771942 2.28896903992 2.27419614792 5.11178779602 9.74620342255 14.2349090576 16.6449050903 16.642036438 14.2264556885 9.73413944244 5.1012377739 2.27354502678 2.25907588005 3.90165042877 6.82069253922 9.60691261292 11.0904817581 11.0887393951 9.60166835785 6.81311321259 3.89525413513 2.25879597664 
