13.9728384018 21.7502632141 29.3852081299 37.1919631958 45.6500968933 54.3716163635 62.8286018372 70.6338119507 78.2690124512 86.0469055176 13.9644651413 21.5272083282 28.679807663 36.2844924927 45.2636566162 54.7599220276 63.7367897034 71.3379974365 78.4910202026 86.0551834106 13.9621486664 21.3442707062 28.23097229 35.7507514954 45.0330810547 54.9915924072 64.2709274292 71.7862854004 78.673210144 86.0574417114 13.9538602829 21.225894928 27.9908275604 35.4993743896 44.9297637939 55.0954055786 64.5225296021 72.0261993408 78.7912368774 86.0656280518 13.9487190247 21.1689300537 27.887254715 35.4023475647 44.8914260864 55.1339149475 64.6196594238 72.129699707 78.8480224609 86.0707244873 13.9487266541 21.1689968109 27.8873672485 35.4024543762 44.8914642334 55.1338806152 64.6195526123 72.1295776367 78.8479690552 86.0707168579 13.9538784027 21.2260990143 27.9912071228 35.4997367859 44.9299087524 55.0952606201 64.5221710205 72.0258178711 78.7910308838 86.065612793 13.9621648788 21.3446559906 28.2318000793 35.7516784668 45.0334739685 54.9912033081 64.2699890137 71.7854614258 78.6728363037 86.0574264526 13.964466095 21.5277290344 28.6813602448 36.2863693237 45.2644882202 54.7590942383 63.734916687 71.3364562988 78.4905090332 86.0551834106 13.9728956223 21.7508563995 29.3869838715 37.1944351196 45.6511230469 54.37059021 62.8261299133 70.6320495605 78.2684326172 86.0468292236 
13.9717731476 21.7496547699 29.3823280334 37.186706543 45.6473884583 54.3743362427 62.8338623047 70.6366958618 78.2696380615 86.0479660034 13.9630031586 21.5263595581 28.6723022461 36.2673492432 45.2520904541 54.7715339661 63.7539215088 71.3454818726 78.4918746948 86.0566253662 13.9602937698 21.3399772644 28.2119140625 35.7047767639 44.995388031 55.0294456482 64.3168411255 71.8053131104 78.6774978638 86.0592880249 13.9514379501 21.2153930664 27.9536209106 35.4088439941 44.8681869507 55.1572647095 64.6129760742 72.0633239746 78.8016967773 86.0680389404 13.9458122253 21.1529788971 27.8342380524 35.2856140137 44.8187866211 55.2068939209 64.736328125 72.1825790405 78.8639221191 86.073600769 13.9458189011 21.1530532837 27.8343715668 35.2857513428 44.8188400269 55.2068328857 64.7361907959 72.1824569702 78.863861084 86.073600769 13.9514579773 21.2156143188 27.9540481567 35.4093055725 44.8683738708 55.1570739746 64.6125259399 72.0628814697 78.8014678955 86.0680160522 13.9603118896 21.3403663635 28.2127742767 35.7058067322 44.9958648682 55.0289840698 64.3158111572 71.8044281006 78.6771087646 86.0592575073 13.9630041122 21.526884079 28.6738681793 36.2692680359 45.2529563904 54.7706680298 63.7520065308 71.3439178467 78.491355896 86.0566329956 13.9718322754 21.750246048 29.3841075897 37.1891937256 45.6484146118 54.3732948303 62.8313751221 70.6349105835 78.2690429688 86.0478973389 
13.9717435837 21.7496471405 29.382276535 37.1865921021 45.6473312378 54.3743972778 62.8339729309 70.6367492676 78.2696456909 86.0479888916 13.9629659653 21.5263557434 28.6721420288 36.2669906616 45.2518806458 54.7717514038 63.7542800903 71.3456344604 78.4918823242 86.0566864014 13.9602441788 21.3398780823 28.2114372253 35.7037467957 44.9946022034 55.0302467346 64.3178634644 71.8057785034 78.6775970459 86.0593338013 13.9513692856 21.215089798 27.9525318146 35.406211853 44.8658065796 55.1596565247 64.6156005859 72.0644073486 78.8020019531 86.0680999756 13.9457273483 21.1524791718 27.8325424194 35.2811203003 44.8154220581 55.2102737427 64.740814209 72.1842880249 78.8644256592 86.0736999512 13.945734024 21.152551651 27.8326759338 35.2812538147 44.8154754639 55.2102241516 64.7406768799 72.1841430664 78.8643493652 86.0736923218 13.9513874054 21.2153110504 27.9529647827 35.4066772461 44.8659934998 55.1594657898 64.6151428223 72.0639648438 78.8017883301 86.0680847168 13.9602622986 21.3402671814 28.2123031616 35.7047767639 44.9950714111 55.0297775269 64.3168334961 71.8049163818 78.6772079468 86.0593185425 13.9629669189 21.5268764496 28.6737117767 36.2689094543 45.2527427673 54.7708816528 63.7523651123 71.344078064 78.4913482666 86.056678772 13.9718027115 21.7502346039 29.3840560913 37.1890830994 45.6483650208 54.3733558655 62.8314819336 70.6349639893 78.2690505981 86.0479278564 
13.9717407227 21.7496452332 29.3822650909 37.186580658 45.6473274231 54.3743972778 62.833984375 70.636756897 78.2696456909 86.0479888916 13.9629631042 21.5263557434 28.6721229553 36.2669639587 45.2518615723 54.7717666626 63.7543067932 71.3456497192 78.4918823242 86.0566864014 13.9602394104 21.3398685455 28.2113952637 35.7036705017 44.9945526123 55.0303001404 64.3179397583 71.8058013916 78.6776046753 86.0593338013 13.9513654709 21.2150630951 27.9524421692 35.4060287476 44.8656425476 55.1598129272 64.6157913208 72.064491272 78.8020248413 86.0681152344 13.94572258 21.1524353027 27.8324050903 35.2807807922 44.815158844 55.2105255127 64.7411575317 72.1844177246 78.8644561768 86.0736999512 13.945728302 21.1525096893 27.8325386047 35.2809181213 44.8152160645 55.2104721069 64.7410125732 72.1842803955 78.864402771 86.0736923218 13.9513835907 21.2152824402 27.95287323 35.4064941406 44.8658332825 55.1596183777 64.6153335571 72.0640563965 78.8018035889 86.0680999756 13.9602603912 21.3402614594 28.2122612 35.70470047 44.9950256348 55.0298309326 64.3168945312 71.8049621582 78.6772232056 86.0593185425 13.9629631042 21.5268764496 28.6736946106 36.2688827515 45.2527236938 54.7708969116 63.7523956299 71.3440933228 78.491355896 86.056678772 13.9717988968 21.7502326965 29.3840427399 37.1890678406 45.6483573914 54.3733634949 62.831489563 70.6349716187 78.2690505981 86.0479278564 
13.9717407227 21.7496414185 29.3822574615 37.1865768433 45.6473236084 54.3744010925 62.8339920044 70.636756897 78.2696380615 86.0479888916 13.9629631042 21.5263500214 28.6721096039 36.2669525146 45.2518577576 54.7717704773 63.7543182373 71.3456573486 78.4918899536 86.0566864014 13.9602394104 21.3398590088 28.2113800049 35.7036476135 44.9945411682 55.0303001404 64.3179626465 71.8058395386 78.6776199341 86.0593338013 13.9513645172 21.2150497437 27.952413559 35.4059867859 44.8656082153 55.1598472595 64.6158370972 72.0645217896 78.8020248413 86.0681152344 13.9457206726 21.1524200439 27.832365036 35.280708313 44.8151245117 55.2105674744 64.7412261963 72.1844558716 78.8644714355 86.0736999512 13.945728302 21.1524944305 27.8325004578 35.2808456421 44.8151779175 55.2105140686 64.7410888672 72.1843185425 78.8644104004 86.0736923218 13.9513835907 21.2152709961 27.9528427124 35.4064445496 44.8658027649 55.1596565247 64.6153717041 72.0640869141 78.8018112183 86.0680999756 13.9602584839 21.3402481079 28.2122459412 35.7046813965 44.9950141907 55.029838562 64.3169174194 71.8049621582 78.677230835 86.0593261719 13.9629631042 21.5268745422 28.6736793518 36.2688713074 45.2527198792 54.770904541 63.7523956299 71.3441009521 78.4913711548 86.056678772 13.9717998505 21.7502326965 29.3840408325 37.1890602112 45.648349762 54.3733634949 62.8315048218 70.634979248 78.2690505981 86.0479278564 
13.9717416763 21.7496414185 29.3822574615 37.1865692139 45.647315979 54.3744087219 62.833984375 70.6367721558 78.2696380615 86.0479888916 13.9629650116 21.5263462067 28.6721019745 36.2669410706 45.2518501282 54.7717819214 63.7543334961 71.3456726074 78.4918899536 86.056678772 13.9602403641 21.3398551941 28.2113647461 35.70362854 44.9945335388 55.0303192139 64.3179855347 71.8058547974 78.6776199341 86.0593261719 13.9513645172 21.2150421143 27.9523868561 35.4059524536 44.8655929565 55.1598701477 64.6158676147 72.0645523071 78.8020477295 86.0681152344 13.9457206726 21.1524085999 27.8323345184 35.2806625366 44.8150978088 55.2105903625 64.7412719727 72.1844863892 78.8644866943 86.0736999512 13.9457263947 21.1524848938 27.8324661255 35.2807998657 44.8151550293 55.2105369568 64.7411346436 72.1843566895 78.8644256592 86.0736923218 13.9513835907 21.2152633667 27.9528198242 35.406414032 44.8657875061 55.1596755981 64.6154098511 72.0641174316 78.8018264771 86.0680999756 13.9602603912 21.3402442932 28.2122211456 35.704662323 44.9949989319 55.0298461914 64.316947937 71.8049926758 78.677230835 86.0593261719 13.9629631042 21.5268688202 28.6736717224 36.268863678 45.2527160645 54.770904541 63.7524185181 71.3441085815 78.4913635254 86.056678772 13.9718008041 21.7502326965 29.3840370178 37.1890525818 45.6483459473 54.3733673096 62.8314971924 70.634979248 78.2690505981 86.0479278564 
13.9717407227 21.7496376038 29.3822498322 37.1865692139 45.6473236084 54.3744125366 62.8340072632 70.6367797852 78.2696533203 86.0479888916 13.9629631042 21.526342392 28.6720962524 36.2669334412 45.2518463135 54.7717781067 63.7543449402 71.3456726074 78.491897583 86.056678772 13.9602394104 21.3398456573 28.2113456726 35.7036056519 44.9945297241 55.0303230286 64.3179931641 71.8058624268 78.6776199341 86.0593261719 13.9513626099 21.2150287628 27.9523620605 35.4059143066 44.8655853271 55.1598777771 64.6159057617 72.0645751953 78.8020629883 86.0681228638 13.9457187653 21.1524009705 27.8323040009 35.2806129456 44.81508255 55.2106170654 64.741317749 72.1845169067 78.8645019531 86.0737075806 13.9457244873 21.152469635 27.8324375153 35.2807502747 44.8151359558 55.210559845 64.7411804199 72.184387207 78.8644332886 86.0736999512 13.9513816833 21.2152519226 27.952796936 35.406375885 44.8657684326 55.1596908569 64.615447998 72.0641403198 78.8018341064 86.0680999756 13.9602584839 21.3402385712 28.2122058868 35.7046394348 44.9949913025 55.0298538208 64.3169708252 71.805015564 78.6772384644 86.0593261719 13.9629640579 21.5268650055 28.673664093 36.2688522339 45.2527122498 54.7709083557 63.7524261475 71.3441238403 78.4913787842 86.056678772 13.9718008041 21.7502288818 29.3840332031 37.1890525818 45.648349762 54.3733673096 62.8315200806 70.6349945068 78.2690505981 86.0479278564 
