1.00000011921 1.0 1.00000011921 1.04234647751 1.0956017971 1.09556984901 1.04226589203 1.0 1.0 1.0 1.0 1.0 1.04687130451 1.18260407448 1.25655150414 1.25651550293 1.18251347542 1.03193533421 1.0 1.0 1.00000011921 1.04863369465 1.13019180298 1.28745496273 1.38171303272 1.38167953491 1.28737258911 1.10992908478 1.04865550995 1.0 1.0 1.0916519165 1.17842245102 1.33807110786 1.42310714722 1.42306745052 1.33799505234 1.15641605854 1.09165942669 1.0 1.0 1.11374521255 1.20288133621 1.36028182507 1.4369828701 1.43694126606 1.36020731926 1.18012237549 1.11374330521 1.0 1.0 1.11373400688 1.2028721571 1.36027503014 1.43697738647 1.43693602085 1.36020040512 1.18011260033 1.11373209953 1.0 1.00000011921 1.09161818027 1.17839360237 1.33804893494 1.42308866978 1.4230492115 1.33797311783 1.15638566017 1.09162557125 1.0 1.0 1.03818261623 1.11731505394 1.27045404911 1.36262786388 1.36259222031 1.27036237717 1.09810554981 1.03820204735 1.0 1.00000011921 0.999999940395 1.04679131508 1.18251633644 1.25644934177 1.25641334057 1.18242561817 1.03185677528 1.0 0.999999940395 0.999999940395 1.0 1.00000011921 1.04221558571 1.095443964 1.09541225433 1.04213523865 1.00000011921 1.00000011921 1.0 
1.00000011921 1.0 1.00000011921 1.04234647751 1.0956017971 1.09556984901 1.04226589203 1.0 1.0 1.0 1.0 1.0 1.04687130451 1.18260407448 1.25655150414 1.25651550293 1.18251347542 1.03193533421 1.0 1.0 1.00000011921 1.04863369465 1.13019180298 1.28745496273 1.38206148148 1.3820284605 1.28737258911 1.10992908478 1.04865550995 1.0 1.0 1.0916519165 1.17842245102 1.33807110786 1.42734348774 1.42730760574 1.33799505234 1.15641605854 1.09165942669 1.0 1.0 1.11374521255 1.20288133621 1.3606120348 1.4436352253 1.44359838963 1.36053919792 1.18012237549 1.11374330521 1.0 1.0 1.11373400688 1.2028721571 1.36060547829 1.44363033772 1.44359350204 1.3605325222 1.18011260033 1.11373209953 1.0 1.00000011921 1.09161818027 1.17839360237 1.33804893494 1.42732512951 1.42728924751 1.33797311783 1.15638566017 1.09162557125 1.0 1.0 1.03818261623 1.11731505394 1.27045404911 1.36262786388 1.36259222031 1.27036237717 1.09810554981 1.03820204735 1.0 1.00000011921 0.999999940395 1.04679131508 1.18251633644 1.25644934177 1.25641334057 1.18242561817 1.03185677528 1.0 0.999999940395 0.999999940395 1.0 1.00000011921 1.04221558571 1.095443964 1.09541225433 1.04213523865 1.00000011921 1.00000011921 1.0 
1.00000011921 1.0 1.00000011921 1.04234647751 1.0956017971 1.09556984901 1.04226589203 1.0 1.0 1.0 1.0 1.0 1.04687130451 1.18260407448 1.25655150414 1.25651550293 1.18251347542 1.03193533421 1.0 1.0 1.00000011921 1.04863369465 1.13019180298 1.28745496273 1.38206148148 1.3820284605 1.28737258911 1.10992908478 1.04865550995 1.0 1.0 1.0916519165 1.17842245102 1.33807110786 1.42735230923 1.42731630802 1.33799505234 1.15641605854 1.09165942669 1.0 1.0 1.11374521255 1.20288133621 1.3606120348 1.44364571571 1.44360876083 1.36053919792 1.18012237549 1.11374330521 1.0 1.0 1.11373400688 1.2028721571 1.36060547829 1.44364070892 1.44360363483 1.3605325222 1.18011260033 1.11373209953 1.0 1.00000011921 1.09161818027 1.17839360237 1.33804893494 1.42733407021 1.42729830742 1.33797311783 1.15638566017 1.09162557125 1.0 1.0 1.03818261623 1.11731505394 1.27045404911 1.36262786388 1.36259222031 1.27036237717 1.09810554981 1.03820204735 1.0 1.00000011921 0.999999940395 1.04679131508 1.18251633644 1.25644934177 1.25641334057 1.18242561817 1.03185677528 1.0 0.999999940395 0.999999940395 1.0 1.00000011921 1.04221558571 1.095443964 1.09541225433 1.04213523865 1.00000011921 1.00000011921 1.0 
1.00000011921 1.0 1.00000011921 1.04234647751 1.0956017971 1.09556984901 1.04226589203 1.0 1.0 1.0 1.0 1.0 1.04687130451 1.18260407448 1.25655150414 1.25651550293 1.18251347542 1.03193533421 1.0 1.0 1.00000011921 1.04863369465 1.13019180298 1.28745496273 1.38206148148 1.3820284605 1.28737258911 1.10992908478 1.04865550995 1.0 1.0 1.0916519165 1.17842245102 1.33807110786 1.42736113071 1.42732512951 1.33799505234 1.15641605854 1.09165942669 1.0 1.0 1.11374521255 1.20288133621 1.3606120348 1.44365549088 1.4436186552 1.36053919792 1.18012237549 1.11374330521 1.0 1.0 1.11373400688 1.2028721571 1.36060547829 1.44365060329 1.44361364841 1.3605325222 1.18011260033 1.11373209953 1.0 1.00000011921 1.09161818027 1.17839360237 1.33804893494 1.42734277248 1.42730712891 1.33797311783 1.15638566017 1.09162557125 1.0 1.0 1.03818261623 1.11731505394 1.27045404911 1.36262786388 1.36259222031 1.27036237717 1.09810554981 1.03820204735 1.0 1.00000011921 0.999999940395 1.04679131508 1.18251633644 1.25644934177 1.25641334057 1.18242561817 1.03185677528 1.0 0.999999940395 0.999999940395 1.0 1.00000011921 1.04221558571 1.095443964 1.09541225433 1.04213523865 1.00000011921 1.00000011921 1.0 
1.00000011921 1.0 1.00000011921 1.04234647751 1.0956017971 1.09556984901 1.04226589203 1.0 1.0 1.0 1.0 1.0 1.04687130451 1.18260407448 1.25655150414 1.25651550293 1.18251347542 1.03193533421 1.0 1.0 1.00000011921 1.04863369465 1.13019180298 1.28745496273 1.38206148148 1.3820284605 1.28737258911 1.10992908478 1.04865550995 1.0 1.0 1.0916519165 1.17842245102 1.33807110786 1.42736983299 1.42733407021 1.33799505234 1.15641605854 1.09165942669 1.0 1.0 1.11374521255 1.20288133621 1.3606120348 1.44366490841 1.44362807274 1.36053919792 1.18012237549 1.11374330521 1.0 1.0 1.11373400688 1.2028721571 1.36060547829 1.44365990162 1.44362306595 1.3605325222 1.18011260033 1.11373209953 1.0 1.00000011921 1.09161818027 1.17839360237 1.33804893494 1.42735159397 1.42731595039 1.33797311783 1.15638566017 1.09162557125 1.0 1.0 1.03818261623 1.11731505394 1.27045404911 1.36262786388 1.36259222031 1.27036237717 1.09810554981 1.03820204735 1.0 1.00000011921 0.999999940395 1.04679131508 1.18251633644 1.25644934177 1.25641334057 1.18242561817 1.03185677528 1.0 0.999999940395 0.999999940395 1.0 1.00000011921 1.04221558571 1.095443964 1.09541225433 1.04213523865 1.00000011921 1.00000011921 1.0 
1.00000011921 1.0 1.00000011921 1.04234647751 1.0956017971 1.09556984901 1.04226589203 1.0 1.0 1.0 1.0 1.0 1.04687130451 1.18260407448 1.25655150414 1.25651550293 1.18251347542 1.03193533421 1.0 1.0 1.00000011921 1.04863369465 1.13019180298 1.28745496273 1.38206148148 1.3820284605 1.28737258911 1.10992908478 1.04865550995 1.0 1.0 1.0916519165 1.17842245102 1.33807110786 1.42737817764 1.42734241486 1.33799505234 1.15641605854 1.09165942669 1.0 1.0 1.11374521255 1.20288133621 1.3606120348 1.44367444515 1.44363760948 1.36053919792 1.18012237549 1.11374330521 1.0 1.0 1.11373400688 1.2028721571 1.36060547829 1.44366979599 1.44363260269 1.3605325222 1.18011260033 1.11373209953 1.0 1.00000011921 1.09161818027 1.17839360237 1.33804893494 1.42736005783 1.42732441425 1.33797311783 1.15638566017 1.09162557125 1.0 1.0 1.03818261623 1.11731505394 1.27045404911 1.36262786388 1.36259222031 1.27036237717 1.09810554981 1.03820204735 1.0 1.00000011921 0.999999940395 1.04679131508 1.18251633644 1.25644934177 1.25641334057 1.18242561817 1.03185677528 1.0 0.999999940395 0.999999940395 1.0 1.00000011921 1.04221558571 1.095443964 1.09541225433 1.04213523865 1.00000011921 1.00000011921 1.0 
1.00000011921 1.0 1.00000011921 1.04234647751 1.0956017971 1.09556984901 1.04226589203 1.0 1.0 1.0 1.0 1.0 1.04687130451 1.18260407448 1.25655150414 1.25651550293 1.18251347542 1.03193533421 1.0 1.0 1.00000011921 1.04863369465 1.13019180298 1.28745496273 1.38206148148 1.3820284605 1.28737258911 1.10992908478 1.04865550995 1.0 1.0 1.0916519165 1.17842245102 1.33807110786 1.42738652229 1.42735087872 1.33799505234 1.15641605854 1.09165942669 1.0 1.0 1.11374521255 1.20288133621 1.3606120348 1.4436841011 1.44364702702 1.36053919792 1.18012237549 1.11374330521 1.0 1.0 1.11373400688 1.2028721571 1.36060547829 1.44367909431 1.44364213943 1.3605325222 1.18011260033 1.11373209953 1.0 1.00000011921 1.09161818027 1.17839360237 1.33804893494 1.42736828327 1.42733263969 1.33797311783 1.15638566017 1.09162557125 1.0 1.0 1.03818261623 1.11731505394 1.27045404911 1.36262786388 1.36259222031 1.27036237717 1.09810554981 1.03820204735 1.0 1.00000011921 0.999999940395 1.04679131508 1.18251633644 1.25644934177 1.25641334057 1.18242561817 1.03185677528 1.0 0.999999940395 0.999999940395 1.0 1.00000011921 1.04221558571 1.095443964 1.09541225433 1.04213523865 1.00000011921 1.00000011921 1.0 
