0.984104394913 1.01943397522 1.05808055401 1.14159095287 1.20672130585 1.20669221878 1.14152467251 1.05389153957 1.01942491531 0.984236478806 0.978760898113 1.05685079098 1.13244187832 1.28269946575 1.35273098946 1.35269272327 1.28260564804 1.10048210621 1.05683326721 0.978896737099 0.978174448013 1.11445856094 1.24414527416 1.37059271336 1.42681062222 1.42676436901 1.37049198151 1.20609045029 1.11445474625 0.978290379047 0.976764023304 1.17589449883 1.29859721661 1.40342700481 1.45031011105 1.45026421547 1.40332686901 1.26329553127 1.17590987682 0.976856589317 0.975577712059 1.20448732376 1.32162570953 1.41628468037 1.45834350586 1.45829868317 1.41618609428 1.2884478569 1.20449113846 0.97565639019 0.975579380989 1.20447707176 1.321616292 1.41627752781 1.4583376646 1.45829308033 1.41617882252 1.28843796253 1.20448112488 0.975657939911 0.976768493652 1.17586374283 1.2985663414 1.40340161324 1.45028877258 1.45024251938 1.40330147743 1.26326489449 1.17587935925 0.97686111927 0.977899610996 1.0974009037 1.22596693039 1.36115455627 1.42073237896 1.42068576813 1.36105108261 1.18654322624 1.09740698338 0.978017926216 0.97876393795 1.05676913261 1.13235902786 1.28260946274 1.35262584686 1.35258758068 1.28251576424 1.10041749477 1.05675172806 0.978899776936 0.984126865864 1.0193656683 1.05797064304 1.14144945145 1.20656776428 1.20653855801 1.14138281345 1.05378067493 1.0193567276 0.984258472919 
0.984001755714 1.00934410095 1.04216527939 1.12019026279 1.18352127075 1.18349516392 1.12012863159 1.03826117516 1.00934207439 0.984123170376 0.978535473347 1.04299724102 1.11373031139 1.26576459408 1.34757769108 1.34754550457 1.26568305492 1.08250522614 1.04298257828 0.978661894798 0.977723896503 1.09817218781 1.22769057751 1.38009786606 1.46335828304 1.46332299709 1.38001406193 1.18823027611 1.09816396236 0.977832317352 0.976062476635 1.15919470787 1.29089164734 1.43041431904 1.50782263279 1.50778579712 1.43033337593 1.25031113625 1.15919721127 0.976146578789 0.974628567696 1.18861079216 1.32121384144 1.45323729515 1.52551448345 1.52547812462 1.45315933228 1.28016293049 1.18859863281 0.97469753027 0.974630594254 1.18860089779 1.32120382786 1.45322990417 1.52550840378 1.52547192574 1.4531519413 1.28015339375 1.18858861923 0.974699616432 0.976067662239 1.15916526318 1.29086208344 1.43039143085 1.50780272484 1.50776565075 1.43031060696 1.2502835989 1.15916800499 0.976151943207 0.977478206158 1.08122766018 1.20701277256 1.36263811588 1.44697535038 1.44693946838 1.36255252361 1.1675093174 1.08122968674 0.977588891983 0.978538751602 1.0429224968 1.11365187168 1.26567912102 1.34748315811 1.3474509716 1.26559782028 1.08244502544 1.04290795326 0.97866499424 0.984023988247 1.00928616524 1.04206800461 1.12005281448 1.18336713314 1.18334114552 1.11999130249 1.03816151619 1.00928413868 0.984145283699 
0.984033703804 1.009116292 1.04172480106 1.11949419975 1.18267869949 1.1826530695 1.11943304539 1.03784358501 1.00911426544 0.984154701233 0.978582262993 1.04259371758 1.11311125755 1.2650398016 1.34676027298 1.34672820568 1.26495885849 1.08192682266 1.04257929325 0.978708148003 0.977788090706 1.09759116173 1.22686600685 1.3792399168 1.46243917942 1.4624042511 1.3791564703 1.18747055531 1.09758293629 0.977895975113 0.976143419743 1.15849792957 1.28990638256 1.42945575714 1.50679063797 1.50675368309 1.42937505245 1.2494109869 1.15850031376 0.976227164268 0.974718391895 1.18785643578 1.32014548779 1.45220375061 1.52460849285 1.52457237244 1.45212626457 1.27919173241 1.1878439188 0.974786937237 0.974720358849 1.1878465414 1.32013547421 1.45219612122 1.5246026516 1.52456653118 1.4521188736 1.27918243408 1.18783426285 0.974788784981 0.976148664951 1.1584687233 1.28987705708 1.42943310738 1.50677061081 1.50673401356 1.4293525219 1.24938392639 1.15847098827 0.976232409477 0.97754240036 1.08066487312 1.20621430874 1.36179482937 1.44606423378 1.44602870941 1.36170959473 1.16677129269 1.08066689968 0.977652668953 0.978585243225 1.04251945019 1.11303341389 1.26495468616 1.34666597843 1.34663403034 1.26487362385 1.08186674118 1.04250502586 0.978711247444 0.984056055546 1.0090585947 1.0416277647 1.11935758591 1.18252587318 1.18249988556 1.11929631233 1.03774440289 1.00905656815 0.984176754951 
0.984034121037 1.00911235809 1.04171705246 1.11948239803 1.1826646328 1.18263888359 1.11942136288 1.03783667088 1.00911045074 0.984155237675 0.978583097458 1.04258692265 1.11310088634 1.26502776146 1.34674632549 1.34671425819 1.26494669914 1.08191728592 1.04257249832 0.978708803654 0.977789342403 1.09758138657 1.22685194016 1.37922525406 1.46242380142 1.46238863468 1.37914204597 1.1874576807 1.09757304192 0.977897047997 0.976144909859 1.15848600864 1.28988957405 1.42943930626 1.5067731142 1.50673651695 1.42935883999 1.24939584732 1.15848839283 0.976228475571 0.974719941616 1.18784368038 1.32012724876 1.45218634605 1.52459001541 1.52455425262 1.4521086216 1.27917516232 1.18783116341 0.974788427353 0.974721908569 1.18783378601 1.32011735439 1.45217859745 1.52458441257 1.52454829216 1.45210111141 1.27916586399 1.18782150745 0.974790215492 0.976150035858 1.15845680237 1.28986048698 1.4294167757 1.50675344467 1.506716609 1.42933619022 1.2493686676 1.15845918655 0.976233839989 0.977543532848 1.08065533638 1.20620083809 1.36178052425 1.44604897499 1.44601345062 1.36169528961 1.16675901413 1.08065724373 0.977653741837 0.978586196899 1.04251265526 1.11302292347 1.26494252682 1.34665226936 1.34662008286 1.26486158371 1.08185708523 1.04249846935 0.978712081909 0.984056532383 1.00905478001 1.04162025452 1.11934602261 1.18251144886 1.18248569965 1.11928474903 1.03773736954 1.00905275345 0.984177231789 
0.984034061432 1.00911307335 1.04171848297 1.1194845438 1.1826672554 1.18264138699 1.11942350864 1.03783774376 1.00911128521 0.984154999256 0.978582859039 1.04258823395 1.1131029129 1.26503002644 1.3467489481 1.34671676159 1.26494896412 1.08191895485 1.04257369041 0.97870862484 0.97778904438 1.0975830555 1.22685480118 1.37922823429 1.46242678165 1.4623914957 1.37914466858 1.1874601841 1.09757494926 0.977896809578 0.976144611835 1.15848839283 1.28989291191 1.42944276333 1.50677645206 1.50673949718 1.42936205864 1.24939870834 1.15849065781 0.976228237152 0.974719643593 1.18784606457 1.32013094425 1.45218932629 1.52459359169 1.52455770969 1.45211195946 1.27917838097 1.18783378601 0.97478812933 0.974721610546 1.18783628941 1.32012081146 1.45218193531 1.52458763123 1.52455186844 1.45210456848 1.27916896343 1.18782389164 0.974790036678 0.97614979744 1.15845918655 1.28986358643 1.42941999435 1.50675690174 1.50671994686 1.42933940887 1.24937164783 1.15846145153 0.976233482361 0.977543354034 1.08065700531 1.20620346069 1.36178314686 1.4460515976 1.44601619244 1.36169803143 1.16676127911 1.08065915108 0.977653563023 0.978585958481 1.04251396656 1.11302506924 1.26494467258 1.34665477276 1.34662282467 1.26486372948 1.08185887337 1.04249966145 0.978711843491 0.984056353569 1.00905561447 1.04162168503 1.11934804916 1.18251430988 1.18248832226 1.11928701401 1.03773868084 1.00905358791 0.984177172184 
0.984033942223 1.00911402702 1.04172039032 1.11948752403 1.18267071247 1.18264472485 1.11942625046 1.0378395319 1.00911188126 0.984154999256 0.978582799435 1.04259002209 1.11310553551 1.26503276825 1.34675204754 1.34672021866 1.26495194435 1.08192121983 1.04257535934 0.97870862484 0.977788746357 1.09758555889 1.22685801983 1.37923133373 1.46243035793 1.46239519119 1.37914788723 1.18746304512 1.09757733345 0.977896511555 0.976144254208 1.15849113464 1.2898966074 1.42944633961 1.50678050518 1.50674366951 1.42936587334 1.24940216541 1.15849339962 0.976227939129 0.97471922636 1.1878490448 1.32013475895 1.45219361782 1.52459788322 1.52456200123 1.45211613178 1.27918207645 1.18783664703 0.974787771702 0.974721193314 1.18783915043 1.32012474537 1.45218634605 1.52459192276 1.52455604076 1.45210874081 1.27917277813 1.18782675266 0.97478979826 0.976149380207 1.15846180916 1.28986740112 1.42942357063 1.50676071644 1.50672399998 1.42934322357 1.2493751049 1.15846395493 0.976233124733 0.977542936802 1.08065915108 1.20620667934 1.36178648472 1.44605529308 1.44601976871 1.36170125008 1.16676437855 1.08066129684 0.977653205395 0.978585958481 1.04251551628 1.11302745342 1.26494777203 1.34665811062 1.34662592411 1.2648665905 1.08186101913 1.04250109196 0.978711724281 0.984056293964 1.00905644894 1.04162323475 1.11935079098 1.18251764774 1.18249177933 1.11928963661 1.03774034977 1.00905442238 0.984177112579 
0.984033823013 1.00911486149 1.04172205925 1.11949002743 1.18267381191 1.18264806271 1.11942887306 1.03784108162 1.00911295414 0.984154820442 0.978582501411 1.04259133339 1.11310768127 1.26503562927 1.3467553854 1.3467233181 1.26495444775 1.08192336559 1.04257690907 0.978708267212 0.977788448334 1.09758782387 1.22686123848 1.37923455238 1.462433815 1.46239864826 1.37915122509 1.18746578693 1.09757947922 0.977896332741 0.976144015789 1.15849375725 1.28990030289 1.4294500351 1.50678443909 1.50674748421 1.42936933041 1.2494058609 1.15849614143 0.976227581501 0.974718809128 1.18785190582 1.32013916969 1.45219767094 1.52460205555 1.52456617355 1.45212006569 1.27918589115 1.18783950806 0.97478723526 0.974720835686 1.18784213066 1.32012915611 1.45219004154 1.52459621429 1.52456021309 1.4521125555 1.27917659283 1.18782961369 0.974789261818 0.976149082184 1.15846443176 1.28987109661 1.42942714691 1.50676465034 1.50672781467 1.42934668064 1.24937856197 1.15846681595 0.97623282671 0.977542757988 1.08066141605 1.20620954037 1.36178958416 1.44605886936 1.44602322578 1.36170434952 1.16676700115 1.08066356182 0.977653086185 0.978585541248 1.04251718521 1.11302983761 1.26495027542 1.34666109085 1.34662902355 1.26486933231 1.08186328411 1.04250264168 0.978711485863 0.98405623436 1.00905740261 1.0416251421 1.11935353279 1.18252074718 1.18249499798 1.11929225922 1.0377420187 1.00905537605 0.984176874161 
