1.00000011921 1.0 1.00125062466 1.07048153877 1.09642028809 1.09640598297 1.07040989399 1.0 1.0 1.0 1.0 1.0 1.06080687046 1.10995864868 1.11676096916 1.11675441265 1.1099357605 1.04552030563 1.0 1.0 1.00000011921 1.05040204525 1.09636116028 1.11663162708 1.12100243568 1.12099707127 1.11661612988 1.09167325497 1.05042457581 1.0 1.0 1.07961404324 1.10508513451 1.11892366409 1.12231576443 1.12231075764 1.11891031265 1.10247790813 1.07961630821 1.0 1.0 1.08870172501 1.10827696323 1.11976373196 1.1227093935 1.12270474434 1.11975157261 1.10602033138 1.08870077133 1.0 1.0 1.08869576454 1.10827422142 1.11976277828 1.12270891666 1.1227042675 1.11975061893 1.10601758957 1.08869469166 1.0 1.00000011921 1.07959151268 1.10507571697 1.11892056465 1.12231349945 1.12230873108 1.11890697479 1.10246765614 1.07959377766 1.0 1.0 1.04247319698 1.0949639082 1.11655056477 1.12103950977 1.12103390694 1.11653470993 1.08951330185 1.04248952866 1.0 1.00000011921 0.999999940395 1.06072676182 1.10993087292 1.116740942 1.11673426628 1.10990810394 1.04544126987 1.0 0.999999940395 0.999999940395 1.0 1.00120067596 1.07031655312 1.09631109238 1.09629654884 1.07024466991 1.00000011921 1.00000011921 1.0 
1.00000011921 1.0 1.00125062466 1.07055842876 1.11466705799 1.1146376133 1.07048296928 1.0 1.0 1.0 1.0 1.0 1.06080687046 1.17090129852 1.21229875088 1.21227395535 1.17081165314 1.04552030563 1.0 1.0 1.00000011921 1.05040204525 1.12963676453 1.2153134346 1.23198640347 1.23196899891 1.21526002884 1.10914564133 1.05042457581 1.0 1.0 1.08718049526 1.17006981373 1.22497367859 1.23660647869 1.23659145832 1.22493159771 1.14873194695 1.08719360828 1.0 1.0 1.10632622242 1.18507742882 1.22815263271 1.23796069622 1.23794662952 1.22811424732 1.16881418228 1.10633265972 1.0 1.0 1.106315732 1.18506932259 1.22815012932 1.23795926571 1.23794519901 1.22811150551 1.16880476475 1.10632228851 1.0 1.00000011921 1.0871489048 1.17004215717 1.22496390343 1.23660075665 1.23658585548 1.22492158413 1.14870154858 1.08716201782 1.0 1.0 1.04247319698 1.11925911903 1.21358752251 1.23155343533 1.23153555393 1.21353077888 1.10018503666 1.04248952866 1.0 1.00000011921 0.999999940395 1.06072676182 1.17081344128 1.21222698689 1.21220207214 1.17072415352 1.04544126987 1.0 0.999999940395 0.999999940395 1.0 1.00120067596 1.07039177418 1.11448931694 1.11446011066 1.0703163147 1.00000011921 1.00000011921 1.0 
1.00000011921 1.0 1.00125062466 1.07055842876 1.11466705799 1.1146376133 1.07048296928 1.0 1.0 1.0 1.0 1.0 1.06080687046 1.17091989517 1.23487448692 1.23483645916 1.17083001137 1.04552030563 1.0 1.0 1.00000011921 1.05040204525 1.12963676453 1.25733613968 1.31102907658 1.31099140644 1.25725078583 1.10914564133 1.05042457581 1.0 1.0 1.08718049526 1.17138159275 1.28936862946 1.32596468925 1.32592976093 1.28928053379 1.14873194695 1.08719360828 1.0 1.0 1.10632622242 1.19350969791 1.30030703545 1.33023118973 1.33019888401 1.30022501945 1.16919136047 1.10633265972 1.0 1.0 1.106315732 1.19350028038 1.30030107498 1.33022809029 1.33019566536 1.30021893978 1.16918158531 1.10632228851 1.0 1.00000011921 1.0871489048 1.17135381699 1.28934693336 1.32595145702 1.3259165287 1.2892588377 1.14870154858 1.08716201782 1.0 1.0 1.04247319698 1.11925911903 1.24417519569 1.3066316843 1.30659174919 1.24408078194 1.10018503666 1.04248952866 1.0 1.00000011921 0.999999940395 1.06072676182 1.17083203793 1.23478007317 1.23474228382 1.1707419157 1.04544126987 1.0 0.999999940395 0.999999940395 1.0 1.00120067596 1.07039177418 1.11448931694 1.11446011066 1.0703163147 1.00000011921 1.00000011921 1.0 
1.00000011921 1.0 1.00125062466 1.07055842876 1.11466705799 1.1146376133 1.07048296928 1.0 1.0 1.0 1.0 1.0 1.06080687046 1.17091989517 1.23487448692 1.23483645916 1.17083001137 1.04552030563 1.0 1.0 1.00000011921 1.05040204525 1.12963676453 1.25763094425 1.33774638176 1.33771169186 1.25754749775 1.10914564133 1.05042457581 1.0 1.0 1.08718049526 1.17138159275 1.30106127262 1.37184607983 1.37180399895 1.30098378658 1.14873194695 1.08719360828 1.0 1.0 1.10632622242 1.19350969791 1.32104313374 1.38259029388 1.38254678249 1.32096505165 1.16919136047 1.10633265972 1.0 1.0 1.106315732 1.19350028038 1.32103669643 1.38258516788 1.38254153728 1.32095873356 1.16918158531 1.10632228851 1.0 1.00000011921 1.0871489048 1.17135381699 1.30104017258 1.37182724476 1.3717854023 1.30096280575 1.14870154858 1.08716201782 1.0 1.0 1.04247319698 1.11925911903 1.24417519569 1.32243871689 1.32240104675 1.24408078194 1.10018503666 1.04248952866 1.0 1.00000011921 0.999999940395 1.06072676182 1.17083203793 1.23478007317 1.23474228382 1.1707419157 1.04544126987 1.0 0.999999940395 0.999999940395 1.0 1.00120067596 1.07039177418 1.11448931694 1.11446011066 1.0703163147 1.00000011921 1.00000011921 1.0 
1.00000011921 1.0 1.00125062466 1.07055842876 1.11466705799 1.1146376133 1.07048296928 1.0 1.0 1.0 1.0 1.0 1.06080687046 1.17091989517 1.23487448692 1.23483645916 1.17083001137 1.04552030563 1.0 1.0 1.00000011921 1.05040204525 1.12963676453 1.25763094425 1.33823895454 1.33820545673 1.25754749775 1.10914564133 1.05042457581 1.0 1.0 1.08718049526 1.17138159275 1.30106127262 1.38034939766 1.38031435013 1.30098378658 1.14873194695 1.08719360828 1.0 1.0 1.10632622242 1.19350969791 1.32208454609 1.39607524872 1.39603900909 1.32201206684 1.16919136047 1.10633265972 1.0 1.0 1.106315732 1.19350028038 1.32207798958 1.3960698843 1.39603376389 1.32200562954 1.16918158531 1.10632228851 1.0 1.00000011921 1.0871489048 1.17135381699 1.30104017258 1.38033127785 1.38029634953 1.30096280575 1.14870154858 1.08716201782 1.0 1.0 1.04247319698 1.11925911903 1.24417519569 1.32243871689 1.32240104675 1.24408078194 1.10018503666 1.04248952866 1.0 1.00000011921 0.999999940395 1.06072676182 1.17083203793 1.23478007317 1.23474228382 1.1707419157 1.04544126987 1.0 0.999999940395 0.999999940395 1.0 1.00120067596 1.07039177418 1.11448931694 1.11446011066 1.0703163147 1.00000011921 1.00000011921 1.0 
1.00000011921 1.0 1.00125062466 1.07055842876 1.11466705799 1.1146376133 1.07048296928 1.0 1.0 1.0 1.0 1.0 1.06080687046 1.17091989517 1.23487448692 1.23483645916 1.17083001137 1.04552030563 1.0 1.0 1.00000011921 1.05040204525 1.12963676453 1.25763094425 1.33823895454 1.33820545673 1.25754749775 1.10914564133 1.05042457581 1.0 1.0 1.08718049526 1.17138159275 1.30106127262 1.38055324554 1.38051843643 1.30098378658 1.14873194695 1.08719360828 1.0 1.0 1.10632622242 1.19350969791 1.32210183144 1.39707565308 1.39704060555 1.32202935219 1.16919136047 1.10633265972 1.0 1.0 1.106315732 1.19350028038 1.32209539413 1.39707052708 1.39703559875 1.32202315331 1.16918158531 1.10632228851 1.0 1.00000011921 1.0871489048 1.17135381699 1.30104017258 1.38053512573 1.38050067425 1.30096280575 1.14870154858 1.08716201782 1.0 1.0 1.04247319698 1.11925911903 1.24417519569 1.32243871689 1.32240104675 1.24408078194 1.10018503666 1.04248952866 1.0 1.00000011921 0.999999940395 1.06072676182 1.17083203793 1.23478007317 1.23474228382 1.1707419157 1.04544126987 1.0 0.999999940395 0.999999940395 1.0 1.00120067596 1.07039177418 1.11448931694 1.11446011066 1.0703163147 1.00000011921 1.00000011921 1.0 
1.00000011921 1.0 1.00125062466 1.07055842876 1.11466705799 1.1146376133 1.07048296928 1.0 1.0 1.0 1.0 1.0 1.06080687046 1.17091989517 1.23487448692 1.23483645916 1.17083001137 1.04552030563 1.0 1.0 1.00000011921 1.05040204525 1.12963676453 1.25763094425 1.33823895454 1.33820545673 1.25754749775 1.10914564133 1.05042457581 1.0 1.0 1.08718049526 1.17138159275 1.30106127262 1.38055872917 1.38052415848 1.30098378658 1.14873194695 1.08719360828 1.0 1.0 1.10632622242 1.19350969791 1.32210707664 1.39709115028 1.39705610275 1.32203471661 1.16919136047 1.10633265972 1.0 1.0 1.106315732 1.19350028038 1.32210063934 1.39708614349 1.39705097675 1.32202839851 1.16918158531 1.10632228851 1.0 1.00000011921 1.0871489048 1.17135381699 1.30104017258 1.38054084778 1.38050627708 1.30096280575 1.14870154858 1.08716201782 1.0 1.0 1.04247319698 1.11925911903 1.24417519569 1.32243871689 1.32240104675 1.24408078194 1.10018503666 1.04248952866 1.0 1.00000011921 0.999999940395 1.06072676182 1.17083203793 1.23478007317 1.23474228382 1.1707419157 1.04544126987 1.0 0.999999940395 0.999999940395 1.0 1.00120067596 1.07039177418 1.11448931694 1.11446011066 1.0703163147 1.00000011921 1.00000011921 1.0 
