13.9686431885 21.7264137268 29.3182201385 37.1682929993 45.6501235962 54.37159729 62.8523750305 70.7007217407 78.2928085327 86.051071167 13.9596004486 21.4955997467 28.5866832733 36.3347549438 45.3081512451 54.7152366638 63.6866912842 71.4311523438 78.5225372314 86.0600280762 13.9580230713 21.304895401 28.1269493103 35.820980072 45.0849342346 54.9395027161 64.2008743286 71.8903808594 78.7123947144 86.0615310669 13.9480695724 21.1715660095 27.8594036102 35.5452079773 44.9701194763 55.0548744202 64.4768676758 72.1577072144 78.8453521729 86.0713882446 13.9413356781 21.104385376 27.7309837341 35.4268379211 44.9243850708 55.1008300781 64.595375061 72.2860336304 78.9123535156 86.0780639648 13.9413433075 21.1044654846 27.7311286926 35.4269638062 44.9244308472 55.1007766724 64.5952453613 72.2858810425 78.9122619629 86.0780639648 13.9480924606 21.1718025208 27.8598632812 35.5456466675 44.9702911377 55.0547027588 64.4764328003 72.1572341919 78.845123291 86.0713653564 13.9580421448 21.3053150177 28.1278209686 35.8219146729 45.0853385925 54.9390983582 64.1999282837 71.8895111084 78.7119827271 86.0615234375 13.9595985413 21.4961185455 28.5882472992 36.3364944458 45.3088912964 54.7144927979 63.6849517822 71.4295959473 78.5220184326 86.0600280762 13.9687042236 21.7270412445 29.3201446533 37.1706771851 45.6510772705 54.3706359863 62.84998703 70.6987991333 78.292175293 86.0510101318 
13.9686098099 21.7267837524 29.3190479279 37.1688919067 45.6503143311 54.3714065552 62.8517684937 70.6998977661 78.2924346924 86.0511016846 13.9595527649 21.4963550568 28.5881137848 36.3352775574 45.3081321716 54.7152481079 63.6861724854 71.429725647 78.5217819214 86.0600662231 13.9579753876 21.3057994843 28.1283912659 35.8203659058 45.0839385986 54.9405021667 64.2014846802 71.8889541626 78.7114944458 86.0615997314 13.9479970932 21.1722793579 27.859916687 35.5409164429 44.9647331238 55.0602912903 64.4811401367 72.1571884155 78.8446426392 86.0714645386 13.9412336349 21.1047668457 27.7302093506 35.417640686 44.9150466919 55.1102104187 64.6045379639 72.286781311 78.9119567871 86.0781707764 13.9412412643 21.1048469543 27.7303524017 35.4177780151 44.9150924683 55.1101493835 64.6044006348 72.2866287231 78.9118804932 86.0781707764 13.9480209351 21.1725177765 27.8603782654 35.5413703918 44.9649200439 55.0601005554 64.4806976318 72.1567230225 78.8443984985 86.071434021 13.9579935074 21.3062114716 28.1292724609 35.8213272095 45.0843544006 54.9400901794 64.2005157471 71.8880844116 78.7110824585 86.0615692139 13.9595537186 21.4968719482 28.5896778107 36.337020874 45.3088798523 54.7144966125 63.6844329834 71.4281692505 78.5212631226 86.0600662231 13.9686717987 21.7274112701 29.32097435 37.1712837219 45.6512641907 54.3704490662 62.8493804932 70.6979675293 78.291809082 86.0510482788 
13.9686098099 21.7267837524 29.3190402985 37.1688919067 45.6503181458 54.3714065552 62.851776123 70.6999053955 78.2924346924 86.0511016846 13.9595527649 21.4963493347 28.5880966187 36.3352661133 45.308139801 54.7152481079 63.6861877441 71.4297409058 78.5217895508 86.0600662231 13.9579753876 21.3057880402 28.1283779144 35.820350647 45.0839385986 54.9405097961 64.201499939 71.888961792 78.7115020752 86.0615997314 13.9479980469 21.1722698212 27.8598899841 35.5408973694 44.9647216797 55.060295105 64.4811706543 72.1572036743 78.8446502686 86.0714645386 13.9412326813 21.1047554016 27.730178833 35.4176063538 44.9150238037 55.1102218628 64.6045761108 72.2868347168 78.9119644165 86.0781707764 13.9412412643 21.1048355103 27.7303314209 35.4177474976 44.9150772095 55.1101646423 64.6044464111 72.2866821289 78.9118881226 86.078163147 13.9480209351 21.1725063324 27.8603496552 35.5413475037 44.9649047852 55.0601119995 64.48072052 72.1567382812 78.8444137573 86.071434021 13.9579935074 21.3062038422 28.1292495728 35.8213005066 45.0843505859 54.9400978088 64.2005386353 71.8880996704 78.7110977173 86.0615692139 13.9595527649 21.4968681335 28.5896625519 36.3370132446 45.308883667 54.7145004272 63.6844444275 71.4281768799 78.5212860107 86.0600662231 13.9686717987 21.7274093628 29.3209686279 37.1712837219 45.6512641907 54.3704490662 62.8493804932 70.6979827881 78.291809082 86.0510482788 
13.9686098099 21.7267799377 29.3190402985 37.1688804626 45.6503143311 54.3714141846 62.8517799377 70.6999053955 78.292427063 86.0511016846 13.9595518112 21.4963474274 28.5880908966 36.3352546692 45.3081283569 54.7152442932 63.6861991882 71.4297561646 78.5218048096 86.0600662231 13.9579744339 21.3057842255 28.1283569336 35.8203392029 45.0839309692 54.9405174255 64.2015075684 71.8889846802 78.7115249634 86.0615997314 13.9479999542 21.1722621918 27.8598690033 35.5408706665 44.9647102356 55.0603027344 64.4811859131 72.1572265625 78.8446578979 86.0714645386 13.9412326813 21.1047420502 27.7301502228 35.4175758362 44.9150085449 55.1102371216 64.6046142578 72.2868499756 78.9119873047 86.0781707764 13.941242218 21.1048221588 27.7302970886 35.4177131653 44.9150657654 55.1101799011 64.6044692993 72.2866973877 78.9119110107 86.078163147 13.9480218887 21.172498703 27.860326767 35.5413208008 44.9648933411 55.0601158142 64.4807434082 72.1567687988 78.8444213867 86.071434021 13.9579916 21.3061981201 28.129234314 35.8212890625 45.0843467712 54.9401054382 64.2005462646 71.888130188 78.7111053467 86.0615768433 13.9595518112 21.4968662262 28.5896530151 36.3369979858 45.3088722229 54.7144927979 63.6844558716 71.4281921387 78.5212860107 86.0600662231 13.9686717987 21.7274074554 29.3209667206 37.1712760925 45.651260376 54.3704566956 62.8493843079 70.6979827881 78.2918014526 86.0510482788 
13.9686088562 21.726776123 29.3190326691 37.1688804626 45.6503105164 54.3714141846 62.8517837524 70.6999130249 78.2924346924 86.0511016846 13.9595527649 21.4963417053 28.5880775452 36.3352470398 45.3081283569 54.7152519226 63.6862030029 71.4297637939 78.5218048096 86.0600662231 13.9579763412 21.3057765961 28.1283378601 35.8203277588 45.0839271545 54.9405174255 64.2015304565 71.8890151978 78.7115249634 86.0615921021 13.9479990005 21.172246933 27.8598461151 35.540851593 44.9646987915 55.0603103638 64.4812088013 72.1572494507 78.8446655273 86.0714645386 13.9412307739 21.1047325134 27.7301216125 35.4175453186 44.9149932861 55.1102638245 64.6046447754 72.2868652344 78.9119949341 86.0781707764 13.9412403107 21.1048107147 27.7302684784 35.417678833 44.9150466919 55.110206604 64.6045074463 72.2867202759 78.9119186401 86.078163147 13.9480218887 21.1724853516 27.8603076935 35.5413017273 44.964881897 55.060131073 64.480758667 72.156791687 78.8444366455 86.071434021 13.9579916 21.3061923981 28.1292152405 35.8212776184 45.0843429565 54.9400978088 64.2005615234 71.888130188 78.7111206055 86.0615768433 13.9595527649 21.4968605042 28.589641571 36.3369865417 45.3088760376 54.7145042419 63.6844596863 71.4281997681 78.5212860107 86.0600662231 13.9686717987 21.7274055481 29.3209609985 37.1712722778 45.651260376 54.3704566956 62.8493881226 70.6979904175 78.291809082 86.0510482788 
13.9686107635 21.7267723083 29.3190250397 37.1688766479 45.6503067017 54.3714179993 62.8517875671 70.6999206543 78.2924346924 86.0511016846 13.9595527649 21.4963378906 28.5880661011 36.3352355957 45.3081245422 54.7152633667 63.686214447 71.4297714233 78.5218048096 86.0600662231 13.9579772949 21.3057689667 28.128326416 35.8203048706 45.0839233398 54.9405174255 64.2015380859 71.888999939 78.7115249634 86.0615921021 13.9479970932 21.1722373962 27.8598213196 35.5408287048 44.9646835327 55.0603218079 64.4812240601 72.1572875977 78.8446807861 86.0714645386 13.9412307739 21.1047172546 27.7300891876 35.4175033569 44.9149742126 55.1102790833 64.6046829224 72.2869110107 78.9120101929 86.0781707764 13.9412403107 21.1047973633 27.7302379608 35.4176483154 44.9150238037 55.1102256775 64.6045455933 72.2867584229 78.9119262695 86.078163147 13.9480209351 21.1724739075 27.8602828979 35.5412826538 44.9648704529 55.0601425171 64.4807891846 72.156829834 78.8444290161 86.071434021 13.9579935074 21.3061847687 28.129201889 35.8212585449 45.0843353271 54.9401054382 64.2005844116 71.8881454468 78.7111358643 86.0615768433 13.9595508575 21.4968566895 28.589630127 36.3369827271 45.3088722229 54.7145118713 63.6844749451 71.4282150269 78.5212783813 86.0600662231 13.9686727524 21.727399826 29.3209533691 37.1712646484 45.6512565613 54.370464325 62.849395752 70.6980056763 78.2918167114 86.0510482788 
13.9686088562 21.7267723083 29.319021225 37.1688728333 45.650302887 54.371421814 62.8517951965 70.6999282837 78.2924346924 86.0511016846 13.9595518112 21.4963321686 28.5880508423 36.3352279663 45.3081207275 54.715259552 63.6862335205 71.4297866821 78.5218048096 86.0600662231 13.9579753876 21.3057594299 28.1283073425 35.8202857971 45.0839157104 54.9405288696 64.2015533447 71.8890380859 78.7115478516 86.0615921021 13.9479961395 21.1722259521 27.8598003387 35.5408058167 44.9646720886 55.060344696 64.481262207 72.1572952271 78.8446884155 86.0714645386 13.9412298203 21.1047039032 27.7300643921 35.4174690247 44.9149589539 55.1102981567 64.6047134399 72.2869415283 78.9120330811 86.0781707764 13.941239357 21.1047840118 27.7302093506 35.4176063538 44.9150085449 55.1102409363 64.6045761108 72.2867889404 78.9119415283 86.078163147 13.9480199814 21.1724643707 27.8602581024 35.5412559509 44.9648590088 55.0601577759 64.4808197021 72.156829834 78.8444519043 86.071434021 13.9579916 21.3061733246 28.1291790009 35.8212471008 45.0843315125 54.9401130676 64.200592041 71.8881759644 78.7111434937 86.0615768433 13.9595518112 21.4968528748 28.5896167755 36.336971283 45.3088684082 54.7145080566 63.6844902039 71.4282226562 78.5212860107 86.0600662231 13.9686717987 21.727399826 29.3209495544 37.1712608337 45.6512527466 54.3704605103 62.8494033813 70.6980056763 78.2918167114 86.0510482788 
