14.0107460022 13.8210439682 13.0588312149 11.9170312881 11.287229538 11.2879581451 11.9192619324 13.0614814758 13.8220977783 14.010725975 22.0006408691 21.6799793243 20.705078125 19.3817310333 18.6480083466 18.6488876343 19.3843040466 20.7082557678 21.6814689636 22.0007419586 29.9883346558 29.6213359833 28.8177967072 27.8231487274 27.2359313965 27.2366657257 27.8251628876 28.8202514648 29.6227684021 29.9885463715 37.9897613525 37.7197608948 37.2168388367 36.6245422363 36.2649002075 36.2653541565 36.6257743835 37.2183265686 37.7207298279 37.989944458 46.0022087097 45.9055557251 45.7359313965 45.5403022766 45.4206771851 45.4208297729 45.5407066345 45.7364311218 45.9058952332 46.002281189 54.017829895 54.1149559021 54.2854232788 54.4820404053 54.6022644043 54.6021118164 54.4816360474 54.2849311829 54.1146202087 54.0177574158 62.0302658081 62.3006362915 62.8043746948 63.3976821899 63.7579154968 63.7574653625 63.3964385986 62.8028869629 62.2996635437 62.0300750732 70.0316467285 70.3987350464 71.2029266357 72.1985549927 72.7863006592 72.7855529785 72.1965332031 71.2004623413 70.3973007202 70.0314331055 78.0193252563 78.3396835327 79.3145675659 80.6383209229 81.3721237183 81.3712463379 80.6357421875 79.3113937378 78.3381958008 78.0192260742 86.0092468262 86.1986083984 86.9596710205 88.0995635986 88.7284927368 88.7277679443 88.0973205566 86.9570236206 86.1975631714 86.0092544556 
14.0051298141 13.7923240662 13.0208587646 11.8434123993 11.1616191864 11.1624364853 11.8457870483 13.0235500336 13.7934083939 14.0051546097 21.9942588806 21.632566452 20.5981502533 19.144493103 18.2686157227 18.2696933746 19.1474914551 20.6015472412 21.6341648102 21.9944152832 29.9813365936 29.5631465912 28.6720581055 27.5122756958 26.8066577911 26.8075447083 27.5146827698 28.674829483 29.5647335052 29.9816093445 37.9836540222 37.6684646606 37.0894203186 36.3884048462 35.9620018005 35.9625434875 36.3898544312 37.0911483765 37.6695632935 37.9838905334 45.9997253418 45.8841896057 45.6849975586 45.4545974731 45.3139419556 45.3141212463 45.4550743103 45.6855697632 45.8845787048 45.9998207092 54.0203208923 54.136428833 54.3366127014 54.5681686401 54.7095298767 54.7093505859 54.5676841736 54.3360290527 54.1360321045 54.0202255249 62.0363769531 62.3519897461 62.9319343567 63.6341362 64.0612564087 64.0607223511 63.6326904297 62.9302062988 62.3508796692 62.0361328125 70.0386505127 70.4569168091 71.3486175537 72.5094299316 73.2157058716 73.2148132324 72.507019043 71.3458480835 70.4553375244 70.0383758545 78.0257034302 78.387046814 79.4213409424 80.8751449585 81.7510070801 81.7499237061 80.8721618652 79.417930603 78.3854522705 78.0255432129 86.0148544312 86.2272796631 86.997505188 88.1728439331 88.8535461426 88.852722168 88.170463562 86.9948120117 86.2262039185 86.014831543 
14.0041561127 13.7876701355 13.0155754089 11.8336925507 11.1459226608 11.1467475891 11.8360843658 13.0182714462 13.7887582779 14.0041904449 21.9931907654 21.6248283386 20.5805969238 19.1066875458 18.2056026459 18.2067260742 19.1097564697 20.5840263367 21.6264476776 21.9933509827 29.9803142548 29.5535488129 28.6454582214 27.4487857819 26.6967544556 26.6977100372 27.4513282776 28.6482887268 29.5551643372 29.9805927277 37.9828796387 37.6602706909 37.0641975403 36.3258018494 35.8680953979 35.868686676 36.3273506165 37.0659866333 37.6614074707 37.9831237793 45.9994430542 45.8810272217 45.6751594543 45.4294624329 45.2784729004 45.2786750793 45.4299736023 45.6757659912 45.8814277649 45.9995422363 54.0205993652 54.1396026611 54.3464927673 54.5934295654 54.7451667786 54.7449684143 54.5929145813 54.3458862305 54.1391944885 54.0205078125 62.0371398926 62.3601837158 62.9571838379 63.6968040466 64.1552810669 64.1546936035 63.6952476501 62.9553909302 62.3590545654 62.0368919373 70.0396728516 70.466506958 71.3752288818 72.572883606 73.3255691528 73.3246002197 72.5703353882 71.3723754883 70.464881897 70.039390564 78.0267868042 78.39478302 79.4388504028 80.9128952026 81.8138809204 81.8127670288 80.9098205566 79.4354171753 78.3931655884 78.0266189575 86.0158233643 86.231918335 87.002746582 88.1825027466 88.869140625 88.8683166504 88.1801071167 87.0000610352 86.2308425903 86.0158004761 
14.0039825439 13.7868413925 13.0146560669 11.8320999146 11.143450737 11.14427948 11.8344936371 13.0173530579 13.7879304886 14.0040159225 21.9929962158 21.6234416962 20.5774707794 19.1001987457 18.1954441071 18.1965732574 19.1032791138 20.580904007 21.6250648499 21.9931602478 29.9801273346 29.551776886 28.6405334473 27.4373207092 26.6758270264 26.6768035889 27.4398822784 28.6433773041 29.5533981323 29.9804058075 37.9827308655 37.6586685181 37.0591621399 36.3124580383 35.8459091187 35.8465080261 36.3140335083 37.0609779358 37.6597938538 37.9829788208 45.9993782043 45.8803596497 45.6729278564 45.4234466553 45.2693481445 45.2695426941 45.4239654541 45.6735458374 45.8807678223 45.9994735718 54.0206680298 54.1402664185 54.3487243652 54.5994682312 54.7543525696 54.7541427612 54.5989456177 54.3481216431 54.1398582458 54.0205726624 62.0373001099 62.3617973328 62.962223053 63.7101631165 64.1774902344 64.1768951416 63.7085762024 62.9604110718 62.3606643677 62.0370521545 70.0398635864 70.4682769775 71.3801345825 72.5843505859 73.3464660645 73.3454971313 72.58177948 71.3772964478 70.4666671753 70.0395812988 78.0269699097 78.3961715698 79.4419784546 80.9193725586 81.8240203857 81.8228988647 80.9162826538 79.4385375977 78.3945541382 78.0268096924 86.0160064697 86.232749939 87.0036621094 88.1840744019 88.8716125488 88.8707809448 88.1816940308 87.0009765625 86.2316741943 86.0159759521 
14.0039453506 13.7866573334 13.0144424438 11.8317432404 11.1429204941 11.1437473297 11.8341398239 13.0171394348 13.7877445221 14.0039815903 21.9929542542 21.6231250763 20.5767707825 19.0987854004 18.1932983398 18.1944274902 19.1018676758 20.5802059174 21.6247463226 21.9931240082 29.9800853729 29.5513763428 28.6394119263 27.4347705841 26.6714286804 26.6724052429 27.4373378754 28.6422557831 29.5529918671 29.9803695679 37.9826927185 37.6582870483 37.0579719543 36.309261322 35.8402633667 35.8408699036 36.3108482361 37.0597839355 37.6594276428 37.9829406738 45.999370575 45.8802032471 45.6723823547 45.4218292236 45.2668380737 45.2670440674 45.4223556519 45.6730079651 45.8806114197 45.999458313 54.0206756592 54.140422821 54.3492851257 54.6010971069 54.7568664551 54.7566566467 54.600566864 54.3486785889 54.1400184631 54.0205802917 62.0373344421 62.3621749878 62.9634094238 63.7133483887 64.1831436157 64.1825332642 63.7117614746 62.9615974426 62.3610343933 62.0370903015 70.0399017334 70.4686813354 71.3812637329 72.5868835449 73.3508529663 73.3498764038 72.584312439 71.3783874512 70.4670639038 70.0396194458 78.0270080566 78.3964767456 79.4426803589 80.9207839966 81.8261566162 81.8250350952 80.9176864624 79.4392471313 78.3948669434 78.0268554688 86.0160446167 86.2329330444 87.0038909912 88.1844406128 88.8721466064 88.8713150024 88.1820449829 87.0011901855 86.2318496704 86.0160140991 
14.0039348602 13.7866048813 13.014380455 11.8316383362 11.1427659988 11.1435918808 11.8340320587 13.0170764923 13.7876930237 14.0039710999 21.9929428101 21.623041153 20.5765724182 19.0983905792 18.1927204132 18.1938514709 19.1014785767 20.5800056458 21.6246623993 21.993106842 29.9800739288 29.5512599945 28.639093399 27.4340724945 26.6702747345 26.6712589264 27.4366397858 28.6419506073 29.5528793335 29.9803524017 37.9826850891 37.6581840515 37.0576400757 36.3083610535 35.8386077881 35.8392181396 36.3099441528 37.0594406128 37.6593208313 37.9829330444 45.9993667603 45.8801574707 45.6722183228 45.421333313 45.2660636902 45.2662658691 45.4218597412 45.6728363037 45.880569458 45.9994659424 54.0206832886 54.1404762268 54.349445343 54.6015930176 54.7576446533 54.7574386597 54.6010665894 54.3488426208 54.1400604248 54.0205841064 62.0373458862 62.3622817993 62.963760376 63.7142562866 64.1847915649 64.1841888428 63.7126655579 62.9619483948 62.3611412048 62.0370941162 70.0399169922 70.468788147 71.3815612793 72.5876083374 73.3520126343 73.3510131836 72.5850143433 71.3787078857 70.4671707153 70.0396270752 78.0270233154 78.3965759277 79.4428710938 80.9211807251 81.8267440796 81.8256072998 80.9180908203 79.439453125 78.3949584961 78.0268630981 86.0160446167 86.2329864502 87.0039520264 88.1845474243 88.8722839355 88.8714675903 88.1821517944 87.0012512207 86.2319030762 86.0160140991 
14.0039319992 13.7865877151 13.0143556595 11.8315906525 11.1427021027 11.1435289383 11.8339853287 13.0170497894 13.7876768112 14.0039672852 21.9929389954 21.623008728 20.5765018463 19.0982551575 18.1925258636 18.1936531067 19.1013374329 20.5799369812 21.6246318817 21.9931049347 29.9800682068 29.5512256622 28.6389904022 27.4338359833 26.6699028015 26.6708869934 27.4364089966 28.641834259 29.5528430939 29.980348587 37.9826774597 37.6581420898 37.0575141907 36.3080482483 35.8380432129 35.8386497498 36.3096313477 37.0593223572 37.6592826843 37.982925415 45.9993591309 45.8801460266 45.6721687317 45.4211540222 45.2657852173 45.2659873962 45.4216804504 45.6727790833 45.8805503845 45.999458313 54.0206832886 54.1404953003 54.3495063782 54.6017723083 54.7579231262 54.7577133179 54.6012458801 54.3488960266 54.1400871277 54.0205841064 62.0373458862 62.3623275757 62.9638748169 63.7145652771 64.1853561401 64.184753418 63.7129821777 62.9620475769 62.3611755371 62.0370979309 70.0399093628 70.4688262939 71.381690979 72.5878219604 73.3523788452 73.3513870239 72.5852432251 71.3788223267 70.4672088623 70.0396347046 78.027015686 78.3965911865 79.4429397583 80.9213104248 81.8269348145 81.8258132935 80.9182281494 79.4395065308 78.3949737549 78.0268630981 86.0160522461 86.233001709 87.0039825439 88.1845932007 88.8723449707 88.8715286255 88.1821899414 87.0012817383 86.2319107056 86.0160140991 
