14.0078611374 13.8109779358 13.0904521942 11.9650802612 11.2393789291 11.2402486801 11.9676208496 13.0928983688 13.8120155334 14.0078697205 21.9968338013 21.6479148865 20.665971756 19.1856555939 18.2549514771 18.256067276 19.188949585 20.6692008972 21.6494750977 21.996969223 29.9846019745 29.5895652771 28.7404346466 27.5839729309 26.8390350342 26.8399734497 27.5865478516 28.7430896759 29.5910663605 29.9848423004 37.9877891541 37.6958999634 37.1496696472 36.4527626038 35.9994239807 36.0000076294 36.4543190002 37.1513061523 37.6969413757 37.9879951477 46.0015563965 45.8957977295 45.71043396 45.4792137146 45.3289794922 45.3291740417 45.4797286987 45.7109870911 45.8961677551 46.0016326904 54.0184822083 54.1247558594 54.3110427856 54.5434303284 54.6944198608 54.6942214966 54.5429077148 54.3105049133 54.1243858337 54.0184020996 62.0322303772 62.3245239258 62.8716278076 63.5697059631 64.0237960815 64.0232162476 63.568145752 62.8699951172 62.3234863281 62.0320243835 70.0353775024 70.430519104 71.2802581787 72.4378051758 73.1834030151 73.1824569702 72.4352264404 71.2776107788 70.4290161133 70.0351333618 78.0231246948 78.371673584 79.3535079956 80.8340072632 81.7647781372 81.7636642456 80.8307189941 79.3502731323 78.3701171875 78.0229873657 86.0121231079 86.2086334229 86.9279708862 88.0510177612 88.7754211426 88.7745437622 88.0484848022 86.9255371094 86.2076034546 86.0121154785 
14.0022087097 13.7787275314 13.0340709686 11.8591823578 11.0983552933 11.0992660522 11.8618345261 13.0366172791 13.7798109055 14.0022602081 21.9904060364 21.5984210968 20.5502853394 18.9506225586 17.8861942291 17.8875160217 18.954284668 20.5537414551 21.6001014709 21.9905929565 29.9781303406 29.5326328278 28.5992965698 27.2815990448 26.3848934174 26.3860378265 27.2846469879 28.6022357941 29.5342845917 29.9784259796 37.9823150635 37.64868927 37.0304603577 36.2157592773 35.673324585 35.6740264893 36.2176094055 37.0323295593 37.649848938 37.9825630188 45.9993515015 45.8772087097 45.6631774902 45.3919906616 45.2138824463 45.2141075134 45.3926048279 45.6638183594 45.877620697 45.9994430542 54.0206947327 54.1434326172 54.3585319519 54.6310768127 54.810092926 54.8098640442 54.6304702759 54.3578987122 54.1430168152 54.0205917358 62.0377197266 62.3717956543 62.9909858704 63.8070297241 64.3503799438 64.3496704102 63.8051757812 62.9890937805 62.3706245422 62.0374679565 70.0418701172 70.487449646 71.4213790894 72.7401580811 73.6376419067 73.6364822388 72.7371063232 71.4184417725 70.4858016968 70.0415725708 78.0295562744 78.4211273193 79.4690628052 81.0687484741 82.1329650879 82.1316375732 81.0650787354 79.4655914307 78.4194717407 78.0293579102 86.0177764893 86.2408447266 86.9841995239 88.1565628052 88.9159545898 88.9150466919 88.1539230347 86.9816436768 86.2397537231 86.0177078247 
14.001914978 13.7770423889 13.0312175751 11.8541135788 11.0921792984 11.0930919647 11.8567714691 13.0337677002 13.7781295776 14.0019693375 21.9900588989 21.5957603455 20.5441703796 18.9390296936 17.869720459 17.871049881 18.9427070618 20.5476436615 21.5974464417 21.9902515411 29.9777774811 29.5294876099 28.5913715363 27.2647018433 26.3537902832 26.354970932 27.2677783966 28.5943260193 29.5311489105 29.9780769348 37.9820251465 37.6460418701 37.0234031677 36.1985740662 35.6390304565 35.6397705078 36.200466156 37.0252838135 37.6472167969 37.9822769165 45.9992370605 45.8761634827 45.6602745056 45.3844833374 45.1998405457 45.2000846863 45.3851127625 45.6609153748 45.8765830994 45.999332428 54.020816803 54.1444854736 54.3614578247 54.6386222839 54.8241958618 54.8239517212 54.6379966736 54.3608131409 54.1440658569 54.0207138062 62.0379981995 62.3744430542 62.9980316162 63.8242301941 64.3846969604 64.3839645386 63.8223266602 62.9961509705 62.3732719421 62.0377349854 70.0422134399 70.4905929565 71.4293136597 72.7570495605 73.6687088013 73.6675186157 72.7539749146 71.4263305664 70.4889373779 70.0419158936 78.0299072266 78.4238052368 79.4751739502 81.0803222656 82.1494293213 82.1480865479 81.0766372681 79.4716873169 78.4221191406 78.0297164917 86.0180664062 86.2425231934 86.9870529175 88.1616210938 88.9221191406 88.9211959839 88.1589736938 86.9844894409 86.2414398193 86.0180130005 
14.0019140244 13.7770280838 13.0311899185 11.8540639877 11.0921173096 11.0930290222 11.8567199707 13.033741951 13.7781133652 14.0019674301 21.9900569916 21.595741272 20.5441207886 18.9389305115 17.8695850372 17.8709163666 18.9426078796 20.547586441 21.5974254608 21.9902458191 29.977766037 29.5294647217 28.5913066864 27.2645549774 26.3535633087 26.3547458649 27.2676372528 28.5942611694 29.5311222076 29.9780673981 37.9820327759 37.6460189819 37.0233421326 36.1984176636 35.6386833191 35.6394195557 36.2003059387 37.025226593 37.6471939087 37.9822807312 45.9992408752 45.8761558533 45.6602478027 45.3844108582 45.1996612549 45.1998977661 45.3850326538 45.6608848572 45.87657547 45.999332428 54.0208129883 54.1445007324 54.3614845276 54.6387023926 54.8243751526 54.8241386414 54.6380691528 54.3608398438 54.144077301 54.0207138062 62.0379981995 62.374458313 62.9981079102 63.8243865967 64.3850479126 64.3843078613 63.8224868774 62.9962081909 62.3732795715 62.0377388 70.0422134399 70.4906311035 71.4293823242 72.757194519 73.6689300537 73.667755127 72.7541122437 71.4264068604 70.4889678955 70.0419235229 78.0299072266 78.4238052368 79.475227356 81.0804214478 82.1495513916 82.148223877 81.0767440796 79.4717483521 78.42212677 78.0297164917 86.0180740356 86.2425384521 86.9870681763 88.1616821289 88.9221572876 88.921257019 88.1590194702 86.9845123291 86.2414550781 86.0180206299 
14.0019140244 13.7770271301 13.0311803818 11.8540496826 11.092092514 11.0930051804 11.8567056656 13.0337343216 13.7781124115 14.0019674301 21.9900569916 21.5957374573 20.5441093445 18.9389038086 17.8695545197 17.8708839417 18.9425849915 20.5475769043 21.5974235535 21.9902458191 29.977766037 29.5294570923 28.5912952423 27.2645339966 26.3535270691 26.3547077179 27.2676105499 28.59425354 29.5311164856 29.9780673981 37.9820327759 37.6460189819 37.0233383179 36.1983947754 35.6386566162 35.6393852234 36.2002906799 37.0252151489 37.6471939087 37.9822807312 45.9992408752 45.8761558533 45.660243988 45.3844032288 45.1996421814 45.1998901367 45.3850250244 45.6608848572 45.87657547 45.999332428 54.0208129883 54.1445007324 54.3614807129 54.6387062073 54.8243904114 54.8241577148 54.6380805969 54.3608398438 54.144077301 54.0207138062 62.0379981995 62.3744659424 62.9981079102 63.8243942261 64.3850784302 64.3843460083 63.8224983215 62.9962158203 62.3732833862 62.0377388 70.0422134399 70.4906311035 71.4293899536 72.7572174072 73.6689605713 73.6677780151 72.7541275024 71.4264297485 70.4889678955 70.0419235229 78.0299072266 78.4238128662 79.4752349854 81.0804519653 82.1495819092 82.1482467651 81.0767669678 79.4717636108 78.4221343994 78.0297164917 86.0180740356 86.2425384521 86.9870758057 88.1616821289 88.9221878052 88.9212799072 88.1590194702 86.9845199585 86.2414550781 86.0180206299 
14.0019130707 13.7770252228 13.0311746597 11.8540325165 11.0920686722 11.0929813385 11.8566875458 13.0337257385 13.7781105042 14.0019683838 21.9900569916 21.5957355499 20.5441017151 18.9388809204 17.8695259094 17.8708553314 18.9425640106 20.5475654602 21.5974197388 21.9902458191 29.977766037 29.5294570923 28.5912837982 27.2645130157 26.3534927368 26.3546733856 27.2675952911 28.5942382812 29.5311164856 29.9780673981 37.9820327759 37.6460151672 37.0233230591 36.1983757019 35.6386222839 35.6393547058 36.2002716064 37.0252037048 37.647190094 37.9822807312 45.9992408752 45.8761520386 45.660243988 45.38438797 45.1996307373 45.1998748779 45.3850212097 45.6608772278 45.87657547 45.999332428 54.0208129883 54.1445007324 54.3614845276 54.6387252808 54.8244056702 54.8241691589 54.638092041 54.3608398438 54.1440734863 54.0207138062 62.0379981995 62.3744659424 62.9981155396 63.824420929 64.3851165771 64.3843841553 63.8225288391 62.996219635 62.3732872009 62.0377388 70.0422134399 70.4906234741 71.4293899536 72.7572402954 73.6690063477 73.6678161621 72.75415802 71.4264221191 70.4889678955 70.0419235229 78.0299072266 78.4238128662 79.4752578735 81.0804748535 82.1496200562 82.1482772827 81.076789856 79.4717788696 78.42212677 78.0297164917 86.0180740356 86.2425384521 86.9870834351 88.1616897583 88.922203064 88.9213027954 88.1590423584 86.9845275879 86.2414550781 86.0180206299 
14.0019130707 13.7770252228 13.0311670303 11.854013443 11.0920448303 11.0929584503 11.8566703796 13.0337190628 13.7781114578 14.0019683838 21.9900569916 21.5957298279 20.5440883636 18.9388618469 17.8694915771 17.8708209991 18.9425411224 20.5475559235 21.5974178314 21.9902458191 29.977766037 29.5294494629 28.5912704468 27.2644844055 26.3534545898 26.3546352386 27.2675628662 28.5942192078 29.5311088562 29.9780673981 37.9820327759 37.6460113525 37.023311615 36.1983451843 35.6385879517 35.6393127441 36.2002487183 37.0251960754 37.6471862793 37.9822807312 45.9992408752 45.8761520386 45.6602363586 45.3843841553 45.1996192932 45.1998519897 45.3850097656 45.6608734131 45.8765716553 45.999332428 54.0208129883 54.1445007324 54.361492157 54.6387252808 54.824420929 54.8241767883 54.6380996704 54.3608398438 54.1440811157 54.0207138062 62.0379981995 62.3744735718 62.9981269836 63.8244476318 64.3851470947 64.3844146729 63.822555542 62.9962310791 62.3732948303 62.0377388 70.0422134399 70.4906387329 71.4294204712 72.757270813 73.6690368652 73.6678543091 72.754196167 71.4264526367 70.4889755249 70.0419235229 78.0299072266 78.4238128662 79.4752655029 81.0804901123 82.1496505737 82.1483154297 81.0768051147 79.4717788696 78.42212677 78.0297164917 86.0180740356 86.2425384521 86.9870834351 88.1617126465 88.9222412109 88.9213256836 88.1590576172 86.9845428467 86.2414627075 86.0180206299 
