0.985692024231 1.01761376858 1.04680299759 1.12155604362 1.18766236305 1.18763279915 1.1214826107 1.0436719656 1.01760852337 0.985807001591 0.980898499489 1.05304455757 1.1324660778 1.30323755741 1.38460659981 1.38455796242 1.30314576626 1.1124714613 1.05304789543 0.981026411057 0.979511320591 1.13745605946 1.24088490009 1.4023424387 1.46509373188 1.4650285244 1.40220618248 1.21538758278 1.13747036457 0.979619801044 0.978489935398 1.19255828857 1.29941511154 1.43642580509 1.4879001379 1.48783111572 1.43628787994 1.27336263657 1.19255053997 0.978570997715 0.977862477303 1.22087037563 1.32458245754 1.45022857189 1.49516570568 1.49509716034 1.45009481907 1.30186462402 1.2208533287 0.977931976318 0.977863430977 1.22085809708 1.32457196712 1.45021915436 1.4951595068 1.49509096146 1.45008552074 1.30185317993 1.22084116936 0.977933049202 0.97849291563 1.19252169132 1.29938232899 1.43639218807 1.48787605762 1.48780703545 1.43625438213 1.27332854271 1.19251430035 0.978573918343 0.979370951653 1.12262558937 1.22365641594 1.39351069927 1.46054136753 1.46047568321 1.39337098598 1.19869542122 1.12264120579 0.979481399059 0.980903148651 1.05296385288 1.13236892223 1.30314612389 1.38446998596 1.3844217062 1.30305457115 1.11238265038 1.05296719074 0.981031060219 0.985709547997 1.01754939556 1.04671108723 1.12140095234 1.18750166893 1.18747222424 1.12132751942 1.04358386993 1.01754426956 0.985824465752 
0.984845936298 1.00867378712 1.03541588783 1.10944592953 1.17433845997 1.17431306839 1.10937654972 1.03193926811 1.00867402554 0.984954535961 0.979809165001 1.04200410843 1.12123119831 1.2902289629 1.37731516361 1.3772854805 1.29015660286 1.10085022449 1.04200816154 0.979931950569 0.97806674242 1.12530815601 1.22887575626 1.41687047482 1.52172076702 1.521682024 1.41678333282 1.20359015465 1.12531673908 0.9781717062 0.976704061031 1.18010902405 1.28860414028 1.4744695425 1.56513631344 1.56508982182 1.47438514233 1.26217544079 1.18009090424 0.976781487465 0.975921273232 1.20848929882 1.31839466095 1.49793374538 1.57957231998 1.57952356339 1.49784803391 1.2918176651 1.20845806599 0.975984215736 0.975922524929 1.20847761631 1.31838464737 1.49792659283 1.57956659794 1.57951796055 1.49784076214 1.29180788994 1.20844638348 0.975985407829 0.976707398891 1.18007361889 1.28857266903 1.47444570065 1.56511616707 1.56506943703 1.47436118126 1.26214420795 1.18005561829 0.976785063744 0.9779535532 1.11042702198 1.21131086349 1.3961930275 1.50198400021 1.50194382668 1.39610588551 1.18646800518 1.11043727398 0.978060662746 0.979814291 1.04192745686 1.12113678455 1.29014420509 1.37720716 1.37717711926 1.29007184505 1.10076379776 1.04193162918 0.979937076569 0.984863758087 1.00861620903 1.03532671928 1.1092864275 1.17417109013 1.17414557934 1.1092171669 1.03185451031 1.00861644745 0.984972298145 
0.984799921513 1.00810837746 1.03469288349 1.10867571831 1.17349696159 1.17347168922 1.10860657692 1.03119194508 1.0081089735 0.984908163548 0.9797514081 1.04130077362 1.12052464485 1.28941726685 1.37640929222 1.37637996674 1.28934550285 1.10011160374 1.04130470753 0.979873776436 0.977989494801 1.12452924252 1.22812843323 1.41606330872 1.52429890633 1.52426326275 1.41597723961 1.20283615589 1.12453734875 0.978094398975 0.976603388786 1.1793115139 1.2878626585 1.47460603714 1.57371246815 1.5736720562 1.47452402115 1.26146829128 1.17929267883 0.976680755615 0.975802004337 1.20769786835 1.31769824028 1.50000941753 1.59101295471 1.59097123146 1.49992978573 1.29119229317 1.20766568184 0.975864648819 0.975803077221 1.20768618584 1.31768798828 1.50000226498 1.59100759029 1.59096562862 1.49992251396 1.29118227959 1.20765411854 0.975865960121 0.976606845856 1.17927610874 1.28783118725 1.47458195686 1.57369232178 1.57365179062 1.47449970245 1.26143741608 1.17925751209 0.976684212685 0.977877616882 1.10964298248 1.21053397655 1.39533221722 1.50187814236 1.50184249878 1.39524579048 1.18568444252 1.10965299606 0.977984547615 0.979756593704 1.04122447968 1.1204303503 1.28933238983 1.37630069256 1.37627136707 1.28926086426 1.10002529621 1.04122853279 0.979878842831 0.984817683697 1.00805103779 1.03460395336 1.10851585865 1.17332935333 1.17330396175 1.10844695568 1.03110742569 1.00805187225 0.984925925732 
0.984797358513 1.00807642937 1.03465223312 1.10863244534 1.17345011234 1.17342472076 1.10856342316 1.0311498642 1.00807714462 0.984905540943 0.979748010635 1.04126131535 1.12048518658 1.28937196732 1.37635874748 1.376329422 1.28930020332 1.1000701189 1.04126548767 0.979870319366 0.977985143661 1.12448561192 1.22808694839 1.41601788998 1.52428424358 1.52424860001 1.41593194008 1.20279407501 1.12449359894 0.978089869022 0.976597487926 1.17926704884 1.28782236576 1.47457361221 1.5742970705 1.57425713539 1.47449159622 1.26142942905 1.17924833298 0.976674854755 0.975794970989 1.20765411854 1.31766045094 1.50005447865 1.59194779396 1.59190678596 1.49997508526 1.29115891457 1.20762193203 0.97585773468 0.975796163082 1.20764255524 1.31765043736 1.50004708767 1.59194254875 1.59190118313 1.49996781349 1.2911490202 1.20761036873 0.975858986378 0.976600944996 1.17923176289 1.28779125214 1.47454953194 1.57427692413 1.57423710823 1.47446751595 1.26139855385 1.17921328545 0.976678133011 0.977873384953 1.10959935188 1.210490942 1.39528429508 1.50182986259 1.50179409981 1.39519810677 1.18564045429 1.10960924625 0.977980196476 0.97975307703 1.0411850214 1.12039101124 1.2892870903 1.37625002861 1.37622070312 1.28921532631 1.09998369217 1.04118907452 0.979875445366 0.984815061092 1.00801920891 1.03456330299 1.1084728241 1.17328238487 1.1732571125 1.10840380192 1.03106546402 1.00801992416 0.984923183918 
0.984797000885 1.00807368755 1.03464913368 1.10862934589 1.17344689369 1.17342150211 1.10856032372 1.03114664555 1.00807440281 0.98490524292 0.979747533798 1.04125833511 1.12048256397 1.28936910629 1.37635588646 1.37632656097 1.28929746151 1.10006713867 1.04126238823 0.979869961739 0.97798460722 1.12448263168 1.22808456421 1.41601574421 1.5242806673 1.52424514294 1.41592955589 1.20279145241 1.12449073792 0.978089213371 0.976596832275 1.17926442623 1.2878203392 1.47457325459 1.57436549664 1.57432544231 1.47449100018 1.2614274025 1.17924559116 0.976674079895 0.97579407692 1.20765185356 1.31765878201 1.50005745888 1.59206807613 1.59202694893 1.4999781847 1.29115784168 1.20761966705 0.975856900215 0.975795269012 1.20764005184 1.31764876842 1.5000500679 1.59206271172 1.59202134609 1.49997115135 1.29114794731 1.20760798454 0.975858151913 0.97660022974 1.17922925949 1.28778934479 1.4745490551 1.57434535027 1.57430541515 1.47446703911 1.2613966465 1.17921030521 0.976677656174 0.977872729301 1.10959613323 1.2104883194 1.39528179169 1.50182771683 1.50179231167 1.39519536495 1.18563747406 1.10960626602 0.977979421616 0.979752659798 1.04118204117 1.12038838863 1.28928434849 1.37624716759 1.37621772289 1.2892127037 1.09998083115 1.04118609428 0.979875087738 0.984814763069 1.0080165863 1.03456020355 1.10846960545 1.17327916622 1.17325389385 1.10840058327 1.03106236458 1.00801730156 0.984922945499 
0.984797000885 1.00807356834 1.03464913368 1.10862994194 1.17344772816 1.17342233658 1.10856091976 1.03114652634 1.0080742836 0.98490524292 0.979747533798 1.04125857353 1.12048304081 1.28937005997 1.37635707855 1.37632787228 1.28929829597 1.10006773472 1.04126274586 0.979869782925 0.97798448801 1.12448334694 1.22808551788 1.41601741314 1.52428221703 1.52424681187 1.41593146324 1.20279252529 1.12449133396 0.978089153767 0.976596474648 1.17926537991 1.28782212734 1.47457575798 1.57438278198 1.57434296608 1.47449362278 1.26142907143 1.17924666405 0.976673722267 0.975793838501 1.20765304565 1.31766045094 1.5000628233 1.59209668636 1.59205567837 1.49998354912 1.29115951061 1.20762085915 0.975856542587 0.975795149803 1.20764136314 1.31765043736 1.50005543232 1.59209120274 1.59205007553 1.49997615814 1.29114961624 1.20760905743 0.975857853889 0.976599812508 1.17923009396 1.2877907753 1.47455155849 1.57436275482 1.57432305813 1.4744695425 1.26139831543 1.1792113781 0.976677298546 0.977872729301 1.10959672928 1.21048903465 1.3952832222 1.50182974339 1.50179386139 1.39519691467 1.18563842773 1.10960686207 0.977979421616 0.979752659798 1.04118227959 1.12038886547 1.28928542137 1.37624847889 1.37621927261 1.28921353817 1.09998118877 1.0411863327 0.979875028133 0.984814822674 1.00801646709 1.03456020355 1.10847020149 1.17328000069 1.1732544899 1.10840129852 1.03106212616 1.00801718235 0.984922945499 
0.984796822071 1.00807392597 1.03464961052 1.10863077641 1.17344880104 1.17342340946 1.10856175423 1.03114688396 1.00807452202 0.984905004501 0.979747414589 1.04125916958 1.12048375607 1.28937149048 1.37635910511 1.37632954121 1.28929972649 1.10006868839 1.0412633419 0.97986972332 0.977984249592 1.12448441982 1.22808682919 1.41601955891 1.524284482 1.52424895763 1.41593337059 1.20279383659 1.12449240685 0.978088974953 0.976596415043 1.17926669121 1.28782367706 1.47457838058 1.57439339161 1.5743534565 1.47449636459 1.26143062115 1.17924809456 0.976673722267 0.975793600082 1.20765435696 1.3176625967 1.50007045269 1.59211063385 1.59206950665 1.49999117851 1.29116165638 1.20762228966 0.975856304169 0.975794792175 1.20764279366 1.31765270233 1.50006318092 1.59210503101 1.59206402302 1.49998390675 1.2911516428 1.20761072636 0.975857675076 0.976599812508 1.17923152447 1.28779244423 1.47455430031 1.57437324524 1.57433319092 1.47447240353 1.26139986515 1.17921280861 0.976677238941 0.977872490883 1.10959792137 1.21049046516 1.39528524876 1.50183165073 1.50179612637 1.39519882202 1.18563973904 1.10960769653 0.977979183197 0.979752540588 1.04118299484 1.12038969994 1.28928661346 1.37625038624 1.37622106075 1.28921484947 1.09998226166 1.04118704796 0.979874849319 0.984814524651 1.00801682472 1.03456068039 1.10847103596 1.17328095436 1.17325568199 1.10840201378 1.031062603 1.00801753998 0.98492282629 
