14.0054969788 13.7965679169 13.0461378098 11.8585710526 11.1317424774 11.13260746 11.861117363 13.0487327576 13.7976369858 14.0055179596 21.9940757751 21.6307258606 20.5902080536 19.0667228699 18.1121330261 18.1133022308 19.070016861 20.5936355591 21.6323299408 21.9942340851 29.9804878235 29.5523300171 28.6480712891 27.4315261841 26.6626396179 26.663608551 27.4341621399 28.6508960724 29.553943634 29.980764389 37.9830169678 37.6601676941 37.070854187 36.3347549438 35.8707733154 35.8713645935 36.3363380432 37.0726203918 37.6612930298 37.9832687378 45.9995384216 45.881401062 45.6790504456 45.435874939 45.2831344604 45.2833251953 45.4363975525 45.6796455383 45.8818054199 45.9996376038 54.0205001831 54.1392326355 54.3425788879 54.5869865417 54.7404899597 54.7402954102 54.5864562988 54.3419952393 54.1388282776 54.0204048157 62.0370025635 62.3602905273 62.9505233765 63.6878662109 64.152633667 64.1520385742 63.6862792969 62.948764801 62.359161377 62.0367584229 70.0395050049 70.4677276611 71.3726043701 72.5902404785 73.3598175049 73.3588485718 72.587600708 71.3697891235 70.4661102295 70.0392150879 78.0258865356 78.3888626099 79.4291763306 80.9528198242 81.9073562622 81.9061965942 80.9495239258 79.4257507324 78.3872680664 78.0257263184 86.0144805908 86.2230300903 86.9722290039 88.1574020386 88.883026123 88.8821563721 88.1548614502 86.9696426392 86.2219696045 86.014465332 
14.0037956238 13.787815094 13.0337190628 11.8358802795 11.1003112793 11.101187706 11.8384504318 13.0363330841 13.7888917923 14.0038318634 21.9921722412 21.6167469025 20.5584850311 19.0007686615 18.0050621033 18.0063018799 19.0041713715 20.5619812012 21.6183815002 21.9923439026 29.9786319733 29.5356426239 28.6041641235 27.3299255371 26.4886016846 26.4896812439 27.3327598572 28.6070861816 29.5373039246 29.9789276123 37.9815750122 37.6460075378 37.0309410095 36.2407989502 35.7269821167 35.7276535034 36.2425384521 37.0327911377 37.6471786499 37.9818344116 45.9989814758 45.8757705688 45.6626663208 45.3989639282 45.2295303345 45.2297515869 45.3995361328 45.6632957458 45.8761901855 45.9990768433 54.0210647583 54.1448860168 54.3590507507 54.6240692139 54.7943572998 54.7941360474 54.6234970093 54.358417511 54.1444702148 54.0209655762 62.0384559631 62.3744735718 62.9904785156 63.7819290161 64.2966156006 64.2959442139 63.7801971436 62.9886169434 62.373298645 62.038192749 70.0413513184 70.4844055176 71.4164810181 72.6917953491 73.5338134766 73.5327301025 72.6889419556 71.4135894775 70.4827423096 70.041053772 78.0277938843 78.4028320312 79.4608764648 81.018661499 82.0142059326 82.0129699707 81.0152587891 79.4573669434 78.4011993408 78.0276260376 86.0161819458 86.2317657471 86.984588623 88.180015564 88.9143295288 88.913444519 88.1774368286 86.9819717407 86.2306900024 86.0161514282 
14.003704071 13.7873373032 13.033033371 11.8347034454 11.0987682343 11.0996456146 11.8372745514 13.0356445312 13.7884130478 14.003739357 21.992067337 21.6159706116 20.5567436218 18.9973297119 17.9999485016 18.0011940002 19.0007362366 20.5602340698 21.6176052094 21.9922428131 29.9785289764 29.5346927643 28.6016559601 27.3243236542 26.4784259796 26.4795131683 27.3271751404 28.6045799255 29.5363540649 29.9788227081 37.9814834595 37.6451721191 37.0285339355 36.2344779968 35.7161407471 35.7168121338 36.2362289429 37.0303878784 37.6463470459 37.9817428589 45.9989471436 45.8754310608 45.6616172791 45.3961486816 45.2250671387 45.2252922058 45.3967285156 45.6622581482 45.8758506775 45.9990501404 54.0210952759 54.1452255249 54.3600921631 54.6269035339 54.7988319397 54.798614502 54.6263198853 54.359462738 54.1447982788 54.0209999084 62.0385360718 62.3753051758 62.9928970337 63.7882537842 64.3074645996 64.3067855835 63.7864990234 62.9910354614 62.3741340637 62.0382804871 70.0414581299 70.4853515625 71.4189987183 72.6973876953 73.5439758301 73.5428695679 72.6945266724 71.4160842896 70.4836807251 70.0411682129 78.0279083252 78.4036102295 79.462600708 81.022102356 82.0193099976 82.0180740356 81.0186920166 79.4590988159 78.4019851685 78.0277252197 86.0162811279 86.2322540283 86.9852828979 88.1811752319 88.9158401489 88.9149703979 88.1785964966 86.9826812744 86.2311706543 86.0162353516 
14.0036916733 13.787270546 13.0329313278 11.8345279694 11.0985450745 11.0994205475 11.837100029 13.0355415344 13.7883472443 14.0037307739 21.9920539856 21.6158638 20.5564937592 18.9968490601 17.999256134 18.0004997253 19.0002555847 20.5599880219 21.6174983978 21.9922275543 29.978509903 29.5345554352 28.6012992859 27.3235435486 26.4770889282 26.4781761169 27.3263950348 28.604221344 29.5362167358 29.9788074493 37.9814758301 37.6450538635 37.0281829834 36.2335510254 35.7145004272 35.715171814 36.2353096008 37.0300369263 37.6462287903 37.9817314148 45.9989471436 45.8753814697 45.6614723206 45.3957023621 45.224357605 45.2245826721 45.396282196 45.6621017456 45.8758049011 45.999042511 54.0211029053 54.145275116 54.360244751 54.6273498535 54.7995567322 54.799331665 54.6267623901 54.3596229553 54.144859314 54.0210075378 62.0385513306 62.3754348755 62.9932518005 63.7891845703 64.3091049194 64.3084259033 63.7874259949 62.9913711548 62.374256134 62.0382995605 70.0414810181 70.485496521 71.4193725586 72.6981658936 73.5453109741 73.5442123413 72.6953125 71.4164276123 70.4838256836 70.0411834717 78.0279083252 78.4037246704 79.462852478 81.0225830078 82.0200195312 82.0187606812 81.0191650391 79.4593505859 78.4020843506 78.0277404785 86.0162887573 86.2323150635 86.9853897095 88.181350708 88.9160614014 88.9151992798 88.1787796021 86.9827880859 86.2312240601 86.0162506104 
14.0036888123 13.7872543335 13.0328989029 11.8344745636 11.0984745026 11.0993518829 11.8370466232 13.0355129242 13.7883310318 14.0037260056 21.9920501709 21.6158332825 20.5564231873 18.9967212677 17.999080658 18.0003242493 19.0001296997 20.5599250793 21.6174697876 21.9922237396 29.9785060883 29.534526825 28.6012039185 27.3233413696 26.4767684937 26.4778594971 27.3261947632 28.6041297913 29.5361919403 29.9788036346 37.9814720154 37.6450195312 37.0280914307 36.2333183289 35.7140846252 35.714756012 36.2350692749 37.0299491882 37.646194458 37.9817276001 45.9989471436 45.8753662109 45.6614303589 45.3955841064 45.2241783142 45.2243995667 45.3961677551 45.6620597839 45.8757858276 45.999042511 54.0211105347 54.1452865601 54.3602905273 54.6274642944 54.7997398376 54.7995147705 54.6268882751 54.3596611023 54.1448669434 54.0210037231 62.0385513306 62.3754653931 62.9933357239 63.7894210815 64.3095245361 64.3088531494 63.7876586914 62.9914627075 62.3742904663 62.0382995605 70.0414810181 70.485534668 71.4194641113 72.6983566284 73.5456314087 73.5445327759 72.6955032349 71.4165344238 70.48387146 70.0411834717 78.0279083252 78.4037475586 79.4629135132 81.0227050781 82.0201873779 82.0189361572 81.0192947388 79.4594116211 78.4021148682 78.0277481079 86.0162887573 86.2323150635 86.9854125977 88.1813964844 88.9161453247 88.9152603149 88.1788330078 86.9828186035 86.2312393188 86.016242981 
14.0036888123 13.7872495651 13.0328836441 11.834446907 11.0984363556 11.099313736 11.8370189667 13.0354986191 13.7883262634 14.0037260056 21.9920482635 21.6158256531 20.5563983917 18.9966640472 17.999004364 18.0002479553 19.0000724792 20.5598945618 21.6174621582 21.9922237396 29.9785060883 29.5345096588 28.6011657715 27.3232650757 26.476650238 26.4777374268 27.3261165619 28.6040916443 29.5361728668 29.9788036346 37.9814720154 37.6450119019 37.0280532837 36.2332229614 35.7139320374 35.7146072388 36.2349815369 37.029914856 37.6461830139 37.9817276001 45.9989471436 45.8753623962 45.6614112854 45.3955459595 45.2241096497 45.2243347168 45.3961219788 45.6620445251 45.8757858276 45.999042511 54.0211105347 54.1452865601 54.3603019714 54.6275100708 54.7998085022 54.7995834351 54.6269302368 54.3596725464 54.1448631287 54.0210037231 62.0385513306 62.3754730225 62.9933815002 63.7895088196 64.3096694946 64.3089981079 63.7877426147 62.9915122986 62.3742980957 62.0382957458 70.0414810181 70.485534668 71.4194946289 72.6984405518 73.545753479 73.5446548462 72.6955795288 71.4165802002 70.48387146 70.0411758423 78.0279083252 78.403755188 79.4629364014 81.0227661133 82.0202636719 82.0190200806 81.0193481445 79.4594421387 78.4021148682 78.0277404785 86.0162887573 86.2323379517 86.9854278564 88.1814422607 88.9161758423 88.9152908325 88.1788635254 86.9828186035 86.2312545776 86.0162506104 
14.0036878586 13.7872447968 13.032875061 11.8344230652 11.0984077454 11.0992851257 11.8369960785 13.0354862213 13.7883224487 14.0037250519 21.9920482635 21.6158180237 20.5563793182 18.996629715 17.9989585876 18.000202179 19.000038147 20.5598754883 21.6174583435 21.9922237396 29.9785060883 29.5345039368 28.6011428833 27.3232192993 26.4765777588 26.4776649475 27.3260688782 28.6040706635 29.5361652374 29.9788036346 37.9814720154 37.6450042725 37.0280342102 36.2331771851 35.7138519287 35.7145271301 36.2349319458 37.0298995972 37.6461715698 37.9817276001 45.9989471436 45.8753623962 45.661403656 45.3955192566 45.2240715027 45.2243003845 45.39610672 45.6620368958 45.8757858276 45.999042511 54.0211105347 54.1452941895 54.3603172302 54.6275405884 54.7998504639 54.7996177673 54.626953125 54.3596763611 54.1448745728 54.0210037231 62.0385513306 62.3754768372 62.993396759 63.7895545959 64.309753418 64.3090744019 63.7878036499 62.9915275574 62.3742980957 62.0382957458 70.0414810181 70.4855422974 71.4195251465 72.6984863281 73.5458221436 73.5447311401 72.6956253052 71.416595459 70.4838790894 70.0411834717 78.0279083252 78.4037628174 79.4629592896 81.0227890015 82.0203018188 82.0190582275 81.0193939209 79.4594497681 78.4021148682 78.0277404785 86.0162963867 86.2323303223 86.9854278564 88.1814498901 88.9162139893 88.9153289795 88.1788864136 86.9828338623 86.2312545776 86.0162506104 
