2.25860095024 4.1271777153 7.25348758698 10.0879497528 11.5369434357 11.5352535248 10.0827941895 7.24556303024 4.12005805969 2.25827240944 2.27514386177 5.34723186493 10.1742591858 14.5990610123 16.83867836 16.836063385 14.591085434 10.1619338989 5.33600902557 2.27440404892 2.29123044014 6.20004177094 12.0772609711 17.3747177124 20.1241397858 20.1208591461 17.3650054932 12.0624246597 6.18604230881 2.2901198864 2.30274796486 6.73500347137 13.1886892319 18.9027786255 21.9171562195 21.9135246277 18.8921585083 13.1725511551 6.71942234039 2.30138063431 2.30876898766 6.98946857452 13.6937484741 19.580739975 22.7054328918 22.7016506195 19.5697422028 13.6770648956 6.97316217422 2.30727171898 2.30876207352 6.98917675018 13.6931753159 19.5799770355 22.7045478821 22.7007656097 19.5689811707 13.6764936447 6.97287130356 2.30726456642 2.30272650719 6.73409223557 13.1868591309 18.9003124237 21.9142799377 21.9106483459 18.8896942139 13.1707229614 6.71851158142 2.30135989189 2.29119467735 6.19831562042 12.0735712051 17.3695240021 20.1180210114 20.1147384644 17.3598155975 12.0587396622 6.1843214035 2.29008483887 2.27510213852 5.34458637238 10.1680612564 14.5897436142 16.8276405334 16.8250274658 14.5817747116 10.1557435989 5.33337306976 2.2743639946 2.25856089592 4.1237077713 7.2450003624 10.0743875504 11.5210695267 11.5193834305 10.0692405701 7.23709058762 4.11660003662 2.25823283195 
2.25915718079 3.96382427216 6.95445108414 9.7575044632 11.2182807922 11.2165699005 9.75232982635 6.94672489166 3.95721626282 2.25886392593 2.27422046661 5.17043638229 9.86729240417 14.3106927872 16.6562309265 16.6534404755 14.3024501801 9.85515785217 5.1597032547 2.27355051041 2.2905857563 6.0427107811 11.8076667786 17.2350006104 20.1888980865 20.1853160858 17.2247047424 11.7929563522 6.02912187576 2.28954720497 2.30464863777 6.60521316528 12.9707374573 18.9052886963 22.1622200012 22.1582431793 18.893951416 12.9545974731 6.5899720192 2.30332803726 2.31244826317 6.87718915939 13.5200681686 19.6592407227 23.0370445251 23.0329036713 19.6474685669 13.5032863617 6.86117744446 2.3109805584 2.31243896484 6.87687349319 13.5194368362 19.6583824158 23.0360584259 23.0319194794 19.6466178894 13.5026550293 6.86086368561 2.31097149849 2.30462121964 6.60424232483 12.9687690735 18.9025554657 22.1590366364 22.1550579071 18.8912181854 12.9526290894 6.58900403976 2.3033015728 2.29054570198 6.04091835022 11.8038711548 17.2293949127 20.1821994781 20.1786270142 17.2191047668 11.7891654968 6.02733469009 2.28950810432 2.2741818428 5.16777610779 9.86104011536 14.3011207581 16.6446361542 16.6418476105 14.2928876877 9.84891414642 5.15705251694 2.27351331711 2.25912070274 3.96046924591 6.94611692429 9.74409484863 11.2024946213 11.2007856369 9.73892784119 6.93840312958 3.9538731575 2.25882840157 
2.25924611092 3.9268424511 6.88580131531 9.67942905426 11.1396684647 11.1379566193 9.67426109314 6.87812280655 3.92035222054 2.25896072388 2.27394223213 5.12849235535 9.79373168945 14.2329139709 16.5861091614 16.5833015442 14.224656105 9.78164482117 5.11787652969 2.27328848839 2.29002118111 6.0032658577 11.7403316498 17.1759872437 20.1740894318 20.1704139709 17.1656093597 11.7256660461 5.989777565 2.28900337219 2.30404067039 6.57157087326 12.9146537781 18.8864517212 22.2255420685 22.2214126587 18.8749217987 12.8985357285 6.55641174316 2.3027408123 2.31190299988 6.84833288193 13.4729957581 19.6707515717 23.1467704773 23.1424636841 19.6587352753 13.4562253952 6.83238935471 2.31045460701 2.31189346313 6.84801101685 13.4723482132 19.6698551178 23.1457309723 23.1414222717 19.6578445435 13.4555826187 6.83206892014 2.31044507027 2.3040137291 6.57058525085 12.9126577377 18.8836174011 22.222196579 22.2180671692 18.8720912933 12.8965425491 6.55542707443 2.30271434784 2.2899813652 6.00146055222 11.7365102768 17.1703052521 20.1671981812 20.1635322571 17.1599330902 11.7218523026 5.98797941208 2.28896474838 2.27390480042 5.12583494186 9.78747463226 14.2233228683 16.5744667053 16.5716629028 14.2150735855 9.77539825439 5.11522817612 2.27325224876 2.25921034813 3.92351722717 6.87750816345 9.66606235504 11.1239204407 11.1222114563 9.66090106964 6.86984014511 3.91703772545 2.25892567635 
2.25926041603 3.92008924484 6.87318325043 9.66494464874 11.1248998642 11.1231889725 9.65977478027 6.86551332474 3.91362047195 2.25897669792 2.27388906479 5.12076377869 9.78008365631 14.2180652618 16.5720424652 16.569234848 14.2098054886 9.76800727844 5.11016941071 2.27323842049 2.28991436958 5.99595785141 11.72772789 17.1638793945 20.1664237976 20.1627407074 17.1534938812 11.7130708694 5.9824886322 2.28890061378 2.30393004417 6.5654706955 12.904466629 18.8812789917 22.2362194061 22.2320537567 18.8697185516 12.8883600235 6.55032634735 2.30263400078 2.31181073189 6.84335041046 13.4651165009 19.6735782623 23.1722488403 23.1678962708 19.6615161896 13.4483480453 6.82741737366 2.3103659153 2.31180143356 6.84302616119 13.464466095 19.6726703644 23.1711864471 23.1668357849 19.6606121063 13.4477005005 6.82709646225 2.31035637856 2.30390286446 6.5644826889 12.9024629593 18.8784198761 22.2328262329 22.2286624908 18.8668613434 12.8863582611 6.54934024811 2.30260777473 2.2898747921 5.99414920807 11.7238998413 17.1581859589 20.1595039368 20.1558189392 17.147808075 11.7092485428 5.98068809509 2.28886151314 2.27385187149 5.11810588837 9.7738275528 14.2084732056 16.5603923798 16.5575866699 14.2002210617 9.76176071167 5.10752105713 2.27320241928 2.25922489166 3.91676950455 6.86489582062 9.65158367157 11.109161377 11.1074504852 9.64642429352 6.85723781586 3.91031265259 2.25894165039 
2.25926327705 3.91875958443 6.87069606781 9.66208362579 11.1219749451 11.120265007 9.65691375732 6.86302709579 3.91229486465 2.25897955894 2.27387881279 5.11924743652 9.77740478516 14.2151079178 16.5692081451 16.5663986206 14.2068500519 9.76533126831 5.10865783691 2.27322840691 2.28989386559 5.99452924728 11.725279808 17.1614131927 20.1645812988 20.1608963013 17.1510257721 11.7106237411 5.98106479645 2.28888034821 2.30390882492 6.56429195404 12.9025039673 18.8802108765 22.238111496 22.2339439392 18.8686485291 12.8863945007 6.54914999008 2.30261349678 2.31179380417 6.84241867065 13.4636869431 19.6744785309 23.178194046 23.1738319397 19.6624107361 13.4469184875 6.82648801804 2.31034994125 2.31178426743 6.84209537506 13.4630393982 19.6735725403 23.1771297455 23.1727657318 19.6614990234 13.44627285 6.82616615295 2.31034016609 2.3038816452 6.56330299377 12.9004993439 18.8773536682 22.2347068787 22.2305355072 18.8657894135 12.8843927383 6.54816293716 2.3025867939 2.2898542881 5.99272203445 11.7214517593 17.1557178497 20.1576557159 20.1539707184 17.1453380585 11.7068023682 5.9792637825 2.2888417244 2.27384185791 5.11659002304 9.77114868164 14.2055158615 16.5575580597 16.5547523499 14.1972646713 9.75908279419 5.10601043701 2.2731924057 2.25922751427 3.91544079781 6.86241102219 9.64872550964 11.1062383652 11.1045284271 9.64356613159 6.85475444794 3.90898799896 2.25894498825 
2.25926375389 3.91846132278 6.87014198303 9.6614484787 11.1213312149 11.1196174622 9.65628051758 6.86247301102 3.91199707985 2.25898075104 2.27387666702 5.11891078949 9.77681350708 14.2144594193 16.5685844421 16.565776825 14.2061986923 9.76473903656 5.10832214355 2.27322626114 2.2898888588 5.9942150116 11.7247467041 17.1608772278 20.1641750336 20.160490036 17.1504898071 11.7100906372 5.98075151443 2.28887605667 2.30390429497 6.56403970718 12.90209198 18.8800144196 22.2385501862 22.2343769073 18.8684520721 12.8859834671 6.54889822006 2.30260920525 2.31179094315 6.84223031998 13.4634170532 19.6748161316 23.1797733307 23.1754074097 19.6627407074 13.446647644 6.82630062103 2.31034684181 2.31178116798 6.84190559387 13.4627666473 19.6739044189 23.1787090302 23.1743450165 19.6618328094 13.4460000992 6.82597780228 2.31033706665 2.30387711525 6.56305027008 12.9000883102 18.877155304 22.2351398468 22.230966568 18.8655891418 12.883980751 6.54791116714 2.3025829792 2.28984951973 5.99240875244 11.7209205627 17.1551837921 20.1572494507 20.1535644531 17.1448001862 11.7062692642 5.97894954681 2.28883743286 2.27383923531 5.11625385284 9.77055740356 14.2048654556 16.5569343567 16.5541305542 14.1966133118 9.75849151611 5.10567426682 2.27319002151 2.25922822952 3.91514277458 6.86185693741 9.64809131622 11.105591774 11.1038818359 9.64293193817 6.85420036316 3.90869092941 2.25894570351 
2.25926423073 3.91839146614 6.87001657486 9.66130924225 11.1211900711 11.119477272 9.65613937378 6.86234712601 3.91192793846 2.25898098946 2.27387595177 5.11883354187 9.77668476105 14.2143230438 16.5684604645 16.5656509399 14.2060632706 9.7646112442 5.10824584961 2.2732257843 2.28988838196 5.99414920807 11.7246379852 17.160774231 20.1641159058 20.1604290009 17.150390625 11.7099847794 5.98068523407 2.288875103 2.30390381813 6.56399345398 12.9020242691 18.8800182343 22.2387104034 22.2345428467 18.8684539795 12.8859148026 6.5488524437 2.30260872841 2.31179070473 6.84220314026 13.4633903503 19.6749839783 23.1802921295 23.1759262085 19.6629104614 13.4466218948 6.82627248764 2.31034636497 2.31178092957 6.84187793732 13.4627399445 19.674074173 23.1792201996 23.1748561859 19.6620025635 13.4459733963 6.82595014572 2.31033706665 2.30387639999 6.56300449371 12.9000177383 18.8771572113 22.2353038788 22.2311325073 18.8655910492 12.8839120865 6.54786491394 2.30258202553 2.28984856606 5.9923415184 11.7208099365 17.15508461 20.1571865082 20.1534996033 17.1447048187 11.7061605453 5.97888278961 2.28883671761 2.27383899689 5.11617660522 9.77042675018 14.2047271729 16.556810379 16.5540046692 14.19647789 9.75836181641 5.10559844971 2.2731897831 2.25922846794 3.91507291794 6.86173152924 9.6479511261 11.1054515839 11.1037416458 9.64279079437 6.85407447815 3.90862131119 2.25894594193 
