0.983670711517 1.01075458527 1.04586994648 1.13785994053 1.19633615017 1.19630908966 1.13779687881 1.04034340382 1.01075077057 0.983791291714 0.978493452072 1.04518067837 1.13143146038 1.26465809345 1.33732938766 1.33730018139 1.26457858086 1.09760046005 1.04516839981 0.978623092175 0.977273225784 1.11067938805 1.22945296764 1.36669552326 1.44330978394 1.4432747364 1.3666138649 1.1924469471 1.11068677902 0.977388083935 0.975699007511 1.16356229782 1.28493690491 1.41343533993 1.48022329807 1.48018503189 1.41335403919 1.24588382244 1.16356301308 0.975788414478 0.974519491196 1.18967831135 1.31296300888 1.43366384506 1.49381136894 1.49377429485 1.43358635902 1.27268314362 1.1896674633 0.974595725536 0.974520981312 1.18966782093 1.31295287609 1.43365645409 1.49380540848 1.49376821518 1.43357872963 1.27267408371 1.18965709209 0.974597334862 0.975703418255 1.16353178024 1.28490579128 1.41341090202 1.48020255566 1.48016440868 1.41332948208 1.24585461617 1.16353225708 0.975793004036 0.977103590965 1.09544193745 1.21316289902 1.3503921032 1.42959177494 1.42955565453 1.35030889511 1.17646825314 1.09545409679 0.977220594883 0.978497922421 1.04510200024 1.1313573122 1.26456975937 1.33724081516 1.33721196651 1.26449048519 1.09752833843 1.0450899601 0.978627502918 0.98369127512 1.01069498062 1.04577207565 1.13770413399 1.1961466074 1.19611942768 1.13764119148 1.04025268555 1.01069104671 0.983811676502 
0.98366612196 1.00950479507 1.0438991785 1.13524973392 1.19342803955 1.19340121746 1.13518738747 1.03839886189 1.00950181484 0.983785390854 0.978483557701 1.0434898138 1.12917804718 1.26217806339 1.33476662636 1.33473801613 1.26209998131 1.09542405605 1.04347801208 0.978611946106 0.977224469185 1.10876250267 1.22701454163 1.36453509331 1.44805812836 1.44802606106 1.36445534229 1.19016456604 1.10876965523 0.977338552475 0.97557747364 1.16168534756 1.28260850906 1.41605472565 1.49492669106 1.49489283562 1.41597867012 1.24382269382 1.16168451309 0.975666463375 0.974329173565 1.18792176247 1.31090497971 1.44093167782 1.51372671127 1.5136936903 1.44085788727 1.2710057497 1.18790900707 0.974405050278 0.9743309021 1.18791151047 1.31089484692 1.44092392921 1.51372075081 1.51368772984 1.44085001945 1.27099609375 1.18789863586 0.974406778812 0.975582182407 1.16165447235 1.28257834911 1.4160323143 1.49490654469 1.49487280846 1.41595602036 1.2437940836 1.16165351868 0.975671052933 0.977059841156 1.09352719784 1.21068811417 1.34795081615 1.43041884899 1.43038666248 1.3478705883 1.1741348505 1.09353888035 0.977175951004 0.978488087654 1.04341208935 1.12910413742 1.26209020615 1.3346773386 1.33464872837 1.26201224327 1.09535217285 1.04340040684 0.978616416454 0.983686506748 1.00944650173 1.04380273819 1.13509559631 1.19324040413 1.19321358204 1.13503324986 1.03830933571 1.0094435215 0.983805656433 
0.983665823936 1.00945067406 1.04381501675 1.1351391077 1.19330430031 1.1932772398 1.13507676125 1.03831529617 1.00944769382 0.983784794807 0.978483200073 1.04341757298 1.12908244133 1.26207196712 1.33465504646 1.33462643623 1.26199388504 1.09533131123 1.04340577126 0.978611528873 0.977222263813 1.10868179798 1.22691071033 1.3644298315 1.44794332981 1.44791126251 1.36435008049 1.19006681442 1.10868859291 0.977336347103 0.975571095943 1.1616089344 1.28251779079 1.41600120068 1.49566149712 1.4956278801 1.41592514515 1.24374043941 1.16160798073 0.975659906864 0.974318683147 1.18785393238 1.31082284451 1.44124031067 1.51508796215 1.51505541801 1.4411662817 1.27094328403 1.18784081936 0.974394440651 0.974320411682 1.18784356117 1.31081271172 1.44123244286 1.51508200169 1.51504945755 1.44115877151 1.27093362808 1.18783068657 0.97439622879 0.97557580471 1.16157817841 1.28248727322 1.41597890854 1.49564135075 1.49560785294 1.41590285301 1.24371159077 1.16157722473 0.975664615631 0.977057695389 1.09344625473 1.21058320999 1.34784388542 1.43031215668 1.43027985096 1.34776341915 1.17403459549 1.09345793724 0.977173686028 0.978487730026 1.04333972931 1.12900841236 1.26198375225 1.33456575871 1.33453726768 1.261906147 1.09525966644 1.04332816601 0.978615999222 0.983686208725 1.00939226151 1.04371845722 1.13498485088 1.19311666489 1.19308972359 1.13492274284 1.03822588921 1.00938928127 0.983805298805 
0.983665525913 1.00944435596 1.04380571842 1.13512730598 1.19329094887 1.19326400757 1.13506484032 1.03830599785 1.00944173336 0.983784675598 0.978482961655 1.04340970516 1.1290718317 1.26206040382 1.33464300632 1.3346143961 1.26198256016 1.09532141685 1.04339766502 0.97861135006 0.977221786976 1.1086730957 1.22689986229 1.3644182682 1.44792973995 1.44789767265 1.36433887482 1.1900562048 1.10867989063 0.977335870266 0.975570142269 1.16160094738 1.28250944614 1.41599667072 1.49574947357 1.49571573734 1.4159206152 1.24373233318 1.16159999371 0.975659012794 0.974317073822 1.18784761429 1.3108150959 1.44127142429 1.51528549194 1.51525294781 1.44119787216 1.27093791962 1.18783462048 0.974393010139 0.974318742752 1.18783736229 1.31080496311 1.44126391411 1.51527953148 1.51524698734 1.44119012356 1.27092838287 1.18782424927 0.97439455986 0.975574910641 1.16157031059 1.28247892857 1.41597437859 1.4957293272 1.49569582939 1.41589832306 1.24370372295 1.1615691185 0.975663781166 0.977057337761 1.09343743324 1.21057200432 1.34783244133 1.43030047417 1.43026828766 1.34775185585 1.17402410507 1.09344911575 0.977173268795 0.978487432003 1.04333209991 1.12899816036 1.26197242737 1.33455383778 1.33452510834 1.2618945837 1.09524941444 1.04332029819 0.978615820408 0.983686029911 1.00938606262 1.04370927811 1.13497304916 1.19310319424 1.19307649136 1.13491082191 1.03821671009 1.0093832016 0.983805000782 
0.983665525913 1.00944340229 1.04380464554 1.13512587547 1.19328951836 1.19326269627 1.13506340981 1.03830480576 1.00944042206 0.983784615993 0.978482723236 1.04340839386 1.12907099724 1.26205909252 1.33464181423 1.33461332321 1.26198112965 1.09532022476 1.04339647293 0.978610992432 0.977221369743 1.10867214203 1.22689890862 1.36441731453 1.44792830944 1.44789659977 1.36433780193 1.19005525112 1.10867893696 0.977335453033 0.975569784641 1.16160070896 1.28250944614 1.41599738598 1.49577069283 1.49573731422 1.41592144966 1.24373209476 1.16159963608 0.975658595562 0.97431653738 1.1878477335 1.31081533432 1.44127976894 1.51533460617 1.51530206203 1.44120585918 1.27093863487 1.18783462048 0.974392294884 0.974318146706 1.18783736229 1.31080520153 1.44127202034 1.5153285265 1.51529598236 1.44119822979 1.27092897892 1.18782424927 0.974394023418 0.975574314594 1.16156983376 1.28247904778 1.41597497463 1.49575054646 1.49571728706 1.41589891911 1.24370360374 1.16156876087 0.975663304329 0.977057039738 1.09343659878 1.21057116985 1.34783136845 1.43029928207 1.43026721478 1.34775090218 1.17402291298 1.09344828129 0.977173030376 0.978487193584 1.0433306694 1.12899708748 1.26197111607 1.33455276489 1.33452415466 1.2618932724 1.09524822235 1.04331874847 0.97861546278 0.983686029911 1.00938498974 1.0437078476 1.13497161865 1.19310188293 1.19307506084 1.1349093914 1.03821539879 1.00938200951 0.983805000782 
0.983665406704 1.00944340229 1.04380476475 1.1351262331 1.19329023361 1.19326353073 1.13506400585 1.03830480576 1.00944042206 0.98378443718 0.978482723236 1.04340875149 1.12907135487 1.26205992699 1.3346426487 1.33461415768 1.26198208332 1.09532046318 1.04339706898 0.978611111641 0.977221429348 1.10867285728 1.22689986229 1.36441850662 1.44792938232 1.44789743423 1.36433875561 1.1900562048 1.108679533 0.977335512638 0.975569427013 1.16160166264 1.28251039982 1.41599929333 1.4957818985 1.49574840069 1.4159232378 1.2437338829 1.16160047054 0.975658237934 0.974316060543 1.18784880638 1.31081688404 1.44128644466 1.51535463333 1.51532196999 1.44121265411 1.27094006538 1.18783581257 0.974391877651 0.974317669868 1.18783855438 1.31080687046 1.44127857685 1.51534879208 1.51531600952 1.4412047863 1.27093064785 1.18782532215 0.974393606186 0.97557413578 1.16157066822 1.28248023987 1.41597688198 1.49576175213 1.49572849274 1.41590094566 1.24370503426 1.16156959534 0.97566306591 0.977056920528 1.09343707561 1.21057200432 1.34783232212 1.43030059338 1.43026840687 1.34775185585 1.17402386665 1.09344875813 0.977172911167 0.978487253189 1.04333102703 1.12899756432 1.26197195053 1.33455348015 1.33452486992 1.26189398766 1.09524857998 1.04331922531 0.97861546278 0.983685851097 1.00938498974 1.04370820522 1.1349722147 1.19310283661 1.1930757761 1.13490986824 1.038215518 1.00938212872 0.983804821968 
0.98366522789 1.0094435215 1.04380512238 1.13512706757 1.19329166412 1.19326460361 1.13506484032 1.03830528259 1.00944054127 0.983784377575 0.978482604027 1.04340934753 1.12907218933 1.26206088066 1.33464407921 1.33461546898 1.26198291779 1.09532129765 1.04339742661 0.978610873222 0.977221131325 1.10867369175 1.22690105438 1.36441969872 1.44793081284 1.44789874554 1.36434030533 1.19005703926 1.10868060589 0.977335095406 0.975569188595 1.16160285473 1.28251242638 1.41600131989 1.4957908392 1.49575746059 1.41592502594 1.24373531342 1.16160190105 0.975657999516 0.974315881729 1.18785023689 1.31081914902 1.44129323959 1.51536750793 1.51533520222 1.44121956825 1.27094221115 1.18783724308 0.974391698837 0.974317550659 1.18783998489 1.31080901623 1.44128549099 1.51536142826 1.51532888412 1.44121193886 1.2709325552 1.18782675266 0.974393367767 0.975573778152 1.16157197952 1.28248214722 1.41597902775 1.49577081203 1.49573743343 1.41590285301 1.24370658398 1.16157102585 0.975662708282 0.97705668211 1.09343791008 1.21057319641 1.34783375263 1.4303021431 1.43026983738 1.34775340557 1.17402493954 1.09344959259 0.977172613144 0.978487014771 1.04333150387 1.12899827957 1.26197266579 1.33455491066 1.33452606201 1.26189494133 1.09524929523 1.04331970215 0.978615343571 0.983685791492 1.00938510895 1.04370856285 1.13497281075 1.19310390949 1.19307696819 1.13491070271 1.03821599483 1.00938224792 0.983804821968 
