0.985198140144 1.00976276398 1.03558707237 1.10364627838 1.1684896946 1.16846346855 1.10357892513 1.03299963474 1.00976288319 0.985309064388 0.980200827122 1.04302513599 1.11579203606 1.29396057129 1.38344454765 1.38341546059 1.29389035702 1.0964704752 1.04302716255 0.980324447155 0.978652060032 1.12348568439 1.22769355774 1.42597913742 1.53094816208 1.5309073925 1.42589354515 1.20201170444 1.12349402905 0.978757381439 0.977316439152 1.17980074883 1.29019427299 1.48366701603 1.57340574265 1.57335734367 1.48357820511 1.26307559013 1.17978298664 0.977392792702 0.976507663727 1.20888984203 1.32139444351 1.50654280186 1.58736395836 1.58731341362 1.5064522028 1.2939324379 1.20885825157 0.976568758488 0.97650885582 1.20887851715 1.32138419151 1.50653529167 1.58735847473 1.5873080492 1.50644481182 1.29392254353 1.20884692669 0.97657006979 0.977319955826 1.1797658205 1.29016268253 1.48364305496 1.57338523865 1.57333683968 1.48355436325 1.26304471493 1.17974793911 0.97739636898 0.978512525558 1.10807859898 1.20899140835 1.40418934822 1.51209318638 1.51205170155 1.40410232544 1.18394052982 1.10808932781 0.978620052338 0.980205416679 1.0429469347 1.1156989336 1.29387676716 1.38333594799 1.38330686092 1.2938066721 1.09638512135 1.04294919968 0.980329155922 0.985216617584 1.00970482826 1.03549897671 1.10348916054 1.16832411289 1.16829800606 1.1034219265 1.03291249275 1.00970494747 0.985327363014 
0.985101401806 1.00871837139 1.03427863121 1.10229146481 1.16699695587 1.16697096825 1.10222446918 1.031640172 1.00871908665 0.985211551189 0.980079650879 1.04173982143 1.11454033852 1.29250955582 1.38188266754 1.38185429573 1.29244053364 1.0951499939 1.04174208641 0.980202674866 0.97850137949 1.12206113338 1.22634613514 1.42451536655 1.53699481487 1.53695869446 1.42443072796 1.20065152645 1.12206864357 0.978606283665 0.977132380009 1.17832159996 1.28882300854 1.4855338335 1.58749914169 1.58745837212 1.4854516983 1.2617675066 1.17830264568 0.977208375931 0.976298213005 1.20740032196 1.32003772259 1.51137518883 1.60495638847 1.60491418839 1.51129543781 1.29270362854 1.20736706257 0.976359009743 0.976299524307 1.20738887787 1.32002770901 1.51136827469 1.60495090485 1.60490906239 1.51128864288 1.29269373417 1.20735561848 0.97636026144 0.977135896683 1.17828679085 1.28879213333 1.48550927639 1.58747911453 1.58743834496 1.48542714119 1.26173663139 1.17826783657 0.977212011814 0.978363275528 1.10664558411 1.2075933218 1.40260469913 1.51387000084 1.51383376122 1.40251922607 1.18252825737 1.10665583611 0.97847032547 0.980084240437 1.0416623354 1.1144477129 1.29242634773 1.38177347183 1.38174510002 1.29235720634 1.09506487846 1.04166471958 0.980207383633 0.985119819641 1.00866115093 1.03419065475 1.10213363171 1.16683077812 1.16680467129 1.10206675529 1.03155338764 1.00866174698 0.985229730606 
0.985100090504 1.00870490074 1.03426206112 1.1022746563 1.16697835922 1.16695249081 1.10220766068 1.03162288666 1.00870573521 0.985210180283 0.980077981949 1.04172372818 1.11452496052 1.29249227047 1.38186371326 1.38183522224 1.29242289066 1.09513366222 1.04172599316 0.98020106554 0.978499352932 1.12204349041 1.22632980347 1.42449831963 1.53699231148 1.53695642948 1.42441356182 1.20063483715 1.12205123901 0.978604078293 0.977129817009 1.17830359936 1.2888071537 1.48552083969 1.58776855469 1.58772802353 1.48543870449 1.2617521286 1.17828452587 0.977205872536 0.976295351982 1.20738244057 1.32002198696 1.51139593124 1.60538339615 1.6053416729 1.51131629944 1.29268991947 1.20734918118 0.97635602951 0.97629660368 1.20737099648 1.32001197338 1.51138901711 1.60537815094 1.60533642769 1.51130950451 1.29268014431 1.20733761787 0.976357281208 0.977133393288 1.17826879025 1.28877615929 1.48549604416 1.58774828911 1.58770799637 1.48541378975 1.26172113419 1.17824959755 0.977209568024 0.978361308575 1.10662782192 1.20757579803 1.4025863409 1.51385188103 1.5138156414 1.40250051022 1.18251097202 1.10663819313 0.978468239307 0.980082690716 1.04164612293 1.1144323349 1.29240858555 1.38175439835 1.38172602654 1.29233956337 1.095048666 1.04164850712 0.980205655098 0.985118567944 1.00864768028 1.03417420387 1.1021168232 1.16681218147 1.16678619385 1.10204994678 1.03153610229 1.00864839554 0.985228538513 
0.985100209713 1.00870478153 1.03426206112 1.10227513313 1.16697919369 1.16695308685 1.10220813751 1.03162288666 1.00870549679 0.985210180283 0.980077803135 1.04172384739 1.11452531815 1.29249286652 1.38186502457 1.38183665276 1.29242372513 1.09513390064 1.04172611237 0.980200886726 0.978499293327 1.12204384804 1.22633075714 1.42449986935 1.53699433804 1.53695833683 1.42441499233 1.20063567162 1.12205135822 0.978604078293 0.97712957859 1.17830443382 1.28880834579 1.48552298546 1.58778870106 1.58774805069 1.48544096947 1.26175332069 1.17828524113 0.977205634117 0.97629493475 1.20738363266 1.32002365589 1.51140236855 1.60541605949 1.60537433624 1.51132273674 1.29269182682 1.20735049248 0.976355671883 0.976296186447 1.20737195015 1.3200135231 1.5113953352 1.60541057587 1.60536909103 1.5113158226 1.29268169403 1.20733880997 0.976356983185 0.977133154869 1.17826974392 1.28877747059 1.48549830914 1.58776855469 1.58772790432 1.48541617393 1.2617225647 1.17825067043 0.977209091187 0.978361129761 1.10662817955 1.20757687092 1.402587533 1.51385354996 1.51381731033 1.40250194073 1.18251144886 1.10663866997 0.978468060493 0.980082571507 1.04164624214 1.11443257332 1.29240953922 1.38175582886 1.38172757626 1.29234027863 1.09504878521 1.04164850712 0.980205476284 0.985118508339 1.00864744186 1.03417420387 1.10211730003 1.16681289673 1.16678678989 1.10205030441 1.03153586388 1.00864827633 0.985228478909 
0.985099971294 1.00870501995 1.03426265717 1.10227584839 1.16698026657 1.16695439816 1.10220897198 1.03162324429 1.00870573521 0.985210001469 0.980077683926 1.04172456264 1.11452627182 1.29249441624 1.38186681271 1.3818385601 1.29242515564 1.0951346159 1.04172682762 0.980200767517 0.978498995304 1.12204515934 1.22633242607 1.42450201511 1.53699874878 1.53696274757 1.4244171381 1.20063710213 1.12205278873 0.978603601456 0.977129399776 1.17830574512 1.28881049156 1.48552572727 1.58779835701 1.58775758743 1.48544371128 1.26175510883 1.17828679085 0.977205276489 0.976294755936 1.20738518238 1.32002568245 1.51141083241 1.60542833805 1.60538685322 1.51133143902 1.29269361496 1.20735168457 0.976355433464 0.976296067238 1.20737361908 1.32001554966 1.51140415668 1.60542297363 1.6053814888 1.51132440567 1.29268372059 1.20734024048 0.976356804371 0.977132916451 1.17827105522 1.28877949715 1.48550105095 1.58777809143 1.58773744106 1.48541903496 1.26172423363 1.17825198174 0.977208971977 0.978360950947 1.10662937164 1.20757806301 1.40258991718 1.51385629177 1.51381981373 1.40250432491 1.18251287937 1.10663950443 0.978467822075 0.980082452297 1.04164707661 1.11443376541 1.29241096973 1.38175749779 1.38172924519 1.29234182835 1.09504973888 1.04164934158 0.980205476284 0.98511838913 1.00864768028 1.0341745615 1.1021181345 1.16681408882 1.1667881012 1.10205125809 1.03153645992 1.00864851475 0.985228359699 
0.98509991169 1.00870525837 1.034263134 1.10227680206 1.16698157787 1.16695547104 1.10220980644 1.03162372112 1.00870609283 0.985210061073 0.980077624321 1.04172515869 1.11452722549 1.29249596596 1.38186872005 1.38184034824 1.29242658615 1.09513556957 1.04172754288 0.980200707912 0.978498935699 1.1220459938 1.22633361816 1.42450416088 1.53700685501 1.53697085381 1.42441928387 1.20063841343 1.1220536232 0.97860366106 0.977129161358 1.17830741405 1.28881204128 1.48552846909 1.58780694008 1.58776652813 1.48544633389 1.26175701618 1.17828834057 0.97720515728 0.976294457912 1.20738685131 1.32002782822 1.51142036915 1.60543859005 1.60539710522 1.51134085655 1.29269576073 1.20735347271 0.976355075836 0.976295590401 1.20737528801 1.32001781464 1.51141357422 1.60543322563 1.60539150238 1.51133394241 1.29268586636 1.20734202862 0.976356387138 0.977132797241 1.17827260494 1.28878104687 1.48550355434 1.58778691292 1.58774626255 1.48542141914 1.26172626019 1.17825341225 0.977208793163 0.978360712528 1.10663032532 1.20757973194 1.4025914669 1.51385831833 1.51382219791 1.40250623226 1.18251395226 1.10664057732 0.97846776247 0.980082333088 1.04164743423 1.11443436146 1.29241251945 1.38175940514 1.38173115253 1.29234337807 1.09505057335 1.04164993763 0.980205416679 0.98511838913 1.0086479187 1.03417515755 1.10211896896 1.16681528091 1.16678929329 1.10205209255 1.03153693676 1.00864899158 0.985228419304 
0.985099852085 1.008705616 1.03426337242 1.10227763653 1.16698276997 1.16695678234 1.10221064091 1.03162419796 1.00870656967 0.985209941864 0.980077385902 1.04172575474 1.11452817917 1.29249727726 1.38187050819 1.38184213638 1.29242801666 1.09513652325 1.04172801971 0.980200529099 0.978498697281 1.12204742432 1.22633516788 1.42450618744 1.53701519966 1.53697919846 1.42442142963 1.20064008236 1.1220549345 0.978603601456 0.977128922939 1.17830872536 1.28881394863 1.4855312109 1.58781588078 1.58777523041 1.4854490757 1.26175892353 1.17828977108 0.977204918861 0.976294279099 1.20738840103 1.32002985477 1.51142978668 1.60544860363 1.60540699959 1.51135015488 1.29269778728 1.20735502243 0.976355075836 0.976295530796 1.20737683773 1.32001984119 1.51142263412 1.60544323921 1.60540151596 1.51134324074 1.29268789291 1.20734357834 0.976356387138 0.977132558823 1.17827391624 1.28878295422 1.48550605774 1.58779585361 1.58775520325 1.48542428017 1.26172816753 1.17825496197 0.977208614349 0.978360712528 1.10663127899 1.20758092403 1.40259373188 1.51386058331 1.51382422447 1.40250849724 1.18251526356 1.10664176941 0.978467583656 0.980082213879 1.04164814949 1.11443531513 1.29241383076 1.38176131248 1.38173282146 1.29234468937 1.09505152702 1.04165053368 0.980205178261 0.985118329525 1.00864827633 1.03417539597 1.10211980343 1.16681659222 1.16679048538 1.10205280781 1.03153729439 1.00864911079 0.985228359699 
