0.984871029854 1.01258397102 1.04134261608 1.12157869339 1.18655312061 1.1865259409 1.1215069294 1.03800332546 1.01258087158 0.984985113144 0.979899704456 1.04687595367 1.12740850449 1.2899389267 1.37704992294 1.37701058388 1.28985702991 1.10526430607 1.04687619209 0.980026364326 0.978386521339 1.12762844563 1.23272645473 1.40641689301 1.4815864563 1.481533885 1.40631198883 1.20626831055 1.12763893604 0.978495121002 0.977175116539 1.18185055256 1.29106390476 1.44732165337 1.50983405113 1.50977492332 1.44720971584 1.26361250877 1.18183887005 0.977255702019 0.976495146751 1.20961725712 1.31973016262 1.46380412579 1.51903259754 1.5189729929 1.4636926651 1.29205155373 1.20959424973 0.976561009884 0.97649627924 1.20960569382 1.31972014904 1.46379566193 1.51902675629 1.51896715164 1.46368420124 1.29204165936 1.20958268642 0.976562142372 0.977178156376 1.18181586266 1.29103171825 1.44729459286 1.509811759 1.50975251198 1.44718241692 1.26358175278 1.18180429935 0.97725880146 0.978248119354 1.11285400391 1.21570754051 1.39138662815 1.47265350819 1.47259998322 1.39127731323 1.18960499763 1.11286628246 0.978358924389 0.979904353619 1.04679596424 1.12731313705 1.2898453474 1.37694036961 1.37690114975 1.28976345062 1.10517692566 1.04679632187 0.980031013489 0.984889507294 1.01252281666 1.04124987125 1.12141919136 1.18638539314 1.18635833263 1.12134766579 1.03791415691 1.01251971722 0.98500341177 
0.984564363956 1.00830543041 1.03568184376 1.11545109749 1.17930567265 1.17928040028 1.11538398266 1.0322060585 1.00830507278 0.984674930573 0.979491949081 1.04147696495 1.12166583538 1.28337323666 1.36937880516 1.36934828758 1.2832968235 1.099386096 1.04147791862 0.979615688324 0.977798700333 1.12167036533 1.22686934471 1.40611207485 1.50922954082 1.50919401646 1.40602612495 1.20045053959 1.12167859077 0.977905511856 0.976366519928 1.17584037781 1.28535449505 1.46244466305 1.55813157558 1.5580919981 1.46236252785 1.25823950768 1.17582392693 0.97644585371 0.975512444973 1.20373308659 1.31456458569 1.48732078075 1.575496912 1.5754557848 1.48724102974 1.28739905357 1.20370352268 0.97557759285 0.97551381588 1.2037217617 1.31455469131 1.48731327057 1.57549107075 1.57545018196 1.48723363876 1.2873891592 1.20369231701 0.975578904152 0.976370215416 1.17580592632 1.28532421589 1.46242117882 1.55811142921 1.55807185173 1.46233904362 1.25820934772 1.17578947544 0.976449668407 0.977674543858 1.10686945915 1.20962464809 1.38619029522 1.48814332485 1.48810756207 1.38610363007 1.18358159065 1.10687994957 0.977783322334 0.979496777058 1.04139912128 1.12157166004 1.28328001499 1.36927199364 1.36924159527 1.28320372105 1.09929978848 1.04140007496 0.979620575905 0.984582841396 1.00824773312 1.03559041023 1.11528980732 1.17913675308 1.17911159992 1.11522269249 1.03211891651 1.0082474947 0.984693229198 
0.984562516212 1.00827503204 1.03564167023 1.115406394 1.17925238609 1.17922711372 1.11533927917 1.03216469288 1.00827467442 0.984673082829 0.979489564896 1.04143834114 1.12162458897 1.28332448006 1.36932349205 1.36929321289 1.2832480669 1.09934389591 1.04143917561 0.979613423347 0.977795362473 1.12162697315 1.2268255949 1.4060614109 1.50916516781 1.50912964344 1.4059753418 1.20040655136 1.12163519859 0.977901935577 0.976361453533 1.17579674721 1.28531360626 1.46241271496 1.558624506 1.55858552456 1.46233046055 1.25820064545 1.17578041553 0.976440727711 0.975505888462 1.20369136333 1.31452977657 1.48731255531 1.57669699192 1.57665705681 1.48723328114 1.28736829758 1.20366191864 0.975570857525 0.97550714016 1.20368003845 1.3145198822 1.48730516434 1.5766916275 1.57665157318 1.48722577095 1.28735864162 1.20365047455 0.975572109222 0.976365029812 1.17576229572 1.2852833271 1.46238899231 1.55860471725 1.55856561661 1.46230697632 1.25817024708 1.17574584484 0.976444482803 0.977671265602 1.10682606697 1.20957934856 1.38613736629 1.48809123039 1.48805546761 1.38605093956 1.18353641033 1.10683619976 0.977780044079 0.979494512081 1.04136061668 1.12153029442 1.2832313776 1.36921691895 1.36918628216 1.28315496445 1.09925734997 1.04136180878 0.97961807251 0.984580874443 1.00821733475 1.03555047512 1.11524498463 1.17908358574 1.17905843258 1.11517810822 1.03207755089 1.00821697712 0.984691381454 
0.984562456608 1.00827550888 1.03564238548 1.11540770531 1.17925405502 1.17922878265 1.11534070969 1.03216552734 1.00827515125 0.984672904015 0.979489564896 1.0414390564 1.12162578106 1.28332614899 1.36932563782 1.36929500103 1.28324961662 1.0993449688 1.04144012928 0.979613184929 0.977795124054 1.12162840366 1.22682738304 1.40606331825 1.50916743279 1.50913202763 1.40597736835 1.20040822029 1.1216365099 0.977901697159 0.976361215115 1.17579865456 1.28531587124 1.46241557598 1.55863463879 1.55859589577 1.46233320236 1.2582025528 1.17578220367 0.976440548897 0.975505590439 1.20369338989 1.31453192234 1.48731565475 1.57670819759 1.57666814327 1.48723638058 1.28737044334 1.20366358757 0.975570678711 0.975506901741 1.20368182659 1.31452202797 1.48730838299 1.57670271397 1.57666254044 1.4872289896 1.28736078739 1.2036523819 0.975571870804 0.976364850998 1.17576408386 1.28528547287 1.46239185333 1.55861473083 1.5585757494 1.46230983734 1.25817203522 1.17574763298 0.976444244385 0.977671205997 1.10682749748 1.20958101749 1.38613939285 1.48809325695 1.48805761337 1.38605308533 1.18353772163 1.10683751106 0.977779984474 0.979494333267 1.04136145115 1.12153148651 1.28323292732 1.36921870708 1.36918842793 1.28315651417 1.09925854206 1.04136252403 0.97961807251 0.984580874443 1.00821793079 1.03555119038 1.11524641514 1.17908537388 1.1790599823 1.11517941952 1.03207850456 1.00821757317 0.984691381454 
0.984562397003 1.00827586651 1.03564298153 1.1154088974 1.17925572395 1.17923045158 1.11534190178 1.03216612339 1.00827550888 0.98467284441 0.979489326477 1.04143989086 1.12162673473 1.28332746029 1.36932730675 1.36929702759 1.28325116634 1.09934592247 1.04144084454 0.97961306572 0.977795124054 1.12162971497 1.22682869434 1.40606546402 1.50916957855 1.50913405418 1.40597951412 1.2004096508 1.12163794041 0.97790157795 0.976361036301 1.17579984665 1.28531777859 1.46241807938 1.55864417553 1.55860543251 1.46233582497 1.25820446014 1.17578351498 0.976440370083 0.97550547123 1.2036948204 1.31453406811 1.48731863499 1.57671880722 1.5766787529 1.48723948002 1.28737270832 1.2036652565 0.975570499897 0.975506722927 1.20368361473 1.31452417374 1.48731136322 1.57671320438 1.57667303085 1.48723208904 1.28736305237 1.20365393162 0.975571632385 0.976364612579 1.17576551437 1.28528726101 1.46239471436 1.55862426758 1.55858540535 1.46231245995 1.25817430019 1.17574906349 0.976444065571 0.977670967579 1.10682868958 1.20958256721 1.38614153862 1.48809552193 1.48805999756 1.38605511189 1.18353915215 1.10683882236 0.977779865265 0.979494333267 1.04136228561 1.12153244019 1.28323423862 1.36922061443 1.36919021606 1.28315794468 1.09925949574 1.04136323929 0.9796179533 0.984580814838 1.00821828842 1.03555178642 1.11524772644 1.17908680439 1.17906165123 1.11518061161 1.03207910061 1.00821793079 0.984691262245 
0.984562277794 1.00827622414 1.03564357758 1.1154102087 1.17925727367 1.17923212051 1.11534321308 1.03216671944 1.00827598572 0.98467284441 0.979489326477 1.04144060612 1.12162768841 1.2833288908 1.3693292141 1.36929893494 1.28325271606 1.09934687614 1.041441679 0.97961306572 0.977794826031 1.12163090706 1.22683024406 1.406067729 1.50917172432 1.50913619995 1.4059817791 1.20041108131 1.12163901329 0.977901518345 0.976360797882 1.175801754 1.28531980515 1.46242082119 1.55865371227 1.55861485004 1.46233856678 1.25820636749 1.17578518391 0.976440131664 0.975505173206 1.20369660854 1.31453621387 1.48732185364 1.57672905922 1.57668876648 1.48724246025 1.28737473488 1.20366692543 0.975570261478 0.975506424904 1.20368528366 1.3145263195 1.48731458187 1.57672333717 1.57668328285 1.48723506927 1.28736495972 1.20365548134 0.975571513176 0.976364433765 1.1757671833 1.28528904915 1.46239721775 1.55863380432 1.55859482288 1.46231520176 1.25817596912 1.17575073242 0.976443827152 0.97767084837 1.10682964325 1.20958375931 1.38614344597 1.48809790611 1.48806214333 1.38605737686 1.18354058266 1.10683989525 0.977779686451 0.979494154453 1.04136288166 1.12153339386 1.28323578835 1.36922252178 1.3691920042 1.28315961361 1.0992603302 1.04136395454 0.979617834091 0.984580755234 1.00821864605 1.03555238247 1.11524903774 1.17908859253 1.17906332016 1.11518192291 1.03207969666 1.00821828842 0.984691202641 
0.984562337399 1.00827682018 1.03564417362 1.11541163921 1.17925906181 1.17923378944 1.11534452438 1.03216719627 1.00827634335 0.984672725201 0.979489147663 1.04144144058 1.1216288805 1.28333044052 1.36933124065 1.36930072308 1.28325426579 1.09934794903 1.04144251347 0.979612827301 0.977794885635 1.12163209915 1.22683227062 1.40606963634 1.50917387009 1.50913834572 1.40598380566 1.20041251183 1.12164020538 0.97790157795 0.976360619068 1.17580318451 1.28532171249 1.462423563 1.5586630106 1.55862426758 1.46234118938 1.25820827484 1.17578673363 0.97644007206 0.975504994392 1.20369851589 1.31453847885 1.48732483387 1.57673943043 1.57669937611 1.48724579811 1.28737688065 1.20366883278 0.97557002306 0.975506365299 1.2036870718 1.31452858448 1.48731744289 1.57673382759 1.57669389248 1.48723828793 1.28736746311 1.20365762711 0.975571215153 0.976364374161 1.17576861382 1.28529119492 1.46240007877 1.55864322186 1.55860412121 1.46231770515 1.25817799568 1.17575240135 0.976443767548 0.97767072916 1.10683083534 1.20958542824 1.38614559174 1.48810017109 1.4880644083 1.386059165 1.18354225159 1.10684108734 0.977779567242 0.979494035244 1.04136383533 1.12153470516 1.28323733807 1.36922442913 1.36919403076 1.28316116333 1.09926152229 1.04136502743 0.979617774487 0.984580636024 1.00821900368 1.03555309772 1.11525022984 1.17909038067 1.17906498909 1.11518323421 1.03208017349 1.00821852684 0.984691083431 
