0.987100601196 1.03602528572 1.07785058022 1.17980504036 1.23183774948 1.23179745674 1.1797003746 1.07104039192 1.03600716591 0.987227082253 0.983012735844 1.07639241219 1.1678519249 1.28078496456 1.32155430317 1.3215085268 1.28067469597 1.14440500736 1.07639074326 0.983157336712 0.981359660625 1.15694403648 1.23316609859 1.32243049145 1.35696804523 1.35691547394 1.32231974602 1.22069370747 1.15697479248 0.981514751911 0.980298221111 1.19781029224 1.26422786713 1.34076881409 1.37062227726 1.37057089806 1.34065723419 1.25341999531 1.19781351089 0.9804469347 0.979978203773 1.21584117413 1.27781236172 1.34811937809 1.37517261505 1.37512218952 1.34800958633 1.26772713661 1.21583485603 0.980125010014 0.979978561401 1.21582829952 1.27780032158 1.3481118679 1.37516725063 1.37511670589 1.34800207615 1.26771533489 1.21582186222 0.980125367641 0.980299890041 1.19777131081 1.26419091225 1.34074306488 1.37060189247 1.37055063248 1.3406317234 1.25338339806 1.19777452946 0.980448484421 0.981291651726 1.14465546608 1.22830343246 1.32120835781 1.35660648346 1.35655391216 1.32109618187 1.21452188492 1.14468431473 0.981447935104 0.983017265797 1.07630503178 1.16775619984 1.28066170216 1.32142877579 1.32138311863 1.28055155277 1.144313097 1.07630336285 0.983161747456 0.987117052078 1.0359467268 1.07774329185 1.17959058285 1.23156499863 1.23152458668 1.17948627472 1.07094168663 1.03592860699 0.987243413925 
0.984930157661 1.02025043964 1.05693900585 1.15272951126 1.21462750435 1.21459639072 1.15265130997 1.05014622211 1.02024173737 0.985050022602 0.980225086212 1.05721008778 1.14625442028 1.29136741161 1.35189449787 1.35184645653 1.29125213623 1.12219941616 1.05720829964 0.98035800457 0.979151368141 1.13733267784 1.24266445637 1.35946977139 1.40523898602 1.40518343449 1.35935127735 1.21500384808 1.13735020161 0.979266941547 0.977944016457 1.18795418739 1.28722858429 1.38388240337 1.42193412781 1.42187774181 1.38376796246 1.26515603065 1.18796145916 0.978044390678 0.977201461792 1.21351146698 1.30656731129 1.39324760437 1.427313447 1.42725896835 1.39313483238 1.28738176823 1.21351504326 0.977296233177 0.977202415466 1.21350038052 1.30655634403 1.39324021339 1.42730820179 1.42725396156 1.39312744141 1.28736996651 1.21350395679 0.977297365665 0.977947115898 1.18792009354 1.2871941328 1.38385593891 1.42191433907 1.42185795307 1.3837416172 1.26512122154 1.1879273653 0.978047549725 0.978999316692 1.12379682064 1.22799324989 1.35513591766 1.40306448936 1.403008461 1.35501539707 1.20037615299 1.12381565571 0.979116797447 0.980229139328 1.05712842941 1.14615952969 1.29125976562 1.35176229477 1.35171413422 1.29114484787 1.12211227417 1.05712676048 0.980361938477 0.98494809866 1.02018260956 1.0568395853 1.152551651 1.21444892883 1.214417696 1.15247344971 1.05005538464 1.02017390728 0.985067784786 
0.984319150448 1.01264023781 1.04666185379 1.13995814323 1.20080792904 1.20078015327 1.13988518715 1.03976345062 1.01263606548 0.984433412552 0.979317545891 1.04771065712 1.13551473618 1.28104674816 1.36118531227 1.36114382744 1.28096222878 1.11152243614 1.04770970345 0.9794459939 0.977823257446 1.12722241879 1.23206543922 1.38358914852 1.44663536549 1.44658076763 1.38348186016 1.20491015911 1.1272354126 0.977935671806 0.97671443224 1.17812263966 1.28536748886 1.4182113409 1.4701808691 1.47012162209 1.4180983305 1.2571709156 1.17811799049 0.976800501347 0.976104259491 1.20398330688 1.31146013737 1.43176150322 1.47780644894 1.4777482748 1.43165063858 1.28282976151 1.20396959782 0.97617661953 0.976105332375 1.20397233963 1.31145095825 1.43175363541 1.47780072689 1.47774243355 1.43164265156 1.28282105923 1.20395851135 0.976177573204 0.976717233658 1.17808914185 1.28533744812 1.41818380356 1.47015857697 1.47009956837 1.41807067394 1.25714206696 1.1780847311 0.976803421974 0.977683365345 1.11357927322 1.21683716774 1.37171173096 1.44067585468 1.44062077999 1.37159943581 1.1899343729 1.11359405518 0.977797746658 0.979322195053 1.04763233662 1.13542187214 1.2809523344 1.36108076572 1.36103904247 1.28086781502 1.11143648624 1.04763150215 0.979450881481 0.984337389469 1.0125784874 1.04656589031 1.13978517056 1.2006291151 1.20060133934 1.13971197605 1.03967642784 1.01257443428 0.98445135355 
0.984123289585 1.00934779644 1.04214334488 1.13439881802 1.19456064701 1.19453382492 1.13432896137 1.03518640995 1.00934588909 0.984234631062 0.979027509689 1.04353129864 1.13083851337 1.27555060387 1.3552942276 1.35526108742 1.27546918392 1.10681629181 1.04353106022 0.979153931141 0.977348327637 1.1227196455 1.2275018692 1.38555932045 1.47138261795 1.4713383913 1.38547039032 1.20044660568 1.12273037434 0.977459132671 0.976021289825 1.17376315594 1.28123164177 1.43412137032 1.50463521481 1.50458323956 1.43403017521 1.25333464146 1.17375469208 0.976106762886 0.975258827209 1.19984006882 1.30798220634 1.45313715935 1.51558113098 1.51552772522 1.45304167271 1.27981436253 1.19982147217 0.975330591202 0.975259959698 1.19982933998 1.30797255039 1.45312964916 1.51557517052 1.51552152634 1.45303404331 1.27980554104 1.19981050491 0.975331783295 0.976024568081 1.17372953892 1.28120207787 1.43409848213 1.50461339951 1.50456142426 1.43400740623 1.25330579281 1.17372131348 0.976109981537 0.977223277092 1.10904622078 1.21207773685 1.36826062202 1.45824325085 1.45819807053 1.36817193031 1.18528747559 1.10905909538 0.977336108685 0.979032516479 1.04345464706 1.13074660301 1.27545690536 1.3551940918 1.35516119003 1.27537548542 1.10673129559 1.04345440865 0.979158818722 0.984141528606 1.00928878784 1.0420486927 1.13422715664 1.19438302517 1.19435632229 1.13415718079 1.0351010561 1.00928711891 0.984252691269 
0.984072685242 1.0083053112 1.04069912434 1.13261127472 1.19251966476 1.19249355793 1.13254213333 1.03372299671 1.00830435753 0.984183132648 0.978954076767 1.04219532013 1.12933075428 1.2737724781 1.35341620445 1.35338401794 1.27369236946 1.10529363155 1.04219543934 0.979079544544 0.977217912674 1.12126898766 1.22601020336 1.3839610815 1.47716975212 1.47713291645 1.38387441635 1.19897520542 1.12127923965 0.977328240871 0.975812733173 1.17237091064 1.2799706459 1.43536961079 1.52057147026 1.52052950859 1.43528723717 1.25214779377 1.17236149311 0.97589802742 0.974986314774 1.19854569435 1.30699050426 1.45869374275 1.53558886051 1.53554487228 1.45861244202 1.27895188332 1.19852542877 0.975058078766 0.974987506866 1.19853460789 1.30698132515 1.45868659019 1.53558301926 1.53553891182 1.45860528946 1.2789427042 1.1985142231 0.975059270859 0.975816309452 1.17233729362 1.27994143963 1.43534648418 1.52055096626 1.52050924301 1.43526422977 1.2521187067 1.17232775688 0.975901484489 0.977097809315 1.10758602619 1.21052384377 1.36652266979 1.45866966248 1.45863330364 1.36643612385 1.18375706673 1.10759878159 0.977210104465 0.978959083557 1.0421192646 1.12923908234 1.2736787796 1.3533154726 1.35328328609 1.27359890938 1.10520863533 1.04211938381 0.979084730148 0.984090805054 1.00824737549 1.040604949 1.13243985176 1.19234275818 1.19231653214 1.13237082958 1.03363800049 1.00824642181 0.984201312065 
0.984063863754 1.00810205936 1.04041612148 1.13225769997 1.19211411476 1.19208800793 1.13218903542 1.033436656 1.00810098648 0.984174132347 0.978941679001 1.04193258286 1.12903237343 1.27341628075 1.35303425789 1.3530023098 1.27333664894 1.10499203205 1.04193282127 0.979067087173 0.9771951437 1.12098157406 1.2257090807 1.3836170435 1.47685420513 1.47681879997 1.38353085518 1.19867622852 1.12099158764 0.977305233479 0.975773215294 1.17209661007 1.27972054482 1.43520390987 1.52407336235 1.52403497696 1.43512189388 1.25191128254 1.17208659649 0.975858509541 0.974931836128 1.19829559326 1.30681073666 1.45920681953 1.54158806801 1.54154825211 1.45912778378 1.27879869938 1.19827485085 0.975003540516 0.974933087826 1.19828462601 1.30680143833 1.45919954777 1.54158234596 1.54154253006 1.45912051201 1.27878952026 1.1982640028 0.975004732609 0.975776791573 1.17206299305 1.2796908617 1.4351811409 1.52405381203 1.52401530743 1.43509912491 1.25188207626 1.17205309868 0.975862026215 0.97707593441 1.10729682446 1.21021127701 1.36616313457 1.45830667019 1.4582709074 1.36607646942 1.1834474802 1.10730934143 0.977188050747 0.978946805 1.04185664654 1.1289409399 1.27332270145 1.35293364525 1.35290145874 1.27324306965 1.10490691662 1.04185688496 0.979072093964 0.984082102776 1.00804412365 1.04032206535 1.13208651543 1.19193720818 1.19191110134 1.13201785088 1.03335154057 1.00804316998 0.98419213295 
0.984063029289 1.00807988644 1.0403854847 1.13221955299 1.19207036495 1.19204413891 1.13215088844 1.03340554237 1.00807893276 0.984173178673 0.978940486908 1.04190444946 1.12900006771 1.27337741852 1.35299229622 1.35296010971 1.27329778671 1.10495936871 1.04190433025 0.979065835476 0.9771925807 1.12095034122 1.2256758213 1.38357818127 1.47680687904 1.47677135468 1.38349187374 1.19864344597 1.12096047401 0.977302849293 0.975768864155 1.17206716537 1.2796933651 1.43518471718 1.52436721325 1.52432918549 1.43510270119 1.25188577175 1.17205750942 0.975854098797 0.974925577641 1.19826948643 1.30679357052 1.45923161507 1.54253804684 1.5424990654 1.45915317535 1.27878439426 1.19824886322 0.974997162819 0.974926829338 1.19825851917 1.30678427219 1.45922446251 1.54253220558 1.54249322414 1.45914578438 1.27877557278 1.19823789597 0.974998533726 0.975772380829 1.17203354836 1.2796639204 1.43516206741 1.52434754372 1.52430939674 1.43508005142 1.25185644627 1.17202377319 0.975857555866 0.977073550224 1.10726559162 1.21017730236 1.36612272263 1.45826613903 1.45823025703 1.36603617668 1.18341362476 1.10727798939 0.97718578577 0.978945553303 1.04182827473 1.12890827656 1.27328395844 1.35289120674 1.35285925865 1.27320444584 1.10487449169 1.04182827473 0.979070842266 0.984081149101 1.00802195072 1.04029130936 1.13204836845 1.19189357758 1.19186723232 1.1319797039 1.03332042694 1.00802111626 0.984191298485 
