13.9815444946 21.7785320282 29.4673118591 37.2824058533 45.6825485229 54.3390045166 62.7380218506 70.5518875122 78.2408294678 86.0382232666 13.9756450653 21.5702819824 28.8374290466 36.4059944153 45.3150177002 54.7083206177 63.6151428223 71.1806869507 78.4480819702 86.044052124 13.9741725922 21.4118671417 28.4493713379 35.9635124207 45.1184005737 54.9058532715 64.0579147339 71.5682830811 78.6058959961 86.0454559326 13.9692382812 21.3210010529 28.2781829834 35.7662734985 45.0315666199 54.9930839539 64.2552642822 71.7393035889 78.6965103149 86.0503082275 13.9665365219 21.2826061249 28.2131443024 35.6882324219 44.9984016418 55.0264053345 64.3333740234 71.8042602539 78.7348327637 86.0529785156 13.9665393829 21.2826499939 28.2132167816 35.6883125305 44.9984359741 55.0263710022 64.3332824707 71.80418396 78.7347869873 86.0529785156 13.969247818 21.321144104 28.2784290314 35.7665672302 45.0316963196 54.9929618835 64.254989624 71.7390441895 78.6963653564 86.0503082275 13.9741849899 21.4121780396 28.4500255585 35.9642333984 45.1187210083 54.9055252075 64.057182312 71.5676345825 78.6055984497 86.0454406738 13.9756412506 21.5707683563 28.8388233185 36.4076805115 45.3157501221 54.7075805664 63.6134719849 71.1792831421 78.4476089478 86.0440444946 13.9815921783 21.7790908813 29.4689025879 37.2847213745 45.6835365295 54.3380203247 62.7356948853 70.5502853394 78.2402648926 86.0381774902 
13.9742679596 21.7632064819 29.4240875244 37.2218360901 45.6533050537 54.3683853149 62.7986106873 70.5950012207 78.2561264038 86.0454788208 13.9661436081 21.5468616486 28.7519836426 36.2565193176 45.2298469543 54.7938728333 63.7646217346 71.265914917 78.4714431763 86.0535125732 13.9627389908 21.3717384338 28.3111133575 35.7032737732 44.9818534851 55.0430412292 64.3181838989 71.7062225342 78.6458969116 86.0568466187 13.9551448822 21.2586708069 28.0754375458 35.4484825134 44.8749465942 55.1504554749 64.5731658936 71.94165802 78.7585906982 86.0643615723 13.9504165649 21.2028179169 27.9722499847 35.352104187 44.8364334106 55.1891403198 64.6696395874 72.0447692871 78.8142929077 86.0690383911 13.9504203796 21.2028846741 27.9723587036 35.3522033691 44.8364715576 55.1891021729 64.6695404053 72.0446472168 78.8142242432 86.0690307617 13.9551610947 21.2588691711 28.0758171082 35.4488449097 44.8750839233 55.1503067017 64.5728149414 71.9412689209 78.7583847046 86.0643386841 13.9627561569 21.3720989227 28.3119258881 35.7042274475 44.9822769165 55.0426292419 64.3172225952 71.7054138184 78.6455230713 86.0568313599 13.9661455154 21.5473747253 28.7534942627 36.2584724426 45.2307434082 54.7929763794 63.7626609802 71.2644042969 78.4709396362 86.0535049438 13.974322319 21.7637729645 29.4257640839 37.2243156433 45.6543655396 54.367313385 62.796131134 70.5933303833 78.2555541992 86.0454177856 
13.9731082916 21.7611808777 29.4175014496 37.2127304077 45.6490936279 54.3726158142 62.8077354431 70.6015777588 78.258140564 86.0466308594 13.9646253586 21.543806076 28.738363266 36.2344970703 45.2172966003 54.8064880371 63.7866401672 71.2795028687 78.4744873047 86.0550231934 13.9609136581 21.3658561707 28.2879276276 35.6566009521 44.9454078674 55.0796699524 64.3648071289 71.7293548584 78.6517486572 86.0586700439 13.9529457092 21.2486686707 28.040271759 35.3675842285 44.8207321167 55.2049102783 64.6540145874 71.9767303467 78.7685699463 86.0665435791 13.9479160309 21.1894550323 27.9275894165 35.2536201477 44.7751083374 55.2507591248 64.768081665 72.0893249512 78.8275985718 86.0715179443 13.9479217529 21.1895275116 27.9277153015 35.2537460327 44.7751541138 55.250705719 64.7679519653 72.0892028809 78.8275222778 86.0715255737 13.9529628754 21.2488746643 28.0406780243 35.3680114746 44.8209075928 55.2047386169 64.6535873413 71.9763336182 78.7683563232 86.0665359497 13.9609298706 21.3662242889 28.2887592316 35.6576271057 44.9458656311 55.0791893005 64.3637695312 71.7285232544 78.6513671875 86.0586624146 13.9646272659 21.5443248749 28.7398910522 36.2364883423 45.2182273865 54.8055496216 63.7846488953 71.2779693604 78.4739685059 86.0550308228 13.9731645584 21.7617473602 29.4191913605 37.2152328491 45.6501655579 54.3715362549 62.805229187 70.599899292 78.2575759888 86.0465698242 
13.9729537964 21.7609329224 29.416677475 37.2116165161 45.6485977173 54.3731155396 62.80884552 70.6024093628 78.258392334 86.0467834473 13.9644241333 21.5434474945 28.7366409302 36.2318267822 45.2159233093 54.8078651428 63.7893104553 71.281211853 78.4748382568 86.0552368164 13.9606714249 21.365114212 28.284910202 35.6508140564 44.9404449463 55.0846443176 64.3705825806 71.7323532104 78.6524810791 86.0589065552 13.9526481628 21.247335434 28.0354270935 35.356388092 44.81067276 55.2150230408 64.6651916504 71.9815673828 78.7698745728 86.0668334961 13.9475774765 21.1876487732 27.9213371277 35.2378082275 44.7626419067 55.2632713318 64.7838668823 72.0955734253 78.8293991089 86.0718612671 13.9475831985 21.1877193451 27.9214706421 35.2379379272 44.7626876831 55.2632293701 64.7837371826 72.0954208374 78.8293228149 86.0718612671 13.9526662827 21.2475471497 28.0358371735 35.3568344116 44.8108520508 55.2148399353 64.6647491455 71.9811630249 78.7696609497 86.0668258667 13.9606895447 21.365486145 28.2857513428 35.6518669128 44.9409370422 55.0841598511 64.3695297241 71.7315292358 78.6521072388 86.0588912964 13.964427948 21.5439662933 28.7381744385 36.2338218689 45.2168617249 54.8069267273 63.7873191833 71.2797012329 78.4743347168 86.0552215576 13.9730081558 21.7614994049 29.4183731079 37.2141189575 45.6496734619 54.3720321655 62.8063354492 70.6007232666 78.2578201294 86.0467300415 
13.9729328156 21.7608985901 29.4165611267 37.2114601135 45.6485366821 54.3731842041 62.8089904785 70.6025085449 78.2584228516 86.0468063354 13.9643964767 21.5433959961 28.7364044189 36.2314720154 45.2157516479 54.8080444336 63.7896690369 71.2814483643 78.4749145508 86.0552597046 13.9606370926 21.3650112152 28.284488678 35.6500396729 44.9398574829 55.0852355957 64.3713607788 71.7327651978 78.6525878906 86.0589447021 13.9526071548 21.2471446991 28.0347251892 35.3548278809 44.8090324402 55.2166671753 64.6667480469 71.9822616577 78.7700805664 86.0668792725 13.9475317001 21.1873817444 27.9204158783 35.2354469299 44.7604370117 55.2654953003 64.7862319946 72.0965042114 78.8296737671 86.0718994141 13.9475364685 21.1874542236 27.9205417633 35.2355766296 44.7604904175 55.2654418945 64.7861022949 72.0963516235 78.8295898438 86.0719146729 13.952624321 21.2473545074 28.0351371765 35.3552742004 44.8092193604 55.2164840698 64.6663131714 71.9818649292 78.7698669434 86.0668640137 13.9606571198 21.3653793335 28.2853317261 35.6510848999 44.9403343201 55.0847434998 64.3703079224 71.7319564819 78.6522140503 86.0589370728 13.9644002914 21.5439147949 28.7379417419 36.2334709167 45.2166824341 54.8070983887 63.7876701355 71.2799301147 78.4743881226 86.0552597046 13.9729881287 21.7614631653 29.418258667 37.213973999 45.6496086121 54.3720932007 62.8064880371 70.6008224487 78.2578582764 86.0467529297 
13.9729309082 21.7608947754 29.4165420532 37.2114334106 45.6485214233 54.3731956482 62.8090209961 70.6025390625 78.2584152222 86.0468139648 13.9643907547 21.543384552 28.7363624573 36.2314071655 45.2157173157 54.8080673218 63.7897338867 71.2814941406 78.4749145508 86.055267334 13.9606351852 21.3649902344 28.2844085693 35.6499099731 44.9397621155 55.0853271484 64.3714828491 71.7328720093 78.6526184082 86.0589523315 13.9526004791 21.2471065521 28.0346012115 35.3545646667 44.8087425232 55.216960907 64.6670150757 71.982383728 78.7701263428 86.0668869019 13.9475231171 21.1873283386 27.9202461243 35.235042572 44.7600250244 55.265914917 64.7866363525 72.0966491699 78.8297119141 86.0719146729 13.9475288391 21.1874008179 27.9203739166 35.235168457 44.7600746155 55.2658615112 64.7865066528 72.0965118408 78.8296356201 86.0719223022 13.9526195526 21.2473144531 28.0350208282 35.355014801 44.8089256287 55.2167778015 64.6665649414 71.9819869995 78.7699050903 86.0668640137 13.9606513977 21.36536026 28.2852554321 35.6509513855 44.940246582 55.0848350525 64.3704452515 71.7320175171 78.6522216797 86.0589370728 13.9643945694 21.5439033508 28.7378921509 36.2334060669 45.2166557312 54.8071327209 63.7877349854 71.2799682617 78.474395752 86.0552597046 13.9729862213 21.7614593506 29.4182376862 37.2139396667 45.649597168 54.3721122742 62.80651474 70.6008605957 78.2578659058 86.0467529297 
13.9729290009 21.7608909607 29.4165344238 37.2114295959 45.6485137939 54.3731994629 62.8090248108 70.6025466919 78.2584228516 86.0468063354 13.9643917084 21.5433807373 28.7363452911 36.231388092 45.2157096863 54.8080749512 63.7897415161 71.2815170288 78.4749145508 86.055267334 13.9606332779 21.3649845123 28.2843837738 35.6498718262 44.939743042 55.0853424072 64.3715286255 71.7328872681 78.6526260376 86.0589447021 13.9525995255 21.2470932007 28.0345649719 35.3544960022 44.8086738586 55.2170219421 64.6670761108 71.982421875 78.7701263428 86.0668945312 13.9475212097 21.1873130798 27.9201946259 35.2349319458 44.759929657 55.2659988403 64.7867431641 72.0967102051 78.829750061 86.0719146729 13.9475269318 21.1873817444 27.9203262329 35.2350654602 44.759979248 55.265953064 64.7866210938 72.0965576172 78.8296585083 86.0719223022 13.9526176453 21.2473011017 28.0349769592 35.3549423218 44.8088607788 55.2168464661 64.6666412354 71.9820175171 78.7699127197 86.0668716431 13.9606513977 21.3653507233 28.2852287292 35.6509170532 44.9402313232 55.084854126 64.3704833984 71.7320404053 78.6522445679 86.0589370728 13.9643955231 21.5438976288 28.7378807068 36.2333946228 45.2166442871 54.8071365356 63.7877426147 71.2799911499 78.4743881226 86.0552597046 13.9729833603 21.7614574432 29.4182300568 37.2139320374 45.649597168 54.3721122742 62.8065185547 70.6008529663 78.2578582764 86.0467453003 
