1.00000011921 1.0 0.999995529652 1.05349838734 1.10030972958 1.10028123856 1.05342876911 1.0 1.0 1.0 1.0 1.0 1.04302513599 1.16613137722 1.23487079144 1.23483717442 1.16604590416 1.02607750893 1.0 1.0 1.00000011921 1.03637301922 1.12119054794 1.26258218288 1.33968162537 1.33964490891 1.26250171661 1.0985840559 1.03638923168 1.0 1.0 1.07799744606 1.16813910007 1.30587244034 1.37302851677 1.37298727036 1.30579018593 1.14324963093 1.07800912857 1.0 1.0 1.09949064255 1.19238054752 1.32389569283 1.38464605808 1.38460409641 1.32381415367 1.16639697552 1.09949338436 1.0 1.0 1.09948050976 1.19237232208 1.3238888979 1.38464069366 1.38459897041 1.32380735874 1.16638851166 1.09948337078 1.0 1.00000011921 1.07796704769 1.16811239719 1.30585134029 1.37301039696 1.37296915054 1.3057693243 1.14322316647 1.07797884941 1.0 1.0 1.0265853405 1.10853242874 1.24666535854 1.32666194439 1.32662439346 1.24658048153 1.0868948698 1.0266020298 1.0 1.00000011921 0.999999940395 1.04295051098 1.16604089737 1.2347779274 1.23474431038 1.16595554352 1.02600681782 1.0 0.999999940395 0.999999940395 1.0 0.999995648861 1.05334639549 1.10013854504 1.10010993481 1.05327665806 1.00000011921 1.00000011921 1.0 
1.00000011921 1.0 0.999995529652 1.05349838734 1.10030972958 1.10028123856 1.05342876911 1.0 1.0 1.0 1.0 1.0 1.04302513599 1.16613137722 1.23487079144 1.23483717442 1.16604590416 1.02607750893 1.0 1.0 1.00000011921 1.03637301922 1.12119054794 1.26305401325 1.35109806061 1.35106599331 1.26297533512 1.0985840559 1.03638923168 1.0 1.0 1.07799744606 1.16813910007 1.3134752512 1.39539170265 1.39535653591 1.31340134144 1.14324963093 1.07800912857 1.0 1.0 1.09949064255 1.19238054752 1.33588421345 1.41216123104 1.41212487221 1.33581018448 1.16639697552 1.09949338436 1.0 1.0 1.09948050976 1.19237232208 1.33587777615 1.41215586662 1.41211950779 1.33580362797 1.16638851166 1.09948337078 1.0 1.00000011921 1.07796704769 1.16811239719 1.31345510483 1.39537334442 1.39533805847 1.31338131428 1.14322316647 1.07797884941 1.0 1.0 1.0265853405 1.10853242874 1.24666535854 1.33266675472 1.33263361454 1.24658048153 1.0868948698 1.0266020298 1.0 1.00000011921 0.999999940395 1.04295051098 1.16604089737 1.2347779274 1.23474431038 1.16595554352 1.02600681782 1.0 0.999999940395 0.999999940395 1.0 0.999995648861 1.05334639549 1.10013854504 1.10010993481 1.05327665806 1.00000011921 1.00000011921 1.0 
1.00000011921 1.0 0.999995529652 1.05349838734 1.10030972958 1.10028123856 1.05342876911 1.0 1.0 1.0 1.0 1.0 1.04302513599 1.16613137722 1.23487079144 1.23483717442 1.16604590416 1.02607750893 1.0 1.0 1.00000011921 1.03637301922 1.12119054794 1.26305401325 1.35133671761 1.35130476952 1.26297533512 1.0985840559 1.03638923168 1.0 1.0 1.07799744606 1.16813910007 1.31369757652 1.39677071571 1.39673602581 1.31362390518 1.14324963093 1.07800912857 1.0 1.0 1.09949064255 1.19238054752 1.33665156364 1.41419792175 1.41416215897 1.33657836914 1.16639697552 1.09949338436 1.0 1.0 1.09948050976 1.19237232208 1.33664524555 1.41419243813 1.41415679455 1.33657193184 1.16638851166 1.09948337078 1.0 1.00000011921 1.07796704769 1.16811239719 1.31367731094 1.39675247669 1.396717906 1.31360387802 1.14322316647 1.07797884941 1.0 1.0 1.0265853405 1.10853242874 1.24666535854 1.33266675472 1.33263361454 1.24658048153 1.0868948698 1.0266020298 1.0 1.00000011921 0.999999940395 1.04295051098 1.16604089737 1.2347779274 1.23474431038 1.16595554352 1.02600681782 1.0 0.999999940395 0.999999940395 1.0 0.999995648861 1.05334639549 1.10013854504 1.10010993481 1.05327665806 1.00000011921 1.00000011921 1.0 
1.00000011921 1.0 0.999995529652 1.05349838734 1.10030972958 1.10028123856 1.05342876911 1.0 1.0 1.0 1.0 1.0 1.04302513599 1.16613137722 1.23487079144 1.23483717442 1.16604590416 1.02607750893 1.0 1.0 1.00000011921 1.03637301922 1.12119054794 1.26305401325 1.35133671761 1.35130465031 1.26297533512 1.0985840559 1.03638923168 1.0 1.0 1.07799744606 1.16813910007 1.31370973587 1.39696836472 1.39693379402 1.31363618374 1.14324963093 1.07800912857 1.0 1.0 1.09949064255 1.19238054752 1.33678007126 1.41453027725 1.41449451447 1.33670675755 1.16639697552 1.09949338436 1.0 1.0 1.09948050976 1.19237232208 1.33677351475 1.41452479362 1.41448903084 1.33670032024 1.16638851166 1.09948337078 1.0 1.00000011921 1.07796704769 1.16811239719 1.31368947029 1.39695000648 1.39691543579 1.31361615658 1.14322316647 1.07797884941 1.0 1.0 1.0265853405 1.10853242874 1.24666535854 1.33266675472 1.33263361454 1.24658048153 1.0868948698 1.0266020298 1.0 1.00000011921 0.999999940395 1.04295051098 1.16604089737 1.2347779274 1.23474431038 1.16595554352 1.02600681782 1.0 0.999999940395 0.999999940395 1.0 0.999995648861 1.05334639549 1.10013854504 1.10010993481 1.05327665806 1.00000011921 1.00000011921 1.0 
1.00000011921 1.0 0.999995529652 1.05349838734 1.10030972958 1.10028123856 1.05342876911 1.0 1.0 1.0 1.0 1.0 1.04302513599 1.16613137722 1.23487079144 1.23483717442 1.16604590416 1.02607750893 1.0 1.0 1.00000011921 1.03637301922 1.12119054794 1.26305401325 1.35133671761 1.35130465031 1.26297533512 1.0985840559 1.03638923168 1.0 1.0 1.07799744606 1.16813910007 1.31371128559 1.39701616764 1.39698147774 1.3136382103 1.14324963093 1.07800912857 1.0 1.0 1.09949064255 1.19238054752 1.33681631088 1.41461646557 1.41458082199 1.33674311638 1.16639697552 1.09949338436 1.0 1.0 1.09948050976 1.19237232208 1.33680987358 1.41461110115 1.41457545757 1.33673679829 1.16638851166 1.09948337078 1.0 1.00000011921 1.07796704769 1.16811239719 1.31369113922 1.39699804783 1.39696347713 1.31361794472 1.14322316647 1.07797884941 1.0 1.0 1.0265853405 1.10853242874 1.24666535854 1.33266675472 1.33263361454 1.24658048153 1.0868948698 1.0266020298 1.0 1.00000011921 0.999999940395 1.04295051098 1.16604089737 1.2347779274 1.23474431038 1.16595554352 1.02600681782 1.0 0.999999940395 0.999999940395 1.0 0.999995648861 1.05334639549 1.10013854504 1.10010993481 1.05327665806 1.00000011921 1.00000011921 1.0 
1.00000011921 1.0 0.999995529652 1.05349838734 1.10030972958 1.10028123856 1.05342876911 1.0 1.0 1.0 1.0 1.0 1.04302513599 1.16613137722 1.23487079144 1.23483717442 1.16604590416 1.02607750893 1.0 1.0 1.00000011921 1.03637301922 1.12119054794 1.26305401325 1.35133671761 1.35130465031 1.26297533512 1.0985840559 1.03638923168 1.0 1.0 1.07799744606 1.16813910007 1.3137140274 1.3970348835 1.39700031281 1.31364071369 1.14324963093 1.07800912857 1.0 1.0 1.09949064255 1.19238054752 1.33683204651 1.41464912891 1.41461336613 1.33675909042 1.16639697552 1.09949338436 1.0 1.0 1.09948050976 1.19237232208 1.33682584763 1.41464388371 1.41460824013 1.33675265312 1.16638851166 1.09948337078 1.0 1.00000011921 1.07796704769 1.16811239719 1.31369388103 1.39701652527 1.39698183537 1.31362044811 1.14322316647 1.07797884941 1.0 1.0 1.0265853405 1.10853242874 1.24666535854 1.33266675472 1.33263361454 1.24658048153 1.0868948698 1.0266020298 1.0 1.00000011921 0.999999940395 1.04295051098 1.16604089737 1.2347779274 1.23474431038 1.16595554352 1.02600681782 1.0 0.999999940395 0.999999940395 1.0 0.999995648861 1.05334639549 1.10013854504 1.10010993481 1.05327665806 1.00000011921 1.00000011921 1.0 
1.00000011921 1.0 0.999995529652 1.05349838734 1.10030972958 1.10028123856 1.05342876911 1.0 1.0 1.0 1.0 1.0 1.04302513599 1.16613137722 1.23487079144 1.23483717442 1.16604590416 1.02607750893 1.0 1.0 1.00000011921 1.03637301922 1.12119054794 1.26305401325 1.35133671761 1.35130465031 1.26297533512 1.0985840559 1.03638923168 1.0 1.0 1.07799744606 1.16813910007 1.31371867657 1.39704573154 1.39701128006 1.31364524364 1.14324963093 1.07800912857 1.0 1.0 1.09949064255 1.19238054752 1.33684194088 1.41466641426 1.41463077068 1.33676886559 1.16639697552 1.09949338436 1.0 1.0 1.09948050976 1.19237232208 1.33683562279 1.41466093063 1.41462528706 1.33676254749 1.16638851166 1.09948337078 1.0 1.00000011921 1.07796704769 1.16811239719 1.31369829178 1.39702749252 1.39699280262 1.31362509727 1.14322316647 1.07797884941 1.0 1.0 1.0265853405 1.10853242874 1.24666535854 1.33266675472 1.33263361454 1.24658048153 1.0868948698 1.0266020298 1.0 1.00000011921 0.999999940395 1.04295051098 1.16604089737 1.2347779274 1.23474431038 1.16595554352 1.02600681782 1.0 0.999999940395 0.999999940395 1.0 0.999995648861 1.05334639549 1.10013854504 1.10010993481 1.05327665806 1.00000011921 1.00000011921 1.0 
