1.00000011921 1.0 0.999215662479 1.06369578838 1.10827445984 1.10824751854 1.06363153458 1.0 1.0 1.0 1.0 1.0 1.05372905731 1.16096913815 1.22188782692 1.22185623646 1.16088712215 1.03074789047 1.0 1.0 1.00000011921 1.03423821926 1.12750160694 1.24519979954 1.30961942673 1.30958414078 1.24512147903 1.09986209869 1.03425574303 1.0 1.0 1.07468235493 1.17180848122 1.28365421295 1.33727049828 1.33723330498 1.28357601166 1.14111578465 1.07469856739 1.0 1.0 1.09495186806 1.19457316399 1.2994799614 1.34680604935 1.34677016735 1.2994042635 1.16204881668 1.09496021271 1.0 1.0 1.09494233131 1.19456422329 1.29947316647 1.34680128098 1.34676527977 1.29939758778 1.16204023361 1.09495055676 1.0 1.00000011921 1.07465314865 1.17178070545 1.28363239765 1.33725261688 1.33721530437 1.28355383873 1.14108884335 1.07466948032 1.0 1.0 1.02422952652 1.11591374874 1.23175132275 1.29973340034 1.2996969223 1.23166823387 1.08929669857 1.02424716949 1.0 1.00000011921 0.999999940395 1.05365920067 1.16088604927 1.22180366516 1.22177219391 1.16080403328 1.03067815304 1.0 0.999999940395 0.999999940395 1.0 0.999231636524 1.06354808807 1.10811209679 1.10808503628 1.06348383427 1.00000011921 1.00000011921 1.0 
1.00000011921 1.0 0.999215662479 1.06369578838 1.10827445984 1.10824751854 1.06363153458 1.0 1.0 1.0 1.0 1.0 1.05372905731 1.16096913815 1.22188782692 1.22185623646 1.16088712215 1.03074789047 1.0 1.0 1.00000011921 1.03423821926 1.12750160694 1.24541914463 1.32155537605 1.32152473927 1.2453417778 1.09986209869 1.03425574303 1.0 1.0 1.07468235493 1.17180848122 1.29031527042 1.36415266991 1.3641204834 1.29024291039 1.14111578465 1.07469856739 1.0 1.0 1.09495186806 1.19457316399 1.31267774105 1.3809928894 1.38096094131 1.31260788441 1.16204881668 1.09496021271 1.0 1.0 1.09494233131 1.19456422329 1.3126707077 1.38098740578 1.38095545769 1.31260097027 1.16204023361 1.09495055676 1.0 1.00000011921 1.07465314865 1.17178070545 1.2902944088 1.3641346693 1.36410224438 1.29022228718 1.14108884335 1.07466948032 1.0 1.0 1.02422952652 1.11591374874 1.23175132275 1.305768013 1.30573534966 1.23166823387 1.08929669857 1.02424716949 1.0 1.00000011921 0.999999940395 1.05365920067 1.16088604927 1.22180366516 1.22177219391 1.16080403328 1.03067815304 1.0 0.999999940395 0.999999940395 1.0 0.999231636524 1.06354808807 1.10811209679 1.10808503628 1.06348383427 1.00000011921 1.00000011921 1.0 
1.00000011921 1.0 0.999215662479 1.06369578838 1.10827445984 1.10824751854 1.06363153458 1.0 1.0 1.0 1.0 1.0 1.05372905731 1.16096913815 1.22188782692 1.22185623646 1.16088712215 1.03074789047 1.0 1.0 1.00000011921 1.03423821926 1.12750160694 1.24541914463 1.32155537605 1.32152473927 1.2453417778 1.09986209869 1.03425574303 1.0 1.0 1.07468235493 1.17180848122 1.29031527042 1.36479926109 1.36476719379 1.29024291039 1.14111578465 1.07469856739 1.0 1.0 1.09495186806 1.19457316399 1.31283414364 1.38230526447 1.38227403164 1.31276464462 1.16204881668 1.09496021271 1.0 1.0 1.09494233131 1.19456422329 1.3128272295 1.38229978085 1.38226854801 1.31275773048 1.16204023361 1.09495055676 1.0 1.00000011921 1.07465314865 1.17178070545 1.2902944088 1.36478126049 1.36474919319 1.29022228718 1.14108884335 1.07466948032 1.0 1.0 1.02422952652 1.11591374874 1.23175132275 1.305768013 1.30573534966 1.23166823387 1.08929669857 1.02424716949 1.0 1.00000011921 0.999999940395 1.05365920067 1.16088604927 1.22180366516 1.22177219391 1.16080403328 1.03067815304 1.0 0.999999940395 0.999999940395 1.0 0.999231636524 1.06354808807 1.10811209679 1.10808503628 1.06348383427 1.00000011921 1.00000011921 1.0 
1.00000011921 1.0 0.999215662479 1.06369578838 1.10827445984 1.10824751854 1.06363153458 1.0 1.0 1.0 1.0 1.0 1.05372905731 1.16096913815 1.22188782692 1.22185623646 1.16088712215 1.03074789047 1.0 1.0 1.00000011921 1.03423821926 1.12750160694 1.24541914463 1.32155537605 1.32152473927 1.2453417778 1.09986209869 1.03425574303 1.0 1.0 1.07468235493 1.17180848122 1.29031527042 1.36482834816 1.36479640007 1.29024291039 1.14111578465 1.07469856739 1.0 1.0 1.09495186806 1.19457316399 1.31283891201 1.3823953867 1.38236427307 1.31276929379 1.16204881668 1.09496021271 1.0 1.0 1.09494233131 1.19456422329 1.31283199787 1.38239002228 1.38235878944 1.31276249886 1.16204023361 1.09495055676 1.0 1.00000011921 1.07465314865 1.17178070545 1.2902944088 1.36481034756 1.36477828026 1.29022228718 1.14108884335 1.07466948032 1.0 1.0 1.02422952652 1.11591374874 1.23175132275 1.305768013 1.30573534966 1.23166823387 1.08929669857 1.02424716949 1.0 1.00000011921 0.999999940395 1.05365920067 1.16088604927 1.22180366516 1.22177219391 1.16080403328 1.03067815304 1.0 0.999999940395 0.999999940395 1.0 0.999231636524 1.06354808807 1.10811209679 1.10808503628 1.06348383427 1.00000011921 1.00000011921 1.0 
1.00000011921 1.0 0.999215662479 1.06369578838 1.10827445984 1.10824751854 1.06363153458 1.0 1.0 1.0 1.0 1.0 1.05372905731 1.16096913815 1.22188782692 1.22185623646 1.16088712215 1.03074789047 1.0 1.0 1.00000011921 1.03423821926 1.12750160694 1.24541914463 1.32155537605 1.32152473927 1.2453417778 1.09986209869 1.03425574303 1.0 1.0 1.07468235493 1.17180848122 1.29031527042 1.3648365736 1.3648045063 1.29024291039 1.14111578465 1.07469856739 1.0 1.0 1.09495186806 1.19457316399 1.31284308434 1.38241147995 1.38238048553 1.31277346611 1.16204881668 1.09496021271 1.0 1.0 1.09494233131 1.19456422329 1.31283628941 1.38240623474 1.38237500191 1.31276679039 1.16204023361 1.09495055676 1.0 1.00000011921 1.07465314865 1.17178070545 1.2902944088 1.36481845379 1.3647865057 1.29022228718 1.14108884335 1.07466948032 1.0 1.0 1.02422952652 1.11591374874 1.23175132275 1.305768013 1.30573534966 1.23166823387 1.08929669857 1.02424716949 1.0 1.00000011921 0.999999940395 1.05365920067 1.16088604927 1.22180366516 1.22177219391 1.16080403328 1.03067815304 1.0 0.999999940395 0.999999940395 1.0 0.999231636524 1.06354808807 1.10811209679 1.10808503628 1.06348383427 1.00000011921 1.00000011921 1.0 
1.00000011921 1.0 0.999215662479 1.06369578838 1.10827445984 1.10824751854 1.06363153458 1.0 1.0 1.0 1.0 1.0 1.05372905731 1.16096913815 1.22188782692 1.22185623646 1.16088712215 1.03074789047 1.0 1.0 1.00000011921 1.03423821926 1.12750160694 1.24541914463 1.32155537605 1.32152473927 1.2453417778 1.09986209869 1.03425574303 1.0 1.0 1.07468235493 1.17180848122 1.29031527042 1.36484408379 1.3648121357 1.29024291039 1.14111578465 1.07469856739 1.0 1.0 1.09495186806 1.19457316399 1.31284785271 1.3824211359 1.38238978386 1.31277823448 1.16204881668 1.09496021271 1.0 1.0 1.09494233131 1.19456422329 1.31284093857 1.38241589069 1.38238441944 1.31277143955 1.16204023361 1.09495055676 1.0 1.00000011921 1.07465314865 1.17178070545 1.2902944088 1.36482620239 1.36479413509 1.29022228718 1.14108884335 1.07466948032 1.0 1.0 1.02422952652 1.11591374874 1.23175132275 1.305768013 1.30573534966 1.23166823387 1.08929669857 1.02424716949 1.0 1.00000011921 0.999999940395 1.05365920067 1.16088604927 1.22180366516 1.22177219391 1.16080403328 1.03067815304 1.0 0.999999940395 0.999999940395 1.0 0.999231636524 1.06354808807 1.10811209679 1.10808503628 1.06348383427 1.00000011921 1.00000011921 1.0 
1.00000011921 1.0 0.999215662479 1.06369578838 1.10827445984 1.10824751854 1.06363153458 1.0 1.0 1.0 1.0 1.0 1.05372905731 1.16096913815 1.22188782692 1.22185623646 1.16088712215 1.03074789047 1.0 1.0 1.00000011921 1.03423821926 1.12750160694 1.24541914463 1.32155537605 1.32152473927 1.2453417778 1.09986209869 1.03425574303 1.0 1.0 1.07468235493 1.17180848122 1.29031527042 1.36485207081 1.36482000351 1.29024291039 1.14111578465 1.07469856739 1.0 1.0 1.09495186806 1.19457316399 1.31285309792 1.38242983818 1.38239860535 1.31278347969 1.16204881668 1.09496021271 1.0 1.0 1.09494233131 1.19456422329 1.31284606457 1.38242435455 1.38239312172 1.31277656555 1.16204023361 1.09495055676 1.0 1.00000011921 1.07465314865 1.17178070545 1.2902944088 1.36483383179 1.3648018837 1.29022228718 1.14108884335 1.07466948032 1.0 1.0 1.02422952652 1.11591374874 1.23175132275 1.305768013 1.30573534966 1.23166823387 1.08929669857 1.02424716949 1.0 1.00000011921 0.999999940395 1.05365920067 1.16088604927 1.22180366516 1.22177219391 1.16080403328 1.03067815304 1.0 0.999999940395 0.999999940395 1.0 0.999231636524 1.06354808807 1.10811209679 1.10808503628 1.06348383427 1.00000011921 1.00000011921 1.0 
