0.984438896179 1.0093588829 1.03785872459 1.11845636368 1.18237996101 1.18235421181 1.11839532852 1.03514111042 1.00935840607 0.984556257725 0.97930264473 1.04332852364 1.11563253403 1.27726733685 1.3610240221 1.3609919548 1.27718448639 1.08905088902 1.04331755638 0.979427874088 0.978071033955 1.11308145523 1.22560417652 1.39445197582 1.49161732197 1.49158096313 1.39436519146 1.1965559721 1.11308884621 0.978181421757 0.976562261581 1.17041969299 1.28380358219 1.44890356064 1.53754532337 1.537504673 1.44882082939 1.25492441654 1.17041110992 0.976644396782 0.97548520565 1.19866478443 1.31232106686 1.47250342369 1.55424046516 1.55419874191 1.47242093086 1.28361356258 1.19864237309 0.975553154945 0.975486636162 1.19865393639 1.31231164932 1.47249627113 1.5542345047 1.55419278145 1.4724136591 1.28360438347 1.19863128662 0.975554645061 0.976566553116 1.17038726807 1.28377401829 1.44888091087 1.537525177 1.53748464584 1.44879829884 1.25489532948 1.17037880421 0.97664886713 0.97786706686 1.09593462944 1.207649827 1.37572205067 1.47212421894 1.47208678722 1.37563514709 1.17839252949 1.09594726562 0.977979838848 0.979307174683 1.04324924946 1.1155500412 1.27716910839 1.36092126369 1.36088895798 1.27708625793 1.08897519112 1.04323840141 0.979432344437 0.984459280968 1.00930178165 1.03777182102 1.11831188202 1.18221259117 1.18218696117 1.11825060844 1.03504884243 1.00930142403 0.98457634449 
0.984426617622 1.00906836987 1.03745257854 1.11794435978 1.18179392815 1.18176829815 1.11788332462 1.03472924232 1.00906813145 0.984543561935 0.979285955429 1.04294610023 1.11519694328 1.27674341202 1.36045014858 1.36041808128 1.27666091919 1.08861172199 1.04293513298 0.979410886765 0.97804325819 1.11264681816 1.22514867783 1.39392709732 1.49204039574 1.49200475216 1.39384114742 1.19610476494 1.1126537323 0.978153467178 0.976515889168 1.16998434067 1.28338682652 1.44891858101 1.54163944721 1.54160118103 1.44883728027 1.25452828407 1.16997551918 0.976598024368 0.975421726704 1.19824850559 1.31197953224 1.47413372993 1.56039762497 1.56035816669 1.47405445576 1.28331112862 1.19822537899 0.975489616394 0.975423157215 1.19823753834 1.31197023392 1.47412669659 1.56039190292 1.56035232544 1.4740473032 1.28330171108 1.19821441174 0.97549110651 0.976520180702 1.16995191574 1.28335785866 1.44889593124 1.54161977768 1.54158139229 1.4488145113 1.25449919701 1.16994321346 0.976602256298 0.977840185165 1.09550023079 1.20718109608 1.37517178059 1.47160303593 1.47156751156 1.37508547306 1.1779282093 1.09551286697 0.977952957153 0.979290544987 1.04286706448 1.11511433125 1.27664494514 1.36034727097 1.36031496525 1.27656257153 1.08853650093 1.04285645485 0.979415416718 0.984446942806 1.00901150703 1.03736615181 1.11779975891 1.18162679672 1.18160128593 1.11773884296 1.03463709354 1.00901138783 0.984563648701 
0.984426259995 1.00906181335 1.03744387627 1.1179343462 1.18178272247 1.18175697327 1.11787331104 1.03472054005 1.00906169415 0.984543144703 0.979285418987 1.04293823242 1.11518836021 1.27673339844 1.36043941975 1.36040711403 1.27665090561 1.0886027813 1.04292738438 0.979410290718 0.978042244911 1.11263859272 1.22514081001 1.39391732216 1.49202764034 1.49199223518 1.39383161068 1.19609630108 1.11264538765 0.978152513504 0.976514279842 1.16997659206 1.28338074684 1.44891548157 1.54175746441 1.54171919823 1.44883394241 1.25452196598 1.169968009 0.976596415043 0.975419640541 1.19824194908 1.31197619438 1.4742013216 1.56061828136 1.5605789423 1.47412240505 1.28330874443 1.19821882248 0.975487530231 0.975421071053 1.19823074341 1.31196665764 1.47419440746 1.56061267853 1.56057322025 1.4741153717 1.28329944611 1.19820797443 0.975488960743 0.976518630981 1.16994416714 1.28335154057 1.4488928318 1.54173755646 1.54169952869 1.44881153107 1.25449311733 1.16993546486 0.976600706577 0.977839231491 1.09549176693 1.2071723938 1.3751616478 1.47159314156 1.4715577364 1.37507510185 1.17791938782 1.09550428391 0.977952122688 0.979289889336 1.04285919666 1.11510586739 1.27663493156 1.36033630371 1.36030435562 1.27655255795 1.08852767944 1.04284858704 0.97941493988 0.984446525574 1.00900506973 1.03735721111 1.11778974533 1.18161559105 1.18158984184 1.11772882938 1.03462827206 1.00900495052 0.984563231468 
0.984426081181 1.00906145573 1.03744375706 1.11793446541 1.18178343773 1.18175780773 1.11787366867 1.03472030163 1.00906133652 0.984543085098 0.979285240173 1.04293823242 1.11518871784 1.2767342329 1.360440135 1.36040818691 1.27665174007 1.08860290051 1.04292750359 0.979410111904 0.978042006493 1.11263906956 1.22514140606 1.39391899109 1.49202895164 1.49199354649 1.39383304119 1.19609713554 1.11264586449 0.978152275085 0.976513922215 1.16997778416 1.28338229656 1.4489184618 1.54177904129 1.54174089432 1.44883716106 1.25452387333 1.16996896267 0.97659611702 0.975419163704 1.19824314117 1.31197845936 1.47422039509 1.56065511703 1.56061553955 1.47414135933 1.28331136703 1.19822013378 0.975487053394 0.975420713425 1.19823229313 1.31196916103 1.47421324253 1.56064915657 1.56060993671 1.47413432598 1.2833019495 1.19820940495 0.97548854351 0.976518273354 1.16994547844 1.2833533287 1.44889569283 1.54175901413 1.54172086716 1.4488145113 1.25449478626 1.16993653774 0.976600408554 0.977839112282 1.09549224377 1.20717346668 1.37516331673 1.47159469128 1.47155916691 1.37507677078 1.17792010307 1.09550487995 0.97795188427 0.979289829731 1.04285919666 1.1151061058 1.27663588524 1.36033725739 1.3603054285 1.2765532732 1.08852767944 1.04284858704 0.979414701462 0.984446406364 1.0090047121 1.03735721111 1.11779010296 1.1816163063 1.18159067631 1.1177290678 1.03462815285 1.0090045929 0.984563052654 
0.984426021576 1.00906181335 1.03744459152 1.11793601513 1.18178534508 1.18175959587 1.11787509918 1.03472089767 1.00906169415 0.984542965889 0.97928494215 1.04293894768 1.11519002914 1.27673590183 1.3604426384 1.36041021347 1.27665352821 1.08860421181 1.04292809963 0.979409813881 0.978041768074 1.11264050007 1.2251431942 1.39392125607 1.49203133583 1.49199593067 1.39383542538 1.19609880447 1.112647295 0.978152155876 0.976513624191 1.16997969151 1.28338468075 1.44892215729 1.54179275036 1.54175448418 1.44884073734 1.25452613831 1.16997087002 0.976595699787 0.975418686867 1.19824540615 1.3119815588 1.47423481941 1.56067371368 1.56063425541 1.47415566444 1.28331422806 1.19822239876 0.975486695766 0.975420236588 1.19823455811 1.31197226048 1.47422790527 1.56066787243 1.56062841415 1.47414875031 1.28330481052 1.19821155071 0.975488066673 0.976517915726 1.16994726658 1.28335559368 1.44889974594 1.54177260399 1.54173445702 1.44881820679 1.25449740887 1.1699385643 0.976600050926 0.977838754654 1.09549355507 1.20717513561 1.37516546249 1.47159719467 1.47156202793 1.37507903576 1.17792165279 1.09550607204 0.977951526642 0.979289591312 1.04285991192 1.1151072979 1.27663767338 1.36033964157 1.36030745506 1.27655506134 1.08852899075 1.04284930229 0.979414463043 0.984446287155 1.00900506973 1.03735780716 1.11779153347 1.18161821365 1.18159270287 1.11773049831 1.03462851048 1.00900506973 0.98456299305 
0.984425842762 1.00906217098 1.03744518757 1.11793768406 1.18178737164 1.18176186085 1.11787652969 1.03472161293 1.00906205177 0.98454272747 0.979284882545 1.04293990135 1.11519122124 1.27673757076 1.36044490337 1.36041271687 1.27665519714 1.08860528469 1.04292917252 0.97940993309 0.978041529655 1.11264204979 1.22514533997 1.39392364025 1.49203431606 1.4919989109 1.39383804798 1.19610095024 1.11264896393 0.978151857853 0.976513266563 1.16998159885 1.28338730335 1.44892597198 1.5418047905 1.54176640511 1.44884443283 1.2545286417 1.16997289658 0.976595461369 0.975418388844 1.19824767113 1.31198453903 1.47424781322 1.56068885326 1.5606495142 1.47416889668 1.28331744671 1.19822466373 0.975486278534 0.97541987896 1.19823682308 1.31197524071 1.47424077988 1.56068325043 1.56064379215 1.47416162491 1.28330790997 1.19821369648 0.975487828255 0.976517558098 1.16994929314 1.28335833549 1.44890332222 1.54178476334 1.54174661636 1.44882190228 1.25449967384 1.16994047165 0.976599812508 0.977838516235 1.09549510479 1.20717692375 1.3751680851 1.47160005569 1.47156476974 1.37508153915 1.17792332172 1.09550774097 0.977951347828 0.979289531708 1.0428609848 1.1151086092 1.2766392231 1.36034190655 1.36030983925 1.27655684948 1.08853006363 1.04285013676 0.979414463043 0.984446108341 1.00900542736 1.03735864162 1.11779308319 1.18162024021 1.18159461021 1.11773204803 1.03462946415 1.00900530815 0.984562933445 
0.984425902367 1.00906252861 1.03744566441 1.11793911457 1.18178927898 1.18176364899 1.11787819862 1.03472197056 1.0090624094 0.98454272747 0.979284703732 1.04294061661 1.11519253254 1.27673959732 1.36044704914 1.36041498184 1.27665698528 1.08860647678 1.04292976856 0.979409635067 0.978041350842 1.1126434803 1.22514712811 1.39392638206 1.49203717709 1.49200177193 1.39384043217 1.19610261917 1.11265015602 0.97815155983 0.97651296854 1.16998362541 1.28338956833 1.44892978668 1.54181671143 1.54177844524 1.44884812832 1.2545311451 1.16997492313 0.976595163345 0.97541809082 1.19824981689 1.31198751926 1.47426044941 1.56070315838 1.56066358089 1.47418117523 1.28332018852 1.19822669029 0.975486040115 0.975419700146 1.19823884964 1.31197834015 1.47425329685 1.56069731712 1.56065809727 1.47417426109 1.28331077099 1.19821584225 0.975487470627 0.976517379284 1.16995120049 1.28336060047 1.44890701771 1.54179656506 1.5417586565 1.44882547855 1.25450205803 1.169942379 0.976599574089 0.977838158607 1.09549641609 1.20717871189 1.37517046928 1.47160291672 1.47156739235 1.37508392334 1.17792499065 1.09550893307 0.9779509902 0.979289233685 1.04286158085 1.1151099205 1.27664101124 1.36034405231 1.36031198502 1.27655875683 1.08853125572 1.04285097122 0.979414224625 0.984446167946 1.00900578499 1.03735923767 1.11779463291 1.18162202835 1.18159651756 1.11773359776 1.03462970257 1.00900566578 0.984562814236 
