14.0243215561 13.9125947952 13.2552642822 12.2368965149 11.5956640244 11.5964269638 12.2391519547 13.2575063705 13.9134607315 14.0241928101 22.0208511353 21.8181114197 20.9869346619 19.6853122711 18.8626308441 18.8636341095 19.688205719 20.9897537231 21.8193054199 22.0207805634 30.013048172 29.8033771515 29.115530014 28.0697650909 27.3931770325 27.3940353394 28.0720996857 29.1178436279 29.8044090271 30.0130500793 38.0106010437 37.8695678711 37.4277114868 36.7819595337 36.3637771606 36.3643188477 36.7833938599 37.4291725159 37.8702430725 38.0106163025 46.0100708008 45.9608421326 45.8098602295 45.5940513611 45.4545783997 45.4547576904 45.5945358276 45.8103599548 45.9610748291 46.0100784302 54.0099182129 54.0594024658 54.2111282349 54.4280204773 54.568195343 54.5680122375 54.4275398254 54.2106361389 54.0591659546 54.0099105835 62.00938797 62.1506347656 62.5931892395 63.240020752 63.6588859558 63.6583518982 63.2385787964 62.5917243958 62.1499519348 62.0093727112 70.006942749 70.2167205811 70.9050827026 71.951751709 72.6288986206 72.6280441284 71.9494018555 70.9027862549 70.2156906128 70.0069351196 77.9991378784 78.2016525269 79.0328674316 80.3346710205 81.1573410034 81.1563415527 80.3317718506 79.0300750732 78.2004699707 77.9991989136 85.9956817627 86.1071929932 86.7635726929 87.7800064087 88.4201965332 88.4194335938 87.7777557373 86.7613220215 86.1063232422 85.9958190918 
14.0125722885 13.8391637802 13.1384935379 12.0514974594 11.3517551422 11.3525829315 12.0539608002 13.1408624649 13.8401556015 14.0125379562 22.0028915405 21.6948986053 20.7612304688 19.3495368958 18.4639568329 18.4650249481 19.3526535034 20.7643260956 21.696346283 22.0029773712 29.9920845032 29.6451244354 28.8514003754 27.7483959198 27.0298728943 27.0307788849 27.7508773804 28.8538818359 29.6464996338 29.9922637939 37.9937019348 37.7418937683 37.2402229309 36.5644721985 36.1240348816 36.1246070862 36.5659866333 37.241771698 37.7428207397 37.9938583374 46.0038108826 45.9147338867 45.74376297 45.5182723999 45.3717689514 45.3719558716 45.5187683105 45.7442855835 45.9150543213 46.0038642883 54.0162239075 54.1057319641 54.2775611877 54.5041809082 54.6514129639 54.651222229 54.5036773682 54.2770347595 54.1054153442 54.0161590576 62.0263137817 62.2784881592 62.780960083 63.457824707 63.8989868164 63.8984260559 63.4563140869 62.7794151306 62.2775611877 62.0261611938 70.0278930664 70.3749542236 71.169303894 72.2732849121 72.9924316406 72.9915237427 72.2708053589 71.166809082 70.3735656738 70.0277175903 78.017074585 78.3247528076 79.2583236694 80.6702575684 81.5558700562 81.5547943115 80.667137146 79.2552337646 78.3233184814 78.016998291 86.0074157715 86.1804885864 86.8800735474 87.9648513794 88.6633834839 88.6625442505 87.9624023438 86.8777084351 86.1795043945 86.0074539185 
14.0073032379 13.8077774048 13.0831251144 11.9516706467 11.2151660919 11.2160511017 11.9542427063 13.0855884552 13.8088207245 14.007314682 21.9963798523 21.6452598572 20.6537075043 19.1383209229 18.1712360382 18.1723976135 19.1417312622 20.6569900513 21.6468219757 21.9965171814 29.9840507507 29.5839538574 28.7160606384 27.5198707581 26.7444324493 26.7454090118 27.5225505829 28.7187767029 29.585477829 29.9842967987 37.9866333008 37.6867523193 37.1244354248 36.4032516479 35.9324035645 35.9330101013 36.4048614502 37.1261177063 37.6878204346 37.9868545532 46.0009803772 45.8915100098 45.6998977661 45.4609260559 45.3052978516 45.3055000305 45.4614601135 45.7004585266 45.8918914795 46.0010643005 54.0190582275 54.1290664673 54.3216362 54.5618057251 54.7182197571 54.7180175781 54.5612754822 54.3210716248 54.1286773682 54.0189704895 62.0333824158 62.3336715698 62.8968963623 63.6192932129 64.0909118652 64.0903167725 63.6176681519 62.8951950073 62.3326072693 62.033164978 70.0359420776 70.4361114502 71.3046188354 72.5018920898 73.2780227661 73.2770385742 72.4992218018 71.301864624 70.4345932007 70.0356826782 78.0235824585 78.3743515015 79.365737915 80.8812484741 81.8483886719 81.8472213745 80.8778457642 79.3624420166 78.3727874756 78.0234451294 86.0126800537 86.2118377686 86.9352798462 88.0643692017 88.7994995117 88.798614502 88.0617980957 86.9328384399 86.2107849121 86.0126800537 
14.0046434402 13.7924871445 13.0558795929 11.9000873566 11.1460103989 11.1469144821 11.902715683 13.058385849 13.793554306 14.0046749115 21.9933547974 21.6219062805 20.5988178253 19.0261936188 17.9931297302 17.9943885803 19.0297794342 20.6022090912 21.6235237122 21.9935188293 29.9810314178 29.5572433472 28.6498832703 27.3794612885 26.5462188721 26.5472717285 27.3823337555 28.6527309418 29.558839798 29.981300354 37.984085083 37.6646156311 37.0686683655 36.2986679077 35.7956962585 35.7963485718 36.3003883362 37.0704727173 37.6657447815 37.9843215942 45.9999275208 45.8827781677 45.6777534485 45.4231491089 45.2576141357 45.2578239441 45.4237136841 45.6783599854 45.8831710815 46.0000114441 54.0201187134 54.1378479004 54.343875885 54.5997772217 54.7661476135 54.7659301758 54.5992050171 54.3432807922 54.1374473572 54.0200233459 62.0359420776 62.355846405 62.9527168274 63.7240142822 64.2278213501 64.2271728516 63.7222976685 62.9509162903 62.3547134399 62.0357055664 70.0389633179 70.4628295898 71.3707809448 72.6423187256 73.4763183594 73.4752655029 72.6394424438 71.3679351807 70.461227417 70.0386810303 78.0266036987 78.3976821899 79.4205780029 80.9932479858 82.0262145996 82.0249557495 80.9896621704 79.417175293 78.3960647583 78.0264434814 86.0153427124 86.227104187 86.9624481201 88.1157836914 88.8684158325 88.8675079346 88.1131591797 86.9599380493 86.2260284424 86.0153045654 
14.0033378601 13.7850074768 13.0426511765 11.8754634857 11.1135940552 11.1145086288 11.8781137466 13.0451831818 13.7860851288 14.0033788681 21.9918632507 21.6103534698 20.5715026855 18.9715194702 17.907749176 17.9090709686 18.975189209 20.5749473572 21.6119976044 21.9920349121 29.9795570374 29.5440387726 28.6164245605 27.3055038452 26.4263038635 26.4274177551 27.3085212708 28.6193523407 29.545671463 29.9798412323 37.9829444885 37.6538963318 37.0407676697 36.2374992371 35.7074813843 35.7081604004 36.2393112183 37.0426216125 37.6550521851 37.9831962585 45.99949646 45.8786125183 45.6667175293 45.4004135132 45.2262611389 45.2264862061 45.401008606 45.6673545837 45.8790283203 45.9995880127 54.0205612183 54.142036438 54.3549690247 54.622631073 54.7976417542 54.7974243164 54.6220321655 54.3543357849 54.1416168213 54.0204582214 62.0370788574 62.3665771484 62.9806518555 63.7852554321 64.3161849976 64.3154907227 63.7834472656 62.9787864685 62.3654136658 62.0368270874 70.0404281616 70.476020813 71.4042129517 72.7162628174 73.5962371826 73.5951309204 72.7132415771 71.4013137817 70.474395752 70.040145874 78.0281143188 78.4092407227 79.4478530884 81.0478515625 82.1114349365 82.1101226807 81.0441818237 79.4444198608 78.407585144 78.0279312134 86.0166397095 86.2345581055 86.9756469727 88.1403198242 88.9007110596 88.8997955322 88.1376724243 86.9731063843 86.2334976196 86.0166015625 
14.0027809143 13.7817869186 13.0369911194 11.8651952744 11.1003923416 11.10131073 11.867855072 13.0395355225 13.782869339 14.002828598 21.9912147522 21.6053161621 20.559671402 18.9483852386 17.8735542297 17.8748893738 18.9520874023 20.5631408691 21.6069755554 21.991394043 29.9789009094 29.5381984711 28.6015987396 27.273349762 26.3681201935 26.3692798615 27.27643013 28.60455513 29.5398445129 29.9791927338 37.9824371338 37.6491012573 37.0281486511 36.2079429626 35.6596374512 35.6603507996 36.2098083496 37.0300254822 37.6502723694 37.9826889038 45.999294281 45.8767471313 45.6616783142 45.3888511658 45.2086715698 45.2089042664 45.3894615173 45.6623153687 45.8771629333 45.9993934631 54.0207481384 54.143913269 54.360042572 54.6342468262 54.815322876 54.8150901794 54.6336212158 54.3594055176 54.1434860229 54.0206489563 62.0375862122 62.3713684082 62.9932899475 63.8148536682 64.3640823364 64.3633651733 63.8129806519 62.9913902283 62.3701972961 62.0373306274 70.0410766602 70.4818725586 71.4190673828 72.7484054565 73.6544036865 73.6532516479 72.7453308105 71.4161071777 70.48021698 70.0407867432 78.0287475586 78.4142608643 79.4596786499 81.0709609985 82.1455764771 82.144241333 81.0672531128 79.4561920166 78.4126052856 78.0285644531 86.0171966553 86.23777771 86.9812774658 88.1505508423 88.9138793945 88.9129562378 88.1479034424 86.9787368774 86.2367019653 86.0171585083 
14.0025758743 13.7805862427 13.0348863602 11.8614015579 11.0956878662 11.0966072083 11.864066124 13.0374298096 13.781668663 14.002623558 21.9909706116 21.6034259796 20.5552558899 18.9399261475 17.8614177704 17.8627586365 18.9436397552 20.5587291718 21.6050853729 21.991153717 29.9786548615 29.5359725952 28.5959663391 27.2613067627 26.345697403 26.3468780518 27.2644100189 28.5989284515 29.5376300812 29.9789485931 37.9822502136 37.6472473145 37.0232276917 36.1960067749 35.6382789612 35.6390037537 36.1978988647 37.0251197815 37.6484222412 37.9825019836 45.9992179871 45.8760223389 45.6596832275 45.3839530945 45.2004089355 45.2006492615 45.3845748901 45.6603355408 45.8764419556 45.9993171692 54.0208282471 54.1446380615 54.3620452881 54.6391601562 54.8236236572 54.8233833313 54.6385307312 54.3613891602 54.1442108154 54.0207290649 62.0377807617 62.3732261658 62.9982147217 63.8268013 64.3854598999 64.3847351074 63.8248977661 62.9963150024 62.372051239 62.0375328064 70.0413284302 70.4840927124 71.4246902466 72.7604446411 73.6768112183 73.6756362915 72.7573318481 71.4217147827 70.4824295044 70.0410385132 78.0289916992 78.4161605835 79.4640884399 81.0794143677 82.1576919556 82.1563568115 81.0756988525 79.4606018066 78.4145050049 78.0288085938 86.0174179077 86.2389831543 86.9833831787 88.1543426514 88.9185638428 88.9176483154 88.1516799927 86.9808349609 86.2378997803 86.0173568726 
