0.984245181084 1.01834571362 1.05431616306 1.13776385784 1.20501410961 1.20498383045 1.1376953125 1.05061197281 1.01833772659 0.984375536442 0.978960454464 1.05540060997 1.12794613838 1.28747415543 1.36056399345 1.36052298546 1.28737664223 1.09767007828 1.05538475513 0.979094445705 0.978317022324 1.11579346657 1.24388742447 1.37837982178 1.43722426891 1.43717563152 1.37827682495 1.20754849911 1.11579322815 0.978431403637 0.976864516735 1.17769122124 1.29998481274 1.41181027889 1.46129715443 1.46124827862 1.41170740128 1.26659858227 1.17770183086 0.976953208447 0.975627362728 1.20713281631 1.32389366627 1.42508280277 1.46949768066 1.46945047379 1.42498171329 1.29242503643 1.20713281631 0.975702166557 0.975628972054 1.20712220669 1.32388365269 1.42507576942 1.46949183941 1.46944475174 1.42497444153 1.29241502285 1.20712220669 0.975703775883 0.976869165897 1.1776599884 1.29995334148 1.41178417206 1.46127545834 1.46122658253 1.41168141365 1.26656711102 1.17767059803 0.976958036423 0.978035867214 1.09680402279 1.22459816933 1.36869716644 1.43082737923 1.43077790737 1.36859118938 1.1870213747 1.09681224823 0.978152871132 0.978963375092 1.05531930923 1.12786448002 1.28738212585 1.36045384407 1.36041295528 1.28728461266 1.09760701656 1.05530369282 0.979097485542 0.984267294407 1.01827836037 1.05421364307 1.13761687279 1.20485150814 1.20482110977 1.13754785061 1.05050730705 1.01827037334 0.984397470951 
0.98416864872 1.00890982151 1.0397605896 1.11781167984 1.18278622627 1.18275940418 1.11774981022 1.03620576859 1.00890827179 0.984289109707 0.978805303574 1.04234266281 1.11050629616 1.26949560642 1.3529497385 1.35291576385 1.26941299438 1.08087038994 1.042329669 0.978929877281 0.978003025055 1.1002869606 1.22638809681 1.38486850262 1.47110331059 1.4710662365 1.38478159904 1.19001829624 1.10028254986 0.978110074997 0.976365923882 1.16143298149 1.28882241249 1.43497991562 1.51546216011 1.51542282104 1.43489539623 1.25164139271 1.16143202782 0.97644752264 0.974962890148 1.19088411331 1.31927573681 1.45758378506 1.53296709061 1.53292822838 1.45750188828 1.28151345253 1.19086873531 0.975029528141 0.974964857101 1.19087398052 1.31926548481 1.45757615566 1.53296136856 1.53292250633 1.4574944973 1.28150379658 1.19085872173 0.975031197071 0.976371049881 1.16140270233 1.28879332542 1.43495726585 1.51544249058 1.51540291309 1.43487298489 1.25161385536 1.16140186787 0.976452708244 0.97774887085 1.08146440983 1.20578181744 1.36733305454 1.45443689823 1.45439934731 1.36724436283 1.16922867298 1.08146893978 0.977858364582 0.978808581829 1.04226851463 1.1104285717 1.26940858364 1.35285294056 1.35281872749 1.26932585239 1.08081078529 1.04225552082 0.978933095932 0.984190821648 1.00885212421 1.03966879845 1.11767745018 1.18263614178 1.18260931969 1.11761522293 1.0361109972 1.00885057449 0.984310865402 
0.984185397625 1.00876057148 1.03950202465 1.11737263203 1.18225383759 1.18222725391 1.11731100082 1.03595459461 1.00875902176 0.98430544138 0.978827595711 1.04208004475 1.11012887955 1.26902711391 1.35242009163 1.35238623619 1.26894462109 1.08051371574 1.04206705093 0.97895181179 0.978033185005 1.09991466999 1.22594344616 1.38430655003 1.47050428391 1.47046720982 1.38421976566 1.18959069252 1.09991025925 0.978139817715 0.976410984993 1.16098666191 1.28822493553 1.43435764313 1.5147895813 1.51475036144 1.43427371979 1.25108706951 1.16098558903 0.976492345333 0.975020349026 1.19039690495 1.31858003139 1.45690846443 1.53225278854 1.53221416473 1.4568271637 1.2808791399 1.19038116932 0.975086569786 0.97502219677 1.19038677216 1.31856989861 1.45690107346 1.53224682808 1.53220832348 1.45681965351 1.28086960316 1.19037127495 0.975088477135 0.976416289806 1.16095638275 1.2881963253 1.4343354702 1.51477026939 1.51473093033 1.43425130844 1.25106012821 1.1609556675 0.976497590542 0.977778732777 1.08110308647 1.20534729958 1.36678183079 1.4538435936 1.45380616188 1.36669313908 1.16881108284 1.08110749722 0.977887988091 0.978830754757 1.04200613499 1.11005115509 1.26894009113 1.35232329369 1.35228931904 1.26885735989 1.0804541111 1.04199314117 0.978954970837 0.984207510948 1.0087031126 1.03941035271 1.11723899841 1.18210434914 1.18207776546 1.11717700958 1.03586018085 1.00870168209 0.984327375889 
0.984185576439 1.00875937939 1.03949987888 1.11736893654 1.18224954605 1.18222296238 1.11730742455 1.03595232964 1.00875794888 0.984305560589 0.97882771492 1.04207789898 1.11012554169 1.2690230608 1.3524159193 1.35238182545 1.26894068718 1.08051049709 1.04206490517 0.978951871395 0.978033423424 1.09991133213 1.22593986988 1.38430190086 1.47049915791 1.47046208382 1.38421523571 1.18958723545 1.09990692139 0.978140056133 0.976411342621 1.16098284721 1.28821980953 1.43435251713 1.51478397846 1.5147446394 1.43426835537 1.25108242035 1.16098177433 0.976492762566 0.975020766258 1.19039261341 1.31857383251 1.45690250397 1.53224670887 1.53220808506 1.45682120323 1.28087377548 1.19037687778 0.975086987019 0.975022673607 1.19038283825 1.31856405735 1.45689511299 1.53224098682 1.5322022438 1.45681381226 1.28086423874 1.19036722183 0.975088953972 0.97641646862 1.16095256805 1.28819131851 1.43433022499 1.51476430893 1.51472520828 1.43424594402 1.25105559826 1.16095173359 0.976498007774 0.977778971195 1.08109998703 1.20534348488 1.36677706242 1.45383834839 1.45380103588 1.36668848991 1.16880762577 1.08110427856 0.977888286114 0.978830873966 1.04200387001 1.11004817486 1.26893603802 1.35231912136 1.3522850275 1.2688536644 1.08045089245 1.0419908762 0.978955149651 0.984207630157 1.00870192051 1.03940820694 1.11723506451 1.1821000576 1.18207347393 1.1171734333 1.03585803509 1.00870049 0.984327495098 
0.98418545723 1.00876021385 1.03950130939 1.11737155914 1.18225240707 1.1822258234 1.11730980873 1.03595376015 1.00875854492 0.984305560589 0.978827595711 1.04207921028 1.11012768745 1.26902556419 1.35241878033 1.35238480568 1.26894307137 1.08051252365 1.04206609726 0.97895181179 0.978033423424 1.0999134779 1.22594225407 1.38430500031 1.47050273418 1.4704656601 1.38421833515 1.18958950043 1.09990906715 0.978140056133 0.976411104202 1.1609852314 1.28822314739 1.43435585499 1.51478779316 1.5147485733 1.43427181244 1.25108540058 1.16098427773 0.976492464542 0.975020349026 1.19039559364 1.31857776642 1.45690619946 1.53225052357 1.53221178055 1.45682477951 1.28087735176 1.19037973881 0.9750867486 0.975022256374 1.19038546085 1.31856787205 1.45689868927 1.53224468231 1.53220617771 1.45681738853 1.28086793423 1.19036984444 0.975088596344 0.976416409016 1.16095495224 1.28819465637 1.43433344364 1.51476824284 1.51472902298 1.43424940109 1.2510586977 1.16095423698 0.976497769356 0.977778911591 1.0811021328 1.20534574986 1.36678028107 1.45384168625 1.45380425453 1.36669182777 1.16881000996 1.08110654354 0.977888166904 0.978830814362 1.04200530052 1.110049963 1.26893854141 1.35232174397 1.35228788853 1.26885604858 1.08045303822 1.04199242592 0.978954970837 0.984207451344 1.00870263577 1.03940975666 1.11723768711 1.18210291862 1.18207621574 1.11717581749 1.03585934639 1.00870120525 0.984327435493 
0.984185397625 1.00876092911 1.03950273991 1.11737394333 1.18225562572 1.18222880363 1.11731231213 1.03595519066 1.0087594986 0.98430544138 0.97882771492 1.04208076 1.11012995243 1.26902854443 1.35242187977 1.35238778591 1.26894593239 1.08051478863 1.04206752777 0.978951871395 0.978033304214 1.09991562366 1.22594475746 1.38430798054 1.47050607204 1.47046899796 1.38422119617 1.18959200382 1.09991109371 0.978139817715 0.976410925388 1.16098773479 1.28822648525 1.43435943127 1.51479148865 1.514752388 1.43427526951 1.25108861923 1.16098678112 0.976492226124 0.975020229816 1.19039809704 1.31858181953 1.45691001415 1.53225457668 1.53221595287 1.45682871342 1.28088092804 1.19038248062 0.975086569786 0.97502207756 1.19038820267 1.31857180595 1.45690262318 1.53224897385 1.53221011162 1.45682132244 1.28087151051 1.19037234783 0.97508841753 0.976416051388 1.16095745564 1.28819799423 1.43433701992 1.51477193832 1.51473271847 1.43425297737 1.25106155872 1.16095685959 0.976497411728 0.977778732777 1.08110392094 1.20534825325 1.3667832613 1.45384526253 1.4538077116 1.3666946888 1.16881215572 1.08110845089 0.977887988091 0.978830754757 1.04200661182 1.11005234718 1.26894128323 1.35232484341 1.35229098797 1.26885867119 1.08045518398 1.04199361801 0.978955030441 0.984207510948 1.00870358944 1.03941106796 1.11724019051 1.18210589886 1.18207931519 1.11717820168 1.0358607769 1.00870203972 0.984327375889 
0.984185278416 1.00876200199 1.03950428963 1.11737656593 1.18225872517 1.18223202229 1.11731493473 1.03595674038 1.00876033306 0.984305381775 0.978827297688 1.04208230972 1.11013197899 1.26903104782 1.35242486 1.35239100456 1.26894855499 1.08051681519 1.0420691967 0.978951632977 0.978032946587 1.09991776943 1.22594749928 1.38431155682 1.47050964832 1.47047245502 1.38422477245 1.18959450722 1.09991323948 0.978139638901 0.976410627365 1.16099059582 1.28823029995 1.43436336517 1.51479554176 1.51475632191 1.43427920341 1.25109183788 1.16098964214 0.976491928101 0.975019752979 1.19040107727 1.31858587265 1.45691430569 1.53225886822 1.53222024441 1.45683288574 1.28088462353 1.19038534164 0.975086152554 0.975021660328 1.1903911829 1.31857597828 1.45690691471 1.53225326538 1.53221440315 1.45682549477 1.28087520599 1.19037556648 0.975087821484 0.97641569376 1.16096043587 1.28820157051 1.43434083462 1.51477622986 1.51473689079 1.43425679207 1.25106489658 1.16095936298 0.976497232914 0.977778673172 1.08110630512 1.20535087585 1.36678647995 1.4538487196 1.45381116867 1.36669802666 1.16881489754 1.08111071587 0.977887749672 0.978830397129 1.04200839996 1.11005449295 1.26894402504 1.35232806206 1.35229408741 1.26886165142 1.08045732975 1.04199516773 0.978954792023 0.984207332134 1.00870454311 1.03941273689 1.1172426939 1.18210923672 1.18208253384 1.11718094349 1.03586232662 1.00870287418 0.98432713747 
