14.0039463043 13.7876844406 13.0248603821 11.8192672729 11.1015672684 11.1024198532 11.8217697144 13.0275201797 13.788766861 14.0039796829 21.9919204712 21.6195850372 20.5561561584 19.0401077271 18.1041622162 18.1053276062 19.0433044434 20.5596466064 21.6211967468 21.9920978546 29.9777374268 29.5283813477 28.6068820953 27.3867149353 26.6042957306 26.6052951813 27.3893547058 28.6097335815 29.5300559998 29.9780406952 37.9805221558 37.641544342 37.0384712219 36.285320282 35.8091545105 35.8097686768 36.2869262695 37.0402755737 37.6427078247 37.9807891846 45.9986839294 45.8749351501 45.6665229797 45.4153633118 45.2586860657 45.2588844299 45.41588974 45.6671295166 45.8753471375 45.9987792969 54.0213699341 54.1457252502 54.3551750183 54.6075973511 54.7650642395 54.7648658752 54.6070594788 54.3545646667 54.1453056335 54.0212669373 62.0394973755 62.378944397 62.9829483032 63.7373504639 64.2143173218 64.2137069702 63.735748291 62.9811477661 62.3777770996 62.0392417908 70.0422439575 70.4916610718 71.4138031006 72.6349945068 73.4180831909 73.4170837402 72.6323623657 71.4109420776 70.4899978638 70.0419387817 78.0280380249 78.4000091553 79.463180542 80.9794235229 81.9152679443 81.9141082764 80.9762268066 79.4597091675 78.3984069824 78.0278625488 86.0160293579 86.2319030762 86.9934844971 88.1967086792 88.913269043 88.9124221802 88.1942138672 86.990814209 86.2308273315 86.0159988403 
14.0037841797 13.7870254517 13.0245742798 11.8190488815 11.1010742188 11.1019296646 11.821554184 13.0272378922 13.7881097794 14.0038194656 21.9917507172 21.6185150146 20.5541553497 19.0359992981 18.0974788666 18.0986442566 19.0392055511 20.5576457977 21.6201305389 21.9919261932 29.9775810242 29.5270423889 28.6034088135 27.3784313202 26.5885906219 26.5896072388 27.3810901642 28.6062717438 29.5287246704 29.9778842926 37.9804039001 37.6403427124 37.0348052979 36.2750053406 35.7878227234 35.7884559631 36.2766418457 37.0366134644 37.6415061951 37.9806671143 45.9986343384 45.8744430542 45.6648788452 45.4102783203 45.2490921021 45.2492980957 45.410823822 45.6655006409 45.8748588562 45.9987373352 54.0214157104 54.1462249756 54.3568191528 54.612701416 54.7747039795 54.7744903564 54.6121520996 54.3562011719 54.1458053589 54.0213127136 62.0396232605 62.3801498413 62.9866256714 63.74766922 64.2356567383 64.2350234985 63.7460327148 62.9848098755 62.3789825439 62.0393638611 70.0424041748 70.4929962158 71.4172821045 72.6432723999 73.4337539673 73.4327468872 72.6406097412 71.4144210815 70.491317749 70.042098999 78.0282058716 78.4010848999 79.465171814 80.9835205078 81.9219360352 81.9207763672 80.9803085327 79.4616928101 78.3994750977 78.0280380249 86.016204834 86.2325592041 86.9937744141 88.1969223022 88.9137573242 88.912902832 88.1944274902 86.9910964966 86.2314758301 86.016166687 
14.0037841797 13.7870225906 13.0245656967 11.8190259933 11.1010456085 11.101899147 11.8215303421 13.0272264481 13.788107872 14.0038204193 21.9917507172 21.6185112 20.5541419983 19.0359706879 18.097442627 18.098608017 19.0391769409 20.5576324463 21.6201248169 21.9919261932 29.9775810242 29.5270385742 28.6033935547 27.3783969879 26.5885505676 26.5895633698 27.3810520172 28.6062545776 29.5287208557 29.9778842926 37.9804039001 37.640335083 37.0347900391 36.274974823 35.7877655029 35.7883987427 36.2766113281 37.0366020203 37.6415061951 37.9806671143 45.9986343384 45.8744430542 45.6648750305 45.4102592468 45.2490615845 45.2492713928 45.4108047485 45.6654930115 45.8748588562 45.9987373352 54.0214157104 54.1462249756 54.3568267822 54.6127204895 54.774723053 54.7745132446 54.6121673584 54.3562164307 54.1458053589 54.0213127136 62.0396232605 62.3801574707 62.9866333008 63.7476997375 64.2357254028 64.2350845337 63.746055603 62.9848060608 62.3789825439 62.0393600464 70.0424041748 70.493019104 71.4172897339 72.6433029175 73.4337997437 73.4327850342 72.6406478882 71.4144134521 70.4913330078 70.042098999 78.0282058716 78.4010925293 79.4652099609 80.9835510254 81.9219818115 81.9208145142 80.9803390503 79.4617080688 78.3994750977 78.0280380249 86.016204834 86.2325592041 86.9937896729 88.196937561 88.9137954712 88.912940979 88.1944503784 86.9911193848 86.2314834595 86.016166687 
14.0037851334 13.7870206833 13.0245523453 11.8190011978 11.1010112762 11.1018657684 11.8215055466 13.027215004 13.7881059647 14.0038204193 21.9917507172 21.6185073853 20.5541267395 19.0359382629 18.0974006653 18.0985679626 19.0391426086 20.5576152802 21.6201190948 21.9919261932 29.9775810242 29.5270347595 28.6033782959 27.3783664703 26.5885009766 26.5895137787 27.3810214996 28.6062316895 29.528717041 29.9778842926 37.9804039001 37.6403274536 37.0347824097 36.2749328613 35.7877082825 35.7883453369 36.2765769958 37.0365943909 37.641494751 37.9806671143 45.9986343384 45.8744354248 45.6648712158 45.4102516174 45.2490463257 45.2492523193 45.4107933044 45.6654891968 45.8748512268 45.9987373352 54.0214157104 54.1462211609 54.3568267822 54.6127319336 54.7747459412 54.7745399475 54.6121826172 54.356212616 54.1457977295 54.0213127136 62.0396232605 62.3801651001 62.9866523743 63.7477340698 64.2357788086 64.2351455688 63.7461051941 62.9848365784 62.378993988 62.0393600464 70.0424041748 70.4930114746 71.4173049927 72.6433334351 73.43384552 73.4328384399 72.6406784058 71.4144439697 70.4913330078 70.042098999 78.0282058716 78.4010925293 79.4652023315 80.983581543 81.9220199585 81.9208526611 80.9803771973 79.4617156982 78.3994750977 78.0280380249 86.0161895752 86.2325592041 86.9937896729 88.1969528198 88.9138259888 88.9129638672 88.1944732666 86.9911270142 86.2314910889 86.016166687 
14.0037841797 13.7870187759 13.0245389938 11.8189744949 11.1009759903 11.1018304825 11.8214788437 13.0272035599 13.7881031036 14.0038204193 21.9917507172 21.6185054779 20.554107666 19.0359039307 18.0973587036 18.098526001 19.0391101837 20.5576019287 21.6201229095 21.9919261932 29.9775810242 29.5270271301 28.603351593 27.378326416 26.5884475708 26.5894641876 27.3809890747 28.6062164307 29.5287094116 29.9778842926 37.9804039001 37.6403236389 37.0347671509 36.2749099731 35.7876625061 35.7882957458 36.276550293 37.0365753174 37.6414909363 37.9806671143 45.9986343384 45.8744354248 45.6648635864 45.4102325439 45.2490234375 45.2492294312 45.4107780457 45.6654853821 45.8748512268 45.9987373352 54.0214157104 54.1462249756 54.356842041 54.612739563 54.774772644 54.774559021 54.612197876 54.3562240601 54.1458015442 54.0213127136 62.0396232605 62.3801651001 62.9866600037 63.7477760315 64.235824585 64.2351913452 63.746131897 62.9848442078 62.378993988 62.0393600464 70.0424041748 70.4930267334 71.4173202515 72.6433868408 73.4338989258 73.4328918457 72.6407241821 71.4144592285 70.4913482666 70.042098999 78.0282058716 78.4010925293 79.4652404785 80.9836196899 81.9220657349 81.9208984375 80.9804077148 79.4617385864 78.3994903564 78.0280380249 86.0161895752 86.2325668335 86.9937973022 88.1969985962 88.9138565063 88.9130096436 88.1944961548 86.9911422729 86.2314834595 86.016166687 
14.0037841797 13.7870168686 13.0245294571 11.8189477921 11.1009426117 11.1017951965 11.8214530945 13.0271921158 13.7881031036 14.0038204193 21.9917507172 21.6185016632 20.5540924072 19.0358734131 18.0973186493 18.098482132 19.0390777588 20.5575866699 21.6201152802 21.9919261932 29.9775810242 29.5270195007 28.6033344269 27.3782901764 26.5884017944 26.5894165039 27.3809452057 28.6062011719 29.5287075043 29.9778842926 37.9804039001 37.6403274536 37.0347557068 36.2748680115 35.787612915 35.7882423401 36.276512146 37.0365638733 37.6414909363 37.9806671143 45.9986343384 45.8744277954 45.664855957 45.4102172852 45.2490005493 45.2492103577 45.4107589722 45.6654777527 45.8748512268 45.9987411499 54.0214195251 54.146232605 54.3568344116 54.6127662659 54.7747879028 54.7745819092 54.6122131348 54.3562316895 54.1458129883 54.0213165283 62.0396232605 62.3801727295 62.9866790771 63.747795105 64.2358703613 64.2352371216 63.7461547852 62.9848594666 62.378993988 62.0393600464 70.0424041748 70.4930267334 71.4173431396 72.6434020996 73.4339447021 73.4329299927 72.6407470703 71.4144821167 70.4913482666 70.042098999 78.0282058716 78.4011001587 79.4652557373 80.9836425781 81.9221038818 81.9209289551 80.9804382324 79.4617538452 78.3994827271 78.0280380249 86.0161895752 86.2325668335 86.993812561 88.1970291138 88.9138870239 88.9130477905 88.1945266724 86.9911422729 86.2314834595 86.016166687 
14.0037841797 13.7870159149 13.0245161057 11.8189229965 11.1009082794 11.1017608643 11.8214263916 13.027182579 13.7880992889 14.0038204193 21.9917507172 21.6184959412 20.5540733337 19.0358352661 18.0972747803 18.0984401703 19.0390453339 20.5575695038 21.6201095581 21.9919261932 29.9775810242 29.527015686 28.6033229828 27.3782539368 26.5883522034 26.5893650055 27.3809108734 28.6061820984 29.5287017822 29.9778842926 37.9804039001 37.6403198242 37.034740448 36.2748413086 35.787563324 35.7881889343 36.2764816284 37.0365524292 37.6414871216 37.9806671143 45.9986343384 45.8744277954 45.6648483276 45.4102020264 45.2489738464 45.2491912842 45.4107437134 45.6654701233 45.8748474121 45.9987411499 54.0214195251 54.146232605 54.3568458557 54.6127815247 54.7748146057 54.7746047974 54.6122322083 54.3562393188 54.145816803 54.0213165283 62.0396232605 62.3801727295 62.9866867065 63.7478408813 64.2359237671 64.2352981567 63.7461929321 62.9848594666 62.3790054321 62.0393600464 70.0424041748 70.4930267334 71.4173736572 72.6434402466 73.4339981079 73.432975769 72.6407775879 71.4144897461 70.4913406372 70.042098999 78.0282058716 78.4011001587 79.4652786255 80.9836883545 81.9221496582 81.9209899902 80.9804763794 79.4617614746 78.3994903564 78.0280380249 86.0161895752 86.2325668335 86.9938278198 88.197052002 88.9139251709 88.9130859375 88.1945495605 86.9911575317 86.2314834595 86.016166687 
