0.985111415386 1.01044356823 1.03843474388 1.09379315376 1.16003346443 1.16001057625 1.09374499321 1.0347430706 1.01044368744 0.985231041908 0.979529798031 1.04455852509 1.09785509109 1.28633272648 1.38285052776 1.3828163147 1.28625071049 1.08092677593 1.0445458889 0.979655981064 0.978771924973 1.1034476757 1.22833716869 1.42315626144 1.52460885048 1.5245667696 1.42306613922 1.19497787952 1.10344016552 0.978880524635 0.977427124977 1.16954910755 1.29588985443 1.47946095467 1.56455636024 1.56450510025 1.47937142849 1.26359283924 1.16954684258 0.977507293224 0.976204633713 1.20132911205 1.32751131058 1.50168824196 1.57724297047 1.57718884945 1.50159597397 1.29617381096 1.20131003857 0.976268053055 0.976206243038 1.20131826401 1.32750177383 1.50168061256 1.57723665237 1.57718288898 1.50158858299 1.29616391659 1.20129942894 0.97626966238 0.977432072163 1.16951739788 1.29586052895 1.47943675518 1.56453442574 1.56448328495 1.47934699059 1.26356327534 1.16951525211 0.977512300014 0.978499114513 1.08386492729 1.20510852337 1.40213191509 1.506503582 1.50645935535 1.40203928947 1.17170333862 1.08387064934 0.978610217571 0.979533076286 1.04447901249 1.09775769711 1.28623104095 1.38273787498 1.38270366192 1.28614926338 1.08086001873 1.04446661472 0.979659259319 0.985133767128 1.01038515568 1.03834784031 1.09363007545 1.15990555286 1.15988278389 1.09358167648 1.0346622467 1.0103853941 0.985253334045 
0.985104203224 1.00921392441 1.03667056561 1.091375947 1.15701436996 1.15699160099 1.09132885933 1.03296780586 1.00921475887 0.985222458839 0.979530751705 1.04275989532 1.09571874142 1.28350889683 1.37969493866 1.37966179848 1.28342819214 1.07878673077 1.04274749756 0.979655385017 0.978781938553 1.10111808777 1.22570466995 1.41984140873 1.52347266674 1.52343535423 1.41975319386 1.19241011143 1.10111021996 0.978889107704 0.977431178093 1.16691064835 1.29298746586 1.47653961182 1.57213521004 1.5720949173 1.47645330429 1.26081085205 1.16690707207 0.977510154247 0.976191103458 1.19856250286 1.3245472908 1.50064182281 1.58996593952 1.58992445469 1.50055837631 1.29337775707 1.19854199886 0.976253449917 0.976192772388 1.19855201244 1.32453775406 1.50063490868 1.58996045589 1.58991909027 1.50055158138 1.29336833954 1.19853150845 0.976255118847 0.977436125278 1.16687941551 1.29295873642 1.47651588917 1.57211506367 1.57207489014 1.47642958164 1.26078152657 1.16687607765 0.977515041828 0.97851139307 1.08158016205 1.20249474049 1.39880096912 1.50308334827 1.50304567814 1.39871001244 1.16915440559 1.08158528805 0.978621065617 0.979534029961 1.04268169403 1.0956223011 1.28340852261 1.37958347797 1.37955021858 1.28332781792 1.07872080803 1.04266941547 0.979658722878 0.985126554966 1.00915706158 1.03658485413 1.09121441841 1.15688848495 1.15686571598 1.09116697311 1.03288817406 1.00915789604 0.985244631767 
0.985104203224 1.00921416283 1.03667104244 1.09137678146 1.15701544285 1.15699255466 1.09132957458 1.03296840191 1.00921487808 0.985222399235 0.97953081131 1.04276013374 1.09571921825 1.28350949287 1.37969589233 1.37966275215 1.2834290266 1.0787872076 1.0427479744 0.979655444622 0.978781819344 1.10111880302 1.22570562363 1.41984272003 1.52347373962 1.52343666553 1.41975414753 1.19241082668 1.101110816 0.978888988495 0.977431118488 1.1669113636 1.29298841953 1.4765406847 1.57213652134 1.57209634781 1.47645437717 1.26081180573 1.16690790653 0.977510035038 0.976191103458 1.19856345654 1.32454824448 1.50064313412 1.58996725082 1.58992600441 1.50055968761 1.29337882996 1.19854307175 0.976253271103 0.976192772388 1.19855284691 1.32453894615 1.50063633919 1.5899617672 1.58992052078 1.50055289268 1.29336929321 1.19853246212 0.976255118847 0.977436125278 1.16688013077 1.29295992851 1.47651708126 1.57211637497 1.57207608223 1.47643089294 1.26078248024 1.16687679291 0.977514982224 0.97851139307 1.08158051968 1.20249521732 1.3988019228 1.50308454037 1.50304663181 1.3987108469 1.16915500164 1.0815860033 0.978621065617 0.979534029961 1.04268217087 1.09562289715 1.28340911865 1.37958431244 1.37955105305 1.28332877159 1.07872140408 1.04266989231 0.979658782482 0.985126554966 1.00915718079 1.03658533096 1.09121525288 1.15688943863 1.15686655045 1.09116768837 1.03288865089 1.00915801525 0.985244631767 
0.985103964806 1.00921499729 1.03667259216 1.09137928486 1.1570186615 1.15699565411 1.09133195877 1.03296983242 1.00921595097 0.985222280025 0.979530692101 1.04276204109 1.09572136402 1.28351294994 1.37969946861 1.37966632843 1.28343236446 1.07878935337 1.04274976254 0.979655325413 0.978781700134 1.10112142563 1.22570848465 1.41984641552 1.52347826958 1.52344071865 1.41975796223 1.19241368771 1.10111343861 0.978888869286 0.977430999279 1.16691434383 1.29299199581 1.47654521465 1.57214128971 1.57210111618 1.47645902634 1.260815382 1.16691088676 0.977509796619 0.976190745831 1.19856655598 1.32455217838 1.50064778328 1.58997237682 1.5899310112 1.5005645752 1.29338264465 1.19854617119 0.976253032684 0.976192474365 1.19855618477 1.32454264164 1.50064098835 1.58996677399 1.58992552757 1.50055766106 1.2933729887 1.19853556156 0.976254820824 0.977435946465 1.166883111 1.29296302795 1.476521492 1.57212114334 1.57208108902 1.47643518448 1.2607858181 1.16687977314 0.97751480341 0.978511095047 1.08158302307 1.20249831676 1.39880549908 1.50308895111 1.50305104256 1.39871478081 1.16915774345 1.08158838749 0.978620767593 0.979533791542 1.0426838398 1.09562504292 1.28341257572 1.3795876503 1.37955451012 1.28333187103 1.07872343063 1.04267156124 0.979658603668 0.985126376152 1.00915813446 1.03658676147 1.09121763706 1.15689253807 1.1568697691 1.09117007256 1.0328899622 1.00915896893 0.985244393349 
0.985104084015 1.00921607018 1.03667402267 1.09138166904 1.15702188015 1.15699911118 1.09133458138 1.03297138214 1.00921690464 0.98522233963 0.979530513287 1.04276371002 1.095723629 1.28351593018 1.37970268726 1.37966966629 1.28343522549 1.07879149914 1.04275143147 0.979655265808 0.978781580925 1.1011235714 1.22571158409 1.41985046864 1.5234824419 1.52344489098 1.41976213455 1.19241666794 1.10111582279 0.978888750076 0.97743076086 1.16691720486 1.29299581051 1.47654986382 1.57214617729 1.57210600376 1.47646331787 1.26081871986 1.16691398621 0.977509737015 0.976190567017 1.19856977463 1.32455599308 1.50065255165 1.58997762203 1.58993637562 1.50056886673 1.29338622093 1.19854938984 0.976252913475 0.976192295551 1.19855928421 1.32454633713 1.50064563751 1.5899720192 1.58993089199 1.50056219101 1.29337644577 1.19853889942 0.97625464201 0.977435708046 1.16688609123 1.29296684265 1.47652590275 1.57212603092 1.57208585739 1.47643971443 1.26078927517 1.16688275337 0.97751480341 0.978511095047 1.08158540726 1.202501297 1.39880955219 1.50309300423 1.50305533409 1.3987185955 1.16916048527 1.08159077168 0.978620707989 0.979533553123 1.04268550873 1.09562706947 1.28341531754 1.37959122658 1.3795582056 1.28333485126 1.07872569561 1.04267334938 0.979658484459 0.985126435757 1.00915920734 1.03658807278 1.09122025967 1.15689599514 1.15687298775 1.09117269516 1.03289163113 1.00916004181 0.985244512558 
0.985103964806 1.00921726227 1.0366756916 1.09138417244 1.1570250988 1.15700221062 1.09133708477 1.03297305107 1.00921809673 0.985222280025 0.979530394077 1.04276549816 1.09572577477 1.28351891041 1.37970626354 1.37967312336 1.28343832493 1.0787935257 1.0427532196 0.979655146599 0.978781402111 1.10112607479 1.2257143259 1.41985464096 1.52348697186 1.52344954014 1.41976606846 1.19241952896 1.10111808777 0.978888511658 0.977430462837 1.1669203043 1.29299902916 1.47655427456 1.57215094566 1.57211077213 1.47646784782 1.26082193851 1.16691696644 0.977509498596 0.976190328598 1.1985732317 1.32455956936 1.5006570816 1.58998274803 1.58994138241 1.5005736351 1.29339015484 1.19855248928 0.976252615452 0.976191997528 1.19856238365 1.32455015182 1.50065028667 1.5899772644 1.58993589878 1.50056695938 1.29338014126 1.19854211807 0.976254343987 0.977435529232 1.16688895226 1.2929700613 1.47653031349 1.5721309185 1.57209050655 1.47644424438 1.26079273224 1.1668856144 0.977514505386 0.978510737419 1.08158779144 1.20250427723 1.3988134861 1.50309705734 1.50305950642 1.39872264862 1.16916334629 1.08159315586 0.978620529175 0.979533553123 1.04268717766 1.09562933445 1.28341853619 1.37959468365 1.37956166267 1.2833378315 1.07872760296 1.04267501831 0.97965836525 0.985126316547 1.00916028023 1.03658986092 1.09122264385 1.15689897537 1.15687632561 1.09117519855 1.03289318085 1.00916099548 0.985244274139 
0.985103845596 1.00921821594 1.03667700291 1.09138679504 1.15702843666 1.15700554848 1.09133958817 1.03297460079 1.0092189312 0.985222220421 0.979530334473 1.04276704788 1.09572792053 1.28352200985 1.3797096014 1.37967658043 1.28344142437 1.07879555225 1.04275488853 0.97965502739 0.978781223297 1.10112857819 1.22571766376 1.41985833645 1.5234913826 1.52345395088 1.41976988316 1.19242250919 1.10112071037 0.978888392448 0.977430284023 1.16692328453 1.29300248623 1.47655892372 1.57215571404 1.5721154213 1.47647237778 1.26082551479 1.16692006588 0.977509200573 0.976190090179 1.19857621193 1.32456374168 1.50066196918 1.58998787403 1.58994650841 1.50057852268 1.29339373112 1.19855582714 0.976252496243 0.976191878319 1.19856572151 1.32455432415 1.50065517426 1.58998250961 1.58994114399 1.50057160854 1.29338383675 1.19854521751 0.976254224777 0.977435290813 1.16689217091 1.29297375679 1.47653508186 1.57213556767 1.57209539413 1.47644877434 1.26079618931 1.16688871384 0.977514266968 0.978510737419 1.08158993721 1.20250689983 1.39881753922 1.50310122967 1.50306367874 1.39872646332 1.16916620731 1.08159542084 0.97862046957 0.979533553123 1.04268908501 1.09563136101 1.28342139721 1.3795979023 1.37956500053 1.28334093094 1.07872974873 1.04267680645 0.97965836525 0.985126256943 1.0091612339 1.03659129143 1.09122514725 1.15690243244 1.15687966347 1.09117770195 1.03289473057 1.00916206837 0.985244333744 
