0.984590768814 1.00917494297 1.03672671318 1.11633622646 1.17971205711 1.17968726158 1.11627483368 1.03397858143 1.00917446613 0.984705209732 0.979510188103 1.04278516769 1.11871063709 1.28134644032 1.36720860004 1.367177248 1.28126728535 1.09445154667 1.04278051853 0.979635059834 0.978025019169 1.11820840836 1.22617304325 1.40343153477 1.50399935246 1.50396203995 1.40334522724 1.19868457317 1.11821675301 0.978134095669 0.976569473743 1.17360889912 1.28502225876 1.45941841602 1.54834413528 1.54830121994 1.45933508873 1.25705873966 1.17359566689 0.976650118828 0.975636124611 1.20178842545 1.31431090832 1.48278033733 1.56376302242 1.56371831894 1.48269629478 1.2863727808 1.20176160336 0.975702285767 0.975637555122 1.20177721977 1.31430137157 1.48277294636 1.56375706196 1.56371259689 1.48268890381 1.28636324406 1.20175027847 0.975703656673 0.976573348045 1.17357516289 1.28499233723 1.45939517021 1.54832386971 1.54828095436 1.45931172371 1.25702881813 1.17356204987 0.976653933525 0.977852344513 1.10241413116 1.2084697485 1.38356530666 1.4844878912 1.48444926739 1.3834785223 1.18123602867 1.10242557526 0.977963745594 0.979514598846 1.04270541668 1.11862289906 1.2812486887 1.36710321903 1.36707210541 1.28116965294 1.0943697691 1.04270076752 0.979639530182 0.984610259533 1.00911772251 1.03663825989 1.11618030071 1.17954409122 1.17951893806 1.11611890793 1.03388834 1.0091176033 0.984724640846 
0.984566807747 1.00873601437 1.03612995148 1.11564218998 1.17889750004 1.17887270451 1.11558103561 1.03336977959 1.00873601437 0.984680712223 0.97947883606 1.04221773148 1.1180883646 1.28060829639 1.3663905859 1.36635971069 1.28052973747 1.09381759167 1.04221320152 0.979603409767 0.977977335453 1.11756932735 1.22552096844 1.40269207954 1.50500249863 1.50496709347 1.4026068449 1.19803476334 1.11757743359 0.978086233139 0.976496994495 1.17296409607 1.28441011906 1.45938038826 1.55488348007 1.55484485626 1.4592987299 1.25647604465 1.17295050621 0.976577401161 0.975542485714 1.20116353035 1.31378245354 1.48462092876 1.57332754135 1.57328760624 1.4845417738 1.2859017849 1.20113587379 0.975608468056 0.975543856621 1.2011525631 1.31377279758 1.484613657 1.57332181931 1.5732820034 1.48453450203 1.28589224815 1.20112478733 0.975609898567 0.976500809193 1.17293024063 1.28438031673 1.45935714245 1.55486345291 1.5548248291 1.4592757225 1.25644600391 1.17291665077 0.976581454277 0.977806031704 1.10177338123 1.20779669285 1.38278412819 1.48387134075 1.48383593559 1.38269841671 1.18056499958 1.10178494453 0.977917194366 0.979483366013 1.04213833809 1.11800086498 1.2805107832 1.36628508568 1.36625409126 1.28043210506 1.09373581409 1.04213392735 0.97960793972 0.984586298466 1.00867927074 1.0360417366 1.11548626423 1.17872965336 1.17870461941 1.11542510986 1.03327965736 1.00867927074 0.984700143337 
0.984566688538 1.00873577595 1.03612971306 1.11564254761 1.17889809608 1.17887318134 1.11558139324 1.03336942196 1.00873589516 0.984680593014 0.979478776455 1.04221773148 1.1180883646 1.28060889244 1.36639130116 1.36636042595 1.28053033352 1.0938179493 1.04221320152 0.979603290558 0.977977156639 1.11756956577 1.22552120686 1.40269315243 1.5050034523 1.50496792793 1.40260791779 1.19803547859 1.11757743359 0.978085935116 0.976496756077 1.17296469212 1.28441119194 1.45938229561 1.5548992157 1.55486047268 1.45930075645 1.25647699833 1.17295110226 0.976577162743 0.975542008877 1.20116460323 1.31378388405 1.48462557793 1.57337009907 1.57333016396 1.48454666138 1.28590357304 1.20113694668 0.975608050823 0.975543379784 1.20115351677 1.31377446651 1.48461818695 1.57336437702 1.57332444191 1.4845392704 1.2858941555 1.201125741 0.975609481335 0.976500630379 1.17293119431 1.28438103199 1.45935916901 1.55487906933 1.55484044552 1.45927751064 1.25644695759 1.17291736603 0.976581215858 0.977805793285 1.10177373886 1.20779705048 1.38278520107 1.48387265205 1.48383700848 1.38269913197 1.18056511879 1.10178530216 0.977917015553 0.979483187199 1.04213833809 1.11800098419 1.28051114082 1.36628568172 1.36625480652 1.2804325819 1.09373629093 1.04213380814 0.979607820511 0.98458635807 1.00867915154 1.03604161739 1.11548662186 1.17873001099 1.17870521545 1.1154255867 1.03327941895 1.00867915154 0.984700083733 
0.984566509724 1.00873613358 1.0361301899 1.1156437397 1.1788995266 1.17887473106 1.11558258533 1.03337001801 1.00873613358 0.984680652618 0.97947871685 1.04221844673 1.11808943748 1.28061044216 1.36639297009 1.36636209488 1.28053176403 1.09381866455 1.04221403599 0.979603290558 0.977977097034 1.11757063866 1.225522995 1.40269505978 1.50500559807 1.5049700737 1.40261006355 1.19803702831 1.11757862568 0.978085875511 0.976496577263 1.17296612263 1.2844132185 1.45938491821 1.55490803719 1.55486929417 1.45930325985 1.25647866726 1.17295241356 0.976576983929 0.975541889668 1.20116627216 1.31378602982 1.48463284969 1.57338023186 1.57334041595 1.48455381393 1.2859057188 1.20113861561 0.975607872009 0.97554320097 1.2011551857 1.31377649307 1.48462545872 1.57337450981 1.57333469391 1.48454642296 1.28589642048 1.20112752914 0.975609362125 0.976500451565 1.17293250561 1.28438317776 1.45936155319 1.55488789082 1.55484938622 1.45928025246 1.25644874573 1.17291879654 0.97658097744 0.977805733681 1.10177481174 1.2077986002 1.38278710842 1.48387467861 1.48383915424 1.38270127773 1.18056643009 1.10178625584 0.977917015553 0.979483246803 1.04213917255 1.11800205708 1.28051269054 1.36628758907 1.36625671387 1.28043413162 1.09373700619 1.0421346426 0.979607701302 0.984586238861 1.00867938995 1.03604209423 1.11548781395 1.17873156071 1.17870676517 1.11542665958 1.03328025341 1.00867938995 0.984699964523 
0.984566509724 1.0087364912 1.03613090515 1.11564493179 1.17890119553 1.17887628078 1.11558389664 1.03337049484 1.0087364912 0.984680593014 0.979478538036 1.04221916199 1.11809039116 1.28061175346 1.36639463902 1.36636388302 1.28053343296 1.09381961823 1.04221475124 0.979603171349 0.977976977825 1.11757194996 1.2255243063 1.40269696712 1.50500750542 1.50497210026 1.4026119709 1.19803845882 1.11757981777 0.978085756302 0.976496398449 1.17296779156 1.28441488743 1.45938742161 1.55491650105 1.55487811565 1.45930600166 1.25648069382 1.17295408249 0.976576805115 0.975541651249 1.2011680603 1.31378817558 1.48464214802 1.57339036465 1.57335054874 1.48456311226 1.28590762615 1.20114004612 0.975607693195 0.975542962551 1.20115673542 1.31377875805 1.48463487625 1.57338488102 1.57334494591 1.48455572128 1.28589820862 1.20112907887 0.975609064102 0.976500272751 1.17293417454 1.28438508511 1.45936441422 1.55489659309 1.55485785007 1.45928263664 1.25645041466 1.17292046547 0.976580858231 0.977805674076 1.10177600384 1.20780014992 1.38278901577 1.48387694359 1.48384130001 1.38270318508 1.18056797981 1.10178756714 0.977916896343 0.979483067989 1.0421397686 1.11800312996 1.28051424026 1.366289258 1.3662583828 1.28043568134 1.09373784065 1.04213523865 0.979607641697 0.984586179256 1.00867974758 1.03604280949 1.11548888683 1.17873311043 1.1787083149 1.11542785168 1.03328061104 1.00867986679 0.984699964523 
0.984566450119 1.00873684883 1.03613138199 1.1156462431 1.17890262604 1.1788777113 1.11558508873 1.03337109089 1.00873696804 0.984680473804 0.979478418827 1.04221987724 1.11809122562 1.28061342239 1.36639642715 1.36636555195 1.28053474426 1.0938205719 1.04221534729 0.979603052139 0.977976679802 1.11757314205 1.22552549839 1.40269911289 1.50500953197 1.50497424603 1.40261399746 1.19803977013 1.11758100986 0.978085517883 0.976496219635 1.17296922207 1.28441679478 1.45938980579 1.55492544174 1.55488705635 1.45930814743 1.25648236275 1.17295563221 0.976576805115 0.975541472435 1.20116961002 1.31379032135 1.48465144634 1.57340073586 1.57336091995 1.48457241058 1.28590977192 1.20114183426 0.975607395172 0.975542902946 1.20115840435 1.31378090382 1.48464405537 1.57339501381 1.57335519791 1.48456513882 1.28590035439 1.2011307478 0.975608944893 0.976500034332 1.17293536663 1.28438687325 1.45936655998 1.55490553379 1.5548671484 1.45928502083 1.25645244122 1.17292189598 0.976580739021 0.977805554867 1.10177695751 1.20780169964 1.38279056549 1.48387873173 1.48384332657 1.38270485401 1.18056917191 1.10178828239 0.97791659832 0.979482889175 1.04214048386 1.11800396442 1.28051567078 1.36629092693 1.36626005173 1.28043711185 1.09373879433 1.04213607311 0.979607462883 0.984586000443 1.00868010521 1.03604328632 1.11549019814 1.17873466015 1.17870974541 1.11542916298 1.03328120708 1.00868010521 0.984700083733 
0.984566450119 1.00873696804 1.03613185883 1.11564731598 1.17890417576 1.17887949944 1.11558628082 1.03337168694 1.00873696804 0.984680533409 0.979478359222 1.0422205925 1.11809241772 1.28061485291 1.3663983345 1.36636734009 1.28053617477 1.09382140636 1.04221606255 0.97960293293 0.977976679802 1.11757409573 1.2255269289 1.40270102024 1.50501167774 1.50497615337 1.40261602402 1.19804096222 1.11758208275 0.978085458279 0.976495981216 1.17297077179 1.28441882133 1.4593924284 1.55493462086 1.55489599705 1.45931077003 1.2564842701 1.17295706272 0.976576566696 0.975541174412 1.20117139816 1.31379246712 1.48466074467 1.57341074944 1.57337081432 1.48458170891 1.28591191769 1.2011436224 0.975607216358 0.975542545319 1.20116019249 1.31378281116 1.48465335369 1.57340502739 1.57336521149 1.48457443714 1.28590250015 1.20113241673 0.975608706474 0.976499915123 1.17293715477 1.28438901901 1.45936918259 1.55491471291 1.5548760891 1.45928764343 1.25645434856 1.1729234457 0.976580440998 0.977805316448 1.1017780304 1.20780289173 1.38279283047 1.48388111591 1.48384559155 1.38270699978 1.18057048321 1.10178947449 0.97791659832 0.979482829571 1.04214119911 1.11800503731 1.2805172205 1.36629271507 1.36626183987 1.28043854237 1.093739748 1.04213678837 0.979607343674 0.984586000443 1.00868034363 1.03604376316 1.11549139023 1.17873632908 1.17871129513 1.11543023586 1.03328168392 1.00868034363 0.984699964523 
