14.0038700104 13.7885599136 13.0384120941 11.8360958099 11.0877094269 11.0886011124 11.8387136459 13.0410070419 13.7896337509 14.003903389 21.9919052124 21.6159420013 20.5529670715 18.9768104553 17.9631843567 17.9644432068 18.9802818298 20.556476593 21.6175746918 21.9920787811 29.9778690338 29.5286159515 28.593170166 27.3096370697 26.4592456818 26.4603328705 27.3125171661 28.5960941315 29.5302886963 29.9781703949 37.9808692932 37.6403465271 37.0236091614 36.2314720154 35.7152938843 35.715965271 36.2332267761 37.0254669189 37.6415328979 37.9811325073 45.9987487793 45.873840332 45.6603965759 45.396648407 45.2268562317 45.2270812988 45.3972320557 45.661026001 45.8742675781 45.9988441467 54.0213012695 54.1468200684 54.3613395691 54.6263999939 54.7970428467 54.7968292236 54.6258163452 54.3607063293 54.1464004517 54.0211982727 62.0391654968 62.3801422119 62.9978370667 63.7912712097 64.3083343506 64.3076629639 63.7895278931 62.9959754944 62.3789520264 62.0389022827 70.0421142578 70.4914321899 71.4274978638 72.712097168 73.5632247925 73.5621261597 72.7092132568 71.4245681763 70.4897689819 70.0418167114 78.0280609131 78.4036331177 79.4663467407 81.0426025391 82.0560836792 82.0548248291 81.0391311646 79.4628372192 78.4020080566 78.027885437 86.0161132812 86.2310256958 86.9799041748 88.1797103882 88.9268035889 88.9259033203 88.1770858765 86.9773101807 86.2299423218 86.0160751343 
14.0036373138 13.7873802185 13.0368528366 11.8334350586 11.0843191147 11.0852117538 11.8360567093 13.0394487381 13.7884559631 14.0036764145 21.9916439056 21.6140480042 20.5488376617 18.9686965942 17.9510555267 17.9523220062 18.9721775055 20.5523529053 21.6156826019 21.9918212891 29.9776096344 29.5263290405 28.5872631073 27.2964305878 26.4346466064 26.4357566833 27.2993354797 28.5902042389 29.528011322 29.9779109955 37.9806594849 37.6383705139 37.0180244446 36.216884613 35.6879119873 35.6886062622 36.2186698914 37.0198860168 37.6395492554 37.9809303284 45.998664856 45.873046875 45.6580123901 45.3901405334 45.2154769897 45.2157058716 45.3907356262 45.6586532593 45.8734664917 45.9987640381 54.0213890076 54.1476211548 54.3637084961 54.6329421997 54.8084716797 54.8082504272 54.6323432922 54.3630867004 54.1471977234 54.021282196 62.0393714905 62.3821144104 63.0034332275 63.8058815002 64.335723877 64.3350372314 63.8040962219 63.0015449524 62.3809280396 62.0391082764 70.0423660278 70.4937210083 71.4333877563 72.7253112793 73.5877990723 73.5866775513 72.72240448 71.430480957 70.4920425415 70.0420684814 78.0283203125 78.4055252075 79.4704818726 81.0507125854 82.0681838989 82.0669174194 81.0472259521 79.4669494629 78.4039001465 78.0281524658 86.0163497925 86.2321929932 86.9814605713 88.1823425293 88.9301681519 88.9292907715 88.1797332764 86.9788665771 86.2311248779 86.0162963867 
14.0036382675 13.7873773575 13.0368432999 11.8334150314 11.0842895508 11.085185051 11.8360366821 13.0394392014 13.7884531021 14.0036754608 21.9916419983 21.6140403748 20.5488185883 18.968662262 17.9510116577 17.9522762299 18.9721450806 20.5523395538 21.6156768799 21.9918174744 29.9776096344 29.5263214111 28.5872440338 27.2963886261 26.4345836639 26.4356956482 27.2992935181 28.5901813507 29.5280056 29.9779109955 37.9806632996 37.6383590698 37.0180053711 36.2168388367 35.687828064 35.6885147095 36.218624115 37.0198669434 37.6395492554 37.9809265137 45.998664856 45.8730506897 45.6580123901 45.3901138306 45.2154350281 45.2156600952 45.390712738 45.6586532593 45.8734703064 45.9987640381 54.0213890076 54.1476325989 54.3637237549 54.6329574585 54.8085250854 54.8082962036 54.6323699951 54.3630943298 54.1472015381 54.021282196 62.0393753052 62.3821258545 63.0034408569 63.8059310913 64.3358154297 64.3351211548 63.8041419983 63.0015678406 62.3809280396 62.0391120911 70.0423812866 70.4937286377 71.4334259033 72.7253417969 73.5878601074 73.5867385864 72.7224349976 71.430480957 70.4920501709 70.0420761108 78.0283279419 78.4055328369 79.470489502 81.050743103 82.0682220459 82.0669631958 81.0472564697 79.4669723511 78.4039001465 78.0281524658 86.0163497925 86.2322006226 86.9814682007 88.1823806763 88.9301986694 88.9293136597 88.1797485352 86.9788818359 86.2311248779 86.0162963867 
14.0036373138 13.7873754501 13.0368337631 11.8333978653 11.0842666626 11.0851602554 11.836019516 13.0394325256 13.7884511948 14.0036764145 21.9916419983 21.6140384674 20.5488090515 18.9686393738 17.9509811401 17.9522476196 18.9721221924 20.5523262024 21.6156730652 21.9918174744 29.9776096344 29.5263175964 28.5872325897 27.2963600159 26.4345474243 26.4356536865 27.2992630005 28.5901660919 29.5280017853 29.9779109955 37.9806632996 37.6383628845 37.017993927 36.2168083191 35.6877937317 35.6884803772 36.2185974121 37.019859314 37.6395454407 37.9809265137 45.998664856 45.8730506897 45.6580047607 45.3901062012 45.2154197693 45.2156448364 45.3906974792 45.6586456299 45.8734703064 45.9987640381 54.0213890076 54.1476325989 54.3637313843 54.6329689026 54.8085365295 54.8083114624 54.6323814392 54.3630981445 54.1472053528 54.021282196 62.0393753052 62.3821334839 63.003452301 63.8059616089 64.3358535767 64.3351669312 63.8041572571 63.0015792847 62.3809356689 62.0391120911 70.0423812866 70.4937286377 71.4334335327 72.7253646851 73.5878982544 73.5867767334 72.7224655151 71.4304885864 70.4920578003 70.0420761108 78.0283279419 78.4055328369 79.4704971313 81.0507507324 82.0682678223 82.0669937134 81.0472717285 79.4669799805 78.4039077759 78.0281524658 86.0163497925 86.2322006226 86.9814758301 88.1823959351 88.9302215576 88.9293365479 88.1797714233 86.9788818359 86.2311248779 86.0162963867 
14.0036373138 13.7873754501 13.0368280411 11.8333806992 11.0842447281 11.0851364136 11.8360023499 13.0394239426 13.7884511948 14.0036764145 21.9916419983 21.6140365601 20.5487976074 18.9686107635 17.9509525299 17.9522190094 18.9720973969 20.5523147583 21.6156730652 21.9918174744 29.9776134491 29.526309967 28.5872211456 27.296333313 26.43450737 26.4356193542 27.2992362976 28.5901603699 29.5279903412 29.9779090881 37.9806632996 37.6383590698 37.0179824829 36.2167854309 35.6877555847 35.6884422302 36.2185745239 37.0198440552 37.6395454407 37.9809265137 45.998664856 45.873046875 45.6580047607 45.3900947571 45.2154045105 45.2156295776 45.3906860352 45.6586380005 45.8734703064 45.9987640381 54.0213890076 54.1476325989 54.3637390137 54.6329879761 54.8085517883 54.8083229065 54.6323928833 54.3631019592 54.1472053528 54.021282196 62.0393753052 62.3821334839 63.0034675598 63.805973053 64.3358917236 64.3351974487 63.8041763306 63.0015907288 62.3809394836 62.0391120911 70.0423812866 70.4937286377 71.4334564209 72.7253952026 73.587928772 73.586807251 72.7224884033 71.4305114746 70.4920501709 70.0420761108 78.0283279419 78.4055480957 79.4704971313 81.0507965088 82.0682983398 82.067024231 81.0473022461 79.4670028687 78.4039154053 78.0281524658 86.0163497925 86.2322006226 86.9814834595 88.1824035645 88.9302368164 88.9293518066 88.1797943115 86.9788818359 86.2311248779 86.0162963867 
14.0036373138 13.7873735428 13.0368185043 11.8333616257 11.0842199326 11.0851125717 11.8359832764 13.0394163132 13.7884483337 14.0036764145 21.9916419983 21.6140327454 20.5487823486 18.9685897827 17.950920105 17.9521865845 18.9720745087 20.5523033142 21.6156673431 21.9918174744 29.9776134491 29.526309967 28.5872058868 27.2963085175 26.4344787598 26.4355869293 27.2992115021 28.590139389 29.5279922485 29.9779109955 37.9806632996 37.6383590698 37.0179710388 36.2167663574 35.6877212524 35.6884078979 36.2185516357 37.0198326111 37.6395454407 37.9809265137 45.998664856 45.8730392456 45.6579971313 45.3900871277 45.2153930664 45.2156181335 45.3906822205 45.6586303711 45.873462677 45.9987640381 54.0213890076 54.1476287842 54.3637313843 54.6329917908 54.8085670471 54.8083381653 54.6324043274 54.3631019592 54.1472053528 54.021282196 62.0393753052 62.3821372986 63.0034790039 63.8059921265 64.3359298706 64.3352432251 63.8042068481 63.0015983582 62.3809432983 62.0391120911 70.0423812866 70.4937438965 71.4334564209 72.7254257202 73.5879669189 73.5868453979 72.7225112915 71.4305267334 70.4920578003 70.0420761108 78.0283203125 78.4055480957 79.4705276489 81.050819397 82.068321228 82.0670623779 81.0473251343 79.4669952393 78.4039154053 78.0281448364 86.0163497925 86.2322006226 86.9814910889 88.1824264526 88.9302749634 88.9293899536 88.1798095703 86.9789123535 86.2311248779 86.0162963867 
14.0036373138 13.7873725891 13.0368118286 11.8333463669 11.084195137 11.0850887299 11.8359680176 13.0394086838 13.7884464264 14.0036764145 21.9916419983 21.614030838 20.5487728119 18.9685668945 17.9508895874 17.9521560669 18.9720497131 20.5522918701 21.6156654358 21.9918174744 29.9776134491 29.5263061523 28.5871944427 27.2962856293 26.4344367981 26.435546875 27.2991905212 28.5901317596 29.5279884338 29.9779090881 37.9806632996 37.6383514404 37.0179519653 36.2167434692 35.6876831055 35.688369751 36.2185211182 37.0198287964 37.639541626 37.9809265137 45.998664856 45.8730392456 45.657989502 45.3900718689 45.2153816223 45.2156066895 45.390663147 45.6586265564 45.873462677 45.9987640381 54.0213890076 54.1476325989 54.3637390137 54.6330108643 54.8085823059 54.8083534241 54.6324157715 54.3631057739 54.1472053528 54.021282196 62.0393676758 62.3821411133 63.0034866333 63.8060188293 64.3359680176 64.3352737427 63.8042259216 63.0016059875 62.3809432983 62.0391082764 70.0423812866 70.4937438965 71.4334716797 72.7254562378 73.5880050659 73.5868835449 72.7225494385 71.4305419922 70.4920578003 70.0420761108 78.0283203125 78.4055480957 79.4705276489 81.050819397 82.0683441162 82.0670928955 81.0473403931 79.467010498 78.4039154053 78.0281448364 86.0163497925 86.2322006226 86.9814987183 88.1824493408 88.9302978516 88.9294052124 88.1798248291 86.9789123535 86.2311248779 86.0162963867 
