14.017739296 13.8566884995 13.0867242813 12.0152616501 11.4666929245 11.4673204422 12.0172319412 13.0893726349 13.8577136993 14.0176620483 22.0103683472 21.751247406 20.8250179291 19.6751308441 19.0528011322 19.0535488129 19.677318573 20.8279876709 21.7525691986 22.0103912354 29.9990978241 29.7012081146 28.9779033661 28.1182498932 27.6181373596 27.6187610626 28.1199760437 28.9801158905 29.7024707794 29.9992160797 37.9979667664 37.7884712219 37.3415336609 36.8262443542 36.5191459656 36.5195388794 36.8272972107 37.342880249 37.789276123 37.9980812073 46.0053634644 45.9318275452 45.7813186646 45.6108322144 45.5086097717 45.5087432861 45.6111793518 45.7817611694 45.9321022034 46.005405426 54.0146484375 54.088558197 54.2398109436 54.4111557007 54.5139007568 54.5137672424 54.4108047485 54.2393722534 54.0882759094 54.0146064758 62.0220451355 62.2318534851 62.679523468 63.1956710815 63.503276825 63.5028915405 63.1946182251 62.6781692505 62.2310409546 62.0219268799 70.0208892822 70.318862915 71.0428161621 71.9032974243 72.4038543701 72.4032287598 71.9015655518 71.0406112671 70.3176040649 70.0207672119 78.0096054077 78.2685089111 79.1948165894 80.345161438 80.9675598145 80.9668273926 80.3429794312 79.1918487549 78.2671813965 78.0095672607 86.0022583008 86.1630325317 86.9319839478 88.0019683838 88.5500030518 88.549369812 88.0000076294 86.9293365479 86.1620101929 86.0023422241 
14.0058784485 13.7885036469 12.9844846725 11.8024234772 11.1348924637 11.135684967 11.8047618866 12.9872684479 13.7896299362 14.0058956146 21.9938659668 21.6310043335 20.5725860596 19.195148468 18.4163646698 18.4173049927 19.1978607178 20.5760002136 21.6325950623 21.9940280914 29.9794940948 29.5436763763 28.6636276245 27.6191444397 27.0129947662 27.0137443542 27.6212291718 28.6662693024 29.5453166962 29.9797821045 37.9814872742 37.6564025879 37.0983276367 36.481212616 36.1150512695 36.1155090332 36.4824638367 37.0999298096 37.6575050354 37.9817466736 45.9990997314 45.8816299438 45.6923408508 45.4897117615 45.3686103821 45.3687553406 45.4901237488 45.6928787231 45.8820228577 45.9991989136 54.0209465027 54.138999939 54.3292274475 54.532875061 54.6545906067 54.6544380188 54.532459259 54.3286857605 54.1386070251 54.0208511353 62.0385360718 62.3640823364 62.923034668 63.541229248 63.9079933167 63.9075317383 63.5399703979 62.9214401245 62.3629722595 62.0382881165 70.0404815674 70.4763717651 71.357131958 72.402633667 73.0093460083 73.0085906982 72.4005508423 71.3544540405 70.4747238159 70.0401992798 78.0261001587 78.388633728 79.4469070435 80.82472229 81.6036300659 81.6026916504 80.8219985962 79.4434814453 78.387046814 78.0259399414 86.0140991211 86.2310943604 87.0338821411 88.2139511108 88.8806381226 88.8798370361 88.2116241455 87.0311050415 86.2299804688 86.0140838623 
14.00390625 13.7834739685 12.9942035675 11.817191124 11.1434059143 11.1442079544 11.8195428848 12.9969491959 13.7845840454 14.0039405823 21.9919815063 21.622171402 20.5611457825 19.1513175964 18.3224830627 18.3235092163 19.1541614532 20.5645866394 21.6237716675 21.9921569824 29.9779396057 29.5318565369 28.6322631836 27.5204925537 26.8393306732 26.8401927948 27.5227985382 28.6349887848 29.5335216522 29.9782390594 37.9802970886 37.6451568604 37.0632667542 36.3843154907 35.9708442688 35.971370697 36.3857192993 37.0649719238 37.6463012695 37.9805603027 45.9986152649 45.8768463135 45.6765899658 45.4512939453 45.3150901794 45.3152656555 45.4517555237 45.6771659851 45.8772544861 45.9987182617 54.0214347839 54.1438026428 54.3450584412 54.5714874268 54.7083702087 54.7081985474 54.5710144043 54.3444786072 54.1433982849 54.0213394165 62.0397338867 62.3753356934 62.9581375122 63.6382141113 64.0523834229 64.0518569946 63.636806488 62.9564247131 62.3741912842 62.0394706726 70.0420455933 70.4881820679 71.3884506226 72.5011978149 73.1829528809 73.1820755005 72.498878479 71.3857040405 70.4865188599 70.0417480469 78.0279846191 78.3974456787 79.4582901001 80.8683853149 81.6972198486 81.6961975098 80.8655471802 79.4548416138 78.3958435059 78.0278167725 86.0160827637 86.2360992432 87.0241165161 88.1990890503 88.8719406128 88.8711395264 88.1967391968 87.0213928223 86.2350006104 86.0160522461 
14.0036897659 13.7832298279 12.9967775345 11.8219099045 11.1486291885 11.149430275 11.8242607117 12.9995155334 13.7843360901 14.0037231445 21.9917945862 21.6217308044 20.5619812012 19.1508216858 18.3193130493 18.3203411102 19.153673172 20.5654220581 21.6233272552 21.9919700623 29.9778060913 29.5311698914 28.6308059692 27.5135707855 26.8233394623 26.824224472 27.5159034729 28.6335468292 29.5328369141 29.9781074524 37.9801979065 37.6444015503 37.0606155396 36.3735122681 35.9469451904 35.9474945068 36.3749542236 37.0623321533 37.6455421448 37.9804725647 45.9985809326 45.876499176 45.6751899719 45.4456558228 45.3043899536 45.3045654297 45.446144104 45.6757698059 45.8769111633 45.9986801147 54.0214691162 54.1441497803 54.3464698792 54.5771408081 54.719127655 54.7189483643 54.5766525269 54.3458786011 54.1437416077 54.0213623047 62.0398216248 62.3760910034 62.9607963562 63.6490211487 64.0762863159 64.0757446289 63.6475753784 62.959072113 62.3749465942 62.0395584106 70.0421676636 70.4888687134 71.3899002075 72.5080947876 73.1988983154 73.1980056763 72.5057601929 71.3871612549 70.4872055054 70.0418777466 78.028175354 78.397895813 79.4574584961 80.8688659668 81.7003631592 81.6993408203 80.866027832 79.4540100098 78.3962936401 78.0279922485 86.0162963867 86.2363586426 87.0215606689 88.1943588257 88.8666992188 88.8659057617 88.1920089722 87.0188217163 86.235244751 86.0162658691 
14.0036659241 13.7831964493 12.9970235825 11.8223667145 11.1491355896 11.1499376297 11.8247184753 12.9997606277 13.7843027115 14.0037021637 21.991771698 21.6216697693 20.5620346069 19.1507205963 18.3189525604 18.3199825287 19.1535720825 20.5654678345 21.6232681274 21.9919490814 29.9777908325 29.5310783386 28.6305885315 27.5127639771 26.8217220306 26.8226070404 27.5150947571 28.6333293915 29.5327453613 29.9780921936 37.9801979065 37.6442985535 37.0602645874 36.3721313477 35.943561554 35.9441184998 36.3735733032 37.0619697571 37.6454429626 37.9804649353 45.9985733032 45.8764572144 45.6749992371 45.4448699951 45.3025245667 45.3027114868 45.4453544617 45.6755828857 45.876865387 45.9986763 54.0214729309 54.1441917419 54.3466529846 54.5779380798 54.720993042 54.7208137512 54.5774497986 54.3460731506 54.143787384 54.0213775635 62.0398254395 62.3761978149 62.9611434937 63.6504135132 64.0796737671 64.0791244507 63.6489562988 62.9594268799 62.375038147 62.03956604 70.0421905518 70.4889602661 71.3901138306 72.5089111328 73.2005081177 73.1996231079 72.5065765381 71.3873672485 70.4872970581 70.041885376 78.0281982422 78.3979568481 79.4574127197 80.8689651489 81.7007293701 81.6996917725 80.8661270142 79.453956604 78.3963699341 78.0280227661 86.0163192749 86.2363891602 87.0213012695 88.1939086914 88.8661956787 88.8653945923 88.1915512085 87.0185775757 86.2352905273 86.0162811279 
14.0036611557 13.7831859589 12.9970397949 11.8223867416 11.1491508484 11.1499519348 11.8247375488 12.9997749329 13.7842903137 14.003695488 21.991771698 21.6216487885 20.5620079041 19.1506385803 18.3188095093 18.3198413849 19.1534900665 20.5654373169 21.6232471466 21.9919490814 29.9777889252 29.5310459137 28.6305179596 27.5125617981 26.8213748932 26.8222579956 27.5148906708 28.6332530975 29.5327167511 29.9780883789 37.9801940918 37.6442718506 37.0601654053 36.3718109131 35.9428482056 35.943397522 36.373260498 37.061870575 37.6454200745 37.9804573059 45.9985733032 45.8764457703 45.6749610901 45.4446792603 45.3020896912 45.3022766113 45.4451599121 45.6755371094 45.8768463135 45.9986763 54.0214805603 54.144203186 54.3466949463 54.578125 54.7214317322 54.721244812 54.5776367188 54.3461151123 54.1438026428 54.0213775635 62.0398330688 62.3762130737 62.961227417 63.6507225037 64.0803909302 64.0798416138 63.6492805481 62.9595146179 62.3750648499 62.0395698547 70.0421981812 70.4889831543 71.3901748657 72.5091323853 73.2008590698 73.1999740601 72.5067749023 71.3874359131 70.4873123169 70.0418930054 78.0281906128 78.3979644775 79.4574432373 80.8690643311 81.7008590698 81.699836731 80.8662033081 79.4539871216 78.3963775635 78.0280151367 86.0163192749 86.2364044189 87.0212860107 88.1938858032 88.8661727905 88.8653869629 88.1915359497 87.0185775757 86.2353057861 86.0162887573 
14.0036621094 13.7831792831 12.9970302582 11.8223676682 11.1491231918 11.1499242783 11.8247184753 12.9997644424 13.7842855453 14.0036964417 21.9917697906 21.6216430664 20.5619812012 19.1505870819 18.3187427521 18.319770813 19.1534423828 20.5654182434 21.6232395172 21.9919471741 29.9777851105 29.5310382843 28.6304779053 27.5124778748 26.8212490082 26.8221321106 27.5148067474 28.6332130432 29.532705307 29.9780864716 37.9801940918 37.6442680359 37.060131073 36.3717079163 35.9426231384 35.9431800842 36.3731498718 37.0618400574 37.6454124451 37.9804573059 45.9985771179 45.8764381409 45.6749382019 45.4446182251 45.3019523621 45.3021392822 45.4451026917 45.6755218506 45.8768424988 45.9986763 54.0214805603 54.1442146301 54.3467178345 54.5781898499 54.721572876 54.7213821411 54.5776977539 54.3461380005 54.1438064575 54.0213775635 62.0398330688 62.3762245178 62.9612693787 63.6508331299 64.080619812 64.0800628662 63.6493835449 62.9595451355 62.3750801086 62.0395698547 70.0421981812 70.4889907837 71.3902359009 72.5092010498 73.2009887695 73.2000961304 72.5068588257 71.3874664307 70.4873275757 70.0418930054 78.0281906128 78.3979797363 79.4574584961 80.869102478 81.7009277344 81.6999053955 80.8662567139 79.4540023804 78.3963928223 78.0280075073 86.0163192749 86.2364044189 87.0213012695 88.193901062 88.8662109375 88.8654022217 88.1915588379 87.0185775757 86.2353134155 86.0162887573 
