1.00000011921 1.0 1.00000011921 1.04914867878 1.10035634041 1.10032737255 1.049077034 1.0 1.0 1.0 1.0 1.0 1.04080104828 1.17333555222 1.24252486229 1.24248957634 1.17324590683 1.02143549919 1.0 1.0 1.00000011921 1.03620707989 1.12602686882 1.26903402805 1.35503709316 1.35500347614 1.26895225048 1.10292732716 1.03622639179 1.0 1.0 1.08200073242 1.17298400402 1.31669640541 1.39530146122 1.39526379108 1.31662011147 1.14908099174 1.08201384544 1.0 1.0 1.10456049442 1.19639050961 1.33755457401 1.40975022316 1.40971136093 1.33747828007 1.17199897766 1.10456371307 1.0 1.0 1.10455012321 1.19638204575 1.33754789829 1.40974473953 1.4097058773 1.33747160435 1.17199015617 1.10455322266 1.0 1.00000011921 1.0819696188 1.17295730114 1.31667602062 1.3952832222 1.39524555206 1.31659960747 1.14905357361 1.08198273182 1.0 1.0 1.0240957737 1.11277770996 1.25370407104 1.33807706833 1.33804237843 1.2536149025 1.09005951881 1.02411651611 1.0 1.00000011921 0.999999940395 1.04072546959 1.17324233055 1.24242854118 1.24239349365 1.17315280437 1.02136445045 1.0 0.999999940395 0.999999940395 1.0 1.00000011921 1.04900217056 1.10018670559 1.10015761852 1.04893028736 1.00000011921 1.00000011921 1.0 
1.00000011921 1.0 1.00000011921 1.04914867878 1.10035634041 1.10032737255 1.049077034 1.0 1.0 1.0 1.0 1.0 1.04080104828 1.17333555222 1.24252486229 1.24248957634 1.17324590683 1.02143549919 1.0 1.0 1.00000011921 1.03620707989 1.12602686882 1.26903402805 1.35643410683 1.35640180111 1.26895225048 1.10292732716 1.03622639179 1.0 1.0 1.08200073242 1.17298400402 1.31723368168 1.40142464638 1.40138971806 1.31715929508 1.14908099174 1.08201384544 1.0 1.0 1.10456049442 1.19639050961 1.34008729458 1.41843664646 1.41840076447 1.34001541138 1.17199897766 1.10456371307 1.0 1.0 1.10455012321 1.19638204575 1.3400810957 1.41843152046 1.41839528084 1.34000885487 1.17199015617 1.10455322266 1.0 1.00000011921 1.0819696188 1.17295730114 1.31721282005 1.40140652657 1.40137171745 1.31713855267 1.14905357361 1.08198273182 1.0 1.0 1.0240957737 1.11277770996 1.25370407104 1.33814620972 1.33811223507 1.2536149025 1.09005951881 1.02411651611 1.0 1.00000011921 0.999999940395 1.04072546959 1.17324233055 1.24242854118 1.24239349365 1.17315280437 1.02136445045 1.0 0.999999940395 0.999999940395 1.0 1.00000011921 1.04900217056 1.10018670559 1.10015761852 1.04893028736 1.00000011921 1.00000011921 1.0 
1.00000011921 1.0 1.00000011921 1.04914867878 1.10035634041 1.10032737255 1.049077034 1.0 1.0 1.0 1.0 1.0 1.04080104828 1.17333555222 1.24252486229 1.24248957634 1.17324590683 1.02143549919 1.0 1.0 1.00000011921 1.03620707989 1.12602686882 1.26903402805 1.35643410683 1.35640180111 1.26895225048 1.10292732716 1.03622639179 1.0 1.0 1.08200073242 1.17298400402 1.31723368168 1.40158903599 1.40155434608 1.31715929508 1.14908099174 1.08201384544 1.0 1.0 1.10456049442 1.19639050961 1.34017705917 1.41872942448 1.41869354248 1.34010529518 1.17199897766 1.10456371307 1.0 1.0 1.10455012321 1.19638204575 1.34017074108 1.41872406006 1.41868817806 1.34009885788 1.17199015617 1.10455322266 1.0 1.00000011921 1.0819696188 1.17295730114 1.31721282005 1.40157079697 1.40153622627 1.31713855267 1.14905357361 1.08198273182 1.0 1.0 1.0240957737 1.11277770996 1.25370407104 1.33814620972 1.33811223507 1.2536149025 1.09005951881 1.02411651611 1.0 1.00000011921 0.999999940395 1.04072546959 1.17324233055 1.24242854118 1.24239349365 1.17315280437 1.02136445045 1.0 0.999999940395 0.999999940395 1.0 1.00000011921 1.04900217056 1.10018670559 1.10015761852 1.04893028736 1.00000011921 1.00000011921 1.0 
1.00000011921 1.0 1.00000011921 1.04914867878 1.10035634041 1.10032737255 1.049077034 1.0 1.0 1.0 1.0 1.0 1.04080104828 1.17333555222 1.24252486229 1.24248957634 1.17324590683 1.02143549919 1.0 1.0 1.00000011921 1.03620707989 1.12602686882 1.26903402805 1.35643410683 1.35640180111 1.26895225048 1.10292732716 1.03622639179 1.0 1.0 1.08200073242 1.17298400402 1.31723368168 1.40161395073 1.40157914162 1.31715929508 1.14908099174 1.08201384544 1.0 1.0 1.10456049442 1.19639050961 1.34019720554 1.41877233982 1.41873633862 1.34012532234 1.17199897766 1.10456371307 1.0 1.0 1.10455012321 1.19638204575 1.34019076824 1.41876709461 1.41873109341 1.34011888504 1.17199015617 1.10455322266 1.0 1.00000011921 1.0819696188 1.17295730114 1.31721282005 1.40159583092 1.40156126022 1.31713855267 1.14905357361 1.08198273182 1.0 1.0 1.0240957737 1.11277770996 1.25370407104 1.33814620972 1.33811223507 1.2536149025 1.09005951881 1.02411651611 1.0 1.00000011921 0.999999940395 1.04072546959 1.17324233055 1.24242854118 1.24239349365 1.17315280437 1.02136445045 1.0 0.999999940395 0.999999940395 1.0 1.00000011921 1.04900217056 1.10018670559 1.10015761852 1.04893028736 1.00000011921 1.00000011921 1.0 
1.00000011921 1.0 1.00000011921 1.04914867878 1.10035634041 1.10032737255 1.049077034 1.0 1.0 1.0 1.0 1.0 1.04080104828 1.17333555222 1.24252486229 1.24248957634 1.17324590683 1.02143549919 1.0 1.0 1.00000011921 1.03620707989 1.12602686882 1.26903402805 1.35643410683 1.35640180111 1.26895225048 1.10292732716 1.03622639179 1.0 1.0 1.08200073242 1.17298400402 1.31723368168 1.40162706375 1.40159225464 1.31715929508 1.14908099174 1.08201384544 1.0 1.0 1.10456049442 1.19639050961 1.34021043777 1.41879057884 1.41875481606 1.34013879299 1.17199897766 1.10456371307 1.0 1.0 1.10455012321 1.19638204575 1.34020411968 1.41878545284 1.41874957085 1.3401324749 1.17199015617 1.10455322266 1.0 1.00000011921 1.0819696188 1.17295730114 1.31721282005 1.40160882473 1.40157413483 1.31713855267 1.14905357361 1.08198273182 1.0 1.0 1.0240957737 1.11277770996 1.25370407104 1.33814620972 1.33811223507 1.2536149025 1.09005951881 1.02411651611 1.0 1.00000011921 0.999999940395 1.04072546959 1.17324233055 1.24242854118 1.24239349365 1.17315280437 1.02136445045 1.0 0.999999940395 0.999999940395 1.0 1.00000011921 1.04900217056 1.10018670559 1.10015761852 1.04893028736 1.00000011921 1.00000011921 1.0 
1.00000011921 1.0 1.00000011921 1.04914867878 1.10035634041 1.10032737255 1.049077034 1.0 1.0 1.0 1.0 1.0 1.04080104828 1.17333555222 1.24252486229 1.24248957634 1.17324590683 1.02143549919 1.0 1.0 1.00000011921 1.03620707989 1.12602686882 1.26903402805 1.35643410683 1.35640180111 1.26895225048 1.10292732716 1.03622639179 1.0 1.0 1.08200073242 1.17298400402 1.31723368168 1.40163803101 1.4016033411 1.31715929508 1.14908099174 1.08201384544 1.0 1.0 1.10456049442 1.19639050961 1.34022271633 1.41880476475 1.41876900196 1.34015095234 1.17199897766 1.10456371307 1.0 1.0 1.10455012321 1.19638204575 1.34021615982 1.41879963875 1.41876387596 1.34014439583 1.17199015617 1.10455322266 1.0 1.00000011921 1.0819696188 1.17295730114 1.31721282005 1.40161991119 1.40158510208 1.31713855267 1.14905357361 1.08198273182 1.0 1.0 1.0240957737 1.11277770996 1.25370407104 1.33814620972 1.33811223507 1.2536149025 1.09005951881 1.02411651611 1.0 1.00000011921 0.999999940395 1.04072546959 1.17324233055 1.24242854118 1.24239349365 1.17315280437 1.02136445045 1.0 0.999999940395 0.999999940395 1.0 1.00000011921 1.04900217056 1.10018670559 1.10015761852 1.04893028736 1.00000011921 1.00000011921 1.0 
1.00000011921 1.0 1.00000011921 1.04914867878 1.10035634041 1.10032737255 1.049077034 1.0 1.0 1.0 1.0 1.0 1.04080104828 1.17333555222 1.24252486229 1.24248957634 1.17324590683 1.02143549919 1.0 1.0 1.00000011921 1.03620707989 1.12602686882 1.26903402805 1.35643410683 1.35640180111 1.26895225048 1.10292732716 1.03622639179 1.0 1.0 1.08200073242 1.17298400402 1.31723368168 1.40164911747 1.40161430836 1.31715929508 1.14908099174 1.08201384544 1.0 1.0 1.10456049442 1.19639050961 1.340233922 1.41881811619 1.41878223419 1.34016227722 1.17199897766 1.10456371307 1.0 1.0 1.10455012321 1.19638204575 1.34022760391 1.41881287098 1.41877710819 1.34015583992 1.17199015617 1.10455322266 1.0 1.00000011921 1.0819696188 1.17295730114 1.31721282005 1.40163099766 1.40159630775 1.31713855267 1.14905357361 1.08198273182 1.0 1.0 1.0240957737 1.11277770996 1.25370407104 1.33814620972 1.33811223507 1.2536149025 1.09005951881 1.02411651611 1.0 1.00000011921 0.999999940395 1.04072546959 1.17324233055 1.24242854118 1.24239349365 1.17315280437 1.02136445045 1.0 0.999999940395 0.999999940395 1.0 1.00000011921 1.04900217056 1.10018670559 1.10015761852 1.04893028736 1.00000011921 1.00000011921 1.0 
