0.985515415668 1.02896046638 1.06744873524 1.16083037853 1.21964561939 1.21961200237 1.16074991226 1.06441628933 1.02894628048 0.985649108887 0.980848491192 1.06849145889 1.14826202393 1.28249514103 1.33712053299 1.33707869053 1.28239369392 1.11817789078 1.06847476959 0.980989336967 0.980145692825 1.13452160358 1.23789966106 1.34638464451 1.39256250858 1.39251327515 1.34628045559 1.21191561222 1.13453948498 0.980277240276 0.978988349438 1.18658220768 1.28114247322 1.37266850471 1.41193652153 1.41188871861 1.37256479263 1.25755095482 1.18660068512 0.979101479053 0.978140294552 1.21060800552 1.29987156391 1.38313043118 1.41853225231 1.41848564148 1.3830281496 1.27779424191 1.21061956882 0.978245437145 0.97814142704 1.21059632301 1.29986083508 1.38312280178 1.41852653027 1.41847991943 1.38302052021 1.27778339386 1.21060788631 0.978246450424 0.978991866112 1.18654763699 1.28110933304 1.37264299393 1.41191458702 1.41186690331 1.37253928185 1.25751769543 1.18656611443 0.979104876518 0.979933202267 1.11864304543 1.22628593445 1.34103155136 1.38911962509 1.38906991482 1.34092533588 1.19881951809 1.11866426468 0.980066537857 0.980852127075 1.06840395927 1.14817976952 1.28238642216 1.33700454235 1.33696269989 1.28228485584 1.11809921265 1.06838715076 0.980992853642 0.985535502434 1.02888631821 1.06734645367 1.16066634655 1.21943366528 1.21940016747 1.16058564186 1.06430792809 1.02887225151 0.985669195652 
0.98426169157 1.01218616962 1.04378306866 1.12980318069 1.1929473877 1.19291973114 1.12973666191 1.04071545601 1.01218295097 0.98438334465 0.979098320007 1.04711747169 1.12160122395 1.27446758747 1.35484242439 1.35480642319 1.27438139915 1.09204888344 1.04710352421 0.97922706604 0.978131711483 1.1117310524 1.22914814949 1.38337004185 1.45983552933 1.45979213715 1.38327729702 1.19596552849 1.11173582077 0.978243947029 0.976644039154 1.16884064674 1.28823316097 1.42733931541 1.49317526817 1.49312806129 1.42724609375 1.25376784801 1.16883897781 0.976728737354 0.975437760353 1.19690167904 1.31774711609 1.44586706161 1.50496697426 1.50492072105 1.44577598572 1.28238046169 1.19688773155 0.975508093834 0.975439429283 1.19689130783 1.31773638725 1.4458591938 1.50496101379 1.50491476059 1.4457681179 1.28237068653 1.19687736034 0.975509822369 0.976648688316 1.16880965233 1.28820073605 1.42731416225 1.49315404892 1.49310684204 1.42722117901 1.25373840332 1.16880786419 0.976733446121 0.977923810482 1.09483098984 1.21090424061 1.36763596535 1.44799089432 1.44794666767 1.36753988266 1.17772448063 1.09484159946 0.978038191795 0.979102373123 1.04703855515 1.12152254581 1.27437448502 1.35474681854 1.35471105576 1.2742882967 1.09197437763 1.04702460766 0.979231238365 0.984282433987 1.01212584972 1.04369342327 1.1296620369 1.19277667999 1.19274914265 1.12959551811 1.04061937332 1.01212263107 0.984404027462 
0.984236240387 1.00979089737 1.04017746449 1.12480926514 1.18721663952 1.18719005585 1.12474548817 1.03712522984 1.00978946686 0.984355390072 0.979038119316 1.04377615452 1.11754631996 1.26949691772 1.34952604771 1.34949326515 1.26941359043 1.08803594112 1.04376268387 0.979164600372 0.978018045425 1.10780394077 1.22487330437 1.38017451763 1.46935343742 1.46931684017 1.38008737564 1.19179654121 1.10780751705 0.978128314018 0.976507246494 1.16475176811 1.28347921371 1.43137085438 1.51325380802 1.51321303844 1.43128561974 1.24940562248 1.16474747658 0.976590275764 0.975299477577 1.1928101778 1.31249952316 1.45446443558 1.52965426445 1.52961325645 1.45437991619 1.27788245678 1.19279265404 0.975368440151 0.975301146507 1.19279980659 1.31248915195 1.45445668697 1.52964830399 1.52960705757 1.4543722868 1.27787280083 1.19278228283 0.975370168686 0.976511895657 1.16472089291 1.28345143795 1.43134915829 1.51323390007 1.51319301128 1.43126404285 1.24937844276 1.16471660137 0.976594984531 0.977815628052 1.09092903137 1.20654499531 1.36275160313 1.45173096657 1.45169365406 1.36266410351 1.17348301411 1.09093868732 0.977928221226 0.979042291641 1.04369902611 1.11746764183 1.26940476894 1.34942996502 1.34939706326 1.26932132244 1.08796179295 1.04368567467 0.979168653488 0.984257042408 1.00973320007 1.04009032249 1.12467122078 1.1870496273 1.18702316284 1.1246073246 1.03703153133 1.00973165035 0.984375953674 
0.98423397541 1.00947618484 1.0397028923 1.12415587902 1.18646454811 1.18643808365 1.12409245968 1.03665196896 1.00947475433 0.984352767467 0.979032099247 1.0433369875 1.11701285839 1.26884269714 1.34882080555 1.34878826141 1.26875948906 1.08750724792 1.04332375526 0.979158222675 0.978001892567 1.10728895664 1.22430515289 1.37951111794 1.46951496601 1.46947920322 1.3794246912 1.19124174118 1.10729253292 0.97811204195 0.976481318474 1.16422748566 1.28296041489 1.4309939146 1.51696872711 1.51692998409 1.43091022968 1.24890816212 1.16422271729 0.97656416893 0.97527050972 1.19229662418 1.31180763245 1.45511806011 1.53526973724 1.5352306366 1.45503556728 1.27730762959 1.19227862358 0.97533929348 0.975272119045 1.19228613377 1.31179714203 1.45511066914 1.53526377678 1.53522467613 1.45502793789 1.27729797363 1.19226825237 0.975340902805 0.976486027241 1.16419649124 1.28293251991 1.43097221851 1.51694893837 1.51691019535 1.4308886528 1.24888122082 1.16419172287 0.976568877697 0.977800607681 1.09041655064 1.2059674263 1.36206519604 1.4510345459 1.4509986639 1.36197805405 1.17291879654 1.09042608738 0.977912962437 0.979036211967 1.04326021671 1.11693441868 1.26875019073 1.34872460365 1.34869205952 1.26866734028 1.08743298054 1.04324710369 0.979162395 0.984254777431 1.00941872597 1.03961598873 1.12401819229 1.18629789352 1.18627166748 1.12395453453 1.03655874729 1.00941729546 0.98437333107 
0.984233081341 1.00941896439 1.03961765766 1.12404048443 1.1863322258 1.18630599976 1.12397694588 1.03656673431 1.00941753387 0.984351813793 0.979030549526 1.04325866699 1.11691856384 1.26872694492 1.34869635105 1.3486635685 1.26864421368 1.0874131918 1.04324543476 0.979156494141 0.977998375893 1.10719847679 1.22420585155 1.37939190865 1.46937572956 1.46934020519 1.37930572033 1.19114458561 1.10720229149 0.978108346462 0.976475119591 1.16413807869 1.28287422657 1.43092620373 1.51774382591 1.51770555973 1.4308423996 1.24882543087 1.16413331032 0.976557910442 0.975263059139 1.19221115112 1.31169474125 1.4551513195 1.53670525551 1.53666675091 1.45506942272 1.27721726894 1.19219315052 0.975331902504 0.975264668465 1.19220089912 1.31168448925 1.45514416695 1.53669941425 1.53666090965 1.45506215096 1.27720737457 1.19218277931 0.975333511829 0.976479649544 1.16410720348 1.2828463316 1.43090462685 1.51772415638 1.51768600941 1.43082094193 1.24879848957 1.16410243511 0.976562619209 0.977797210217 1.09032642841 1.20586597919 1.36194419861 1.45091128349 1.45087563992 1.36185717583 1.17281925678 1.09033584595 0.977909266949 0.979034781456 1.043181777 1.11684000492 1.26863467693 1.34860026836 1.34856760502 1.26855194569 1.08733916283 1.04316866398 0.979160666466 0.984253823757 1.00936150551 1.03953075409 1.12390267849 1.18616580963 1.18613946438 1.12383913994 1.03647315502 1.00936019421 0.984372377396 
0.984232783318 1.00940561295 1.03959810734 1.12401461601 1.18630278111 1.18627655506 1.12395119667 1.03654718399 1.00940430164 0.984351575375 0.97902995348 1.04324090481 1.11689758301 1.26870155334 1.34866881371 1.34863638878 1.26861846447 1.08739209175 1.04322767258 0.979155957699 0.977997124195 1.10717868805 1.22418403625 1.37936532497 1.4693441391 1.46930849552 1.37927925587 1.19112277031 1.10718202591 0.978107154369 0.976473212242 1.16411888599 1.28285622597 1.43091237545 1.51793622971 1.51789844036 1.43082892895 1.24880814552 1.16411399841 0.976556122303 0.975260674953 1.19219374657 1.31167173386 1.45515859127 1.53713274002 1.53709435463 1.45507693291 1.27719974518 1.19217550755 0.975329458714 0.975262284279 1.19218325615 1.31166148186 1.45515143871 1.53712689877 1.53708851337 1.45506989956 1.27718997002 1.19216525555 0.975331068039 0.976478040218 1.16408801079 1.28282868862 1.43089103699 1.51791644096 1.51787877083 1.43080759048 1.24878120422 1.16408324242 0.97656083107 0.977796077728 1.09030628204 1.20584332943 1.36191749573 1.45088374615 1.45084810257 1.36183047295 1.17279732227 1.090315938 0.977908313274 0.97903418541 1.04316401482 1.11681878567 1.26860928535 1.34857285023 1.34854018688 1.26852631569 1.08731770515 1.04315090179 0.979160189629 0.984253525734 1.00934815407 1.03951132298 1.12387681007 1.18613636494 1.1861102581 1.12381339073 1.0364536047 1.00934684277 0.984372138977 
0.984232544899 1.00940215588 1.03959333897 1.12400877476 1.18629646301 1.18626999855 1.123945117 1.0365421772 1.00940072536 0.984351277351 0.979029655457 1.04323661327 1.11689269543 1.26869571209 1.34866285324 1.3486301899 1.26861286163 1.08738708496 1.04322350025 0.97915571928 0.977996826172 1.10717427731 1.2241795063 1.37935996056 1.46933734417 1.46930158138 1.37927353382 1.19111812115 1.10717785358 0.978106737137 0.976472496986 1.16411495209 1.28285324574 1.43091130257 1.51799488068 1.51795685291 1.43082749844 1.24880552292 1.16411030293 0.976555287838 0.975259542465 1.19219064713 1.31166779995 1.45516526699 1.537281394 1.53724336624 1.45508384705 1.27719736099 1.19217276573 0.97532838583 0.975261151791 1.19218027592 1.31165754795 1.45515823364 1.53727567196 1.53723740578 1.4550768137 1.27718746662 1.19216215611 0.975329995155 0.976477265358 1.16408407688 1.28282558918 1.43088960648 1.51797485352 1.51793706417 1.43080615997 1.2487783432 1.1640791893 0.97656005621 0.9777957201 1.0903018713 1.2058391571 1.36191165447 1.45087814331 1.45084249973 1.36182463169 1.17279243469 1.09031152725 0.977907776833 0.979033887386 1.04315984249 1.1168140173 1.26860356331 1.34856653214 1.348533988 1.26852059364 1.08731269836 1.04314672947 0.979159891605 0.984253287315 1.00934457779 1.0395065546 1.12387096882 1.18612992764 1.18610370159 1.12380731106 1.03644883633 1.0093433857 0.984371900558 
