0.984200239182 1.0091291666 1.03819537163 1.12446653843 1.18797504902 1.18794775009 1.1244020462 1.03544807434 1.00912833214 0.984317541122 0.979153156281 1.04310727119 1.1196346283 1.27560317516 1.35686779022 1.35683488846 1.27552008629 1.09174656868 1.04309689999 0.979278206825 0.977848172188 1.11437916756 1.22632598877 1.38797354698 1.48120391369 1.48116707802 1.38788616657 1.19714975357 1.11438727379 0.977958798409 0.97630751133 1.17023932934 1.28284156322 1.43987929821 1.52467954159 1.52463781834 1.43979561329 1.2534724474 1.17023146152 0.976390242577 0.975256085396 1.1977533102 1.31063640118 1.46274769306 1.54016244411 1.54011917114 1.46266400814 1.28119373322 1.19773173332 0.975324809551 0.975257515907 1.19774246216 1.3106276989 1.46274065971 1.54015660286 1.5401134491 1.46265697479 1.28118467331 1.19772088528 0.975326299667 0.976311564445 1.17020702362 1.28281235695 1.43985664845 1.52465927601 1.52461743355 1.43977308273 1.25344395638 1.17019915581 0.976394593716 0.977650821209 1.09763610363 1.20905375481 1.37023997307 1.46279346943 1.46275627613 1.37015247345 1.17978942394 1.09764933586 0.977764070034 0.979157686234 1.04302835464 1.11955392361 1.27550578117 1.35676717758 1.35673463345 1.27542245388 1.09166908264 1.04301810265 0.979282855988 0.984220385551 1.00907194614 1.03811001778 1.12432408333 1.1878041029 1.18777680397 1.12425971031 1.03535580635 1.00907123089 0.984337389469 
0.984191536903 1.00879311562 1.0377137661 1.12382781506 1.18723547459 1.18720829487 1.12376379967 1.03496193886 1.00879263878 0.984308481216 0.979140996933 1.04265213013 1.11910176277 1.27494955063 1.35615229607 1.35611963272 1.27486681938 1.09121406078 1.04264223576 0.979265809059 0.977823913097 1.11385035515 1.22575438023 1.3873026371 1.48100745678 1.4809718132 1.38721644878 1.19658732414 1.11385822296 0.977934479713 0.976261794567 1.16970396042 1.28231215477 1.43945002556 1.52923679352 1.52919888496 1.43936741352 1.25297045708 1.16969537735 0.976344525814 0.975190401077 1.19723892212 1.31019592285 1.46353876591 1.54785811901 1.54781901836 1.46345901489 1.28079724312 1.19721662998 0.975259184837 0.975191831589 1.19722783566 1.31018686295 1.46353161335 1.54785239697 1.54781341553 1.46345186234 1.28078854084 1.19720578194 0.975260734558 0.976266026497 1.16967153549 1.28228318691 1.43942809105 1.52921724319 1.52917921543 1.43934547901 1.25294184685 1.16966307163 0.976348698139 0.977628111839 1.09710919857 1.20846998692 1.369546175 1.46207761765 1.46204185486 1.3694589138 1.17921495438 1.09712255001 0.977740943432 0.979145646095 1.04257357121 1.1190212965 1.27485191822 1.35605168343 1.35601913929 1.27476906776 1.09113645554 1.04256367683 0.979270398617 0.984211683273 1.00873625278 1.03762841225 1.12368583679 1.18706476688 1.18703782558 1.12362170219 1.03486990929 1.00873589516 0.984328329563 
0.984191477299 1.00879359245 1.03771448135 1.12382924557 1.18723726273 1.18721008301 1.12376511097 1.03496265411 1.00879323483 0.984308362007 0.979140877724 1.04265320301 1.11910295486 1.27495121956 1.35615420341 1.35612165928 1.27486848831 1.09121525288 1.04264307022 0.979265570641 0.977823734283 1.11385178566 1.22575592995 1.3873051405 1.48100996017 1.48097419739 1.38721859455 1.19658863544 1.11385965347 0.9779343009 0.976261436939 1.16970574856 1.28231453896 1.43945336342 1.52924895287 1.52921068668 1.43937063217 1.25297260284 1.1696972847 0.976344168186 0.975190103054 1.19724094868 1.31019890308 1.46354389191 1.54788088799 1.54784166813 1.46346402168 1.28079998493 1.19721865654 0.975258886814 0.975191533566 1.19722998142 1.31018948555 1.46353673935 1.54787492752 1.54783606529 1.46345686913 1.28079092503 1.19720768929 0.975260198116 0.976265728474 1.16967356205 1.28228569031 1.43943107128 1.52922916412 1.52919101715 1.43934845924 1.25294399261 1.16966509819 0.976348340511 0.977627873421 1.09711062908 1.20847153664 1.36954820156 1.46208012104 1.46204447746 1.36946117878 1.17921662331 1.0971237421 0.977740764618 0.979145467281 1.04257452488 1.1190226078 1.27485382557 1.35605370998 1.35602104664 1.27477109432 1.09113764763 1.0425645113 0.979270279408 0.984211564064 1.00873672962 1.0376291275 1.12368714809 1.18706667423 1.18703961372 1.1236230135 1.03487074375 1.00873637199 0.984328329563 
0.984191417694 1.00879406929 1.03771543503 1.12383115292 1.1872395277 1.18721270561 1.12376689911 1.03496336937 1.00879359245 0.984308421612 0.979140758514 1.04265415668 1.11910462379 1.27495360374 1.35615670681 1.35612428188 1.27487063408 1.09121656418 1.04264426231 0.979265511036 0.977823674679 1.1138535738 1.2257578373 1.38730764389 1.4810128212 1.48097717762 1.38722121716 1.19659113884 1.1138613224 0.977934062481 0.976261198521 1.16970789433 1.2823176384 1.43945682049 1.52926242352 1.52922451496 1.43937432766 1.25297522545 1.16969943047 0.976343870163 0.975189685822 1.19724345207 1.31020212173 1.46355021 1.54789555073 1.5478566885 1.46347045898 1.28080296516 1.19722115993 0.975258409977 0.975191175938 1.19723260403 1.31019294262 1.46354305744 1.54788994789 1.54785096645 1.46346330643 1.28079402447 1.19721055031 0.975259900093 0.97626543045 1.16967558861 1.28228855133 1.43943476677 1.52924263477 1.52920484543 1.43935227394 1.25294673443 1.16966748238 0.976348161697 0.977627813816 1.09711229801 1.20847380161 1.36955094337 1.46208333969 1.4620475769 1.36946368217 1.17921853065 1.09712553024 0.977740645409 0.979145348072 1.04257559776 1.11902415752 1.27485585213 1.3560564518 1.35602390766 1.27477312088 1.09113907814 1.04256558418 0.979270040989 0.984211564064 1.00873732567 1.03763008118 1.12368917465 1.18706905842 1.18704199791 1.12362492085 1.03487157822 1.00873684883 0.984328210354 
0.984191298485 1.00879454613 1.0377163887 1.12383282185 1.1872420311 1.18721497059 1.12376880646 1.03496432304 1.00879406929 0.984308183193 0.979140639305 1.04265522957 1.11910605431 1.27495551109 1.35615944862 1.35612678528 1.27487266064 1.0912181139 1.04264521599 0.979265391827 0.977823376656 1.11385512352 1.22576022148 1.38731050491 1.4810154438 1.48097980022 1.38722407818 1.19659304619 1.11386299133 0.977933883667 0.976261079311 1.1697101593 1.282320261 1.43946051598 1.52927517891 1.52923715115 1.43937790394 1.25297784805 1.16970181465 0.976343631744 0.975189387798 1.19724583626 1.31020510197 1.46355640888 1.54791045189 1.54787158966 1.46347677708 1.28080618382 1.19722366333 0.975258111954 0.97519081831 1.19723510742 1.31019616127 1.46354937553 1.54790472984 1.54786574841 1.46346974373 1.28079724312 1.19721293449 0.975259542465 0.976265251637 1.16967773438 1.28229117393 1.43943834305 1.52925550938 1.52921748161 1.43935585022 1.25294935703 1.16966927052 0.976347923279 0.977627635002 1.09711372852 1.20847558975 1.36955356598 1.46208631992 1.46205043793 1.3694665432 1.17922031879 1.09712696075 0.977740347385 0.979145050049 1.04257643223 1.11902546883 1.27485799789 1.35605895519 1.35602629185 1.27477502823 1.09114050865 1.04256653786 0.979269862175 0.98421138525 1.0087376833 1.03763091564 1.12369072437 1.1870714426 1.1870443821 1.12362670898 1.03487229347 1.00873732567 0.98432803154 
0.984191179276 1.00879502296 1.03771710396 1.12383496761 1.18724441528 1.18721735477 1.12377071381 1.03496527672 1.00879478455 0.984308123589 0.979140400887 1.04265642166 1.11910772324 1.27495777607 1.35616183281 1.35612916946 1.27487492561 1.0912194252 1.04264616966 0.979265332222 0.977823138237 1.11385691166 1.22576236725 1.38731324673 1.48101842403 1.48098266125 1.38722681999 1.19659507275 1.11386477947 0.977933645248 0.976260721684 1.16971218586 1.28232288361 1.43946421146 1.5292879343 1.52924990654 1.43938159943 1.25298058987 1.16970396042 0.97634345293 0.97518914938 1.19724845886 1.31020820141 1.46356320381 1.54792547226 1.54788649082 1.4634834528 1.28080940247 1.19722640514 0.975257813931 0.975190579891 1.19723749161 1.3101991415 1.46355617046 1.54791975021 1.54788088799 1.46347641945 1.28080046177 1.1972155571 0.975259363651 0.976264894009 1.16968011856 1.28229379654 1.43944215775 1.52926838398 1.5292301178 1.43935930729 1.25295197964 1.16967153549 0.976347565651 0.977627456188 1.09711539745 1.20847761631 1.36955630779 1.46208930016 1.46205341816 1.36946928501 1.17922258377 1.09712874889 0.977740287781 0.979144990444 1.04257750511 1.11902713776 1.27486026287 1.35606122017 1.35602867603 1.27477741241 1.09114170074 1.04256772995 0.979269742966 0.984211206436 1.00873827934 1.03763186932 1.12369275093 1.18707370758 1.18704676628 1.12362861633 1.03487324715 1.00873792171 0.984327912331 
0.984191060066 1.00879561901 1.03771817684 1.12383663654 1.18724668026 1.18721961975 1.12377238274 1.03496599197 1.00879514217 0.98430788517 0.979140281677 1.04265725613 1.11910903454 1.27496004105 1.35616445541 1.35613155365 1.27487707138 1.09122097492 1.04264724255 0.979265153408 0.977823138237 1.11385858059 1.2257642746 1.38731634617 1.48102116585 1.48098564148 1.38722991943 1.19659721851 1.11386656761 0.977933526039 0.97626042366 1.16971457005 1.28232574463 1.43946778774 1.52930057049 1.52926266193 1.4393850565 1.25298345089 1.16970598698 0.976343095303 0.975188791752 1.19725084305 1.31021153927 1.46357035637 1.54794025421 1.54790151119 1.46349048615 1.2808123827 1.19722867012 0.975257515907 0.975190281868 1.19724011421 1.31020247936 1.46356320381 1.54793477058 1.54789590836 1.46348333359 1.28080332279 1.19721770287 0.975259006023 0.97626465559 1.16968226433 1.28229677677 1.43944573402 1.52928102016 1.5292429924 1.43936300278 1.25295460224 1.16967380047 0.976347327232 0.977627038956 1.09711706638 1.2084800005 1.36955881119 1.46209204197 1.46205639839 1.36947190762 1.17922437191 1.09713017941 0.977739930153 0.97914493084 1.04257845879 1.11902856827 1.27486217022 1.35606384277 1.35603129864 1.27477943897 1.09114325047 1.04256868362 0.979269742966 0.984211146832 1.00873875618 1.03763282299 1.12369453907 1.18707621098 1.18704903126 1.12363040447 1.03487408161 1.00873839855 0.984327852726 
