0.985053420067 1.01504564285 1.04437875748 1.10999536514 1.18320930004 1.1831818819 1.10993397236 1.0412197113 1.01504230499 0.985176563263 0.980048298836 1.05052363873 1.11540794373 1.30127513409 1.3922533989 1.39220678806 1.30118274689 1.08999407291 1.05051147938 0.980174660683 0.979143083096 1.12255728245 1.24159026146 1.41460049152 1.48229408264 1.48223543167 1.41447854042 1.21104586124 1.12257182598 0.979253590107 0.977847993374 1.18550372124 1.30356585979 1.45021045208 1.50566196442 1.5055975914 1.45008933544 1.27370679379 1.18550038338 0.977926552296 0.976896464825 1.21562898159 1.33188843727 1.46422505379 1.5128313303 1.51276779175 1.46410751343 1.30297100544 1.2156111002 0.976959705353 0.976897776127 1.21561741829 1.33187866211 1.46421599388 1.51282513142 1.51276159286 1.46409869194 1.30296075344 1.2155995369 0.976960897446 0.97785204649 1.18546938896 1.30353403091 1.45017981529 1.50563883781 1.5055744648 1.45005917549 1.27367591858 1.18546593189 0.977930605412 0.97886878252 1.10200703144 1.22157585621 1.40345275402 1.47662758827 1.47656822205 1.40332591534 1.19044876099 1.10202765465 0.978982150555 0.980052351952 1.05044174194 1.11532223225 1.30117940903 1.39212989807 1.39208340645 1.30108714104 1.08993268013 1.05042970181 0.980178654194 0.985074222088 1.01498281956 1.04428970814 1.10985004902 1.18305766582 1.18303012848 1.10978829861 1.04113280773 1.0149794817 0.985197246075 
0.984658718109 1.00833547115 1.03530704975 1.0995247364 1.17062556744 1.1706007719 1.09947025776 1.03197753429 1.00833654404 0.98477602005 0.979537785053 1.0417342186 1.10574245453 1.28976356983 1.37936079502 1.3793284893 1.28967952728 1.08019661903 1.04172325134 0.979658782482 0.978463888168 1.11232304573 1.2310731411 1.41504895687 1.51577758789 1.5157405138 1.41495978832 1.20073914528 1.11233389378 0.97857016325 0.976914644241 1.17475223541 1.29271483421 1.46875488758 1.56305623055 1.56301617622 1.46866846085 1.26347374916 1.17474126816 0.976989984512 0.975746631622 1.20481038094 1.32195901871 1.49204647541 1.58039355278 1.58035266399 1.49196255207 1.29355931282 1.20478284359 0.975807189941 0.975748181343 1.20479917526 1.32194936275 1.49203920364 1.58038830757 1.58034741879 1.4919552803 1.29354953766 1.20477151871 0.975808858871 0.976919293404 1.17471885681 1.29268538952 1.46873176098 1.56303668022 1.56299650669 1.46864521503 1.26344370842 1.17470788956 0.976994752884 0.978207349777 1.09184110165 1.21087443829 1.39576411247 1.49609494209 1.49605798721 1.39567387104 1.17993497849 1.09185826778 0.9783167243 0.979542076588 1.04165673256 1.10565900803 1.2896695137 1.37925183773 1.3792194128 1.28958570957 1.08013641834 1.0416457653 0.979663074017 0.984679639339 1.00827860832 1.03522157669 1.09937787056 1.17047441006 1.17044961452 1.09932327271 1.03189456463 1.008279562 0.984796762466 
0.984659254551 1.00832843781 1.03529632092 1.09950745106 1.17060315609 1.17057812214 1.0994528532 1.03196680546 1.00832951069 0.984776556492 0.979538500309 1.04172241688 1.10572767258 1.28974235058 1.37933623791 1.37930393219 1.28965830803 1.0801820755 1.04171156883 0.979659557343 0.978464901447 1.11230587959 1.23105251789 1.41502165794 1.51574790478 1.51571071148 1.4149326086 1.20071935654 1.11231672764 0.978571176529 0.976915895939 1.17473161221 1.29269051552 1.46872413158 1.56302261353 1.56298279762 1.46863758564 1.26345026493 1.17472064495 0.97699123621 0.975748181343 1.2047880888 1.32193255424 1.49201345444 1.58035802841 1.58031702042 1.49192965031 1.29353404045 1.20476043224 0.975808680058 0.975749611855 1.20477688313 1.32192313671 1.49200630188 1.58035266399 1.58031177521 1.49192237854 1.29352414608 1.20474922657 0.975810229778 0.976920366287 1.17469835281 1.2926607132 1.46870112419 1.5630030632 1.56296312809 1.46861481667 1.26341998577 1.17468726635 0.976995885372 0.978208363056 1.09182441235 1.21085417271 1.39573776722 1.49606597424 1.49602878094 1.39564728737 1.17991554737 1.09184157848 0.97831761837 0.979542672634 1.04164481163 1.10564410686 1.28964841366 1.3792270422 1.37919473648 1.28956460953 1.08012199402 1.041634202 0.979663789272 0.984680056572 1.00827157497 1.03521084785 1.099360466 1.1704518795 1.17042708397 1.09930598736 1.031883955 1.00827252865 0.984797120094 
0.984659075737 1.00832939148 1.03529763222 1.09950983524 1.17060637474 1.17058134079 1.0994553566 1.03196847439 1.00833046436 0.984776258469 0.979538202286 1.04172408581 1.10572981834 1.28974545002 1.37933957577 1.37930738926 1.28966104984 1.08018398285 1.04171323776 0.979659259319 0.978464722633 1.1123085022 1.23105549812 1.41502535343 1.51575231552 1.51571500301 1.41493654251 1.20072233677 1.11231911182 0.978570997715 0.97691565752 1.17473447323 1.29269397259 1.46872854233 1.56302726269 1.56298732758 1.46864187717 1.26345360279 1.17472350597 0.976991117001 0.97574788332 1.20479130745 1.32193672657 1.49201822281 1.58036315441 1.58032226562 1.49193441868 1.29353749752 1.20476353168 0.975808441639 0.975749433041 1.20477998257 1.3219268322 1.49201095104 1.58035778999 1.580316782 1.49192714691 1.29352760315 1.20475244522 0.975810050964 0.976920306683 1.17470121384 1.29266428947 1.46870541573 1.56300771236 1.56296777725 1.46861886978 1.26342308521 1.17469012737 0.976995825768 0.978208243847 1.09182691574 1.21085739136 1.39574146271 1.49606990814 1.49603295326 1.39565110207 1.1799185276 1.09184408188 0.978317439556 0.979542434216 1.04164648056 1.10564625263 1.28965127468 1.37923061848 1.37919843197 1.28956747055 1.08012413979 1.04163575172 0.979663550854 0.984680056572 1.00827240944 1.03521227837 1.09936308861 1.17045509815 1.17043030262 1.09930849075 1.03188538551 1.00827360153 0.984797000885 
0.984659194946 1.00833034515 1.03529930115 1.09951221943 1.17060959339 1.17058467865 1.09945774078 1.03197002411 1.00833141804 0.984776258469 0.97953826189 1.04172575474 1.10573196411 1.28974831104 1.37934315205 1.37931084633 1.28966426849 1.08018612862 1.04171490669 0.979659318924 0.978464543819 1.11231088638 1.23105847836 1.41502928734 1.51575660706 1.51571953297 1.414940238 1.20072495937 1.11232161522 0.978570997715 0.976915538311 1.17473757267 1.29269731045 1.46873283386 1.56303238869 1.56299233437 1.46864640713 1.26345694065 1.174726367 0.976990878582 0.975747764111 1.2047945261 1.32194018364 1.49202287197 1.58036804199 1.58032727242 1.49193894863 1.29354119301 1.20476675034 0.975808143616 0.975749194622 1.20478332043 1.32193052769 1.49201571941 1.58036255836 1.58032166958 1.49193191528 1.29353141785 1.20475566387 0.97580987215 0.976920127869 1.17470395565 1.29266786575 1.46870994568 1.56301271915 1.56297266483 1.46862339973 1.26342666149 1.1746931076 0.976995587349 0.978208065033 1.09182929993 1.21086037159 1.39574539661 1.49607419968 1.49603712559 1.39565491676 1.17992126942 1.09184646606 0.978317558765 0.979542434216 1.0416482687 1.1056483984 1.28965437412 1.37923407555 1.37920188904 1.28957056999 1.08012616634 1.04163753986 0.979663550854 0.984679937363 1.00827336311 1.03521382809 1.099365592 1.17045843601 1.17043352127 1.09931087494 1.03188693523 1.008274436 0.984797000885 
0.984659016132 1.00833141804 1.03530085087 1.09951496124 1.17061293125 1.17058813572 1.0994604826 1.03197157383 1.00833249092 0.984776258469 0.979538142681 1.04172754288 1.10573410988 1.28975152969 1.37934684753 1.37931466103 1.28966736794 1.08018827438 1.04171681404 0.979659199715 0.978464365005 1.11231350899 1.2310615778 1.41503322124 1.51576077938 1.51572370529 1.41494441032 1.20072770119 1.11232411861 0.978570699692 0.976915240288 1.17474043369 1.29270088673 1.46873724461 1.56303703785 1.56299722195 1.46865069866 1.26346051693 1.17472958565 0.976990699768 0.975747585297 1.20479774475 1.32194411755 1.49202787876 1.58037352562 1.58033251762 1.49194395542 1.2935448885 1.2047700882 0.975808143616 0.975749135017 1.20478641987 1.32193422318 1.49202048779 1.58036780357 1.580327034 1.49193668365 1.29353499413 1.20475888252 0.975809812546 0.97691988945 1.1747071743 1.29267132282 1.468714118 1.56301760674 1.562977314 1.46862792969 1.26342999935 1.17469608784 0.976995408535 0.978207886219 1.09183144569 1.2108631134 1.3957490921 1.496078372 1.49604129791 1.39565873146 1.17992424965 1.09184873104 0.978317320347 0.979542315006 1.04164993763 1.10565066338 1.28965771198 1.37923765182 1.37920570374 1.28957366943 1.08012843132 1.041639328 0.979663491249 0.984679937363 1.00827455521 1.0352152586 1.0993680954 1.17046177387 1.17043673992 1.09931349754 1.03188848495 1.00827550888 0.98479706049 
0.984658896923 1.00833261013 1.0353025198 1.09951722622 1.1706161499 1.17059123516 1.09946286678 1.03197324276 1.0083334446 0.984776198864 0.979538023472 1.04172921181 1.10573625565 1.28975462914 1.37935042381 1.3793182373 1.28967058659 1.08019018173 1.04171824455 0.979659020901 0.978464186192 1.11231589317 1.2310642004 1.41503727436 1.51576495171 1.51572799683 1.41494822502 1.20073068142 1.11232674122 0.978570580482 0.976915121078 1.17474341393 1.29270458221 1.46874165535 1.56304204464 1.56300210953 1.46865522861 1.26346361637 1.17473244667 0.976990580559 0.975747346878 1.2048009634 1.32194793224 1.49203264713 1.58037865162 1.58033776283 1.49194872379 1.2935488224 1.20477342606 0.975807905197 0.975748836994 1.20478963852 1.32193827629 1.49202537537 1.58037316799 1.58033227921 1.49194133282 1.29353880882 1.20476198196 0.975809514523 0.976919651031 1.17471003532 1.2926748991 1.46871864796 1.56302237511 1.56298220158 1.46863222122 1.26343333721 1.17469918728 0.976995229721 0.97820776701 1.09183394909 1.21086585522 1.3957529068 1.49608278275 1.49604570866 1.39566230774 1.17992711067 1.09185111523 0.978317141533 0.979542255402 1.04165160656 1.10565268993 1.28966093063 1.37924146652 1.3792091608 1.28957688808 1.08013033867 1.04164087772 0.97966337204 0.984679818153 1.00827550888 1.03521704674 1.099370718 1.17046499252 1.17043983936 1.09931600094 1.03189015388 1.00827646255 0.984796881676 
