1.00000011921 1.0 1.00000011921 1.02876925468 1.09195232391 1.09192109108 1.02869474888 1.0 1.0 1.0 1.0 1.0 1.0320430994 1.18885684013 1.26144528389 1.26140773296 1.18875813484 1.01141881943 1.0 1.0 1.00000011921 1.03667211533 1.13525819778 1.27188003063 1.30754506588 1.30751597881 1.27179372311 1.11038005352 1.03669762611 1.0 1.0 1.08947134018 1.1859395504 1.29004740715 1.31558251381 1.31555581093 1.28997612 1.16177964211 1.08948433399 1.0 1.0 1.11447560787 1.20922160149 1.2958958149 1.3174289465 1.31740415096 1.29583096504 1.18625187874 1.11447679996 1.0 1.0 1.1144644022 1.20921289921 1.29589152336 1.31742680073 1.31740188599 1.29582667351 1.18624174595 1.11446547508 1.0 1.00000011921 1.08943772316 1.1859112978 1.29003083706 1.31557369232 1.31554698944 1.28995978832 1.16174888611 1.08945059776 1.0 1.0 1.02013671398 1.11961138248 1.26655507088 1.30617141724 1.30614078045 1.26646149158 1.09478294849 1.02016568184 1.0 1.00000011921 0.999999940395 1.03196835518 1.18876636028 1.26134061813 1.261302948 1.1886677742 1.01135516167 1.0 0.999999940395 0.999999940395 1.0 1.00000011921 1.02864634991 1.09180390835 1.09177279472 1.02857196331 1.00000011921 1.00000011921 1.0 
1.00000011921 1.0 1.00000011921 1.02876925468 1.09195232391 1.09192109108 1.02869474888 1.0 1.0 1.0 1.0 1.0 1.0320430994 1.18885684013 1.26392376423 1.26388406754 1.18875813484 1.01141881943 1.0 1.0 1.00000011921 1.03667211533 1.13525819778 1.29123735428 1.3791025877 1.37906694412 1.2911503315 1.11038005352 1.03669762611 1.0 1.0 1.08947134018 1.1859395504 1.33712673187 1.42120194435 1.42116522789 1.33704388142 1.16177964211 1.08948433399 1.0 1.0 1.11447560787 1.20997345448 1.35751581192 1.43682336807 1.43678581715 1.35743582249 1.18625187874 1.11447679996 1.0 1.0 1.1144644022 1.20996463299 1.35750854015 1.43681836128 1.43678092957 1.35742866993 1.18624174595 1.11446547508 1.0 1.00000011921 1.08943772316 1.1859112978 1.33710491657 1.42118406296 1.42114722729 1.33702206612 1.16174888611 1.08945059776 1.0 1.0 1.02013671398 1.11961138248 1.2760258913 1.3622802496 1.36223888397 1.27592611313 1.09478294849 1.02016568184 1.0 1.00000011921 0.999999940395 1.03196835518 1.18876636028 1.26381874084 1.26377928257 1.1886677742 1.01135516167 1.0 0.999999940395 0.999999940395 1.0 1.00000011921 1.02864634991 1.09180390835 1.09177279472 1.02857196331 1.00000011921 1.00000011921 1.0 
1.00000011921 1.0 1.00000011921 1.02876925468 1.09195232391 1.09192109108 1.02869474888 1.0 1.0 1.0 1.0 1.0 1.0320430994 1.18885684013 1.26392376423 1.26388406754 1.18875813484 1.01141881943 1.0 1.0 1.00000011921 1.03667211533 1.13525819778 1.29123735428 1.3791025877 1.37906694412 1.2911503315 1.11038005352 1.03669762611 1.0 1.0 1.08947134018 1.1859395504 1.33712673187 1.42120194435 1.42116522789 1.33704388142 1.16177964211 1.08948433399 1.0 1.0 1.11447560787 1.20997345448 1.35751581192 1.43682336807 1.43678581715 1.35743582249 1.18625187874 1.11447679996 1.0 1.0 1.1144644022 1.20996463299 1.35750854015 1.43681836128 1.43678092957 1.35742866993 1.18624174595 1.11446547508 1.0 1.00000011921 1.08943772316 1.1859112978 1.33710491657 1.42118406296 1.42114722729 1.33702206612 1.16174888611 1.08945059776 1.0 1.0 1.02013671398 1.11961138248 1.2760258913 1.3622802496 1.36223888397 1.27592611313 1.09478294849 1.02016568184 1.0 1.00000011921 0.999999940395 1.03196835518 1.18876636028 1.26381874084 1.26377928257 1.1886677742 1.01135516167 1.0 0.999999940395 0.999999940395 1.0 1.00000011921 1.02864634991 1.09180390835 1.09177279472 1.02857196331 1.00000011921 1.00000011921 1.0 
1.00000011921 1.0 1.00000011921 1.02876925468 1.09195232391 1.09192109108 1.02869474888 1.0 1.0 1.0 1.0 1.0 1.0320430994 1.18885684013 1.26392376423 1.26388406754 1.18875813484 1.01141881943 1.0 1.0 1.00000011921 1.03667211533 1.13525819778 1.29123735428 1.3791025877 1.37906694412 1.2911503315 1.11038005352 1.03669762611 1.0 1.0 1.08947134018 1.1859395504 1.33712673187 1.42120194435 1.42116522789 1.33704388142 1.16177964211 1.08948433399 1.0 1.0 1.11447560787 1.20997345448 1.35751581192 1.43682336807 1.43678581715 1.35743582249 1.18625187874 1.11447679996 1.0 1.0 1.1144644022 1.20996463299 1.35750854015 1.43681836128 1.43678092957 1.35742866993 1.18624174595 1.11446547508 1.0 1.00000011921 1.08943772316 1.1859112978 1.33710491657 1.42118406296 1.42114722729 1.33702206612 1.16174888611 1.08945059776 1.0 1.0 1.02013671398 1.11961138248 1.2760258913 1.3622802496 1.36223888397 1.27592611313 1.09478294849 1.02016568184 1.0 1.00000011921 0.999999940395 1.03196835518 1.18876636028 1.26381874084 1.26377928257 1.1886677742 1.01135516167 1.0 0.999999940395 0.999999940395 1.0 1.00000011921 1.02864634991 1.09180390835 1.09177279472 1.02857196331 1.00000011921 1.00000011921 1.0 
1.00000011921 1.0 1.00000011921 1.02876925468 1.09195232391 1.09192109108 1.02869474888 1.0 1.0 1.0 1.0 1.0 1.0320430994 1.18885684013 1.26392376423 1.26388406754 1.18875813484 1.01141881943 1.0 1.0 1.00000011921 1.03667211533 1.13525819778 1.29123735428 1.3791025877 1.37906694412 1.2911503315 1.11038005352 1.03669762611 1.0 1.0 1.08947134018 1.1859395504 1.33712673187 1.42120194435 1.42116522789 1.33704388142 1.16177964211 1.08948433399 1.0 1.0 1.11447560787 1.20997345448 1.35751581192 1.43682336807 1.43678581715 1.35743582249 1.18625187874 1.11447679996 1.0 1.0 1.1144644022 1.20996463299 1.35750854015 1.43681836128 1.43678092957 1.35742866993 1.18624174595 1.11446547508 1.0 1.00000011921 1.08943772316 1.1859112978 1.33710491657 1.42118406296 1.42114722729 1.33702206612 1.16174888611 1.08945059776 1.0 1.0 1.02013671398 1.11961138248 1.2760258913 1.3622802496 1.36223888397 1.27592611313 1.09478294849 1.02016568184 1.0 1.00000011921 0.999999940395 1.03196835518 1.18876636028 1.26381874084 1.26377928257 1.1886677742 1.01135516167 1.0 0.999999940395 0.999999940395 1.0 1.00000011921 1.02864634991 1.09180390835 1.09177279472 1.02857196331 1.00000011921 1.00000011921 1.0 
1.00000011921 1.0 1.00000011921 1.02876925468 1.09195232391 1.09192109108 1.02869474888 1.0 1.0 1.0 1.0 1.0 1.0320430994 1.18885684013 1.26392376423 1.26388406754 1.18875813484 1.01141881943 1.0 1.0 1.00000011921 1.03667211533 1.13525819778 1.29123735428 1.3791025877 1.37906694412 1.2911503315 1.11038005352 1.03669762611 1.0 1.0 1.08947134018 1.1859395504 1.33712673187 1.42120194435 1.42116522789 1.33704388142 1.16177964211 1.08948433399 1.0 1.0 1.11447560787 1.20997345448 1.35751581192 1.43682336807 1.43678581715 1.35743582249 1.18625187874 1.11447679996 1.0 1.0 1.1144644022 1.20996463299 1.35750854015 1.43681836128 1.43678092957 1.35742866993 1.18624174595 1.11446547508 1.0 1.00000011921 1.08943772316 1.1859112978 1.33710491657 1.42118406296 1.42114722729 1.33702206612 1.16174888611 1.08945059776 1.0 1.0 1.02013671398 1.11961138248 1.2760258913 1.3622802496 1.36223888397 1.27592611313 1.09478294849 1.02016568184 1.0 1.00000011921 0.999999940395 1.03196835518 1.18876636028 1.26381874084 1.26377928257 1.1886677742 1.01135516167 1.0 0.999999940395 0.999999940395 1.0 1.00000011921 1.02864634991 1.09180390835 1.09177279472 1.02857196331 1.00000011921 1.00000011921 1.0 
1.00000011921 1.0 1.00000011921 1.02876925468 1.09195232391 1.09192109108 1.02869474888 1.0 1.0 1.0 1.0 1.0 1.0320430994 1.18885684013 1.26392376423 1.26388406754 1.18875813484 1.01141881943 1.0 1.0 1.00000011921 1.03667211533 1.13525819778 1.29123735428 1.3791025877 1.37906694412 1.2911503315 1.11038005352 1.03669762611 1.0 1.0 1.08947134018 1.1859395504 1.33712673187 1.42120194435 1.42116522789 1.33704388142 1.16177964211 1.08948433399 1.0 1.0 1.11447560787 1.20997345448 1.35751581192 1.43682336807 1.43678581715 1.35743582249 1.18625187874 1.11447679996 1.0 1.0 1.1144644022 1.20996463299 1.35750854015 1.43681836128 1.43678092957 1.35742866993 1.18624174595 1.11446547508 1.0 1.00000011921 1.08943772316 1.1859112978 1.33710491657 1.42118406296 1.42114722729 1.33702206612 1.16174888611 1.08945059776 1.0 1.0 1.02013671398 1.11961138248 1.2760258913 1.3622802496 1.36223888397 1.27592611313 1.09478294849 1.02016568184 1.0 1.00000011921 0.999999940395 1.03196835518 1.18876636028 1.26381874084 1.26377928257 1.1886677742 1.01135516167 1.0 0.999999940395 0.999999940395 1.0 1.00000011921 1.02864634991 1.09180390835 1.09177279472 1.02857196331 1.00000011921 1.00000011921 1.0 
