13.9745159149 21.7283725739 29.3302440643 37.1874771118 45.6599769592 54.3616981506 62.8331871033 70.6887512207 78.2908325195 86.0452041626 13.9664545059 21.4917221069 28.5978031158 36.3720436096 45.34349823 54.6797332764 63.6495132446 71.4200057983 78.5264205933 86.0531768799 13.9674329758 21.3066539764 28.1500778198 35.9346122742 45.1630821228 54.8610038757 64.0873641968 71.8674163818 78.7105636597 86.052154541 13.958946228 21.1814556122 27.9288158417 35.7323417664 45.0786247253 54.9458694458 64.2898101807 72.0885543823 78.8354949951 86.0605545044 13.9527378082 21.1286792755 27.8389644623 35.653339386 45.0458106995 54.9788360596 64.368888855 72.178352356 78.8881530762 86.0667037964 13.9527435303 21.1287345886 27.8390579224 35.6534233093 45.0458450317 54.9787979126 64.3688049316 72.1782531738 78.888092041 86.0667114258 13.9589700699 21.1816558838 27.9291477203 35.7326393127 45.0787467957 54.9457435608 64.2895202637 72.0882263184 78.8352966309 86.0605239868 13.9674434662 21.3070697784 28.1508598328 35.9353561401 45.1633872986 54.8606987 64.0866241455 71.8666229248 78.710144043 86.0521469116 13.9664516449 21.4922504425 28.5994167328 36.3736495972 45.3441505432 54.6790809631 63.6479072571 71.4184036255 78.5259017944 86.0531768799 13.9745759964 21.7290325165 29.332157135 37.1899337769 45.6609115601 54.3607559204 62.8307151794 70.6868515015 78.2901687622 86.0451507568 
13.9702854156 21.7358932495 29.3442878723 37.1786880493 45.6473693848 54.3743515015 62.8419151306 70.6746826172 78.2833404541 86.0494308472 13.9603004456 21.5054550171 28.6043796539 36.2909545898 45.2839889526 54.7395095825 63.73046875 71.4133148193 78.5127487183 86.0593338013 13.9600811005 21.3115882874 28.1124687195 35.7553291321 45.0541954041 54.9703941345 64.2665481567 71.9047470093 78.7056350708 86.0594940186 13.9494667053 21.166349411 27.8372039795 35.479598999 44.9375534058 55.0875892639 64.5424957275 72.1797943115 78.8504867554 86.0699996948 13.9412240982 21.0949554443 27.7089118958 35.3635673523 44.8908691406 55.1344947815 64.6586380005 72.308013916 78.9217147827 86.0781860352 13.9412345886 21.0950393677 27.7090549469 35.3637008667 44.8909187317 55.1344451904 64.6585159302 72.3078765869 78.9216308594 86.0781784058 13.9494962692 21.1666049957 27.8376674652 35.4800300598 44.9377326965 55.0874137878 64.5420761108 72.1793289185 78.8502349854 86.069984436 13.9600973129 21.312040329 28.1133918762 35.7562904358 45.0546112061 54.9699707031 64.2655639648 71.9038238525 78.7051773071 86.0594711304 13.9603004456 21.5059833527 28.6060600281 36.2928009033 45.284778595 54.7387199402 63.7286224365 71.4116439819 78.5122299194 86.0593261719 13.9703483582 21.7365112305 29.3461418152 37.1812057495 45.6483802795 54.373336792 62.8393936157 70.6728363037 78.2827301025 86.049369812 
13.9703273773 21.7372341156 29.3475933075 37.1819229126 45.6486549377 54.3730659485 62.8386764526 70.6713943481 78.2820281982 86.0494003296 13.9603443146 21.5082798004 28.6107978821 36.2961921692 45.2858810425 54.7376022339 63.7252349854 71.4069137573 78.5099334717 86.0592803955 13.9602022171 21.3158988953 28.1218490601 35.7624282837 45.0566520691 54.9679298401 64.2594299316 71.8953857422 78.7013244629 86.0593795776 13.94967556 21.1720333099 27.8492031097 35.488117218 44.9403533936 55.0847702026 64.5339584351 72.1678085327 78.8448257446 86.0698013306 13.9414863586 21.1014041901 27.722284317 35.3727378845 44.8932304382 55.1321182251 64.6494674683 72.294670105 78.9152832031 86.0779190063 13.9414958954 21.1014862061 27.7224292755 35.3728675842 44.8932762146 55.1320610046 64.6493377686 72.2945098877 78.9151916504 86.0779190063 13.9497070312 21.1722869873 27.8496608734 35.4885444641 44.9405403137 55.0845909119 64.5335388184 72.1673431396 78.8445739746 86.069770813 13.9602155685 21.3163452148 28.1227474213 35.7633972168 45.0570640564 54.9675140381 64.2584609985 71.8944702148 78.700881958 86.0593643188 13.9603452682 21.508808136 28.6124687195 36.2980461121 45.2866668701 54.7368164062 63.7233810425 71.4052429199 78.5093917847 86.0592727661 13.9703884125 21.7378520966 29.3494415283 37.1844329834 45.6496658325 54.372051239 62.8361587524 70.6695480347 78.2814102173 86.049331665 
13.9703273773 21.7372570038 29.3476486206 37.1819801331 45.6486740112 54.373046875 62.8386116028 70.671333313 78.2819976807 86.0494003296 13.9603433609 21.5083293915 28.6109085083 36.2962913513 45.2859191895 54.7375640869 63.7251281738 71.4068069458 78.5098800659 86.0592727661 13.9602041245 21.3159732819 28.1220035553 35.7625579834 45.0566864014 54.9678840637 64.2593078613 71.8952331543 78.7012634277 86.0593795776 13.949681282 21.1721305847 27.8494167328 35.4882736206 44.9404029846 55.0847167969 64.5338134766 72.1675949097 78.8447418213 86.0697937012 13.9414920807 21.1015129089 27.7225131989 35.3729019165 44.8932914734 55.1320610046 64.6492919922 72.2944335938 78.9151763916 86.0779190063 13.9415006638 21.1015968323 27.7226600647 35.3730278015 44.8933410645 55.1320114136 64.6491699219 72.2942810059 78.9151077271 86.077911377 13.9497089386 21.1723823547 27.8498687744 35.488697052 44.9405860901 55.0845451355 64.5334014893 72.1671295166 78.8444824219 86.0697631836 13.9602146149 21.3164176941 28.1229114532 35.7635192871 45.0571022034 54.9674720764 64.2583312988 71.894317627 78.7008132935 86.0593719482 13.9603462219 21.5088558197 28.6125793457 36.2981414795 45.2866973877 54.736782074 63.7232894897 71.4051361084 78.5093536377 86.0592727661 13.9703912735 21.7378730774 29.3494949341 37.1844940186 45.649684906 54.3720283508 62.836101532 70.6694946289 78.2813873291 86.0493240356 
13.970328331 21.7372550964 29.3476409912 37.181968689 45.6486778259 54.373046875 62.8386230469 70.6713409424 78.2820053101 86.0494003296 13.9603433609 21.5083198547 28.6108932495 36.2962799072 45.2859153748 54.7375640869 63.7251434326 71.4068069458 78.5098876953 86.0592727661 13.9602041245 21.3159637451 28.1219844818 35.7625312805 45.0566825867 54.9678916931 64.2593231201 71.8952331543 78.7012786865 86.0593795776 13.9496803284 21.1721191406 27.8493824005 35.4882469177 44.9403991699 55.0847206116 64.5338363647 72.1676177979 78.8447570801 86.0697937012 13.9414920807 21.1014995575 27.7224845886 35.3728790283 44.893283844 55.1320610046 64.6493148804 72.2944717407 78.9151763916 86.077911377 13.9415025711 21.1015796661 27.7226333618 35.373008728 44.8933334351 55.1320152283 64.6491851807 72.2943115234 78.9151077271 86.077911377 13.9497089386 21.1723709106 27.8498382568 35.4886703491 44.9405822754 55.0845489502 64.533416748 72.1671600342 78.8444976807 86.0697631836 13.9602165222 21.3164100647 28.1228904724 35.7635002136 45.0571022034 54.9674758911 64.2583465576 71.8943481445 78.7008285522 86.0593795776 13.9603462219 21.508846283 28.6125679016 36.2981262207 45.286693573 54.736782074 63.7233047485 71.405128479 78.5093765259 86.0592727661 13.9703922272 21.73787117 29.3494873047 37.1844863892 45.649684906 54.3720283508 62.8361053467 70.6694946289 78.2813873291 86.0493240356 
13.9703292847 21.7372493744 29.3476314545 37.1819610596 45.6486663818 54.3730506897 62.8386383057 70.6713409424 78.2820053101 86.0494003296 13.9603443146 21.50831604 28.610874176 36.2962646484 45.2859115601 54.7375679016 63.7251663208 71.406829834 78.5098876953 86.0592727661 13.9602041245 21.315952301 28.1219615936 35.7625160217 45.0566749573 54.9678955078 64.2593383789 71.8952636719 78.7012786865 86.0593795776 13.949678421 21.1721019745 27.8493499756 35.4882240295 44.9403915405 55.084728241 64.5338592529 72.1676559448 78.8447647095 86.0697937012 13.9414901733 21.1014823914 27.722448349 35.3728599548 44.8932800293 55.1320800781 64.6493453979 72.2945022583 78.9151992798 86.077911377 13.9414997101 21.1015644073 27.7225952148 35.3729858398 44.8933258057 55.1320266724 64.6492156982 72.294342041 78.9151229858 86.077911377 13.9497070312 21.1723537445 27.8498077393 35.4886550903 44.940574646 55.0845527649 64.5334396362 72.1671905518 78.8445129395 86.0697631836 13.9602165222 21.3163967133 28.1228675842 35.7634811401 45.0570907593 54.9674873352 64.2583694458 71.8943634033 78.7008285522 86.0593795776 13.9603462219 21.5088405609 28.6125450134 36.2981109619 45.2866897583 54.7367897034 63.7233161926 71.4051513672 78.5093688965 86.0592727661 13.9703912735 21.7378616333 29.3494796753 37.1844787598 45.6496734619 54.3720321655 62.8361129761 70.6695098877 78.2814025879 86.0493240356 
13.9703292847 21.737247467 29.3476200104 37.1819572449 45.6486701965 54.3730545044 62.8386383057 70.6713485718 78.2820053101 86.0494003296 13.9603443146 21.5083084106 28.6108570099 36.2962532043 45.285900116 54.7375793457 63.7251777649 71.4068450928 78.5099029541 86.0592727661 13.9602022171 21.3159408569 28.1219348907 35.7624931335 45.0566711426 54.9679031372 64.2593460083 71.8952941895 78.7012786865 86.0593795776 13.9496793747 21.172088623 27.8493156433 35.4882011414 44.9403877258 55.0847358704 64.5338745117 72.1676940918 78.8447799683 86.0697937012 13.9414901733 21.1014671326 27.722410202 35.372833252 44.8932685852 55.1320877075 64.6493682861 72.2945327759 78.915222168 86.077911377 13.9414997101 21.1015472412 27.7225570679 35.3729629517 44.8933143616 55.1320343018 64.6492385864 72.294380188 78.9151382446 86.077911377 13.9497070312 21.1723403931 27.849773407 35.4886283875 44.9405670166 55.0845565796 64.5334625244 72.1672286987 78.8445205688 86.0697631836 13.9602155685 21.3163852692 28.122838974 35.763469696 45.0570793152 54.9674987793 64.258392334 71.8943786621 78.7008514404 86.0593795776 13.9603462219 21.5088329315 28.6125278473 36.2980957031 45.2866897583 54.7367973328 63.7233276367 71.405166626 78.5093765259 86.0592727661 13.9703912735 21.7378635406 29.3494682312 37.1844673157 45.6496772766 54.3720397949 62.8361282349 70.6695175171 78.2813873291 86.0493240356 
