2.25787401199 4.10989189148 7.23646116257 10.0466690063 11.5023918152 11.5006799698 10.0415267944 7.22854995728 4.10281229019 2.25755834579 2.27691054344 5.36203098297 10.1607503891 14.6104125977 16.8961143494 16.8934288025 14.6023101807 10.1484355927 5.35082626343 2.27614569664 2.29495429993 6.22107648849 12.1222162247 17.4886779785 20.3071022034 20.3037242889 17.4787540436 12.107254982 6.20712947845 2.29379606247 2.30863833427 6.78154039383 13.2949237823 19.100774765 22.1908283234 22.187084198 19.0899143219 13.2785863876 6.76583719254 2.30720210075 2.31590557098 7.05410194397 13.8358888626 19.822977066 23.0243682861 23.0204772949 19.8117408752 13.8189659119 7.03762865067 2.31432843208 2.3158967495 7.05378723145 13.8352718353 19.8221645355 23.0234298706 23.0195407867 19.81092453 13.8183526993 7.03731632233 2.31431984901 2.30861258507 6.78056526184 13.29296875 19.0981521606 22.1877918243 22.1840515137 19.0872955322 13.2766332626 6.76486492157 2.30717754364 2.29491281509 6.21932935715 12.1183605194 17.4832363129 20.3006973267 20.2973213196 17.4733200073 12.1034088135 6.20538902283 2.29375505447 2.27686238289 5.35927200317 10.1544885635 14.6008691788 16.8847637177 16.8820819855 14.5927753448 10.1421823502 5.34807634354 2.27609848976 2.25783491135 4.10638809204 7.22792196274 10.0330944061 11.4864625931 11.4847545624 10.0279607773 7.22002458572 4.09932088852 2.25752043724 
2.25818419456 3.90267109871 6.83913898468 9.58947563171 11.045372963 11.0436525345 9.58435344696 6.8315372467 3.89625287056 2.25791454315 2.27509903908 5.12319660187 9.72915363312 14.1652374268 16.5339374542 16.5311126709 14.1569385529 9.71715354919 5.11267089844 2.27442836761 2.29156661034 5.98671483994 11.7112283707 17.1644134521 20.1657829285 20.162115097 17.1540050507 11.6965227127 5.97337865829 2.29053235054 2.3055369854 6.56360721588 12.9282903671 18.9108200073 22.2453994751 22.24127388 18.8992996216 12.9120779037 6.54845666885 2.30422663689 2.31346654892 6.8506526947 13.5104751587 19.7126178741 23.1843013763 23.1799945831 19.7006149292 13.4935941696 6.83467674255 2.31200957298 2.31345677376 6.85031700134 13.5098009109 19.7116985321 23.1832351685 23.1789321899 19.6996994019 13.4929237366 6.83434295654 2.31199979782 2.30550980568 6.56258869171 12.9262104034 18.9079284668 22.2419910431 22.2378692627 18.8964061737 12.9099988937 6.54743909836 2.30419969559 2.29152655602 5.98493623734 11.7072935104 17.1586093903 20.1588115692 20.1551475525 17.1482067108 11.6925907135 5.97160673141 2.29049324989 2.27505636215 5.12046051025 9.72288227081 14.1555213928 16.5221500397 16.5193271637 14.1472301483 9.71089076996 5.10994434357 2.27438688278 2.25814914703 3.89934229851 6.83086442947 9.57614898682 11.0296211243 11.0279045105 9.57103443146 6.82327604294 3.89293599129 2.2578804493 
2.25815629959 3.89334106445 6.81888055801 9.5634803772 11.0172328949 11.0155162811 9.55836486816 6.81130123138 3.88695430756 2.25788879395 2.27495765686 5.11002397537 9.70250797272 14.1325044632 16.4993152618 16.4964866638 14.1242103577 9.690533638 5.0995388031 2.27429199219 2.2912735939 5.9709649086 11.6801710129 17.1265907288 20.1261043549 20.1224422455 17.1161880493 11.6654949188 5.95767259598 2.29024767876 2.30512738228 6.54607582092 12.8937149048 18.8691806793 22.2015991211 22.1974773407 18.8576660156 12.8775396347 6.53097343445 2.30382657051 2.31299638748 6.83221912384 13.4740915298 19.6689987183 23.1388778687 23.1345691681 19.6570091248 13.4572515488 6.81629371643 2.31154990196 2.31298661232 6.83188438416 13.4734191895 19.6680850983 23.1378116608 23.1335067749 19.6560974121 13.456580162 6.81596183777 2.31154036522 2.30510020256 6.54506111145 12.8916397095 18.8662948608 22.1982002258 22.1940803528 18.8547821045 12.8754692078 6.52995967865 2.30380010605 2.29123401642 5.96919202805 11.6762466431 17.1207962036 20.1191444397 20.1154823303 17.1104030609 11.661570549 5.95590639114 2.29020833969 2.27491569519 5.10729551315 9.69624900818 14.1227989197 16.4875411987 16.4847164154 14.1145162582 9.68428516388 5.09681987762 2.27425098419 2.2581217289 3.89002466202 6.81062984467 9.55018138885 11.0015115738 10.9997968674 9.54507446289 6.80306386948 3.88364934921 2.25785517693 
2.25815582275 3.89318394661 6.81853818893 9.56303977966 11.0167551041 11.015039444 9.5579252243 6.81096076965 3.88679790497 2.25788855553 2.27495574951 5.10980081558 9.70205593109 14.1319484711 16.4987258911 16.4958992004 14.1236553192 9.69008159637 5.09931659698 2.274289608 2.29126882553 5.97069835663 11.6796426773 17.1259479523 20.1254348755 20.1217689514 17.1155490875 11.6649684906 5.95740604401 2.29024243355 2.30512070656 6.5457777977 12.8931245804 18.8684711456 22.2008495331 22.1967315674 18.8569564819 12.876953125 6.53067588806 2.30382013321 2.31298828125 6.83190441132 13.4734754562 19.6682510376 23.1380825043 23.1337776184 19.6562633514 13.4566316605 6.81598091125 2.31154203415 2.31297874451 6.83157062531 13.4728021622 19.6673412323 23.1370239258 23.1327171326 19.6553497314 13.4559612274 6.81564760208 2.31153225899 2.30509352684 6.54476308823 12.8910512924 18.8655834198 22.1974563599 22.1933326721 18.8540725708 12.8748817444 6.52966308594 2.30379390717 2.29122900963 5.96892547607 11.6757164001 17.1201572418 20.1184711456 20.1148090363 17.1097621918 11.6610450745 5.95564031601 2.29020357132 2.274913311 5.1070728302 9.6957988739 14.1222448349 16.486951828 16.4841270447 14.1139602661 9.6838350296 5.09659814835 2.27424860001 2.25812125206 3.88986778259 6.81028795242 9.549741745 11.0010356903 10.9993190765 9.54463577271 6.80272245407 3.88349342346 2.25785470009 
2.25815606117 3.89320421219 6.81858253479 9.5630979538 11.0168199539 11.0151004791 9.55798244476 6.81100511551 3.88681769371 2.25788879395 2.27495551109 5.10982990265 9.70211410522 14.1320199966 16.4988021851 16.4959754944 14.1237287521 9.69014072418 5.09934568405 2.27428984642 2.29126954079 5.97073221207 11.6797094345 17.1260318756 20.1255187988 20.1218528748 17.1156311035 11.6650371552 5.95744132996 2.29024338722 2.30512142181 6.54581689835 12.8932027817 18.8685646057 22.2009468079 22.1968269348 18.8570480347 12.8770284653 6.53071498871 2.30382108688 2.31298899651 6.83194541931 13.4735536575 19.6683502197 23.1381874084 23.1338806152 19.6563606262 13.4567108154 6.81602048874 2.31154298782 2.31297945976 6.83161067963 13.4728822708 19.6674365997 23.1371231079 23.1328201294 19.6554489136 13.4560422897 6.8156876564 2.3115336895 2.3050942421 6.54480171204 12.8911294937 18.8656768799 22.1975517273 22.1934299469 18.8541660309 12.8749570847 6.52970218658 2.30379414558 2.29122948647 5.96895885468 11.6757850647 17.1202411652 20.1185569763 20.1148948669 17.1098461151 11.6611146927 5.95567464828 2.29020428658 2.27491354942 5.10710144043 9.69585609436 14.1223192215 16.4870300293 16.484205246 14.1140317917 9.68389129639 5.09662771225 2.27424883842 2.25812149048 3.88988804817 6.81033229828 9.54979896545 11.0010967255 10.999382019 9.54469203949 6.80276727676 3.88351368904 2.25785470009 
2.25815582275 3.89322805405 6.81863498688 9.56316566467 11.0168924332 11.0151729584 9.55805015564 6.81105709076 3.88684201241 2.25788831711 2.27495622635 5.10986423492 9.7021856308 14.1321058273 16.4988937378 16.4960689545 14.1238136292 9.69021034241 5.09937953949 2.27429008484 2.29127001762 5.97077322006 11.6797924042 17.1261291504 20.125623703 20.1219596863 17.1157283783 11.6651172638 5.95748138428 2.29024410248 2.30512237549 6.54586315155 12.8932924271 18.8686714172 22.2010612488 22.1969394684 18.8571586609 12.877120018 6.53076124191 2.30382204056 2.31299066544 6.8319940567 13.4736452103 19.668466568 23.1383094788 23.1339988708 19.6564731598 13.4568099976 6.81606817245 2.31154441833 2.31298089027 6.83165931702 13.4729747772 19.6675510406 23.1372489929 23.1329421997 19.6555633545 13.4561395645 6.81573629379 2.31153488159 2.30509567261 6.54484796524 12.8912200928 18.8657855988 22.1976623535 22.1935443878 18.8542747498 12.8750476837 6.52974796295 2.3037955761 2.29123067856 5.96900081635 11.6758651733 17.1203403473 20.1186618805 20.1149978638 17.1099433899 11.6611967087 5.95571517944 2.29020524025 2.27491402626 5.10713577271 9.69592571259 14.1224021912 16.4871177673 16.4842987061 14.114118576 9.68396091461 5.09666109085 2.27424907684 2.25812125206 3.88991212845 6.8103852272 9.54986572266 11.0011701584 10.999455452 9.54475975037 6.80281877518 3.8835375309 2.25785470009 
2.25815582275 3.89325284958 6.81868839264 9.5632352829 11.0169668198 11.0152492523 9.55811882019 6.81111049652 3.8868663311 2.25788831711 2.27495622635 5.10989952087 9.70225811005 14.1321907043 16.4989833832 16.4961585999 14.1238994598 9.69027996063 5.0994143486 2.27429032326 2.2912709713 5.97081613541 11.6798725128 17.1262321472 20.1257266998 20.1220626831 17.1158294678 11.6651983261 5.95752286911 2.29024457932 2.30512332916 6.54590940475 12.8933858871 18.8687820435 22.2011814117 22.1970596313 18.8572692871 12.8772087097 6.53080797195 2.30382299423 2.31299185753 6.83204364777 13.4737462997 19.6685810089 23.1384353638 23.1341266632 19.6565895081 13.4569034576 6.81611919403 2.31154608727 2.31298232079 6.83170890808 13.4730730057 19.6676673889 23.1373710632 23.13306427 19.6556777954 13.4562339783 6.81578683853 2.31153607368 2.30509662628 6.54489421844 12.8913125992 18.865896225 22.1977825165 22.1936607361 18.854385376 12.8751373291 6.52979326248 2.30379629135 2.29123091698 5.96904182434 11.675948143 17.1204395294 20.1187667847 20.1151046753 17.110042572 11.6612768173 5.95575666428 2.29020571709 2.27491426468 5.10717058182 9.69599628448 14.1224861145 16.4872112274 16.4843864441 14.1142034531 9.68402957916 5.09669542313 2.27424955368 2.25812125206 3.88993668556 6.81043767929 9.54993438721 11.0012454987 10.9995288849 9.54482841492 6.80287313461 3.88356208801 2.25785493851 
