2.25893211365 3.8861348629 6.7607049942 9.53106880188 11.0753087997 11.0734901428 9.52561950684 6.75327920914 3.87980484962 2.25865507126 2.27398371696 5.10213851929 9.71665000916 14.2968492508 16.8546638489 16.8516120911 14.2878599167 9.70463466644 5.0916185379 2.27333664894 2.29010820389 6.00642824173 11.7604417801 17.4030056 20.6909713745 20.6869239807 17.3916149139 11.7456912994 5.99289894104 2.28909540176 2.30427885056 6.59881591797 12.980799675 19.2016086578 22.8706092834 22.8660373688 19.1889324188 12.9645442963 6.58356285095 2.30297994614 2.31217217445 6.88421916962 13.5533514023 20.0249996185 23.8435974121 23.8388252258 20.0117969513 13.5364217758 6.86816215515 2.31072306633 2.31216287613 6.88388824463 13.5526924133 20.0240573883 23.8424987793 23.837726593 20.0108604431 13.5357637405 6.86783409119 2.31071329117 2.30425167084 6.59779644012 12.9787435532 19.1986370087 22.8670730591 22.8625011444 19.1859607697 12.9624929428 6.58254528046 2.30295348167 2.29006838799 6.00454187393 11.7564401627 17.3970241547 20.6836261749 20.6795806885 17.385635376 11.7416963577 5.99101924896 2.28905677795 2.27394723892 5.0994181633 9.71010780334 14.2867460251 16.8422317505 16.8391838074 14.277765274 9.6981010437 5.0889081955 2.27330112457 2.25889515877 3.88282394409 6.75247764587 9.51765060425 11.0592432022 11.0574264526 9.51221084595 6.74506378174 3.87650513649 2.25861883163 
2.25895094872 3.88138580322 6.75207424164 9.52115726471 11.0647115707 11.0628938675 9.51570987701 6.74465179443 3.87507033348 2.25867486 2.27395343781 5.09669303894 9.70738220215 14.28602314 16.8434123993 16.8403625488 14.2770347595 9.69537258148 5.08618831635 2.27330851555 2.29003429413 6.00104904175 11.7512779236 17.3922691345 20.6814136505 20.677362442 17.3808765411 11.7365341187 5.98753452301 2.28902411461 2.30419278145 6.59394168854 12.9724216461 19.1923885345 22.8697891235 22.8651885986 19.1797008514 12.9561786652 6.57870101929 2.30289673805 2.31209135056 6.87987852097 13.5459671021 20.0176334381 23.8518066406 23.8469944 20.0044136047 13.5290460587 6.86383152008 2.31064486504 2.31208205223 6.87954711914 13.5453052521 20.0166893005 23.8506946564 23.8458862305 20.0034713745 13.5283870697 6.86350297928 2.31063580513 2.30416536331 6.59292078018 12.9703655243 19.1894130707 22.8662242889 22.861623764 19.1767272949 12.9541215897 6.57768201828 2.30287003517 2.28999471664 5.9991607666 11.7472753525 17.3862781525 20.6740531921 20.6700057983 17.3748931885 11.7325401306 5.98565340042 2.2889854908 2.27391695976 5.09397315979 9.70083999634 14.2759208679 16.8309803009 16.8279342651 14.2669410706 9.68884277344 5.08347845078 2.27327299118 2.25891423225 3.87807846069 6.74385118484 9.5077419281 11.0486507416 11.046836853 9.5023059845 6.73644018173 3.87177395821 2.2586388588 
2.25895118713 3.88139343262 6.75209331512 9.52118492126 11.0647478104 11.0629291534 9.51573944092 6.74467086792 3.87507796288 2.25867486 2.27395367622 5.09670686722 9.7074136734 14.2860660553 16.8434619904 16.8404083252 14.2770767212 9.69540214539 5.08620166779 2.27330851555 2.29003453255 6.00106716156 11.7513179779 17.392326355 20.681476593 20.6774272919 17.3809299469 11.7365722656 5.98755216599 2.28902482986 2.3041934967 6.59396505356 12.9724721909 19.1924552917 22.8698768616 22.8652801514 19.1797714233 12.9562244415 6.57872343063 2.30289769173 2.31209230423 6.87990379333 13.5460195541 20.0177116394 23.8519248962 23.8471126556 20.0044898987 13.5290985107 6.86385679245 2.31064558029 2.31208252907 6.87957286835 13.5453605652 20.0167694092 23.8508167267 23.8460025787 20.0035476685 13.5284376144 6.86352777481 2.31063628197 2.30416607857 6.5929441452 12.970413208 19.1894798279 22.8663139343 22.8617115021 19.1767959595 12.9541664124 6.57770490646 2.30287075043 2.28999495506 5.99917936325 11.7473154068 17.3863372803 20.6741161346 20.6700687408 17.3749485016 11.7325763702 5.98567152023 2.28898596764 2.27391719818 5.09398651123 9.70087337494 14.2759647369 16.8310260773 16.8279819489 14.2669849396 9.68887233734 5.08349084854 2.27327299118 2.25891423225 3.87808561325 6.74387025833 9.507771492 11.0486869812 11.0468711853 9.5023355484 6.73646068573 3.87178230286 2.2586388588 
2.25895118713 3.88140511513 6.75211858749 9.52122402191 11.064789772 11.0629711151 9.51577568054 6.74469661713 3.87508964539 2.25867486 2.27395391464 5.09672451019 9.70744991302 14.2861175537 16.8435153961 16.8404693604 14.2771272659 9.69543933868 5.08621883392 2.27330875397 2.2900352478 6.00109004974 11.7513618469 17.3923892975 20.6815471649 20.6774978638 17.3809928894 11.7366199493 5.98757505417 2.2890253067 2.30419397354 6.5939912796 12.9725246429 19.1925315857 22.8699703217 22.8653659821 19.1798477173 12.956278801 6.57875061035 2.30289840698 2.31209254265 6.87993383408 13.5460777283 20.0177936554 23.8520336151 23.8472194672 20.0045719147 13.5291566849 6.86388587952 2.31064653397 2.31208324432 6.87960195541 13.5454187393 20.0168533325 23.8509235382 23.8461112976 20.0036315918 13.5284967422 6.8635559082 2.31063699722 2.30416631699 6.59296989441 12.9704666138 19.1895561218 22.8664073944 22.8618030548 19.1768684387 12.9542236328 6.57773160934 2.30287146568 2.2899954319 5.99920225143 11.7473621368 17.3864002228 20.6741847992 20.6701374054 17.3750114441 11.7326231003 5.98569297791 2.28898596764 2.27391719818 5.09400415421 9.70090866089 14.2760133743 16.8310852051 16.828037262 14.2670326233 9.68890857697 5.08350896835 2.27327299118 2.25891423225 3.87809753418 6.74389457703 9.5078086853 11.0487289429 11.0469141006 9.50237083435 6.7364859581 3.87179374695 2.2586388588 
2.25895142555 3.8814163208 6.7521443367 9.52126026154 11.0648317337 11.0630130768 9.51581287384 6.74472141266 3.87510108948 2.25867509842 2.27395391464 5.09674167633 9.7074842453 14.2861642838 16.8435707092 16.8405208588 14.2771778107 9.69547653198 5.08623743057 2.2733092308 2.29003548622 6.00111198425 11.7514076233 17.3924484253 20.6816177368 20.6775684357 17.3810520172 11.7366666794 5.98759651184 2.28902602196 2.30419445038 6.59401750565 12.9725780487 19.1926078796 22.8700618744 22.8654594421 19.1799182892 12.9563312531 6.57877588272 2.30289888382 2.31209349632 6.87996149063 13.5461349487 20.0178756714 23.8521404266 23.8473262787 20.0046520233 13.5292158127 6.86391401291 2.31064724922 2.31208395958 6.87963008881 13.5454750061 20.0169334412 23.8510303497 23.8462162018 20.0037117004 13.5285568237 6.86358499527 2.31063747406 2.30416703224 6.59299564362 12.9705190659 19.1896247864 22.8664913177 22.8618927002 19.1769428253 12.9542779922 6.57775783539 2.30287218094 2.28999567032 5.99922418594 11.7474069595 17.3864631653 20.6742610931 20.670211792 17.3750743866 11.7326698303 5.98571634293 2.28898668289 2.2739174366 5.09402132034 9.70094490051 14.2760658264 16.8311386108 16.8280925751 14.2670850754 9.68894577026 5.08352613449 2.27327346802 2.25891447067 3.87810873985 6.74392080307 9.5078458786 11.0487699509 11.0469560623 9.50240802765 6.73651027679 3.87180495262 2.25863909721 
2.25895118713 3.88142681122 6.75217008591 9.52129459381 11.0648727417 11.0630550385 9.51584815979 6.74474668503 3.8751115799 2.25867509842 2.27395439148 5.09675884247 9.70752239227 14.2862176895 16.8436279297 16.8405761719 14.2772283554 9.69551086426 5.08625364304 2.27330946922 2.29003572464 6.00113391876 11.7514505386 17.3925132751 20.681684494 20.6776332855 17.3811168671 11.7367095947 5.98761892319 2.28902602196 2.30419516563 6.59404230118 12.9726314545 19.1926803589 22.8701496124 22.8655490875 19.1799945831 12.9563856125 6.57880163193 2.30289959908 2.31209421158 6.87998962402 13.5461912155 20.0179576874 23.8522472382 23.8474330902 20.0047359467 13.5292692184 6.8639421463 2.31064724922 2.31208443642 6.87965726852 13.5455312729 20.0170154572 23.8511390686 23.8463249207 20.0037956238 13.5286102295 6.86361265182 2.31063842773 2.30416798592 6.59302186966 12.970574379 19.1897010803 22.8665828705 22.8619842529 19.1770191193 12.9543294907 6.57778215408 2.30287265778 2.28999614716 5.99924659729 11.7474489212 17.3865261078 20.6743278503 20.6702785492 17.3751392365 11.732714653 5.98573875427 2.28898692131 2.27391791344 5.09403896332 9.70098018646 14.2761154175 16.831193924 16.8281478882 14.2671346664 9.68898010254 5.08354330063 2.27327394485 2.25891423225 3.87811946869 6.74394607544 9.50788021088 11.0488109589 11.046998024 9.50244426727 6.73653507233 3.87181544304 2.2586388588 
2.25895094872 3.88143873215 6.75219488144 9.52133274078 11.064915657 11.0630970001 9.51588535309 6.74477243423 3.87512302399 2.25867533684 2.27395439148 5.09677553177 9.7075586319 14.2862672806 16.8436832428 16.8406333923 14.2772769928 9.69554805756 5.08627033234 2.27330946922 2.2900364399 6.00115680695 11.751499176 17.3925743103 20.6817550659 20.6777057648 17.3811817169 11.7367534637 5.98764181137 2.28902673721 2.30419564247 6.5940694809 12.9726829529 19.1927547455 22.8702411652 22.8656406403 19.1800689697 12.9564380646 6.57882785797 2.30289983749 2.31209492683 6.88001918793 13.5462503433 20.0180397034 23.8523597717 23.8475456238 20.0048179626 13.5293283463 6.86397123337 2.31064844131 2.31208515167 6.87968730927 13.5455875397 20.0170993805 23.8512496948 23.8464355469 20.0038776398 13.5286684036 6.86364173889 2.31063866615 2.30416846275 6.59304904938 12.9706249237 19.1897773743 22.8666763306 22.862077713 19.1770954132 12.9543828964 6.5778093338 2.30287313461 2.28999662399 5.99926996231 11.7474985123 17.3865890503 20.6743965149 20.6703491211 17.375202179 11.7327594757 5.98576068878 2.28898739815 2.27391767502 5.09405517578 9.70101642609 14.2761659622 16.8312511444 16.8282051086 14.2671842575 9.68901824951 5.08355951309 2.27327346802 2.25891399384 3.87813091278 6.74397134781 9.50791835785 11.0488529205 11.047039032 9.5024805069 6.73656129837 3.87182712555 2.2586388588 
