1.00000011921 1.0 0.999224305153 1.06499934196 1.10976374149 1.10973513126 1.06493127346 1.0 1.0 1.0 1.0 1.0 1.05447387695 1.16435801983 1.226603508 1.22656977177 1.16427373886 1.03405439854 1.0 1.0 1.00000011921 1.03900921345 1.12661206722 1.24667751789 1.30207550526 1.30203723907 1.24659252167 1.10214078426 1.03902900219 1.0 1.0 1.07843327522 1.1704518795 1.27900803089 1.32223296165 1.32219493389 1.27892458439 1.14296030998 1.07844865322 1.0 1.0 1.0983607769 1.19305372238 1.29150366783 1.32863128185 1.32859528065 1.29142355919 1.16385567188 1.0983684063 1.0 1.0 1.09835076332 1.19304466248 1.29149746895 1.32862710953 1.32859110832 1.29141736031 1.1638468504 1.09835851192 1.0 1.00000011921 1.0784034729 1.17042338848 1.27898585796 1.3222168684 1.32217884064 1.27890253067 1.1429322958 1.0784188509 1.0 1.0 1.02938699722 1.11547088623 1.23549234867 1.29568135738 1.2956417799 1.2354041338 1.09201848507 1.02940559387 1.0 1.00000011921 0.999999940395 1.05440032482 1.16427254677 1.22651576996 1.22648215294 1.16418850422 1.03398120403 1.0 0.999999940395 0.999999940395 1.0 0.999240219593 1.06483888626 1.10958719254 1.10955870152 1.06477069855 1.00000011921 1.00000011921 1.0 
1.00000011921 1.0 0.999224305153 1.06499934196 1.10976374149 1.10973513126 1.06493127346 1.0 1.0 1.0 1.0 1.0 1.05447387695 1.16435801983 1.226603508 1.22656965256 1.16427373886 1.03405439854 1.0 1.0 1.00000011921 1.03900921345 1.12661206722 1.24978625774 1.32960546017 1.32957327366 1.24970567226 1.10214078426 1.03902900219 1.0 1.0 1.07843327522 1.1704518795 1.2950681448 1.37115991116 1.37112462521 1.29499268532 1.14296030998 1.07844865322 1.0 1.0 1.0983607769 1.19305372238 1.31690752506 1.38704240322 1.38700723648 1.31683301926 1.16385567188 1.0983684063 1.0 1.0 1.09835076332 1.19304466248 1.31690073013 1.3870370388 1.38700211048 1.31682598591 1.1638468504 1.09835851192 1.0 1.00000011921 1.0784034729 1.17042338848 1.29504835606 1.37114179134 1.37110650539 1.29497289658 1.1429322958 1.0784188509 1.0 1.0 1.02938699722 1.11547088623 1.2359443903 1.31326019764 1.31322646141 1.23585760593 1.09201848507 1.02940559387 1.0 1.00000011921 0.999999940395 1.05440032482 1.16427254677 1.22651588917 1.22648203373 1.16418850422 1.03398120403 1.0 0.999999940395 0.999999940395 1.0 0.999240219593 1.06483888626 1.10958719254 1.10955870152 1.06477069855 1.00000011921 1.00000011921 1.0 
1.00000011921 1.0 0.999224305153 1.06499934196 1.10976374149 1.10973513126 1.06493127346 1.0 1.0 1.0 1.0 1.0 1.05447387695 1.16435801983 1.226603508 1.22656965256 1.16427373886 1.03405439854 1.0 1.0 1.00000011921 1.03900921345 1.12661206722 1.24978625774 1.32971763611 1.32968556881 1.24970567226 1.10214078426 1.03902900219 1.0 1.0 1.07843327522 1.1704518795 1.29507303238 1.37323439121 1.37319993973 1.2949975729 1.14296030998 1.07844865322 1.0 1.0 1.0983607769 1.19305372238 1.31757354736 1.39038670063 1.39035260677 1.31749951839 1.16385567188 1.0983684063 1.0 1.0 1.09835076332 1.19304466248 1.31756675243 1.390381217 1.39034724236 1.31749260426 1.1638468504 1.09835851192 1.0 1.00000011921 1.0784034729 1.17042338848 1.29505312443 1.3732162714 1.37318193913 1.29497778416 1.1429322958 1.0784188509 1.0 1.0 1.02938699722 1.11547088623 1.2359443903 1.31326019764 1.31322646141 1.23585760593 1.09201848507 1.02940559387 1.0 1.00000011921 0.999999940395 1.05440032482 1.16427254677 1.22651588917 1.22648203373 1.16418850422 1.03398120403 1.0 0.999999940395 0.999999940395 1.0 0.999240219593 1.06483888626 1.10958719254 1.10955870152 1.06477069855 1.00000011921 1.00000011921 1.0 
1.00000011921 1.0 0.999224305153 1.06499934196 1.10976374149 1.10973513126 1.06493127346 1.0 1.0 1.0 1.0 1.0 1.05447387695 1.16435801983 1.226603508 1.22656965256 1.16427373886 1.03405439854 1.0 1.0 1.00000011921 1.03900921345 1.12661206722 1.24978625774 1.32971763611 1.32968556881 1.24970567226 1.10214078426 1.03902900219 1.0 1.0 1.07843327522 1.1704518795 1.29507303238 1.37341463566 1.37338066101 1.2949975729 1.14296030998 1.07844865322 1.0 1.0 1.0983607769 1.19305372238 1.31760966778 1.39075219631 1.39071846008 1.31753563881 1.16385567188 1.0983684063 1.0 1.0 1.09835076332 1.19304466248 1.31760287285 1.39074683189 1.39071321487 1.31752884388 1.1638468504 1.09835851192 1.0 1.00000011921 1.0784034729 1.17042338848 1.29505312443 1.37339663506 1.3733625412 1.29497778416 1.1429322958 1.0784188509 1.0 1.0 1.02938699722 1.11547088623 1.2359443903 1.31326019764 1.31322646141 1.23585760593 1.09201848507 1.02940559387 1.0 1.00000011921 0.999999940395 1.05440032482 1.16427254677 1.22651588917 1.22648203373 1.16418850422 1.03398120403 1.0 0.999999940395 0.999999940395 1.0 0.999240219593 1.06483888626 1.10958719254 1.10955870152 1.06477069855 1.00000011921 1.00000011921 1.0 
1.00000011921 1.0 0.999224305153 1.06499934196 1.10976374149 1.10973513126 1.06493127346 1.0 1.0 1.0 1.0 1.0 1.05447387695 1.16435801983 1.226603508 1.22656965256 1.16427373886 1.03405439854 1.0 1.0 1.00000011921 1.03900921345 1.12661206722 1.24978625774 1.32971763611 1.32968556881 1.24970567226 1.10214078426 1.03902900219 1.0 1.0 1.07843327522 1.1704518795 1.29507303238 1.37344563007 1.37341153622 1.2949975729 1.14296030998 1.07844865322 1.0 1.0 1.0983607769 1.19305372238 1.31761479378 1.39082145691 1.3907879591 1.31754076481 1.16385567188 1.0983684063 1.0 1.0 1.09835076332 1.19304466248 1.31760799885 1.39081609249 1.39078259468 1.31753396988 1.1638468504 1.09835851192 1.0 1.00000011921 1.0784034729 1.17042338848 1.29505312443 1.37342751026 1.37339365482 1.29497778416 1.1429322958 1.0784188509 1.0 1.0 1.02938699722 1.11547088623 1.2359443903 1.31326019764 1.31322646141 1.23585760593 1.09201848507 1.02940559387 1.0 1.00000011921 0.999999940395 1.05440032482 1.16427254677 1.22651588917 1.22648203373 1.16418850422 1.03398120403 1.0 0.999999940395 0.999999940395 1.0 0.999240219593 1.06483888626 1.10958719254 1.10955870152 1.06477069855 1.00000011921 1.00000011921 1.0 
1.00000011921 1.0 0.999224305153 1.06499934196 1.10976374149 1.10973513126 1.06493127346 1.0 1.0 1.0 1.0 1.0 1.05447387695 1.16435801983 1.226603508 1.22656965256 1.16427373886 1.03405439854 1.0 1.0 1.00000011921 1.03900921345 1.12661206722 1.24978625774 1.32971763611 1.32968556881 1.24970567226 1.10214078426 1.03902900219 1.0 1.0 1.07843327522 1.1704518795 1.29507303238 1.37345719337 1.37342298031 1.2949975729 1.14296030998 1.07844865322 1.0 1.0 1.0983607769 1.19305372238 1.31761908531 1.39084374905 1.39081001282 1.31754517555 1.16385567188 1.0983684063 1.0 1.0 1.09835076332 1.19304466248 1.31761229038 1.39083850384 1.3908046484 1.31753826141 1.1638468504 1.09835851192 1.0 1.00000011921 1.0784034729 1.17042338848 1.29505312443 1.37343907356 1.37340509892 1.29497778416 1.1429322958 1.0784188509 1.0 1.0 1.02938699722 1.11547088623 1.2359443903 1.31326019764 1.31322646141 1.23585760593 1.09201848507 1.02940559387 1.0 1.00000011921 0.999999940395 1.05440032482 1.16427254677 1.22651588917 1.22648203373 1.16418850422 1.03398120403 1.0 0.999999940395 0.999999940395 1.0 0.999240219593 1.06483888626 1.10958719254 1.10955870152 1.06477069855 1.00000011921 1.00000011921 1.0 
1.00000011921 1.0 0.999224305153 1.06499934196 1.10976374149 1.10973513126 1.06493127346 1.0 1.0 1.0 1.0 1.0 1.05447387695 1.16435801983 1.226603508 1.22656965256 1.16427373886 1.03405439854 1.0 1.0 1.00000011921 1.03900921345 1.12661206722 1.24978625774 1.32971763611 1.32968556881 1.24970567226 1.10214078426 1.03902900219 1.0 1.0 1.07843327522 1.1704518795 1.29507303238 1.37346565723 1.37343156338 1.2949975729 1.14296030998 1.07844865322 1.0 1.0 1.0983607769 1.19305372238 1.31762373447 1.39085614681 1.39082241058 1.31754982471 1.16385567188 1.0983684063 1.0 1.0 1.09835076332 1.19304466248 1.31761705875 1.39085078239 1.39081716537 1.31754302979 1.1638468504 1.09835851192 1.0 1.00000011921 1.0784034729 1.17042338848 1.29505312443 1.37344765663 1.37341368198 1.29497778416 1.1429322958 1.0784188509 1.0 1.0 1.02938699722 1.11547088623 1.2359443903 1.31326019764 1.31322646141 1.23585760593 1.09201848507 1.02940559387 1.0 1.00000011921 0.999999940395 1.05440032482 1.16427254677 1.22651588917 1.22648203373 1.16418850422 1.03398120403 1.0 0.999999940395 0.999999940395 1.0 0.999240219593 1.06483888626 1.10958719254 1.10955870152 1.06477069855 1.00000011921 1.00000011921 1.0 
