0.987168490887 1.01476573944 1.03855204582 1.13140833378 1.20123505592 1.19756639004 1.12288534641 1.03737270832 1.01312208176 0.991412997246 0.982664763927 1.05050265789 1.11403572559 1.28611123562 1.3755658865 1.37055826187 1.27476668358 1.10370004177 1.04830133915 0.988222897053 0.981165111065 1.12034952641 1.20529282093 1.38297569752 1.48181784153 1.47562670708 1.37031507492 1.19404554367 1.11306810379 0.986795186996 0.978188812733 1.18081009388 1.26726734638 1.44305992126 1.53249943256 1.52677726746 1.4297195673 1.25606524944 1.17355930805 0.984148144722 0.976104974747 1.20989108086 1.29709410667 1.46831679344 1.54997372627 1.54474234581 1.45536339283 1.28595077991 1.20257508755 0.982237040997 0.976075410843 1.20852839947 1.29563593864 1.46714353561 1.54927670956 1.54401504993 1.4541516304 1.28448867798 1.20123064518 0.982214927673 0.978084862232 1.17667615414 1.26289129257 1.43895983696 1.52960157394 1.52381443977 1.42551887035 1.25166726112 1.16942715645 0.984068572521 0.980980396271 1.11345183849 1.19809019566 1.37556111813 1.47427296638 1.4680917263 1.36302816868 1.18680691719 1.10620129108 0.98666369915 0.982581377029 1.04948699474 1.10546290874 1.27584064007 1.36310636997 1.35828816891 1.2646548748 1.09543776512 1.04729890823 0.988206505775 0.987430930138 1.01408541203 1.03700864315 1.10759496689 1.17418050766 1.17059016228 1.09974634647 1.03584980965 1.01250457764 0.991665124893 
0.987144827843 1.01445448399 1.03814101219 1.1308838129 1.20062923431 1.19696247578 1.12236309052 1.03695905209 1.01281523705 0.991382062435 0.982640564442 1.05011129379 1.11359107494 1.28557264805 1.3749806881 1.36996781826 1.27422118187 1.10325455666 1.04791033268 0.988194465637 0.981133520603 1.11991119385 1.20481705666 1.382417202 1.48186981678 1.47542250156 1.36974453926 1.19357347488 1.1126294136 0.986767947674 0.978134155273 1.18037569523 1.26684498787 1.4429923296 1.53642475605 1.530179739 1.42937207222 1.25565242767 1.17312383652 0.984109163284 0.976027965546 1.20947885513 1.2967505455 1.47003757954 1.55604100227 1.55020940304 1.45643150806 1.28562557697 1.20216345787 0.982183635235 0.975998699665 1.20811414719 1.29528403282 1.46872544289 1.55520415306 1.54934716225 1.45510697365 1.28415477276 1.20081710815 0.982161641121 0.978031098843 1.17623865604 1.26245498657 1.43867099285 1.53307366371 1.52677130699 1.42507445812 1.2512409687 1.16898941994 0.984030127525 0.980949521065 1.11301326752 1.19760930538 1.37499141693 1.47394168377 1.46758294106 1.36244750023 1.18632996082 1.10576236248 0.986636996269 0.982558012009 1.04909527302 1.10501968861 1.27530646324 1.36253786087 1.35771512985 1.26411581039 1.09499287605 1.04690814018 0.988178372383 0.987407386303 1.01377499104 1.03659462929 1.1070792675 1.17359364033 1.17000460625 1.09923148155 1.03543329239 1.0121986866 0.991633951664 
0.987143754959 1.01444709301 1.03813147545 1.1308722496 1.20061588287 1.19694912434 1.1223512888 1.03694927692 1.01280784607 0.991381406784 0.982639729977 1.05010211468 1.11358118057 1.28556084633 1.37496805191 1.36995494366 1.27420914173 1.10324454308 1.04790115356 0.988193869591 0.981132686138 1.11990177631 1.20480668545 1.38240468502 1.48185634613 1.47540843487 1.36973178387 1.19356322289 1.11261951923 0.986767113209 0.978132545948 1.18036663532 1.26683700085 1.44298505783 1.53653216362 1.53026866913 1.42936515808 1.25564408302 1.17311525345 0.984107851982 0.97602558136 1.20947051048 1.29674577713 1.47010207176 1.55625402927 1.55040192604 1.45648765564 1.28562116623 1.20215535164 0.9821819067 0.975996017456 1.20810639858 1.2952786684 1.46878135204 1.55540966988 1.54953253269 1.45515716076 1.28415000439 1.2008087635 0.982159793377 0.978029489517 1.17622959614 1.26244664192 1.4386626482 1.53315794468 1.52683651447 1.42506611347 1.25123274326 1.1689800024 0.984028756618 0.980948746204 1.11300325394 1.19759917259 1.37497889996 1.47392940521 1.46756982803 1.36243474483 1.18631958961 1.10575258732 0.9866361022 0.982557177544 1.04908621311 1.10500955582 1.27529489994 1.3625254631 1.35770249367 1.26410388947 1.09498298168 1.04689919949 0.988177359104 0.987406611443 1.01376724243 1.03658473492 1.10706758499 1.17358076572 1.16999149323 1.09922015667 1.03542351723 1.01219141483 0.991633117199 
0.987143933773 1.01444661617 1.03813099861 1.1308722496 1.20061612129 1.19694912434 1.1223512888 1.03694880009 1.01280725002 0.99138122797 0.982639729977 1.05010199547 1.11358106136 1.28556072712 1.37496805191 1.36995494366 1.27420914173 1.10324430466 1.04790091515 0.988193750381 0.981132388115 1.11990189552 1.20480680466 1.38240540028 1.48185682297 1.47540903091 1.36973214149 1.19356358051 1.11261940002 0.986766993999 0.978132069111 1.18036687374 1.2668377161 1.44298684597 1.53654932976 1.53028392792 1.42936658859 1.2556450367 1.17311549187 0.984107613564 0.976024985313 1.20947122574 1.29674685001 1.47011566162 1.55628573895 1.55043077469 1.45650374889 1.28562247753 1.20215606689 0.982181429863 0.975995540619 1.20810687542 1.2952798605 1.46879422665 1.55544006824 1.54956054688 1.45517241955 1.28415155411 1.20080947876 0.982159495354 0.978029072285 1.17622983456 1.26244747639 1.43866372108 1.53317165375 1.52684807777 1.42506766319 1.25123345852 1.16898036003 0.984028398991 0.980948388577 1.11300337315 1.1975992918 1.37497925758 1.47392988205 1.46757030487 1.36243498325 1.18631958961 1.10575258732 0.986635923386 0.98255699873 1.04908597469 1.1050093174 1.27529489994 1.36252558231 1.35770249367 1.26410388947 1.09498262405 1.04689884186 0.988177239895 0.987406730652 1.01376664639 1.03658437729 1.10706758499 1.17358100414 1.16999161243 1.09921991825 1.03542304039 1.01219081879 0.99163299799 
0.987143695354 1.01444685459 1.03813135624 1.13087320328 1.20061731339 1.19695031643 1.12235224247 1.03694915771 1.01280760765 0.991381168365 0.982639610767 1.05010223389 1.11358165741 1.28556191921 1.37496948242 1.36995625496 1.27421033382 1.1032449007 1.04790139198 0.988193631172 0.981132209301 1.11990261078 1.20480823517 1.38240695 1.4818584919 1.47541058064 1.3697334528 1.19356453419 1.11262011528 0.986766695976 0.978131830692 1.18036830425 1.26683950424 1.44298911095 1.5365588665 1.53029310703 1.42936873436 1.25564658642 1.17311644554 0.984107494354 0.976024746895 1.20947277546 1.29674887657 1.47012472153 1.55629897118 1.5504437685 1.45651423931 1.28562438488 1.20215713978 0.982181310654 0.97599542141 1.20810842514 1.29528188705 1.46880292892 1.55545353889 1.54957330227 1.45518243313 1.28415346146 1.2008112669 0.982159137726 0.978028774261 1.17623102665 1.26244878769 1.43866622448 1.53318059444 1.5268560648 1.42506968975 1.25123488903 1.16898143291 0.984028279781 0.980948269367 1.11300420761 1.19760072231 1.37498092651 1.47393167019 1.4675719738 1.3624368906 1.18632042408 1.10575354099 0.986635684967 0.98255687952 1.04908645153 1.10501003265 1.27529585361 1.36252689362 1.35770392418 1.26410484314 1.09498345852 1.0468993187 0.988177359104 0.987406492233 1.01376712322 1.03658461571 1.10706830025 1.17358195782 1.16999280453 1.09922111034 1.03542327881 1.01219117641 0.991632938385 
0.987143754959 1.01444709301 1.03813195229 1.13087439537 1.2006187439 1.19695186615 1.12235319614 1.03694939613 1.01280784607 0.991381049156 0.982639372349 1.05010282993 1.11358249187 1.28556311131 1.37497079372 1.36995756626 1.27421152592 1.10324573517 1.04790186882 0.988193511963 0.981131851673 1.11990356445 1.20480966568 1.38240861893 1.48186063766 1.4754127264 1.36973512173 1.19356560707 1.11262106895 0.986766755581 0.978131592274 1.18036937714 1.26684105396 1.44299149513 1.53656744957 1.53030145168 1.42937099934 1.25564861298 1.17311799526 0.984107136726 0.976024389267 1.20947420597 1.29675126076 1.47013306618 1.55631005764 1.55045425892 1.45652329922 1.28562653065 1.20215892792 0.982180893421 0.975995063782 1.20810961723 1.2952837944 1.46881091595 1.5554639101 1.54958367348 1.45519137383 1.2841552496 1.2008125782 0.982158899307 0.978028357029 1.17623245716 1.26245069504 1.43866872787 1.53318858147 1.52686405182 1.42507183552 1.25123667717 1.16898262501 0.984027981758 0.980948030949 1.11300563812 1.1976017952 1.37498259544 1.47393321991 1.46757376194 1.36243855953 1.18632173538 1.10575425625 0.986635744572 0.982556760311 1.04908692837 1.10501098633 1.27529728413 1.36252844334 1.35770535469 1.26410627365 1.09498429298 1.04689979553 0.988177120686 0.987406551838 1.01376724243 1.03658509254 1.10706913471 1.17358338833 1.16999387741 1.0992218256 1.03542375565 1.01219141483 0.99163287878 
0.987143695354 1.01444745064 1.03813242912 1.13087534904 1.20062017441 1.19695329666 1.12235426903 1.03695011139 1.0128082037 0.991381049156 0.982639312744 1.05010354519 1.11358344555 1.28556478024 1.37497246265 1.3699593544 1.27421307564 1.10324656963 1.04790246487 0.988193392754 0.981131970882 1.11990439892 1.20481085777 1.38241052628 1.48186254501 1.47541427612 1.36973702908 1.19356703758 1.11262214184 0.986766576767 0.978131353855 1.18037068844 1.2668428421 1.44299376011 1.53657627106 1.53031003475 1.42937302589 1.25565004349 1.17311918736 0.984107017517 0.976024150848 1.2094758749 1.29675292969 1.47014117241 1.5563198328 1.55046415329 1.45653247833 1.285628438 1.20216023922 0.982180833817 0.975994706154 1.20811104774 1.29528594017 1.46881949902 1.55547392368 1.54959309101 1.45519959927 1.28415739536 1.20081412792 0.982158839703 0.978028357029 1.17623364925 1.26245212555 1.43867087364 1.53319728374 1.52687227726 1.42507398129 1.25123822689 1.16898405552 0.984027802944 0.98094779253 1.11300635338 1.19760298729 1.37498426437 1.47393548489 1.4675757885 1.36244022846 1.18632304668 1.10575520992 0.986635625362 0.982556462288 1.04908764362 1.10501205921 1.27529847622 1.36253011227 1.35770702362 1.26410758495 1.09498500824 1.04690027237 0.988177120686 0.987406373024 1.01376760006 1.03658568859 1.10707008839 1.17358469963 1.16999530792 1.09922301769 1.03542423248 1.01219165325 0.991632759571 
