14.006313324 13.7880163193 13.0320825577 11.8194570541 11.075507164 11.0764160156 11.822177887 13.0346717834 13.7892274857 14.0063419342 21.9957695007 21.6223163605 20.5678710938 19.0233001709 18.0561389923 18.0573978424 19.026763916 20.571352005 21.6240730286 21.9959659576 29.9814510345 29.5264663696 28.6084938049 27.367603302 26.559469223 26.560541153 27.3704280853 28.6113414764 29.5282230377 29.981798172 37.9821052551 37.6343688965 37.0323982239 36.2657165527 35.7724189758 35.7730674744 36.2674560547 37.0342025757 37.6355857849 37.9824371338 45.9989280701 45.8714599609 45.6633224487 45.4077224731 45.2450675964 45.2452888489 45.4082946777 45.6639251709 45.8718910217 45.9990463257 54.0211257935 54.1492004395 54.358379364 54.6152458191 54.7787361145 54.7785110474 54.6146812439 54.3577613831 54.1487884521 54.0209999084 62.0379066467 62.3860931396 62.9889793396 63.7569160461 64.2510528564 64.2503738403 63.7551651001 62.9871711731 62.3848686218 62.0375862122 70.0385284424 70.4935684204 71.4121780396 72.6541290283 73.462928772 73.4618682861 72.6512756348 71.4093017578 70.4917907715 70.0381851196 78.0241928101 78.3972930908 79.4515914917 80.9964752197 81.9636459351 81.9624023438 80.9929962158 79.448097229 78.3955383301 78.0239715576 86.013671875 86.231590271 86.9863357544 88.1965942383 88.9395294189 88.9385604858 88.1938552856 86.9837341309 86.2303848267 86.0136260986 
14.0061655045 13.7873096466 13.0313310623 11.8182535172 11.073805809 11.074713707 11.8209762573 13.0339260101 13.788520813 14.0061941147 21.9956092834 21.621137619 20.5654125214 19.0183010101 18.0484466553 18.0497055054 19.021774292 20.5688915253 21.6229019165 21.9958095551 29.9812908173 29.5250053406 28.6047039032 27.3588523865 26.5433387756 26.5444297791 27.3617019653 28.6075687408 29.5267696381 29.9816455841 37.9819869995 37.6330566406 37.028553009 36.2554168701 35.7536964417 35.7543640137 36.2571716309 37.0303726196 37.6342735291 37.9823150635 45.9988746643 45.8709106445 45.6616210938 45.4028778076 45.2371864319 45.237411499 45.4034576416 45.6622505188 45.8713531494 45.9990005493 54.0211791992 54.1497650146 54.3600730896 54.620136261 54.7866439819 54.7864303589 54.6195449829 54.3594551086 54.1493263245 54.0210647583 62.0380401611 62.3873977661 62.9928131104 63.7672271729 64.2697601318 64.2690887451 63.7654647827 62.9909973145 62.3861885071 62.0377235413 70.0386962891 70.4950256348 71.4159469604 72.6628570557 73.4790344238 73.4779434204 72.6600112915 71.4130935669 70.4932479858 70.0383377075 78.0243453979 78.3984832764 79.4540557861 81.001449585 81.9713287354 81.9700546265 80.9979934692 79.450553894 78.3966903687 78.0241546631 86.0138092041 86.2322845459 86.9870910645 88.1977920532 88.9412155151 88.940284729 88.1950302124 86.9844894409 86.2310791016 86.0137863159 
14.0061626434 13.7872886658 13.0312995911 11.818195343 11.0737304688 11.074637413 11.8209218979 13.0338916779 13.7884998322 14.0061903 21.9956016541 21.6211032867 20.5653305054 19.0181465149 18.0482196808 18.0494804382 19.0216159821 20.5688152313 21.6228675842 21.9958057404 29.9812831879 29.5249576569 28.6045875549 27.358587265 26.5429039001 26.5439968109 27.3614406586 28.6074428558 29.5267181396 29.9816379547 37.9819793701 37.6330108643 37.0284347534 36.2550735474 35.7530670166 35.7537231445 36.2568321228 37.0302429199 37.6342353821 37.9822998047 45.9988746643 45.8708992004 45.6615715027 45.4026832581 45.2368850708 45.2371101379 45.4032707214 45.6621894836 45.8713378906 45.9990005493 54.0211906433 54.1497688293 54.3601341248 54.6203041077 54.7869415283 54.7867240906 54.6197280884 54.3595275879 54.1493415833 54.0210647583 62.0380325317 62.3874511719 62.9929542542 63.7675590515 64.2704086304 64.269744873 63.7658081055 62.9911384583 62.3862266541 62.0377082825 70.0386810303 70.4950714111 71.4160919189 72.6631240845 73.4794769287 73.4783859253 72.6602630615 71.4132232666 70.493309021 70.0383377075 78.0243606567 78.3985214233 79.4541473389 81.0016174316 81.971534729 81.9702911377 80.9981460571 79.4506454468 78.396736145 78.0241546631 86.0138244629 86.2322921753 86.9871063232 88.1978530884 88.9412918091 88.9403457642 88.1951065063 86.9845123291 86.2311019897 86.0138015747 
14.0061607361 13.7872838974 13.031288147 11.8181724548 11.0737018585 11.0746116638 11.8208999634 13.0338802338 13.7884931564 14.0061912537 21.9956016541 21.621099472 20.5653152466 19.0181083679 18.0481681824 18.0494308472 19.0215816498 20.5687961578 21.6228599548 21.9958057404 29.9812831879 29.5249500275 28.6045608521 27.3585357666 26.5428314209 26.543920517 27.3613853455 28.6074237823 29.526714325 29.9816379547 37.9819793701 37.6330070496 37.0284080505 36.2550239563 35.7529602051 35.7536277771 36.2567825317 37.0302238464 37.6342277527 37.9822998047 45.9988746643 45.8709030151 45.6615524292 45.4026603699 45.236831665 45.237071991 45.4032402039 45.6621742249 45.8713378906 45.9990005493 54.0211906433 54.1497764587 54.3601570129 54.6203460693 54.7869873047 54.7867736816 54.61977005 54.3595352173 54.1493415833 54.0210647583 62.0380325317 62.3874511719 62.9929771423 63.7676200867 64.2705154419 64.2698287964 63.7658538818 62.9911575317 62.3862457275 62.0377082825 70.0386962891 70.4950866699 71.4160995483 72.6631698608 73.4795608521 73.4784469604 72.6603088379 71.4132385254 70.493309021 70.0383377075 78.0243606567 78.3985214233 79.4541473389 81.0016555786 81.9716033936 81.9703521729 80.9981842041 79.4506530762 78.3967514038 78.0241546631 86.0138168335 86.2323074341 86.9871368408 88.1978759766 88.9413070679 88.9403762817 88.1951370239 86.9845275879 86.2311096191 86.0137939453 
14.0061607361 13.7872829437 13.0312795639 11.8181533813 11.0736761093 11.0745849609 11.8208789825 13.033870697 13.7884931564 14.0061912537 21.9956016541 21.62109375 20.5652961731 19.0180835724 18.0481319427 18.0493946075 19.0215511322 20.568775177 21.6228542328 21.9958057404 29.9812831879 29.5249519348 28.6045513153 27.3585071564 26.5427856445 26.5438785553 27.3613605499 28.6074085236 29.5267066956 29.9816379547 37.9819831848 37.6329994202 37.0283927917 36.2549858093 35.7529029846 35.7535820007 36.2567443848 37.0302047729 37.6342277527 37.9823074341 45.9988746643 45.8708877563 45.6615524292 45.4026374817 45.236831665 45.2370452881 45.4032249451 45.6621818542 45.8713264465 45.9989967346 54.0211906433 54.1497612 54.3601570129 54.6203613281 54.7870063782 54.7867965698 54.6197776794 54.3595237732 54.1493415833 54.0210647583 62.0380401611 62.3874588013 62.9930000305 63.7676467896 64.2705612183 64.2698898315 63.7658843994 62.9911766052 62.3862380981 62.0377082825 70.0386962891 70.4950866699 71.4161071777 72.6632003784 73.4796142578 73.4785003662 72.6603469849 71.4132537842 70.493309021 70.0383377075 78.0243606567 78.3985214233 79.4541625977 81.0016860962 81.9716110229 81.9703674316 80.9982070923 79.4506759644 78.3967514038 78.0241546631 86.0138168335 86.2323074341 86.9871292114 88.1979064941 88.9413223267 88.9404067993 88.1951599121 86.9845352173 86.2311096191 86.0137939453 
14.0061607361 13.7872819901 13.0312709808 11.8181343079 11.0736522675 11.0745592117 11.8208618164 13.0338640213 13.7884931564 14.0061912537 21.9956016541 21.6210918427 20.565284729 19.0180549622 18.0481014252 18.0493602753 19.0215301514 20.568769455 21.6228485107 21.9958057404 29.9812793732 29.5249423981 28.6045303345 27.3584785461 26.5427474976 26.5438423157 27.361328125 28.6073856354 29.5267028809 29.9816398621 37.9819831848 37.6329956055 37.0283813477 36.2549552917 35.7528686523 35.7535438538 36.2567138672 37.0301971436 37.6342277527 37.9823074341 45.9988746643 45.8708877563 45.6615447998 45.4026298523 45.2368087769 45.237033844 45.4032173157 45.6621665955 45.8713226318 45.9989967346 54.0211906433 54.1497688293 54.3601570129 54.6203765869 54.7870254517 54.7868080139 54.6197929382 54.3595352173 54.1493453979 54.0210647583 62.0380401611 62.3874549866 62.9930000305 63.7676696777 64.2705993652 64.2699279785 63.765914917 62.9911766052 62.3862457275 62.0377082825 70.0386962891 70.4951019287 71.4161224365 72.663230896 73.479637146 73.4785308838 72.660369873 71.4132537842 70.493309021 70.0383453369 78.0243606567 78.3985366821 79.4541778564 81.0017089844 81.9716720581 81.9703903198 80.9982299805 79.4506835938 78.3967514038 78.0241546631 86.0138168335 86.2323074341 86.9871520996 88.1979141235 88.9413528442 88.9404220581 88.1951675415 86.9845352173 86.2311096191 86.0137939453 
14.0061607361 13.7872810364 13.0312614441 11.818116188 11.0736284256 11.0745363235 11.8208446503 13.0338544846 13.7884893417 14.0061912537 21.9956016541 21.621088028 20.5652732849 19.0180301666 18.0480690002 18.0493278503 19.0215053558 20.5687561035 21.6228504181 21.9958057404 29.9812793732 29.5249385834 28.6045207977 27.3584480286 26.5427093506 26.5438041687 27.3613014221 28.6073799133 29.5267009735 29.9816398621 37.9819831848 37.6329994202 37.0283737183 36.2549324036 35.7528419495 35.7535018921 36.256690979 37.0301856995 37.6342201233 37.9823074341 45.9988746643 45.8708877563 45.6615447998 45.4026222229 45.2367935181 45.2370109558 45.4032020569 45.6621551514 45.8713302612 45.9989967346 54.0211906433 54.149772644 54.3601722717 54.6203994751 54.7870368958 54.7868118286 54.619808197 54.359539032 54.1493453979 54.0210647583 62.0380401611 62.387462616 62.993019104 63.76770401 64.2706375122 64.2699737549 63.7659416199 62.9911994934 62.3862533569 62.0377082825 70.0386962891 70.4951095581 71.4161453247 72.6632614136 73.4796600342 73.4785614014 72.6604003906 71.4132843018 70.4933242798 70.0383453369 78.0243606567 78.3985366821 79.4541931152 81.001739502 81.9716949463 81.9704284668 80.9982528687 79.4506912231 78.3967666626 78.0241546631 86.0138244629 86.2323226929 86.9871673584 88.1979293823 88.9413833618 88.9404525757 88.1951828003 86.9845352173 86.2311096191 86.0137939453 
