1.0 1.0 1.00008189678 1.05055809021 1.07491338253 1.07458591461 1.04737257957 0.999840438366 1.00000011921 1.00000011921 1.0 1.00905740261 1.04897630215 1.09103345871 1.09818398952 1.09809935093 1.09054756165 1.04631602764 1.00611829758 1.00000011921 1.0 1.05252873898 1.07451915741 1.09755289555 1.10250604153 1.1024531126 1.09725749493 1.07354569435 1.0501793623 1.00000011921 1.0 1.07032227516 1.08385002613 1.10001266003 1.10388255119 1.10385036469 1.09979736805 1.08333837986 1.06913685799 1.0 1.0 1.07660508156 1.08728897572 1.10092687607 1.10427892208 1.10425639153 1.10074746609 1.08689272404 1.07568609715 1.0 1.0 1.0764850378 1.08723282814 1.100923419 1.10428714752 1.10426414013 1.10074341297 1.08683073521 1.07555425167 1.0 1.0 1.069865942 1.08365190029 1.09999704361 1.10389912128 1.10386645794 1.09977960587 1.08312237263 1.06863999367 1.00000011921 1.00000011921 1.05102396011 1.0739607811 1.0974984169 1.10250174999 1.10244715214 1.09719932079 1.07292509079 1.04848563671 1.00000011921 1.00000011921 1.00670909882 1.04654848576 1.09079301357 1.09805512428 1.09796845913 1.09028112888 1.04354131222 1.0042488575 1.00000011921 1.00000011921 1.00000011921 0.999857187271 1.04477095604 1.07168829441 1.07129383087 1.04102218151 1.00000011921 1.00000011921 1.00000011921 
1.0 1.0 1.00008189678 1.05377840996 1.10680174828 1.10456991196 1.04863226414 0.999840438366 1.00000011921 1.00000011921 1.0 1.00905740261 1.05293059349 1.16053664684 1.18455469608 1.18415617943 1.15797638893 1.04831779003 1.00611829758 1.00000011921 1.0 1.05983841419 1.11515653133 1.18385565281 1.19777107239 1.1975556612 1.18273329735 1.10991406441 1.05537247658 1.00000011921 1.0 1.10165119171 1.14475870132 1.19158220291 1.20182132721 1.20169126987 1.19089877605 1.14206922054 1.09677815437 1.0 1.0 1.12030851841 1.1551618576 1.19427275658 1.20300900936 1.20291483402 1.19376790524 1.1531920433 1.11657416821 1.0 1.0 1.11973392963 1.15490806103 1.19424462318 1.20301699638 1.20292150974 1.19373393059 1.15290951729 1.11594855785 1.0 1.0 1.09921503067 1.1437330246 1.19146096706 1.20181775093 1.20168447495 1.19075727463 1.14091706276 1.09435558319 1.00000011921 1.00000011921 1.05634641647 1.11174476147 1.1834423542 1.19763767719 1.19741380215 1.18226754665 1.10600101948 1.05198991299 1.00000011921 1.00000011921 1.00670909882 1.04845941067 1.15852057934 1.18373382092 1.18330931664 1.15565609932 1.04416716099 1.0042488575 1.00000011921 1.00000011921 1.00000011921 0.999857187271 1.04523229599 1.09263014793 1.09077262878 1.04102957249 1.00000011921 1.00000011921 1.00000011921 
1.0 1.0 1.00008189678 1.05377840996 1.10680174828 1.10456991196 1.04863226414 0.999840438366 1.00000011921 1.00000011921 1.0 1.00905740261 1.05293059349 1.18568491936 1.24358975887 1.24209678173 1.17693030834 1.04831779003 1.00611829758 1.00000011921 1.0 1.05983841419 1.11700999737 1.24375748634 1.27624630928 1.27553331852 1.23987662792 1.11034882069 1.05537247658 1.00000011921 1.0 1.10171425343 1.16530323029 1.2628082037 1.28555965424 1.28512644768 1.26053726673 1.15762579441 1.09677815437 1.0 1.0 1.12368512154 1.18684220314 1.26906311512 1.28819334507 1.28786849976 1.26742017269 1.1806974411 1.11848163605 1.0 1.0 1.12278950214 1.1860448122 1.26894104481 1.28818237782 1.28785324097 1.26727437973 1.17981290817 1.11761558056 1.0 1.0 1.09921503067 1.1621465683 1.26228785515 1.28544342518 1.28499674797 1.25992250443 1.15454316139 1.09435558319 1.00000011921 1.00000011921 1.05634641647 1.11246454716 1.24192798138 1.27560305595 1.27485513687 1.23777639866 1.1060167551 1.05198991299 1.00000011921 1.00000011921 1.00670909882 1.04845941067 1.17789959908 1.2398763895 1.23822200298 1.16952550411 1.04416716099 1.0042488575 1.00000011921 1.00000011921 1.00000011921 0.999857187271 1.04523229599 1.09263014793 1.09077262878 1.04102957249 1.00000011921 1.00000011921 1.00000011921 
1.0 1.0 1.00008189678 1.05377840996 1.10680174828 1.10456991196 1.04863226414 0.999840438366 1.00000011921 1.00000011921 1.0 1.00905740261 1.05293059349 1.18587446213 1.26747357845 1.26370120049 1.17693030834 1.04831779003 1.00611829758 1.00000011921 1.0 1.05983841419 1.11700999737 1.2698122263 1.33118152618 1.32917606831 1.26054275036 1.11034882069 1.05537247658 1.00000011921 1.0 1.10171425343 1.16535913944 1.30640923977 1.3499121666 1.34865617752 1.30029654503 1.15762579441 1.09677815437 1.0 1.0 1.12368512154 1.1901153326 1.31851172447 1.35513031483 1.35416328907 1.31381165981 1.18195104599 1.11848163605 1.0 1.0 1.12278950214 1.18897891045 1.3181527853 1.35505485535 1.35407650471 1.31338226795 1.18085312843 1.11761558056 1.0 1.0 1.09921503067 1.1621465683 1.30489039421 1.34945607185 1.34815835953 1.29854393005 1.15454316139 1.09435558319 1.00000011921 1.00000011921 1.05634641647 1.11246454716 1.26492440701 1.32913410664 1.3270150423 1.25511848927 1.1060167551 1.05198991299 1.00000011921 1.00000011921 1.00670909882 1.04845941067 1.17789959908 1.25755906105 1.25349462032 1.16952550411 1.04416716099 1.0042488575 1.00000011921 1.00000011921 1.00000011921 0.999857187271 1.04523229599 1.09263014793 1.09077262878 1.04102957249 1.00000011921 1.00000011921 1.00000011921 
1.0 1.0 1.00008189678 1.05377840996 1.10680174828 1.10456991196 1.04863226414 0.999840438366 1.00000011921 1.00000011921 1.0 1.00905740261 1.05293059349 1.18587446213 1.26924824715 1.26462376118 1.17693030834 1.04831779003 1.00611829758 1.00000011921 1.0 1.05983841419 1.11700999737 1.27289795876 1.36004757881 1.35595345497 1.26133573055 1.11034882069 1.05537247658 1.00000011921 1.0 1.10171425343 1.16535913944 1.32405078411 1.39095103741 1.38810539246 1.31346154213 1.15762579441 1.09677815437 1.0 1.0 1.12368512154 1.1901153326 1.34231936932 1.39977133274 1.3974763155 1.33322954178 1.18195104599 1.11848163605 1.0 1.0 1.12278950214 1.18897891045 1.34162425995 1.39955937862 1.39723837376 1.33243489265 1.18085312843 1.11761558056 1.0 1.0 1.09921503067 1.1621465683 1.32127404213 1.38982272148 1.38688969612 1.31042253971 1.15454316139 1.09435558319 1.00000011921 1.00000011921 1.05634641647 1.11246454716 1.26640892029 1.3556586504 1.35138726234 1.25524640083 1.1060167551 1.05198991299 1.00000011921 1.00000011921 1.00670909882 1.04845941067 1.17789959908 1.25769340992 1.25350236893 1.16952550411 1.04416716099 1.0042488575 1.00000011921 1.00000011921 1.00000011921 0.999857187271 1.04523229599 1.09263014793 1.09077262878 1.04102957249 1.00000011921 1.00000011921 1.00000011921 
1.0 1.0 1.00008189678 1.05377840996 1.10680174828 1.10456991196 1.04863226414 0.999840438366 1.00000011921 1.00000011921 1.0 1.00905740261 1.05293059349 1.18587446213 1.26924824715 1.26462376118 1.17693030834 1.04831779003 1.00611829758 1.00000011921 1.0 1.05983841419 1.11700999737 1.27289795876 1.37042081356 1.36462152004 1.26133573055 1.11034882069 1.05537247658 1.00000011921 1.0 1.10171425343 1.16535913944 1.32800471783 1.41145849228 1.40681695938 1.31502282619 1.15762579441 1.09677815437 1.0 1.0 1.12368512154 1.1901153326 1.35030066967 1.42377877235 1.41982233524 1.33824253082 1.18195104599 1.11848163605 1.0 1.0 1.12278950214 1.18897891045 1.3493335247 1.42338860035 1.41939556599 1.33720135689 1.18085312843 1.11761558056 1.0 1.0 1.09921503067 1.1621465683 1.32436227798 1.40954041481 1.40479230881 1.31138002872 1.15454316139 1.09435558319 1.00000011921 1.00000011921 1.05634641647 1.11246454716 1.26640892029 1.36401605606 1.3581084013 1.25524640083 1.1060167551 1.05198991299 1.00000011921 1.00000011921 1.00670909882 1.04845941067 1.17789959908 1.25769340992 1.25350236893 1.16952550411 1.04416716099 1.0042488575 1.00000011921 1.00000011921 1.00000011921 0.999857187271 1.04523229599 1.09263014793 1.09077262878 1.04102957249 1.00000011921 1.00000011921 1.00000011921 
1.0 1.0 1.00008189678 1.05377840996 1.10680174828 1.10456991196 1.04863226414 0.999840438366 1.00000011921 1.00000011921 1.0 1.00905740261 1.05293059349 1.18587446213 1.26924824715 1.26462376118 1.17693030834 1.04831779003 1.00611829758 1.00000011921 1.0 1.05983841419 1.11700999737 1.27289795876 1.37277364731 1.36616539955 1.26133573055 1.11034882069 1.05537247658 1.00000011921 1.0 1.10171425343 1.16535913944 1.3281443119 1.4196625948 1.41383564472 1.31502282619 1.15762579441 1.09677815437 1.0 1.0 1.12368512154 1.1901153326 1.35216808319 1.43437337875 1.42919373512 1.33892393112 1.18195104599 1.11848163605 1.0 1.0 1.12278950214 1.18897891045 1.35104656219 1.4338388443 1.42862248421 1.33776080608 1.18085312843 1.11761558056 1.0 1.0 1.09921503067 1.1621465683 1.32437252998 1.41717576981 1.41125440598 1.31138002872 1.15454316139 1.09435558319 1.00000011921 1.00000011921 1.05634641647 1.11246454716 1.26640892029 1.36532533169 1.35876274109 1.25524640083 1.1060167551 1.05198991299 1.00000011921 1.00000011921 1.00670909882 1.04845941067 1.17789959908 1.25769340992 1.25350236893 1.16952550411 1.04416716099 1.0042488575 1.00000011921 1.00000011921 1.00000011921 0.999857187271 1.04523229599 1.09263014793 1.09077262878 1.04102957249 1.00000011921 1.00000011921 1.00000011921 
