0.99325889349 1.04726219177 1.07793855667 1.16459584236 1.22394323349 1.22253239155 1.15755140781 1.07608103752 1.04541277885 0.9974219203 0.98963111639 1.09855389595 1.16339039803 1.29071962833 1.34121513367 1.34030544758 1.28747534752 1.15761554241 1.09282636642 0.994972229004 0.987569093704 1.17108941078 1.22557544708 1.33924710751 1.3835811615 1.38285505772 1.33675718307 1.22178459167 1.16612839699 0.993404209614 0.985978662968 1.21244871616 1.26061987877 1.36264204979 1.40099835396 1.40050780773 1.36089611053 1.25781714916 1.20876586437 0.991904079914 0.985537409782 1.2314388752 1.2765263319 1.37229406834 1.40688669682 1.40652740002 1.37097668648 1.27408671379 1.22817838192 0.991267681122 0.985500335693 1.23097360134 1.27619993687 1.37221753597 1.40692842007 1.40656483173 1.37088394165 1.27373886108 1.22769069672 0.991251707077 0.98588103056 1.21090900898 1.25955891609 1.36234211922 1.40101635456 1.40051531792 1.36054289341 1.25668215752 1.20714151859 0.991863965988 0.987425804138 1.1674888134 1.22328734398 1.33844816685 1.38320291042 1.38245666027 1.33588027954 1.21932435036 1.16228306293 0.993348479271 0.989538729191 1.09339296818 1.15779864788 1.28854203224 1.33963322639 1.33869934082 1.28510940075 1.15158236027 1.08826720715 0.99497872591 0.993413329124 1.04659056664 1.07574009895 1.15248072147 1.21232163906 1.21078586578 1.14524972439 1.07491397858 1.04476451874 0.997608721256 
0.989845395088 1.03108584881 1.05813801289 1.14246308804 1.21650743484 1.21299695969 1.13352262974 1.05624055862 1.02930450439 0.994082927704 0.986049234867 1.07889342308 1.14414703846 1.30518984795 1.37055969238 1.36886954308 1.29856669903 1.13670384884 1.07320380211 0.991333186626 0.984077453613 1.15510129929 1.23158824444 1.37013816833 1.42417311668 1.42287957668 1.36564958096 1.22318768501 1.14848649502 0.989597678185 0.981626689434 1.21264982224 1.28019714355 1.39913272858 1.44445121288 1.44353950024 1.39586269855 1.27432501316 1.20578658581 0.9874573946 0.980180263519 1.23911929131 1.30045092106 1.41018629074 1.45079135895 1.45007646084 1.40764319897 1.29550540447 1.23316252232 0.986130297184 0.98015588522 1.23814070225 1.29981160164 1.40999317169 1.45077037811 1.45004856586 1.40741920471 1.29481756687 1.23213779926 0.986119866371 0.981537222862 1.20900928974 1.27789998055 1.39839076996 1.44421851635 1.44328320026 1.39501738548 1.27185165882 1.20212650299 0.987408936024 0.983916461468 1.1494140625 1.22590339184 1.3681396246 1.42306673527 1.42173206806 1.36345589161 1.2170535326 1.1428476572 0.989510059357 0.985933899879 1.07380068302 1.136510849 1.29950666428 1.36665916443 1.36489117146 1.29238438606 1.12936651707 1.0687084198 0.991299927235 0.990048229694 1.03045070171 1.05585098267 1.12813878059 1.19469344616 1.19150817394 1.12044799328 1.05497503281 1.02870666981 0.994298815727 
0.988423287868 1.02194488049 1.04692304134 1.13013267517 1.20180845261 1.1982254982 1.12117516994 1.0449385643 1.02023136616 0.992615938187 0.984300255775 1.06796860695 1.13245379925 1.30531573296 1.39100456238 1.38783824444 1.29335129261 1.12500536442 1.06228363514 0.989684581757 0.982186734676 1.14314997196 1.22025156021 1.39253103733 1.46161615849 1.45931923389 1.38450396061 1.21090996265 1.13654351234 0.987752795219 0.9797295928 1.20033347607 1.28240215778 1.43096041679 1.48754310608 1.48585879803 1.42495191097 1.27230370045 1.19349932671 0.985450387001 0.978247761726 1.22923004627 1.31042826176 1.44517505169 1.49547183514 1.49411642551 1.44035422802 1.3016204834 1.22223818302 0.98403942585 0.978214979172 1.22792625427 1.30926024914 1.44479298592 1.49536705017 1.49399745464 1.43991160393 1.30037426949 1.22094774246 0.984019517899 0.979622066021 1.19653809071 1.27820205688 1.42948269844 1.48693966866 1.48520898819 1.42328202724 1.26808822155 1.18974065781 0.985381364822 0.982006251812 1.13742387295 1.21356129646 1.38846230507 1.4593142271 1.45693194866 1.38008475304 1.20430958271 1.13086616993 0.987636506557 0.984210848808 1.06289100647 1.12479138374 1.29462015629 1.38293945789 1.37959170341 1.28277099133 1.11763250828 1.05780494213 0.989665329456 0.988644301891 1.02131307125 1.04451453686 1.11571514606 1.18055844307 1.17730379105 1.1079980135 1.04355144501 1.01964747906 0.992839574814 
0.987771332264 1.01703679562 1.04087150097 1.1238001585 1.19453716278 1.19093203545 1.11484384537 1.03882563114 1.01537334919 0.991914451122 0.983543336391 1.06210660934 1.12641072273 1.29838836193 1.39730548859 1.39218914509 1.28625249863 1.11890733242 1.05641913414 0.988953948021 0.981225371361 1.13683140278 1.21386325359 1.4009437561 1.48885643482 1.48497962952 1.38849830627 1.20458698273 1.13021695614 0.986946105957 0.978550195694 1.19389104843 1.27618157864 1.45135450363 1.52229237556 1.5193785429 1.4414973259 1.26620829105 1.18707001209 0.984407186508 0.976987659931 1.22278749943 1.30681884289 1.46963405609 1.53242492676 1.53001689911 1.46126306057 1.29663002491 1.21583211422 0.982843518257 0.976951479912 1.22146320343 1.30536067486 1.46898376942 1.53220486641 1.52977204323 1.46052110195 1.29517269135 1.21452176571 0.982818961143 0.978435516357 1.19005537033 1.2718334198 1.44881391525 1.52114546299 1.51815712452 1.43872714043 1.26188468933 1.18327176571 0.984324514866 0.981052935123 1.13108551502 1.20709478855 1.39416599274 1.48477399349 1.4807690382 1.38132965565 1.19790446758 1.12452113628 0.986831665039 0.983467519283 1.05703508854 1.11872041225 1.28761672974 1.38401436806 1.37877523899 1.27573645115 1.11150181293 1.05194807053 0.988942980766 0.987998843193 1.01640331745 1.03838467598 1.10927903652 1.17342841625 1.17014420033 1.10155510902 1.03736257553 1.01479399204 0.992138624191 
0.987479090691 1.0146471262 1.0379267931 1.12077200413 1.19103765488 1.18742954731 1.11182916164 1.03584742546 1.01301121712 0.991591691971 0.98321211338 1.05924296379 1.12349104881 1.29515957832 1.3944876194 1.38876497746 1.2829618454 1.11595153809 1.05355405807 0.988625347614 0.980815172195 1.13374233246 1.21081602573 1.39920842648 1.50382602215 1.49817669392 1.38530302048 1.20155024529 1.12711822987 0.9866065979 0.978002488613 1.1907646656 1.27324664593 1.45965659618 1.54564213753 1.54114866257 1.44652950764 1.26334154606 1.18394255638 0.984003603458 0.976340770721 1.21969008446 1.3040573597 1.48225212097 1.55835187435 1.55451667309 1.4703347683 1.29397058487 1.21273970604 0.982357978821 0.976304113865 1.21835613251 1.3025714159 1.48132419586 1.55798006058 1.5541100502 1.46931612492 1.29248559475 1.21141982079 0.982331573963 0.977890849113 1.18691134453 1.26883614063 1.45613110065 1.54381227493 1.53921985626 1.44278073311 1.25895571709 1.18012690544 0.983921766281 0.980647683144 1.1279861927 1.20400285721 1.39126849174 1.49769294262 1.49191749096 1.37749874592 1.19482278824 1.12141382694 0.986494898796 0.983142197132 1.05417323112 1.11579072475 1.28438663483 1.38033986092 1.37486577034 1.2724558115 1.10853362083 1.0490860939 0.98861759901 0.987709224224 1.01401340961 1.03539991379 1.10619115829 1.16997230053 1.16668283939 1.09847414494 1.03434586525 1.01243460178 0.991815984249 
0.987362265587 1.01364576817 1.03669369221 1.11950612068 1.18957495689 1.18596589565 1.11057019234 1.0345993042 1.01202178001 0.991460680962 0.983081936836 1.05804026127 1.12226855755 1.29378938675 1.39293372631 1.38717317581 1.28157031536 1.11471164227 1.05235087872 0.988493621349 0.980653882027 1.13244092464 1.20953392982 1.3977856636 1.50922656059 1.50236237049 1.38386547565 1.20026957989 1.12581264973 0.986471831799 0.977783918381 1.18945038319 1.27202939987 1.46107876301 1.55808711052 1.55218851566 1.44634342194 1.26214933395 1.18262672424 0.983844518661 0.976075053215 1.21839487553 1.30293500423 1.48661017418 1.57329046726 1.5680937767 1.47264432907 1.29289162159 1.21144652367 0.982173979282 0.9760389328 1.21705651283 1.30143451691 1.48546636105 1.57276511192 1.56752932072 1.47143936157 1.29139244556 1.21012246609 0.982147932053 0.977673351765 1.185587883 1.26758766174 1.4568772316 1.5556114912 1.54961168766 1.44207286835 1.2577329874 1.1788033247 0.983763575554 0.980488419533 1.12668025494 1.20270192623 1.38978970051 1.5015887022 1.49467527866 1.3760099411 1.1935223341 1.1201043129 0.986361563206 0.983014345169 1.05297207832 1.11456537247 1.28302228451 1.37886118889 1.37335062027 1.27107787132 1.10728991032 1.04788458347 0.988487064838 0.987593531609 1.01301217079 1.03414952755 1.10489857197 1.16852474213 1.16523337364 1.09718728065 1.03308188915 1.01144635677 0.991684794426 
0.987320899963 1.01328384876 1.03624939919 1.11904835701 1.18904614449 1.18543696404 1.11011505127 1.03414928913 1.01166427135 0.991413831711 0.983036577702 1.05760574341 1.12182688713 1.29329001904 1.39236330986 1.38659214973 1.28106343746 1.11426281929 1.0519156456 0.988447368145 0.980598092079 1.13196921349 1.20906794071 1.39726877213 1.51025426388 1.50283718109 1.38333523273 1.19980323315 1.12533926964 0.986425280571 0.977706372738 1.1889744997 1.27159035206 1.46073782444 1.56333398819 1.55658590794 1.44594204426 1.26171863079 1.18215024471 0.983788192272 0.975979149342 1.2179274559 1.30253863335 1.48757946491 1.58028697968 1.57419407368 1.47282207012 1.29251158237 1.21098017693 0.982107818127 0.975943386555 1.21658730507 1.3010314703 1.48631310463 1.57964766026 1.57351839542 1.47151994705 1.29100561142 1.20965445042 0.982081830502 0.977596640587 1.18510818481 1.26713633537 1.45642066002 1.56042420864 1.5535851717 1.44162845612 1.25728976727 1.17832326889 0.983707606792 0.980433344841 1.12620711327 1.20222902298 1.3892544508 1.50186288357 1.49449336529 1.37546360493 1.19304895401 1.11962926388 0.986315071583 0.982969820499 1.0525380373 1.11412334442 1.28252661228 1.37831413746 1.37279379368 1.27057814598 1.10684049129 1.04745018482 0.988441586494 0.987552464008 1.01265060902 1.03369891644 1.10443139076 1.16800117493 1.1647092104 1.09672284126 1.03262579441 1.01108980179 0.991638243198 
