2.24252724648 3.92566919327 6.77499008179 9.53004455566 11.0987377167 11.0968141556 9.52426338196 6.76768064499 3.91908502579 2.24221539497 2.24020791054 5.15163421631 9.70192909241 14.3102769852 16.9122123718 16.9089450836 14.3006076813 9.69011306763 5.14092206955 2.2395169735 2.2414290905 6.06112861633 11.7416753769 17.4244976044 20.7692890167 20.7649765015 17.4123344421 11.7271175385 6.04745101929 2.24033093452 2.24507331848 6.670835495 12.9810562134 19.245765686 22.9839763641 22.9791088104 19.2322807312 12.9649782181 6.65546655655 2.24363255501 2.24762654305 6.96630764008 13.5646066666 20.0797729492 23.9723587036 23.9672908783 20.0657444 13.5478401184 6.95015907288 2.24600124359 2.24762225151 6.96594524384 13.5638914108 20.0787658691 23.9711780548 23.9661102295 20.0647392273 13.5471286774 6.9497961998 2.24599838257 2.24506354332 6.66971445084 12.9788265228 19.2425537109 22.9801311493 22.9752655029 19.2290592194 12.9627466202 6.65434789658 2.24362444878 2.24142122269 6.05921173096 11.7376699448 17.4185142517 20.7619342804 20.7576141357 17.4063358307 11.7231025696 6.04553508759 2.24032378197 2.24020934105 5.14899730682 9.6956987381 14.3005809784 16.9002475739 16.8969669342 14.2908916473 9.6838760376 5.13828611374 2.23952007294 2.24253559113 3.92236709595 6.76697254181 9.51690387726 11.082983017 11.0810146332 9.51108455658 6.75965642929 3.91578793526 2.24222397804 
2.24257016182 3.92319059372 6.77063131332 9.52506732941 11.0933856964 11.091460228 9.51928424835 6.76332378387 3.91661381721 2.24225854874 2.24024415016 5.14881563187 9.69724178314 14.3047361374 16.9063510895 16.9030857086 14.2950735092 9.68542385101 5.13810920715 2.23955464363 2.24145150185 6.05824804306 11.7368125916 17.4186687469 20.7637500763 20.759431839 17.4065055847 11.7222585678 6.0445766449 2.24035525322 2.24508666992 6.66807699203 12.976231575 19.240228653 22.9816684723 22.9767856598 19.2267360687 12.9601593018 6.65271425247 2.24364852905 2.24763774872 6.96372938156 13.560049057 20.0747661591 23.9748592377 23.9697685242 20.0607318878 13.5432920456 6.94758558273 2.24601531029 2.24763464928 6.96336650848 13.5593366623 20.0737571716 23.9736690521 23.9685764313 20.059720993 13.5425758362 6.94722270966 2.24601221085 2.24507808685 6.66695737839 12.9740018845 19.2370166779 22.9778137207 22.9729347229 19.2235221863 12.9579296112 6.65159606934 2.24364066124 2.24144363403 6.05633163452 11.7328033447 17.4126853943 20.7563877106 20.7520675659 17.4005069733 11.7182455063 6.04266023636 2.2403485775 2.24024629593 5.14617967606 9.69101047516 14.295042038 16.8943881989 16.8911075592 14.2853546143 9.67918777466 5.13547515869 2.23955750465 2.2425775528 3.91988992691 6.76261758804 9.51192760468 11.0776290894 11.0756645203 9.50611019135 6.75530195236 3.91331863403 2.24226689339 
2.24257016182 3.9232032299 6.77065896988 9.52510452271 11.0934286118 11.0915060043 9.51932430267 6.76335191727 3.91662621498 2.24225878716 2.24024415016 5.14883518219 9.69727897644 14.3047914505 16.9064064026 16.9031486511 14.2951221466 9.68546390533 5.13812875748 2.23955488205 2.24145102501 6.05827188492 11.7368574142 17.4187297821 20.7638168335 20.7595081329 17.4065647125 11.7223072052 6.04460048676 2.24035549164 2.24508690834 6.66810655594 12.9762849808 19.2403011322 22.981754303 22.9768791199 19.226808548 12.9602146149 6.65274333954 2.24364852905 2.24763798714 6.96375894547 13.5601062775 20.0748462677 23.9749622345 23.969871521 20.0608158112 13.5433511734 6.94761610031 2.24601531029 2.24763441086 6.96339559555 13.5593996048 20.073841095 23.973772049 23.9686832428 20.0598068237 13.542634964 6.94725227356 2.24601244926 2.24507784843 6.66698455811 12.9740543365 19.2370891571 22.9778957367 22.9730205536 19.2235946655 12.9579820633 6.65162229538 2.24364066124 2.24144363403 6.05635452271 11.7328472137 17.4127445221 20.7564582825 20.7521400452 17.4005718231 11.7182922363 6.04268598557 2.24034833908 2.24024605751 5.14619827271 9.69104766846 14.2950925827 16.8944454193 16.8911647797 14.2854099274 9.67922687531 5.13549423218 2.23955726624 2.2425775528 3.9199025631 6.76264476776 9.51196575165 11.077673912 11.0757074356 9.50614833832 6.75532865524 3.91333079338 2.24226665497 
2.24256968498 3.92321634293 6.77068710327 9.52514743805 11.0934743881 11.091547966 9.51936244965 6.76337862015 3.91663908958 2.24225878716 2.24024415016 5.148853302 9.69731712341 14.3048429489 16.9064712524 16.9032039642 14.2951793671 9.68550300598 5.13814687729 2.23955464363 2.24145150185 6.05829429626 11.7369060516 17.4187984467 20.7638931274 20.7595787048 17.4066314697 11.7223520279 6.04462432861 2.24035549164 2.24508714676 6.66813373566 12.9763422012 19.2403793335 22.9818477631 22.9769687653 19.2268886566 12.960272789 6.65277004242 2.24364829063 2.24763822556 6.96378850937 13.56016922 20.0749320984 23.9750709534 23.9699840546 20.0608997345 13.5434131622 6.94764566422 2.24601578712 2.24763464928 6.96342658997 13.5594615936 20.0739250183 23.9738807678 23.9687843323 20.0598907471 13.5426988602 6.94728326797 2.24601316452 2.24507808685 6.66701364517 12.9741125107 19.2371673584 22.9779911041 22.9731121063 19.2236709595 12.9580373764 6.65165281296 2.24364089966 2.24144363403 6.0563788414 11.7328977585 17.412815094 20.7565288544 20.7522087097 17.4006404877 11.7183380127 6.04270887375 2.24034810066 2.24024605751 5.14621734619 9.6910867691 14.2951459885 16.8945083618 16.8912239075 14.2854633331 9.6792640686 5.13551282883 2.23955726624 2.2425775528 3.9199154377 6.76267147064 9.51200389862 11.0777187347 11.0757513046 9.50618553162 6.75535583496 3.91334342957 2.24226713181 
2.24256968498 3.92322850227 6.77071332932 9.525182724 11.0935134888 11.0915956497 9.51939964294 6.76340484619 3.91665267944 2.24225854874 2.24024438858 5.14887142181 9.69735622406 14.3048934937 16.9065284729 16.9032649994 14.2952289581 9.68553924561 5.13816547394 2.23955440521 2.24145126343 6.0583190918 11.736951828 17.4188613892 20.7639656067 20.7596492767 17.4066963196 11.7223997116 6.04464769363 2.24035549164 2.24508714676 6.6681599617 12.9763975143 19.2404518127 22.9819393158 22.977060318 19.2269668579 12.9603261948 6.65279865265 2.24364876747 2.24763822556 6.96381902695 13.5602293015 20.0750179291 23.9751739502 23.9700870514 20.0609836578 13.5434713364 6.94767475128 2.24601578712 2.24763417244 6.96345567703 13.5595188141 20.074005127 23.9739894867 23.9688987732 20.0599746704 13.5427598953 6.94731330872 2.24601316452 2.24507808685 6.66704034805 12.9741697311 19.2372398376 22.9780788422 22.9731998444 19.2237472534 12.9580965042 6.65167808533 2.24364089966 2.24144339561 6.05640125275 11.7329454422 17.4128761292 20.7566070557 20.752286911 17.4007034302 11.7183866501 6.04273223877 2.2403485775 2.24024581909 5.14623498917 9.69112586975 14.2951974869 16.8945655823 16.8912830353 14.2855129242 9.6793012619 5.1355304718 2.23955750465 2.2425775528 3.91992735863 6.7626991272 9.51204109192 11.0777606964 11.07579422 9.50622463226 6.75538301468 3.91335606575 2.24226665497 
2.24256944656 3.92324113846 6.77073955536 9.52522087097 11.0935602188 11.0916347504 9.51943683624 6.76343297958 3.91666340828 2.24225831032 2.24024415016 5.1488904953 9.69739151001 14.3049449921 16.906583786 16.9033203125 14.2952775955 9.68557739258 5.13818359375 2.23955392838 2.24145102501 6.05834197998 11.7370004654 17.418926239 20.7640361786 20.7597198486 17.4067611694 11.7224464417 6.04467058182 2.24035477638 2.24508690834 6.6681895256 12.9764509201 19.2405319214 22.9820327759 22.977148056 19.2270431519 12.9603786469 6.65282440186 2.24364876747 2.24763798714 6.96384954453 13.5602893829 20.0751037598 23.9752864838 23.9701881409 20.0610637665 13.5435333252 6.94770479202 2.24601602554 2.2476348877 6.96348619461 13.5595788956 20.0740871429 23.9740943909 23.96900177 20.0600528717 13.5428180695 6.94734239578 2.2460129261 2.24507808685 6.66706705093 12.9742212296 19.2373180389 22.9781742096 22.9732913971 19.2238254547 12.95814991 6.65170478821 2.24364089966 2.24144339561 6.05642557144 11.7329912186 17.4129428864 20.7566776276 20.7523574829 17.4007644653 11.7184333801 6.04275417328 2.2403485775 2.24024581909 5.14625310898 9.69116210938 14.2952537537 16.8946208954 16.891336441 14.2855634689 9.67933750153 5.13554859161 2.23955726624 2.24257731438 3.91993951797 6.76272583008 9.51208114624 11.0778055191 11.0758390427 9.50626277924 6.7554101944 3.91336750984 2.24226665497 
2.24256968498 3.92325282097 6.77076721191 9.5252571106 11.0936031342 11.0916805267 9.51947498322 6.76345968246 3.91667556763 2.2422580719 2.24024367332 5.14890861511 9.69742870331 14.3049974442 16.9066429138 16.9033737183 14.295331955 9.68561553955 5.1382021904 2.23955392838 2.24145078659 6.05836486816 11.7370452881 17.4189949036 20.7641105652 20.7597961426 17.406829834 11.7224941254 6.04469442368 2.24035477638 2.24508690834 6.66821575165 12.9765090942 19.2406082153 22.9821205139 22.9772415161 19.2271194458 12.9604387283 6.65285301208 2.24364876747 2.24763822556 6.9638800621 13.5603485107 20.0751800537 23.9753894806 23.9702987671 20.0611495972 13.5435943604 6.94773674011 2.24601626396 2.2476348877 6.96351575851 13.5596399307 20.0741767883 23.9742050171 23.9691085815 20.0601425171 13.5428791046 6.94737291336 2.2460129261 2.24507808685 6.66709518433 12.974275589 19.2373943329 22.9782619476 22.9733829498 19.223897934 12.9582042694 6.65173339844 2.24364089966 2.24144339561 6.05644845963 11.7330369949 17.4130058289 20.7567501068 20.7524318695 17.4008350372 11.7184801102 6.0427775383 2.2403485775 2.24024558067 5.14627170563 9.691198349 14.2953033447 16.8946743011 16.8913955688 14.2856140137 9.67937660217 5.13556671143 2.23955726624 2.24257707596 3.91995286942 6.76275253296 9.51211738586 11.0778503418 11.0758829117 9.50630092621 6.75543642044 3.91338062286 2.24226617813 
