14.0047931671 13.7792186737 13.0345191956 11.8295574188 11.0657253265 11.0666446686 11.832362175 13.0370445251 13.7804269791 14.0048427582 21.9939002991 21.603017807 20.5486564636 18.9670352936 17.94389534 17.945224762 18.9707012177 20.5520973206 21.6048183441 21.9941215515 29.9801654816 29.5178394318 28.5982398987 27.3121643066 26.4488201141 26.4499759674 27.3151817322 28.6011066437 29.5195960999 29.9805316925 37.9822845459 37.6357574463 37.0283470154 36.2310333252 35.7025222778 35.7032279968 36.2328872681 37.0301780701 37.6369781494 37.9826126099 45.9991912842 45.8726882935 45.6623306274 45.3960533142 45.2222137451 45.2224464417 45.3966636658 45.6629562378 45.8731193542 45.9993209839 54.0208625793 54.147983551 54.359375 54.6269798279 54.8016891479 54.8014602661 54.6263694763 54.3587493896 54.1475334167 54.0207290649 62.037727356 62.3847084045 62.9930381775 63.7916488647 64.3210372925 64.320350647 63.789806366 62.9911956787 62.3835029602 62.0374069214 70.0398254395 70.502243042 71.4224472046 72.7095794678 73.573638916 73.5724716187 72.7065811157 71.4195709229 70.5004653931 70.0394592285 78.0260467529 78.4165725708 79.4708175659 81.0526809692 82.0758056641 82.0744628906 81.0490036011 79.4673919678 78.4147491455 78.0258255005 86.0151901245 86.2403564453 86.9838485718 88.1863861084 88.9490890503 88.9481430054 88.183555603 86.9813308716 86.2391357422 86.01512146 
14.0047149658 13.7788152695 13.0340461731 11.8288402557 11.0649003983 11.065820694 11.8316450119 13.0365724564 13.7800254822 14.0047636032 21.9938106537 21.6023654938 20.547328949 18.9645709991 17.9402923584 17.9416255951 18.9682407379 20.5507678986 21.6041698456 21.9940338135 29.9800815582 29.5170631409 28.5963363647 27.3080158234 26.4413757324 26.4425430298 27.3110408783 28.5992050171 29.518819809 29.9804496765 37.9822235107 37.6350822449 37.0265007019 36.2262420654 35.6913452148 35.6920700073 36.2281036377 37.0283432007 37.6362991333 37.9825439453 45.999168396 45.87241745 45.6615333557 45.3937530518 45.2169876099 45.2172241211 45.3943748474 45.6621551514 45.872844696 45.9992904663 54.0208854675 54.1482505798 54.3601646423 54.6292877197 54.8069343567 54.8067054749 54.6286659241 54.3595352173 54.147819519 54.0207595825 62.0377960205 62.38539505 62.9948806763 63.7964401245 64.3322219849 64.331489563 63.7945785522 62.9930343628 62.3841819763 62.0374679565 70.0399169922 70.5030212402 71.4243545532 72.713722229 73.5810775757 73.5799102783 72.7107086182 71.4214782715 70.5012512207 70.0395507812 78.0261383057 78.4172058105 79.4721450806 81.0551528931 82.0793914795 82.0780487061 81.0514602661 79.4686813354 78.4153900146 78.0259246826 86.0152664185 86.2407455444 86.9843139648 88.1871032715 88.9498977661 88.9489517212 88.1842651367 86.9818115234 86.2395477295 86.0151977539 
14.0047149658 13.7788124084 13.03403759 11.8288259506 11.0648784637 11.0657958984 11.8316268921 13.036564827 13.7800273895 14.0047636032 21.9938106537 21.6023635864 20.5473194122 18.9645519257 17.9402656555 17.9415950775 18.9682216644 20.5507602692 21.6041717529 21.9940338135 29.9800853729 29.5170612335 28.5963230133 27.3079948425 26.4413452148 26.4425048828 27.3110198975 28.5991897583 29.5188236237 29.9804496765 37.9822235107 37.6350746155 37.0265007019 36.2262191772 35.6913108826 35.6920394897 36.2280845642 37.0283355713 37.6362991333 37.9825439453 45.999168396 45.87241745 45.6615371704 45.3937492371 45.2169723511 45.2172050476 45.3943595886 45.6621589661 45.872844696 45.9992904663 54.0208854675 54.1482505798 54.360168457 54.6292991638 54.8069572449 54.806728363 54.6286735535 54.359539032 54.147819519 54.0207595825 62.0377960205 62.38539505 62.9948921204 63.7964630127 64.3322601318 64.3315353394 63.7946014404 62.9930496216 62.3841743469 62.0374679565 70.0399169922 70.5030212402 71.424369812 72.7137527466 73.5811080933 73.5799407959 72.710723877 71.4214859009 70.5012588501 70.0395507812 78.0261383057 78.4172058105 79.4721603394 81.0551757812 82.0794143677 82.0780639648 81.0514831543 79.4686889648 78.415397644 78.0259246826 86.0152664185 86.2407455444 86.9843444824 88.1871109009 88.9499282837 88.9489822388 88.1842880249 86.9817962646 86.2395477295 86.0151977539 
14.0047130585 13.7788152695 13.034029007 11.8288078308 11.0648546219 11.0657749176 11.8316106796 13.0365591049 13.7800235748 14.0047636032 21.9938106537 21.6023635864 20.5473060608 18.9645290375 17.9402389526 17.9415683746 18.9682025909 20.5507488251 21.6041698456 21.9940338135 29.9800853729 29.5170536041 28.5963115692 27.307970047 26.4413089752 26.4424819946 27.3109912872 28.5991802216 29.5188159943 29.9804496765 37.9822235107 37.6350708008 37.0264930725 36.2262039185 35.6912765503 35.6920013428 36.228061676 37.0283279419 37.6362915039 37.9825439453 45.999168396 45.8724098206 45.661529541 45.3937454224 45.2169570923 45.2172050476 45.3943519592 45.6621551514 45.872844696 45.9992904663 54.0208854675 54.1482505798 54.3601760864 54.6293144226 54.8069725037 54.806728363 54.6286811829 54.3595542908 54.147819519 54.0207595825 62.0377960205 62.38539505 62.9948921204 63.7964859009 64.3323059082 64.3315811157 63.7946205139 62.9930496216 62.3841781616 62.0374679565 70.0399169922 70.503036499 71.4243850708 72.7137680054 73.5811309814 73.5799713135 72.7107467651 71.4215087891 70.5012588501 70.0395507812 78.0261383057 78.4172134399 79.4721679688 81.05519104 82.0794448853 82.0781021118 81.0514984131 79.4687194824 78.415397644 78.0259246826 86.0152664185 86.2407455444 86.9843444824 88.1871337891 88.9499588013 88.9489974976 88.1843032837 86.9818115234 86.2395477295 86.0151977539 
14.0047130585 13.7788133621 13.0340242386 11.828792572 11.0648326874 11.0657520294 11.8315935135 13.0365533829 13.7800235748 14.0047636032 21.9938106537 21.6023616791 20.547296524 18.9645061493 17.9402122498 17.9415416718 18.9681816101 20.5507354736 21.6041660309 21.9940338135 29.9800853729 29.5170516968 28.5963020325 27.3079452515 26.4412841797 26.4424476624 27.3109664917 28.5991706848 29.5188159943 29.9804496765 37.982219696 37.6350746155 37.0264854431 36.2261772156 35.6912384033 35.6919631958 36.2280387878 37.0283126831 37.6362915039 37.9825439453 45.999168396 45.8724021912 45.6615257263 45.393737793 45.2169418335 45.2171783447 45.3943519592 45.6621551514 45.8728370667 45.9992904663 54.0208854675 54.1482467651 54.3601722717 54.6293182373 54.8069801331 54.8067359924 54.6286888123 54.3595542908 54.1478157043 54.0207595825 62.0377960205 62.3854026794 62.9949188232 63.7965164185 64.3323364258 64.3316040039 63.7946510315 62.9930725098 62.3841819763 62.0374679565 70.0399169922 70.5030212402 71.4243774414 72.7137985229 73.5811691284 73.5800323486 72.7107696533 71.4215164185 70.5012588501 70.0395507812 78.0261383057 78.4172134399 79.4721755981 81.055229187 82.0794754028 82.0781402588 81.0515213013 79.4687271118 78.4154129028 78.0259246826 86.0152664185 86.2407455444 86.9843444824 88.1871414185 88.9499664307 88.9490280151 88.1843109131 86.9818115234 86.2395477295 86.0152130127 
14.0047130585 13.7788095474 13.0340166092 11.8287744522 11.0648088455 11.0657281876 11.8315763474 13.0365438461 13.7800226212 14.0047636032 21.9938106537 21.602355957 20.5472888947 18.9644870758 17.9401817322 17.9415111542 18.9681568146 20.5507297516 21.6041622162 21.9940338135 29.9800853729 29.5170459747 28.5962905884 27.307926178 26.4412460327 26.4424114227 27.3109512329 28.5991630554 29.5188102722 29.9804496765 37.982219696 37.6350708008 37.0264701843 36.2261581421 35.6912002563 35.6919212341 36.2280158997 37.0283050537 37.6362915039 37.9825439453 45.999168396 45.8724060059 45.6615257263 45.3937301636 45.2169303894 45.2171630859 45.3943405151 45.662147522 45.8728408813 45.9992904663 54.0208854675 54.1482429504 54.3601837158 54.629322052 54.8069953918 54.8067626953 54.6286964417 54.3595581055 54.147808075 54.0207595825 62.0377960205 62.3854026794 62.9949111938 63.7965202332 64.3323669434 64.3316497803 63.7946739197 62.9930801392 62.3841819763 62.0374679565 70.0399169922 70.5030288696 71.4244003296 72.7138290405 73.581199646 73.5800323486 72.7108001709 71.4215164185 70.5012512207 70.0395507812 78.0261383057 78.4172210693 79.4721908569 81.055229187 82.0795059204 82.0781555176 81.0515518188 79.46875 78.4154129028 78.0259246826 86.0152740479 86.2407608032 86.9843597412 88.1871566772 88.9499893188 88.9490585327 88.1843261719 86.9818344116 86.2395477295 86.0152130127 
14.0047121048 13.7788114548 13.0340108871 11.8287572861 11.06478405 11.0657024384 11.8315601349 13.0365371704 13.7800216675 14.0047655106 21.9938106537 21.6023578644 20.5472812653 18.9644641876 17.9401531219 17.9414844513 18.9681358337 20.5507202148 21.6041660309 21.9940338135 29.9800815582 29.5170459747 28.5962810516 27.3079032898 26.4412136078 26.4423770905 27.31092453 28.5991477966 29.5188121796 29.9804458618 37.982219696 37.6350708008 37.0264663696 36.2261352539 35.6911697388 35.6918907166 36.2280082703 37.0282936096 37.6362915039 37.9825439453 45.999168396 45.8724060059 45.6615257263 45.3937149048 45.2169189453 45.2171554565 45.3943328857 45.6621398926 45.872844696 45.9992904663 54.0208854675 54.1482429504 54.3601875305 54.6293296814 54.80701828 54.8067741394 54.6287002563 54.3595695496 54.1478157043 54.0207595825 62.0377960205 62.3854064941 62.994934082 63.7965545654 64.3324050903 64.3316879272 63.7946929932 62.9930839539 62.3841972351 62.0374679565 70.0399169922 70.5030288696 71.4244003296 72.7138519287 73.5812301636 73.580078125 72.7108230591 71.4215240479 70.5012512207 70.0395507812 78.0261383057 78.4172210693 79.4721908569 81.055267334 82.079536438 82.0781936646 81.0515823364 79.4687423706 78.4154052734 78.0259246826 86.0152740479 86.2407608032 86.9843597412 88.1871795654 88.9500198364 88.9490585327 88.1843338013 86.9818191528 86.2395477295 86.0152130127 
