1.0 1.0 1.0 1.05611371994 1.11445176601 1.11211287975 1.0494812727 1.00000011921 1.00000011921 1.00000011921 1.0 1.0 1.0490874052 1.18874692917 1.26640200615 1.26233184338 1.18025422096 1.04234683514 1.00000011921 1.00000011921 1.0 1.05591738224 1.11952197552 1.27011954784 1.36186587811 1.35581612587 1.2594178915 1.11183845997 1.05055260658 1.00000011921 1.0 1.10166811943 1.16725647449 1.32105970383 1.40712141991 1.40189301968 1.30881404877 1.15916633606 1.0962831974 1.0 1.0 1.12371265888 1.19080638885 1.3438615799 1.42099332809 1.41649878025 1.33097136021 1.18236541748 1.11830413342 1.0 1.0 1.12278079987 1.18976545334 1.34277439117 1.42051291466 1.41597688198 1.32992243767 1.18133926392 1.11748278141 1.0 1.0 1.09899616241 1.16421294212 1.31766366959 1.40480720997 1.39946448803 1.30558156967 1.15620398521 1.0936357975 1.00000011921 1.00000011921 1.05133521557 1.11460661888 1.26426160336 1.35491192341 1.34908819199 1.25392794609 1.10712921619 1.04594516754 1.00000011921 1.00000011921 1.00000011921 1.042932868 1.1811631918 1.25592756271 1.25222873688 1.17314326763 1.03629422188 1.00000011921 1.00000011921 1.00000011921 1.00000011921 1.00000011921 1.04217624664 1.09678173065 1.09470653534 1.0363881588 1.00000011921 1.00000011921 1.00000011921 
1.0 1.0 1.0 1.05611371994 1.11445176601 1.11211287975 1.0494812727 1.00000011921 1.00000011921 1.00000011921 1.0 1.0 1.0490874052 1.18874692917 1.26640200615 1.26233184338 1.18025422096 1.04234683514 1.00000011921 1.00000011921 1.0 1.05591738224 1.11952197552 1.27011954784 1.36186587811 1.35581612587 1.2594178915 1.11183845997 1.05055260658 1.00000011921 1.0 1.10166811943 1.16725647449 1.32105970383 1.41051435471 1.40425598621 1.30881404877 1.15916633606 1.0962831974 1.0 1.0 1.12371265888 1.19080638885 1.34386909008 1.42740988731 1.42157936096 1.33097136021 1.18236541748 1.11830413342 1.0 1.0 1.12278079987 1.18976545334 1.34277439117 1.4267154932 1.42086005211 1.32992243767 1.18133926392 1.11748278141 1.0 1.0 1.09899616241 1.16421294212 1.31766366959 1.40756547451 1.40126824379 1.30558156967 1.15620398521 1.0936357975 1.00000011921 1.00000011921 1.05133521557 1.11460661888 1.26426160336 1.35491192341 1.34908819199 1.25392794609 1.10712921619 1.04594516754 1.00000011921 1.00000011921 1.00000011921 1.042932868 1.1811631918 1.25592756271 1.25222873688 1.17314326763 1.03629422188 1.00000011921 1.00000011921 1.00000011921 1.00000011921 1.00000011921 1.04217624664 1.09678173065 1.09470653534 1.0363881588 1.00000011921 1.00000011921 1.00000011921 
1.0 1.0 1.0 1.05611371994 1.11445176601 1.11211287975 1.0494812727 1.00000011921 1.00000011921 1.00000011921 1.0 1.0 1.0490874052 1.18874692917 1.26640200615 1.26233184338 1.18025422096 1.04234683514 1.00000011921 1.00000011921 1.0 1.05591738224 1.11952197552 1.27011954784 1.36186587811 1.35581612587 1.2594178915 1.11183845997 1.05055260658 1.00000011921 1.0 1.10166811943 1.16725647449 1.32105970383 1.41052365303 1.404255867 1.30881404877 1.15916633606 1.0962831974 1.0 1.0 1.12371265888 1.19080638885 1.34386909008 1.42741966248 1.42158865929 1.33097136021 1.18236541748 1.11830413342 1.0 1.0 1.12278079987 1.18976545334 1.34277439117 1.42672491074 1.42086911201 1.32992243767 1.18133926392 1.11748278141 1.0 1.0 1.09899616241 1.16421294212 1.31766366959 1.40756809711 1.40126824379 1.30558156967 1.15620398521 1.0936357975 1.00000011921 1.00000011921 1.05133521557 1.11460661888 1.26426160336 1.35491192341 1.34908819199 1.25392794609 1.10712921619 1.04594516754 1.00000011921 1.00000011921 1.00000011921 1.042932868 1.1811631918 1.25592756271 1.25222873688 1.17314326763 1.03629422188 1.00000011921 1.00000011921 1.00000011921 1.00000011921 1.00000011921 1.04217624664 1.09678173065 1.09470653534 1.0363881588 1.00000011921 1.00000011921 1.00000011921 
1.0 1.0 1.0 1.05611371994 1.11445176601 1.11211287975 1.0494812727 1.00000011921 1.00000011921 1.00000011921 1.0 1.0 1.0490874052 1.18874692917 1.26640200615 1.26233184338 1.18025422096 1.04234683514 1.00000011921 1.00000011921 1.0 1.05591738224 1.11952197552 1.27011954784 1.36186587811 1.35581612587 1.2594178915 1.11183845997 1.05055260658 1.00000011921 1.0 1.10166811943 1.16725647449 1.32105970383 1.41053330898 1.40426194668 1.30881404877 1.15916633606 1.0962831974 1.0 1.0 1.12371265888 1.19080638885 1.34386909008 1.42742884159 1.42159771919 1.33097136021 1.18236541748 1.11830413342 1.0 1.0 1.12278079987 1.18976545334 1.34277439117 1.42673420906 1.42087841034 1.32992243767 1.18133926392 1.11748278141 1.0 1.0 1.09899616241 1.16421294212 1.31766366959 1.40757679939 1.40126824379 1.30558156967 1.15620398521 1.0936357975 1.00000011921 1.00000011921 1.05133521557 1.11460661888 1.26426160336 1.35491192341 1.34908819199 1.25392794609 1.10712921619 1.04594516754 1.00000011921 1.00000011921 1.00000011921 1.042932868 1.1811631918 1.25592756271 1.25222873688 1.17314326763 1.03629422188 1.00000011921 1.00000011921 1.00000011921 1.00000011921 1.00000011921 1.04217624664 1.09678173065 1.09470653534 1.0363881588 1.00000011921 1.00000011921 1.00000011921 
1.0 1.0 1.0 1.05611371994 1.11445176601 1.11211287975 1.0494812727 1.00000011921 1.00000011921 1.00000011921 1.0 1.0 1.0490874052 1.18874692917 1.26640200615 1.26233184338 1.18025422096 1.04234683514 1.00000011921 1.00000011921 1.0 1.05591738224 1.11952197552 1.27011954784 1.36186587811 1.35581612587 1.2594178915 1.11183845997 1.05055260658 1.00000011921 1.0 1.10166811943 1.16725647449 1.32105970383 1.41054308414 1.40426969528 1.30881404877 1.15916633606 1.0962831974 1.0 1.0 1.12371265888 1.19080638885 1.34386909008 1.42743837833 1.42160725594 1.33097136021 1.18236541748 1.11830413342 1.0 1.0 1.12278079987 1.18976545334 1.34277439117 1.42674362659 1.42088735104 1.32992243767 1.18133926392 1.11748278141 1.0 1.0 1.09899616241 1.16421294212 1.31766366959 1.40758490562 1.40126824379 1.30558156967 1.15620398521 1.0936357975 1.00000011921 1.00000011921 1.05133521557 1.11460661888 1.26426160336 1.35491192341 1.34908819199 1.25392794609 1.10712921619 1.04594516754 1.00000011921 1.00000011921 1.00000011921 1.042932868 1.1811631918 1.25592756271 1.25222873688 1.17314326763 1.03629422188 1.00000011921 1.00000011921 1.00000011921 1.00000011921 1.00000011921 1.04217624664 1.09678173065 1.09470653534 1.0363881588 1.00000011921 1.00000011921 1.00000011921 
1.0 1.0 1.0 1.05611371994 1.11445176601 1.11211287975 1.0494812727 1.00000011921 1.00000011921 1.00000011921 1.0 1.0 1.0490874052 1.18874692917 1.26640200615 1.26233184338 1.18025422096 1.04234683514 1.00000011921 1.00000011921 1.0 1.05591738224 1.11952197552 1.27011954784 1.36186587811 1.35581612587 1.2594178915 1.11183845997 1.05055260658 1.00000011921 1.0 1.10166811943 1.16725647449 1.32105970383 1.41055250168 1.40427792072 1.30881404877 1.15916633606 1.0962831974 1.0 1.0 1.12371265888 1.19080638885 1.34386909008 1.42744743824 1.42161619663 1.33097136021 1.18236541748 1.11830413342 1.0 1.0 1.12278079987 1.18976545334 1.34277439117 1.42675292492 1.42089664936 1.32992243767 1.18133926392 1.11748278141 1.0 1.0 1.09899616241 1.16421294212 1.31766366959 1.40759277344 1.40126764774 1.30558156967 1.15620398521 1.0936357975 1.00000011921 1.00000011921 1.05133521557 1.11460661888 1.26426160336 1.35491192341 1.34908819199 1.25392794609 1.10712921619 1.04594516754 1.00000011921 1.00000011921 1.00000011921 1.042932868 1.1811631918 1.25592756271 1.25222873688 1.17314326763 1.03629422188 1.00000011921 1.00000011921 1.00000011921 1.00000011921 1.00000011921 1.04217624664 1.09678173065 1.09470653534 1.0363881588 1.00000011921 1.00000011921 1.00000011921 
1.0 1.0 1.0 1.05611371994 1.11445176601 1.11211287975 1.0494812727 1.00000011921 1.00000011921 1.00000011921 1.0 1.0 1.0490874052 1.18874692917 1.26640200615 1.26233184338 1.18025422096 1.04234683514 1.00000011921 1.00000011921 1.0 1.05591738224 1.11952197552 1.27011954784 1.36186587811 1.35581612587 1.2594178915 1.11183845997 1.05055260658 1.00000011921 1.0 1.10166811943 1.16725647449 1.32105970383 1.41056144238 1.404286623 1.30881404877 1.15916633606 1.0962831974 1.0 1.0 1.12371265888 1.19080638885 1.34386909008 1.42745685577 1.42162561417 1.33097136021 1.18236541748 1.11830413342 1.0 1.0 1.12278079987 1.18976545334 1.34277439117 1.4267616272 1.42090582848 1.32992243767 1.18133926392 1.11748278141 1.0 1.0 1.09899616241 1.16421294212 1.31766366959 1.40760087967 1.40126788616 1.30558156967 1.15620398521 1.0936357975 1.00000011921 1.00000011921 1.05133521557 1.11460661888 1.26426160336 1.35491192341 1.34908819199 1.25392794609 1.10712921619 1.04594516754 1.00000011921 1.00000011921 1.00000011921 1.042932868 1.1811631918 1.25592756271 1.25222873688 1.17314326763 1.03629422188 1.00000011921 1.00000011921 1.00000011921 1.00000011921 1.00000011921 1.04217624664 1.09678173065 1.09470653534 1.0363881588 1.00000011921 1.00000011921 1.00000011921 
