14.007185936 13.7949695587 13.0704059601 11.8902206421 11.0813016891 11.08228302 11.8931350708 13.0728435516 13.7961454391 14.0072078705 21.9962348938 21.6221160889 20.580488205 18.9185142517 17.7975692749 17.7990131378 18.9225578308 20.5839271545 21.6238861084 21.9964370728 29.981546402 29.5268630981 28.596075058 27.2475128174 26.3226451874 26.3238716125 27.2507858276 28.5989875793 29.5286254883 29.9819049835 37.982208252 37.6322593689 37.0156288147 36.1913490295 35.6312675476 35.6320152283 36.1933135986 37.0174865723 37.6334915161 37.9825210571 45.9989891052 45.8698883057 45.6564712524 45.3833351135 45.1992645264 45.1995239258 45.3839797974 45.6571044922 45.8703308105 45.9991073608 54.0210723877 54.1507873535 54.3652572632 54.6397590637 54.8247413635 54.8244934082 54.6391143799 54.3646202087 54.150352478 54.020942688 62.0378074646 62.3881988525 63.0057525635 63.831413269 64.3924331665 64.3916778564 63.8294296265 63.0038948059 62.38697052 62.0374908447 70.0384368896 70.4931716919 71.4245376587 72.7742843628 73.6999588013 73.6987304688 72.7709960938 71.42162323 70.4913864136 70.0380935669 78.023727417 78.3974685669 79.4388961792 81.1010665894 82.2219924927 82.2205505371 81.0970077515 79.4354400635 78.3956832886 78.0235214233 86.0128097534 86.2246170044 86.9480438232 88.1256790161 88.9332046509 88.9321746826 88.122718811 86.9455795288 86.2234420776 86.0127563477 
14.0060157776 13.7877597809 13.0571346283 11.8649597168 11.0508756638 11.0518636703 11.8678922653 13.0595998764 13.7889509201 14.0060529709 21.9948692322 21.6107940674 20.55402565 18.8681259155 17.7248497009 17.7263393402 18.8722305298 20.5575256348 21.6125793457 21.9950847626 29.9801597595 29.5139465332 28.5646247864 27.1821861267 26.2134227753 26.214717865 27.1855659485 28.5676059723 29.5157413483 29.9805221558 37.981098175 37.6217422485 36.989616394 36.1347579956 35.544178009 35.5449790955 36.1368293762 36.9915237427 37.6230201721 37.9814453125 45.998550415 45.8658180237 45.6463050842 45.361782074 45.1675758362 45.1678352356 45.3624572754 45.6469459534 45.8662796021 45.9986763 54.021484375 54.1548728943 54.3754806519 54.6614112854 54.8566017151 54.8563423157 54.660736084 54.3748283386 54.15442276 54.0213661194 62.0389060974 62.3987236023 63.0317878723 63.8880500793 64.4796142578 64.4788208008 63.8859977722 63.0298843384 62.3974609375 62.0385780334 70.0398254395 70.5060882568 71.4559936523 72.8395767212 73.809173584 73.8078613281 72.8361816406 71.4530105591 70.5042877197 70.0394592285 78.0250854492 78.408782959 79.4653320312 81.1514205933 82.2946014404 82.2930984497 81.1472854614 79.4618301392 78.4069900513 78.024887085 86.013961792 86.2318344116 86.9612503052 88.1508483887 88.9635314941 88.9624862671 88.1478729248 86.9587860107 86.2306213379 86.013923645 
14.0059671402 13.7874517441 13.0565576553 11.8638877869 11.0496053696 11.0505905151 11.8668222427 13.0590219498 13.7886400223 14.0060024261 21.9948120117 21.6102981567 20.5528717041 18.8659801483 17.7218780518 17.7233657837 18.8700847626 20.5563697815 21.6120853424 21.9950294495 29.9800949097 29.5133686066 28.5632171631 27.1793060303 26.2082195282 26.2095279694 27.1826896667 28.5661964417 29.5151576996 29.98046875 37.9810638428 37.6212692261 36.9884109497 36.1320457458 35.5393028259 35.5401039124 36.1341094971 36.990322113 37.6225357056 37.9813995361 45.9985351562 45.8656387329 45.6458129883 45.3606338501 45.1657142639 45.1659660339 45.3613204956 45.6464767456 45.8660926819 45.9986686707 54.0215148926 54.1550598145 54.3759689331 54.662563324 54.8584709167 54.8582000732 54.6618804932 54.3753051758 54.1546134949 54.0213775635 62.0389595032 62.3992004395 63.032989502 63.8907775879 64.4845046997 64.4836959839 63.8887062073 63.031085968 62.3979301453 62.0386161804 70.0399017334 70.5066604614 71.4574050903 72.8424758911 73.8143615723 73.8130493164 72.8390655518 71.4543991089 70.5048675537 70.0395202637 78.0251617432 78.4092788696 79.4664840698 81.1535491943 82.2975769043 82.2960662842 81.1494445801 79.4629745483 78.4074783325 78.0249328613 86.0140151978 86.232131958 86.9618530273 88.1519165039 88.9648132324 88.9637832642 88.1489562988 86.9593734741 86.2309570312 86.0139694214 
14.0059623718 13.7874164581 13.0564870834 11.8637514114 11.0494403839 11.0504274368 11.8666877747 13.0589513779 13.78860569 14.0059976578 21.9948120117 21.6102390289 20.5527324677 18.8657207489 17.721534729 17.7230129242 18.8698272705 20.5562343597 21.612033844 21.9950199127 29.980091095 29.5133018494 28.5630512238 27.1789588928 26.2076301575 26.2089347839 27.1823539734 28.566034317 29.5150966644 29.9804592133 37.981048584 37.621219635 36.9882698059 36.1317214966 35.5387001038 35.5394973755 36.1337928772 36.9901733398 37.6224822998 37.9813919067 45.9985351562 45.86561203 45.6457595825 45.3604927063 45.1654701233 45.1657371521 45.3611717224 45.6464118958 45.8660697937 45.998664856 54.0215148926 54.1550750732 54.3760108948 54.6627082825 54.8587036133 54.8584289551 54.662021637 54.3753700256 54.1546325684 54.0213851929 62.0389671326 62.3992385864 63.0331344604 63.8910903931 64.4851074219 64.4842987061 63.8890266418 63.0312347412 62.3979949951 62.0386314392 70.0399017334 70.5067214966 71.457572937 72.8428115845 73.8149490356 73.8136367798 72.8394012451 71.4545822144 70.5049362183 70.0395355225 78.0251464844 78.4093322754 79.4666137695 81.1538009644 82.2979049683 82.2964248657 81.1497116089 79.4631195068 78.4075241089 78.0249328613 86.0140228271 86.232170105 86.9618988037 88.152053833 88.9649658203 88.9639434814 88.1490707397 86.9594497681 86.23097229 86.0139846802 
14.0059623718 13.7874069214 13.0564661026 11.8637084961 11.0493793488 11.050368309 11.8666400909 13.0589323044 13.788599968 14.0059967041 21.9948062897 21.6102256775 20.5526943207 18.865650177 17.7214241028 17.7229118347 18.8697509766 20.5561943054 21.6120166779 21.9950199127 29.9800891876 29.5132808685 28.5630054474 27.1788654327 26.2074756622 26.208776474 27.1822528839 28.5659885406 29.5150794983 29.9804553986 37.9810562134 37.6212043762 36.9882240295 36.1316375732 35.5385513306 35.539352417 36.1337051392 36.9901428223 37.6224594116 37.9813919067 45.9985351562 45.86561203 45.645740509 45.3604621887 45.1654090881 45.1656799316 45.3611335754 45.646396637 45.8660621643 45.998664856 54.0215148926 54.1550750732 54.3760223389 54.6627464294 54.8587646484 54.8584938049 54.6620674133 54.3753814697 54.1546401978 54.0213813782 62.0389595032 62.399269104 63.0331764221 63.8911895752 64.4852600098 64.4844436646 63.8891143799 63.0312576294 62.3980102539 62.0386314392 70.0399017334 70.5067520142 71.4576187134 72.8428878784 73.8151016235 73.8137893677 72.8394927979 71.4546127319 70.5049591064 70.0395355225 78.0251464844 78.4093399048 79.4666595459 81.1538848877 82.2980270386 82.2965087891 81.1497802734 79.4631576538 78.4075393677 78.0249328613 86.0140228271 86.2321777344 86.9619293213 88.15209198 88.9650115967 88.9639892578 88.1491012573 86.9594573975 86.2309875488 86.0139846802 
14.0059633255 13.7874040604 13.0564508438 11.8636770248 11.0493364334 11.0503263474 11.866610527 13.0589141846 13.7885932922 14.0059957504 21.994808197 21.6102199554 20.5526733398 18.8656024933 17.7213611603 17.7228469849 18.8697052002 20.5561733246 21.6120128632 21.9950199127 29.9800891876 29.5132732391 28.5629768372 27.1788158417 26.2073917389 26.208694458 27.1822013855 28.5659656525 29.5150680542 29.9804553986 37.9810523987 37.6211967468 36.9882049561 36.1315879822 35.5384635925 35.5392799377 36.1336517334 36.9901199341 37.6224594116 37.9813919067 45.9985351562 45.8656044006 45.6457328796 45.3604316711 45.1653938293 45.1656494141 45.3611183167 45.6463890076 45.8660736084 45.998664856 54.0215072632 54.1550865173 54.3760452271 54.6627616882 54.8587875366 54.8585205078 54.6620788574 54.3753890991 54.1546363831 54.0213813782 62.0389671326 62.399269104 63.0331916809 63.8912315369 64.4853363037 64.4845352173 63.8891639709 63.031288147 62.3980102539 62.0386314392 70.0399017334 70.5067520142 71.457649231 72.8429641724 73.8151779175 73.8138809204 72.839553833 71.4546432495 70.5049591064 70.0395355225 78.0251617432 78.409362793 79.4666824341 81.1539306641 82.2980728149 82.2965774536 81.1498031616 79.463180542 78.4075469971 78.0249328613 86.0140228271 86.232170105 86.9619445801 88.1521148682 88.965057373 88.9640350342 88.1491546631 86.9594802856 86.2309875488 86.0139846802 
14.0059633255 13.7874011993 13.0564393997 11.8636474609 11.0492982864 11.0502843857 11.8665809631 13.0589027405 13.7885913849 14.0059957504 21.994808197 21.6102161407 20.552652359 18.8655586243 17.7213001251 17.7227878571 18.8696670532 20.5561523438 21.6120052338 21.9950199127 29.980091095 29.5132694244 28.5629558563 27.1787662506 26.2073078156 26.2086162567 27.1821498871 28.565946579 29.5150642395 29.9804553986 37.9810523987 37.6211891174 36.9881858826 36.1315460205 35.5384178162 35.5392112732 36.1336212158 36.9901046753 37.6224517822 37.9813957214 45.9985351562 45.8656005859 45.6457252502 45.3604164124 45.1653671265 45.1656227112 45.3610992432 45.6463813782 45.8660583496 45.998664856 54.0215072632 54.1550865173 54.3760604858 54.662776947 54.8588180542 54.8585510254 54.6620941162 54.3753967285 54.1546440125 54.0213813782 62.0389709473 62.3992805481 63.033203125 63.8912658691 64.4853973389 64.4846038818 63.8892059326 63.0312957764 62.3980255127 62.0386314392 70.0399017334 70.5067443848 71.4576568604 72.8429946899 73.815284729 73.8139648438 72.8395996094 71.4546737671 70.5049591064 70.0395355225 78.0251617432 78.4093704224 79.4666976929 81.1539764404 82.2981414795 82.2966537476 81.1498641968 79.4631881714 78.4075469971 78.0249328613 86.0140228271 86.2322006226 86.9619522095 88.1521530151 88.96509552 88.9640808105 88.1491699219 86.959487915 86.2309875488 86.0139846802 
