2.24123382568 3.93163704872 6.75479793549 9.47178459167 11.0634860992 11.0615186691 9.4659910202 6.74760580063 3.92506027222 2.24092698097 2.23891305923 5.15934228897 9.66998195648 14.3218841553 17.0543823242 17.050945282 14.3117294312 9.65832996368 5.14866399765 2.23821163177 2.24061250687 6.08036565781 11.7348279953 17.5299968719 21.0756244659 21.0710525513 17.5170974731 11.7203330994 6.06673383713 2.2394862175 2.2446038723 6.69578123093 13.0018911362 19.4134521484 23.3586463928 23.3535327911 19.3991737366 12.9858016968 6.6804265976 2.24312543869 2.24732851982 6.99541473389 13.6015319824 20.2743015289 24.3705348969 24.3652076721 20.2594985962 13.5847148895 6.97925806046 2.24566316605 2.24732518196 6.99504613876 13.6008033752 20.273267746 24.3693275452 24.3640022278 20.2584609985 13.5839805603 6.97889184952 2.24565911293 2.24459409714 6.694647789 12.9996080399 19.4101390839 23.3547058105 23.3495941162 19.3958511353 12.9835090637 6.67929410934 2.24311685562 2.24060344696 6.07843780518 11.7307481766 17.523815155 21.0680065155 21.0634346008 17.5108985901 11.7162466049 6.06480503082 2.23947811127 2.23891401291 5.15667247772 9.66372203827 14.3119430542 17.0419178009 17.0384597778 14.3017616272 9.65205574036 5.14599609375 2.2382133007 2.24124312401 3.92835140228 6.74686193466 9.45884227753 11.0477609634 11.0457572937 9.45301151276 6.73966121674 3.92177844048 2.24093604088 
2.24181342125 3.90449142456 6.71197891235 9.42950630188 11.0177326202 11.0157728195 9.42371368408 6.70479679108 3.89798736572 2.24151325226 2.23941087723 5.13074302673 9.62872886658 14.2784538269 17.0049800873 17.0015563965 14.2683162689 9.6170797348 5.1201300621 2.23872351646 2.24094343185 6.05159091949 11.6909189224 17.4802780151 21.0414981842 21.0368824005 17.4673748016 11.6764450073 6.03801727295 2.239839077 2.24482655525 6.66704654694 12.9541864395 19.3615398407 23.3533573151 23.3481349945 19.3471889496 12.9381351471 6.65175008774 2.24337244034 2.24750804901 6.96695280075 13.5518808365 20.2241210938 24.3813056946 24.3758468628 20.2092037201 13.5351133347 6.95085334778 2.24586844444 2.24750447273 6.96658420563 13.5511512756 20.2230834961 24.3800811768 24.3746299744 20.2081565857 13.5343837738 6.95048666 2.24586510658 2.24481749535 6.66591310501 12.9519109726 19.3582210541 23.3493595123 23.3441333771 19.3438644409 12.9358520508 6.65061712265 2.24336433411 2.24093556404 6.04966211319 11.6868467331 17.474111557 21.0338134766 21.0291862488 17.4611968994 11.672369957 6.03608798981 2.23983049393 2.23941206932 5.128074646 9.62247180939 14.2685260773 16.992521286 16.989074707 14.2583608627 9.6108083725 5.11746120453 2.23872566223 2.24182200432 3.90121746063 6.70404434204 9.41655254364 11.0020198822 11.0000181198 9.41072463989 6.6968536377 3.89471840858 2.24152231216 
2.24183726311 3.90338182449 6.71024847031 9.42781829834 11.0159196854 11.0139579773 9.42202854156 6.70306634903 3.89688110352 2.24153709412 2.23943138123 5.12958240509 9.62708568573 14.2767524719 17.003068924 16.9996433258 14.266617775 9.6154384613 5.11897039413 2.23874378204 2.24095726013 6.05042219162 11.6891679764 17.4783420563 21.0397758484 21.035161972 17.4654369354 11.6746988297 6.03684854507 2.23985242844 2.24483537674 6.66586589813 12.9522562027 19.3592319489 23.3530673981 23.3478336334 19.3448810577 12.9362049103 6.65057325363 2.24338340759 2.24751520157 6.96577119827 13.5498170853 20.2216815948 24.381975174 24.3765220642 20.2067508698 13.5330533981 6.94967603683 2.24587631226 2.24751138687 6.96540355682 13.5490856171 20.2206478119 24.3807487488 24.3752937317 20.2057113647 13.5323171616 6.94930934906 2.24587321281 2.24482631683 6.66473340988 12.9499778748 19.3559131622 23.3490638733 23.3438301086 19.3415603638 12.9339256287 6.6494383812 2.24337434769 2.24094867706 6.0484919548 11.6850986481 17.4721736908 21.0320854187 21.0274658203 17.4592590332 11.6706180573 6.03492069244 2.23984503746 2.23943257332 5.12691307068 9.62082672119 14.266825676 16.9906101227 16.9871616364 14.2566633224 9.609167099 5.1163020134 2.23874688148 2.24184608459 3.90010905266 6.70231485367 9.41486549377 11.0002088547 10.9982070923 9.40903568268 6.69512319565 3.89361190796 2.24154615402 
2.24183917046 3.90328383446 6.71010446548 9.42769527435 11.0157909393 11.0138311386 9.42190361023 6.70292234421 3.89678359032 2.24153900146 2.23943305016 5.12948656082 9.62696552277 14.2766513824 17.002954483 16.9995307922 14.2665147781 9.61531543732 5.11887598038 2.23874616623 2.24095869064 6.0503320694 11.6890516281 17.4782333374 21.039691925 21.0350723267 17.4653320312 11.674580574 6.03675937653 2.23985362053 2.244836092 6.66578054428 12.9521274567 19.3590984344 23.3531532288 23.3479232788 19.3447475433 12.9360799789 6.65048742294 2.24338412285 2.24751639366 6.96568775177 13.5496788025 20.221529007 24.3821983337 24.3767414093 20.2065982819 13.5329141617 6.94959497452 2.24587774277 2.24751234055 6.96532058716 13.5489501953 20.220495224 24.3809757233 24.3755149841 20.2055644989 13.5321846008 6.94922637939 2.24587416649 2.24482727051 6.66464710236 12.9498538971 19.3557777405 23.3491535187 23.343919754 19.3414268494 12.933795929 6.64935445786 2.2433757782 2.24094986916 6.04840183258 11.6849794388 17.4720630646 21.031999588 21.0273761749 17.4591464996 11.67050457 6.03483057022 2.23984646797 2.2394349575 5.12681770325 9.62070846558 14.2667255402 16.9904918671 16.9870491028 14.2565593719 9.60904598236 5.11620616913 2.23874902725 2.24184799194 3.90001177788 6.70217227936 9.41473960876 11.0000801086 10.9980783463 9.40891170502 6.69497823715 3.89351439476 2.24154829979 
2.24183964729 3.90328001976 6.71011161804 9.42771720886 11.0158205032 11.0138616562 9.42192554474 6.70292901993 3.89678001404 2.24153971672 2.23943352699 5.12949228287 9.62698841095 14.2766942978 17.0030059814 16.9995822906 14.2665567398 9.61534118652 5.11887979507 2.23874592781 2.24095845222 6.05034351349 11.6890888214 17.4782962799 21.0397720337 21.0351486206 17.4653930664 11.674618721 6.03677082062 2.23985433578 2.24483680725 6.66579818726 12.952170372 19.3591709137 23.3532867432 23.3480606079 19.3448200226 12.9361209869 6.65050363541 2.24338388443 2.2475168705 6.96570920944 13.5497245789 20.2216033936 24.3823738098 24.3769111633 20.2066745758 13.5329618454 6.94961357117 2.24587750435 2.24751329422 6.96533918381 13.5489959717 20.2205638885 24.3811473846 24.3756847382 20.2056369781 13.5322322845 6.94924545288 2.24587440491 2.24482798576 6.66466474533 12.9498939514 19.3558521271 23.3492851257 23.3440532684 19.3414955139 12.9338417053 6.64937067032 2.24337553978 2.24095010757 6.04841566086 11.6850175858 17.4721279144 21.032081604 21.0274524689 17.4592113495 11.6705379486 6.03484344482 2.23984599113 2.2394349575 5.12682294846 9.62073326111 14.2667703629 16.9905490875 16.9871006012 14.2566013336 9.60907077789 5.11621332169 2.23874878883 2.24184823036 3.90000772476 6.70217704773 9.4147605896 11.0001049042 10.9981040955 9.4089345932 6.69498348236 3.8935110569 2.24154853821 
2.24183940887 3.90329194069 6.71014022827 9.42776203156 11.015873909 11.0139141083 9.42196941376 6.70295810699 3.89679169655 2.2415394783 2.23943352699 5.12951183319 9.62703800201 14.276763916 17.0030841827 16.9996604919 14.2666244507 9.61538887024 5.11890029907 2.23874616623 2.24095916748 6.05037212372 11.6891498566 17.4783878326 21.0398750305 21.0352611542 17.4654808044 11.6746797562 6.03680086136 2.2398545742 2.24483680725 6.66583156586 12.9522409439 19.3592700958 23.3534317017 23.3481998444 19.3449172974 12.9361934662 6.65053796768 2.24338412285 2.2475168705 6.96574497223 13.5498008728 20.2217159271 24.3825359344 24.3770771027 20.2067947388 13.5330371857 6.94964933395 2.24587774277 2.2475130558 6.96537637711 13.549074173 20.2206821442 24.3813095093 24.3758506775 20.2057533264 13.5323057175 6.94928359985 2.24587464333 2.24482727051 6.66469907761 12.9499664307 19.3559513092 23.3494281769 23.3441963196 19.3415966034 12.9339132309 6.64940643311 2.2433757782 2.24095058441 6.04844331741 11.6850776672 17.4722156525 21.0321884155 21.0275650024 17.4593029022 11.6705989838 6.03487205505 2.23984646797 2.2394349575 5.12684297562 9.62077713013 14.2668361664 16.9906215668 16.9871845245 14.2566709518 9.60911846161 5.11623191833 2.23874878883 2.24184823036 3.90001821518 6.7022061348 9.41480636597 11.000161171 10.9981594086 9.40897941589 6.69501209259 3.89352273941 2.24154877663 
2.24183940887 3.9033062458 6.71017313004 9.4278087616 11.0159320831 11.0139703751 9.42201709747 6.70298814774 3.89680480957 2.2415394783 2.23943281174 5.1295337677 9.62708568573 14.2768354416 17.0031681061 16.9997425079 14.2666969299 9.61543750763 5.11892318726 2.23874616623 2.24095916748 6.05040168762 11.6892118454 17.4784755707 21.0399837494 21.035364151 17.4655742645 11.6747455597 6.03682851791 2.23985433578 2.24483680725 6.66586780548 12.9523134232 19.359380722 23.3535747528 23.3483409882 19.3450241089 12.9362649918 6.65057373047 2.24338436127 2.24751710892 6.96578407288 13.5498800278 20.2218341827 24.3827018738 24.3772411346 20.2069091797 13.5331144333 6.94969081879 2.24587774277 2.24751329422 6.96541690826 13.5491504669 20.2207984924 24.3814754486 24.3760147095 20.2058677673 13.5323839188 6.94932079315 2.24587464333 2.24482774734 6.66473579407 12.9500417709 19.3560619354 23.3495731354 23.3443431854 19.3417053223 12.9339838028 6.64944028854 2.2433757782 2.24095034599 6.04847240448 11.6851406097 17.4723072052 21.0322914124 21.027671814 17.4593925476 11.6706647873 6.03490114212 2.23984599113 2.2394349575 5.12686491013 9.62082672119 14.266907692 16.9907035828 16.9872646332 14.2567434311 9.60916614532 5.11625480652 2.23874902725 2.24184799194 3.90003204346 6.70223808289 9.41485214233 11.0002183914 10.998216629 9.40902614594 6.69504499435 3.89353609085 2.24154829979 
