0.986501395702 1.01701509953 1.04425692558 1.15337455273 1.21751892567 1.21433353424 1.14610433578 1.04288208485 1.01530253887 0.990936994553 0.982083976269 1.05368232727 1.12929439545 1.28191280365 1.36089801788 1.35675537586 1.27222335339 1.11739182472 1.05149507523 0.987823605537 0.9803840518 1.12599921227 1.21135449409 1.36806094646 1.43840384483 1.43516790867 1.35771548748 1.19881844521 1.11880993843 0.986257851124 0.977609038353 1.18116676807 1.26721811295 1.41125738621 1.46867382526 1.466183424 1.40301299095 1.25426793098 1.17411458492 0.983701884747 0.975803136826 1.20773756504 1.29424846172 1.42715847492 1.47839391232 1.47629463673 1.42019236088 1.28112256527 1.20072162151 0.981991946697 0.975774168968 1.20653522015 1.29298472404 1.42657315731 1.47814655304 1.47602808475 1.41953647137 1.27985584736 1.19953358173 0.981972336769 0.977508306503 1.17750191689 1.26341342926 1.40902626514 1.46751499176 1.46496629715 1.40059185028 1.25046479702 1.17048060894 0.983627438545 0.980206370354 1.11990535259 1.20514786243 1.36220180988 1.43459153175 1.43125605583 1.35153949261 1.19260346889 1.11270189285 0.986132502556 0.981996953487 1.05267643929 1.12165534496 1.27288925648 1.35000622272 1.34589314461 1.26339232922 1.1098856926 1.05036890507 0.987804949284 0.986753344536 1.01629459858 1.04252946377 1.13473582268 1.19774079323 1.19459950924 1.12769973278 1.04107618332 1.01464271545 0.991187572479 
0.986340045929 1.01416087151 1.04028499126 1.14791071415 1.21138048172 1.20819449425 1.14064049721 1.03890800476 1.01249396801 0.990699648857 0.981919944286 1.05003428459 1.12486493587 1.27674520016 1.35550701618 1.35113203526 1.26698279381 1.1130092144 1.04785442352 0.987611532211 0.980134606361 1.12197387218 1.20676159859 1.36379301548 1.44955980778 1.44409251213 1.35260605812 1.19431853294 1.11477923393 0.986040174961 0.977150976658 1.17726123333 1.26323115826 1.41824936867 1.499609828 1.49430799484 1.40629851818 1.25042653084 1.17020463943 0.983370125294 0.975185036659 1.20404028893 1.29064154625 1.44330728054 1.51843464375 1.5135999918 1.43114590645 1.27778601646 1.19702589512 0.981536924839 0.975156605244 1.20282363892 1.28932368755 1.44207537174 1.51760947704 1.51274549961 1.42987656593 1.27646863461 1.19582486153 0.981516361237 0.977055549622 1.17357063293 1.25931084156 1.41443324089 1.49648833275 1.49113154411 1.40253531933 1.24651110172 1.16654682159 0.983299195766 0.97996455431 1.11587488651 1.20049798489 1.35720276833 1.44269931316 1.43728756905 1.34612298012 1.18804657459 1.10866773129 0.985919713974 0.981840610504 1.04903078079 1.1172362566 1.26775157452 1.34467959404 1.34045159817 1.25818693638 1.10550916195 1.04673397541 0.987597227097 0.986593127251 1.013448596 1.03853738308 1.12928020954 1.19162833691 1.18848705292 1.12224268913 1.03708326817 1.01184511185 0.990948319435 
0.986339569092 1.01414966583 1.04026901722 1.14788818359 1.21135473251 1.20816898346 1.14061796665 1.03889214993 1.01248311996 0.990698933601 0.981919765472 1.05001950264 1.12484693527 1.27672326565 1.35548317432 1.35110831261 1.26696074009 1.11299109459 1.04783964157 0.98761099577 0.980134367943 1.12195682526 1.20674157143 1.36376905441 1.44953322411 1.4440652132 1.35258173943 1.19429850578 1.11476230621 0.986039876938 0.977149546146 1.17724478245 1.26321315765 1.41823256016 1.49964559078 1.49430584908 1.40628099442 1.25040948391 1.17018795013 0.983369469643 0.975182771683 1.20402562618 1.2906293869 1.44332909584 1.51885557175 1.51392662525 1.43114757538 1.27777457237 1.19701123238 0.981535196304 0.975154459476 1.20280838013 1.28931105137 1.44208037853 1.51799809933 1.51304125786 1.42987310886 1.27645659447 1.19580996037 0.981514632702 0.977054357529 1.17355370522 1.25929224491 1.41441476345 1.49648606777 1.49110615253 1.402515769 1.2464928627 1.16653013229 0.983298301697 0.979964196682 1.11585795879 1.2004776001 1.35717856884 1.44267356396 1.43726146221 1.34609854221 1.1880261898 1.1086512804 0.985919475555 0.981840312481 1.04901611805 1.11721801758 1.2677295208 1.34465622902 1.34042835236 1.25816500187 1.10549139977 1.04671943188 0.987596511841 0.986593008041 1.01343727112 1.03852152824 1.12925755978 1.19160270691 1.18846142292 1.12222015858 1.03706777096 1.01183402538 0.990947365761 
0.986339688301 1.01415014267 1.04026961327 1.14788973331 1.21135663986 1.20817065239 1.14061939716 1.03889298439 1.01248347759 0.990698814392 0.981919527054 1.05002045631 1.12484812737 1.27672481537 1.35548496246 1.35110986233 1.2669621706 1.11299228668 1.04784071445 0.98761099577 0.980134129524 1.12195777893 1.20674288273 1.36377072334 1.44953477383 1.44406712055 1.35258352757 1.1943000555 1.11476325989 0.986039757729 0.977149426937 1.17724597454 1.263215065 1.41823446751 1.49964869022 1.49430859089 1.40628314018 1.25041139126 1.17018949986 0.983369112015 0.975182414055 1.20402729511 1.29063165188 1.44333875179 1.51886510849 1.51393675804 1.43114995956 1.27777695656 1.1970127821 0.981534838676 0.975154042244 1.20281028748 1.28931331635 1.44209039211 1.51800787449 1.51305139065 1.42987561226 1.27645874023 1.19581115246 0.981514394283 0.977053880692 1.17355513573 1.25929391384 1.41441702843 1.49648880959 1.49110841751 1.40251791477 1.24649500847 1.16653180122 0.983297884464 0.979964017868 1.11585915089 1.20047926903 1.35718035698 1.44267570972 1.43726336956 1.34610021114 1.18802785873 1.10865235329 0.985919356346 0.981840074062 1.04901683331 1.11721920967 1.26773095131 1.34465813637 1.34042978287 1.25816643238 1.10549235344 1.04672002792 0.987596511841 0.986592710018 1.01343774796 1.03852200508 1.12925922871 1.19160449505 1.18846309185 1.1222217083 1.0370682478 1.01183438301 0.990947246552 
0.986339688301 1.01415061951 1.04027044773 1.14789104462 1.211358428 1.20817220211 1.14062058926 1.03889369965 1.01248371601 0.990698814392 0.981919407845 1.05002117157 1.12484920025 1.27672624588 1.35548663139 1.35111129284 1.26696360111 1.11299312115 1.04784119129 0.987610757351 0.980133891106 1.12195897102 1.20674455166 1.36377239227 1.44953680038 1.4440690279 1.3525851965 1.19430160522 1.11476445198 0.98603951931 0.977149128914 1.17724740505 1.26321709156 1.41823673248 1.49965679646 1.49431216717 1.40628528595 1.25041306019 1.17019104958 0.983368873596 0.975181996822 1.20402872562 1.29063355923 1.44334840775 1.51887512207 1.51394641399 1.43115198612 1.27777886391 1.19701445103 0.981534600258 0.975153923035 1.20281171799 1.2893153429 1.44210064411 1.51801776886 1.51306092739 1.42987799644 1.27646124363 1.19581305981 0.981514155865 0.977053880692 1.17355656624 1.25929605961 1.41441905499 1.49649226665 1.49111068249 1.40252017975 1.24649643898 1.16653299332 0.983297765255 0.979963839054 1.11586010456 1.20048058033 1.35718226433 1.44267761707 1.43726539612 1.34610188007 1.18802940845 1.10865342617 0.985919117928 0.981840193272 1.04901778698 1.11722016335 1.26773238182 1.34465968609 1.3404314518 1.25816786289 1.10549354553 1.04672086239 0.987596452236 0.986592769623 1.013438344 1.03852295876 1.12926065922 1.19160604477 1.18846476078 1.1222230196 1.03706884384 1.01183485985 0.990947365761 
0.986339569092 1.01415109634 1.04027092457 1.14789223671 1.21136009693 1.20817387104 1.14062201977 1.03889429569 1.01248407364 0.990698754787 0.981919467449 1.05002164841 1.12485027313 1.27672767639 1.3554880619 1.35111284256 1.26696479321 1.11299431324 1.04784190655 0.987610816956 0.980133652687 1.12196016312 1.20674586296 1.3637740612 1.44953882694 1.44407069683 1.35258698463 1.19430291653 1.11476564407 0.986039400101 0.977148771286 1.17724895477 1.26321876049 1.41823875904 1.49966585636 1.49431681633 1.40628755093 1.25041508675 1.17019248009 0.983368754387 0.975181698799 1.20403015614 1.29063618183 1.44335782528 1.51888489723 1.51395618916 1.43115437031 1.27778077126 1.19701600075 0.981534421444 0.975153565407 1.20281338692 1.28931772709 1.44211065769 1.51802718639 1.51307034492 1.42988073826 1.27646315098 1.19581449032 0.981513798237 0.977053403854 1.17355787754 1.25929784775 1.41442084312 1.49649548531 1.49111282825 1.40252244473 1.24649834633 1.16653442383 0.983297586441 0.979963958263 1.11586141586 1.20048189163 1.35718405247 1.44267940521 1.43726706505 1.346103549 1.18803071976 1.10865437984 0.985918998718 0.981839954853 1.04901826382 1.11722135544 1.26773381233 1.34466099739 1.34043288231 1.25816905499 1.10549449921 1.04672157764 0.987596273422 0.986592769623 1.01343846321 1.03852319717 1.1292617321 1.1916077137 1.18846666813 1.1222243309 1.0370695591 1.01183533669 0.990947365761 
0.986339688301 1.01415145397 1.04027163982 1.1478934288 1.21136164665 1.20817577839 1.14062309265 1.03889477253 1.01248455048 0.990698814392 0.981919169426 1.05002260208 1.12485134602 1.27672922611 1.35548961163 1.35111439228 1.26696622372 1.11299514771 1.0478426218 0.987610757351 0.980133593082 1.12196099758 1.20674729347 1.36377573013 1.44954049587 1.44407260418 1.35258841515 1.19430422783 1.11476659775 0.986039280891 0.977148652077 1.17725038528 1.26322078705 1.41824138165 1.49967575073 1.49432504177 1.40628957748 1.25041675568 1.1701939106 0.983368515968 0.975181460381 1.20403206348 1.29063820839 1.44336664677 1.51889467239 1.5139657259 1.43115878105 1.27778279781 1.19701766968 0.981534183025 0.975153267384 1.20281505585 1.28931975365 1.44211959839 1.51803684235 1.51308012009 1.42988312244 1.27646529675 1.19581615925 0.981513679028 0.977053284645 1.17355942726 1.25929963589 1.41442346573 1.49649977684 1.49111533165 1.40252435207 1.24650001526 1.16653585434 0.983297467232 0.97996366024 1.11586248875 1.20048356056 1.35718584061 1.44268131256 1.43726921082 1.34610545635 1.18803191185 1.10865533352 0.9859187603 0.981839954853 1.04901885986 1.11722242832 1.26773500443 1.34466266632 1.34043443203 1.25817060471 1.10549533367 1.0467222929 0.987596333027 0.986592531204 1.01343882084 1.03852415085 1.12926316261 1.19160938263 1.18846833706 1.1222256422 1.03707027435 1.01183569431 0.990947306156 
