0.987088441849 1.01504337788 1.0397362709 1.13279545307 1.202870965 1.19901823997 1.12454652786 1.03845047951 1.01338636875 0.991383194923 0.982445538044 1.05076038837 1.11030101776 1.28551387787 1.37423253059 1.3693999052 1.27398753166 1.09903931618 1.04853701591 0.988068580627 0.981184780598 1.11579859257 1.20514261723 1.38230288029 1.47623050213 1.4705119133 1.37012517452 1.19292652607 1.10816895962 0.986747145653 0.978260695934 1.17875874043 1.26871907711 1.43987107277 1.52347195148 1.51848351955 1.42721199989 1.2567807436 1.1711730957 0.984155416489 0.976060569286 1.20854496956 1.29873716831 1.46387469769 1.53929531574 1.53486502171 1.45176517963 1.28695416451 1.20092093945 0.98216933012 0.976032555103 1.20714700222 1.29728043079 1.46279513836 1.53870213032 1.53423845768 1.45062553883 1.28548943996 1.19952344894 0.982147276402 0.978156328201 1.17439687252 1.26424455643 1.43598604202 1.52093720436 1.51586985588 1.42330658436 1.25225543976 1.1668227911 0.984071731567 0.980993270874 1.10825932026 1.19751739502 1.37507760525 1.46916139126 1.46339654922 1.36296164989 1.18526005745 1.10069334507 0.986612677574 0.982356965542 1.04974579811 1.10155284405 1.27490246296 1.36199510098 1.35729646683 1.26349425316 1.09081423283 1.04752647877 0.988046586514 0.987364947796 1.01435184479 1.03811430931 1.10805583 1.17451453209 1.17073631287 1.10013353825 1.03685128689 1.01275968552 0.991649270058 
0.987069666386 1.01454281807 1.0390393734 1.1317615509 1.20165038109 1.19780194759 1.12351620197 1.03775346279 1.01289403439 0.991348087788 0.982434511185 1.05007743835 1.10948181152 1.28447985649 1.37309539318 1.36825871468 1.27294516563 1.09822452068 1.04785680771 0.988044142723 0.981179475784 1.11498081684 1.20420527458 1.38115251064 1.47531366348 1.46934628487 1.3689622879 1.19200134277 1.10735106468 0.986739218235 0.978240191936 1.17788863182 1.26774048805 1.43892562389 1.52790927887 1.52193284035 1.42625796795 1.25583148003 1.17030286789 0.984146475792 0.976017177105 1.20767784119 1.29783916473 1.46435964108 1.54754936695 1.54194116592 1.4514234066 1.2860943079 1.20005428791 0.982148468494 0.975989162922 1.20627868176 1.29637372494 1.46311533451 1.54670071602 1.54106712341 1.45017755032 1.28462076187 1.19865500927 0.982126891613 0.97813642025 1.17352569103 1.26325106621 1.43497252464 1.52459728718 1.51858258247 1.42230176926 1.25129246712 1.16595196724 0.984063446522 0.980989038944 1.10744535923 1.19657838345 1.37391638756 1.46798062325 1.4620860815 1.36178934574 1.18433272839 1.09987974167 0.986605107784 0.982347369194 1.04906487465 1.10073721409 1.27387690544 1.36088252068 1.35617983341 1.26246416569 1.09000277519 1.04684901237 0.988022744656 0.987345933914 1.01385366917 1.03741502762 1.1070253849 1.17330527306 1.16953039169 1.09910607338 1.03615236282 1.01227068901 0.991613745689 
0.987069785595 1.01454305649 1.03903996944 1.13176262379 1.20165157318 1.19780373573 1.12351751328 1.03775417805 1.01289439201 0.991348206997 0.98243445158 1.05007827282 1.1094827652 1.28448081017 1.37309682369 1.36825990677 1.27294659615 1.09822547436 1.04785764217 0.988043963909 0.981179177761 1.11498177052 1.20420622826 1.38115406036 1.47531533241 1.46934771538 1.36896383762 1.19200265408 1.10735201836 0.986739099026 0.978240072727 1.17788982391 1.26774203777 1.43892753124 1.52791118622 1.52193486691 1.4262598753 1.25583338737 1.17030405998 0.984146475792 0.976016759872 1.2076792717 1.29784083366 1.46436226368 1.54756391048 1.54195201397 1.45142579079 1.28609633446 1.20005571842 0.982148230076 0.975989043713 1.20627999306 1.2963757515 1.46311748028 1.5467145443 1.54107701778 1.45018005371 1.28462255001 1.19865655899 0.982126712799 0.978136181831 1.17352724075 1.26325273514 1.4349745512 1.52459979057 1.5185842514 1.4223035574 1.25129389763 1.16595315933 0.984063386917 0.980988919735 1.1074463129 1.19657933712 1.37391769886 1.46798217297 1.46208763123 1.36179101467 1.18433392048 1.09988057613 0.98660492897 0.982347071171 1.0490654707 1.10073816776 1.27387821674 1.36088371277 1.35618126392 1.26246523857 1.09000372887 1.04684972763 0.988022625446 0.98734587431 1.01385402679 1.03741574287 1.10702645779 1.17330670357 1.1695318222 1.09910750389 1.03615283966 1.01227104664 0.991613745689 
0.987069547176 1.01454365253 1.03904092312 1.1317640543 1.20165348053 1.19780540466 1.12351882458 1.0377548933 1.01289486885 0.991348087788 0.98243445158 1.05007886887 1.10948359966 1.28448224068 1.37309861183 1.36826133728 1.27294802666 1.09822654724 1.04785835743 0.9880438447 0.98117929697 1.11498272419 1.20420765877 1.38115572929 1.47531723976 1.46934986115 1.36896574497 1.19200396538 1.10735321045 0.986739039421 0.978239715099 1.17789125443 1.26774358749 1.43892979622 1.52791333199 1.52193665504 1.42626202106 1.2558349371 1.17030549049 0.984146356583 0.976016581059 1.20768117905 1.29784321785 1.46436476707 1.54757273197 1.54196107388 1.4514285326 1.2860981226 1.20005714893 0.982148230076 0.975988566875 1.20628154278 1.29637753963 1.46312022209 1.54672336578 1.54108572006 1.45018279552 1.28462433815 1.19865822792 0.982126533985 0.978136003017 1.17352855206 1.26325440407 1.43497669697 1.52460193634 1.51858687401 1.42230558395 1.25129580498 1.16595458984 0.984063506126 0.980988800526 1.10744726658 1.19658064842 1.37391924858 1.46798443794 1.46208941936 1.36179280281 1.18433523178 1.09988152981 0.986604988575 0.98234719038 1.04906618595 1.10073888302 1.27387964725 1.36088550091 1.35618293285 1.26246643066 1.09000468254 1.04685020447 0.988022565842 0.987345695496 1.013854146 1.03741645813 1.1070278883 1.1733083725 1.16953361034 1.09910869598 1.03615343571 1.01227140427 0.991613864899 
0.987069785595 1.01454389095 1.03904139996 1.1317653656 1.20165538788 1.19780695438 1.12352013588 1.03775572777 1.01289522648 0.991348147392 0.982434391975 1.05007994175 1.10948455334 1.2844837904 1.37310016155 1.36826324463 1.27294921875 1.09822762012 1.04785895348 0.9880438447 0.981178879738 1.11498391628 1.2042093277 1.38115763664 1.47531914711 1.46935200691 1.36896765232 1.19200539589 1.10735428333 0.986738860607 0.978239536285 1.17789268494 1.26774573326 1.4389320612 1.52791643143 1.52193892002 1.42626428604 1.25583672523 1.17030668259 0.984145998955 0.976016521454 1.20768237114 1.29784500599 1.4643676281 1.54758214951 1.54197001457 1.45143127441 1.28610026836 1.20005893707 0.982147991657 0.975988447666 1.2062830925 1.29637980461 1.46312272549 1.54673206806 1.54109466076 1.45018529892 1.28462636471 1.19865965843 0.982126533985 0.978135824203 1.17352998257 1.26325643063 1.43497884274 1.52460408211 1.5185893774 1.42230772972 1.25129759312 1.16595590115 0.984063148499 0.980988562107 1.10744857788 1.19658195972 1.37392163277 1.46798610687 1.46209168434 1.36179471016 1.18433666229 1.09988260269 0.986604750156 0.982347011566 1.04906702042 1.10074007511 1.27388107777 1.36088705063 1.35618436337 1.26246786118 1.09000563622 1.04685115814 0.988022506237 0.9873457551 1.01385474205 1.03741693497 1.1070291996 1.17331016064 1.16953527927 1.0991101265 1.03615427017 1.01227164268 0.991613686085 
0.987069666386 1.01454424858 1.03904223442 1.1317666769 1.20165705681 1.19780886173 1.12352144718 1.03775620461 1.01289570332 0.991348028183 0.982434213161 1.05008041859 1.10948586464 1.2844851017 1.37310194969 1.36826491356 1.27295064926 1.09822869301 1.04785966873 0.988043904305 0.981178939342 1.11498486996 1.20421051979 1.38115954399 1.47532105446 1.46935391426 1.36896920204 1.19200670719 1.10735535622 0.986738860607 0.978239357471 1.17789411545 1.26774740219 1.43893432617 1.5279225111 1.52194178104 1.42626655102 1.25583863258 1.17030835152 0.984145879745 0.976016163826 1.20768404007 1.29784715176 1.46436989307 1.54759073257 1.54197883606 1.45143425465 1.28610229492 1.20006000996 0.982147634029 0.975988328457 1.20628488064 1.29638171196 1.46312522888 1.54674100876 1.54110336304 1.45018792152 1.28462862968 1.19866108894 0.982126057148 0.978135764599 1.17353129387 1.26325833797 1.4349809885 1.52460682392 1.51859092712 1.42230987549 1.25129926205 1.16595709324 0.984063029289 0.980988562107 1.10744953156 1.19658350945 1.37392318249 1.46798825264 1.46209335327 1.36179614067 1.18433773518 1.09988355637 0.986604630947 0.982346951962 1.04906785488 1.10074102879 1.27388238907 1.36088883877 1.35618638992 1.26246929169 1.09000658989 1.04685175419 0.988022446632 0.987345635891 1.01385509968 1.03741776943 1.10703063011 1.17331194878 1.1695369482 1.09911155701 1.03615498543 1.01227223873 0.991613686085 
0.987069606781 1.01454484463 1.03904283047 1.13176822662 1.20165872574 1.19781005383 1.12352275848 1.03775691986 1.01289606094 0.991348028183 0.982434213161 1.05008113384 1.1094865799 1.28448629379 1.37310361862 1.36826634407 1.27295219898 1.09822976589 1.04786062241 0.988043785095 0.98117852211 1.11498630047 1.2042119503 1.38116121292 1.47532296181 1.4693557024 1.36897099018 1.19200801849 1.1073564291 0.986738681793 0.978238999844 1.17789554596 1.26774930954 1.43893635273 1.52793002129 1.52194440365 1.42626869678 1.2558401823 1.17030990124 0.984145760536 0.976015925407 1.20768558979 1.29784929752 1.46437251568 1.5476000309 1.54198765755 1.45143675804 1.28610432148 1.2000619173 0.982147634029 0.975988149643 1.20628631115 1.29638385773 1.46312773228 1.54674994946 1.54111230373 1.45019042492 1.28463041782 1.19866275787 0.982126057148 0.978135466576 1.17353272438 1.26326012611 1.43498289585 1.52460980415 1.51859271526 1.42231225967 1.2513011694 1.16595876217 0.98406291008 0.980988502502 1.10745060444 1.19658458233 1.37392473221 1.46798980236 1.46209526062 1.36179804802 1.18433904648 1.09988498688 0.986604630947 0.982346951962 1.04906845093 1.10074222088 1.27388381958 1.36089003086 1.35618782043 1.2624707222 1.09000754356 1.04685235023 0.988022327423 0.987345635891 1.01385545731 1.03741824627 1.1070318222 1.1733134985 1.16953861713 1.09911298752 1.03615546227 1.01227283478 0.991613686085 
