2.24182105064 3.94341349602 6.83884477615 9.59646511078 11.1019239426 11.1000795364 9.59086704254 6.83139324188 3.93674325943 2.24150562286 2.23976254463 5.17600727081 9.7258272171 14.2418746948 16.7149848938 16.7118759155 14.2326927185 9.71396636963 5.16529464722 2.23904752731 2.24146318436 6.05818939209 11.7184362411 17.2715339661 20.4293956757 20.4253425598 17.2600078583 11.7038812637 6.04461050034 2.24033975601 2.24526977539 6.6510887146 12.9428749084 19.053730011 22.570602417 22.5660629272 19.0409736633 12.9268074036 6.63580608368 2.2438158989 2.24792456627 6.94229078293 13.5220251083 19.8725566864 23.5301532745 23.5254154205 19.8593063354 13.5052814484 6.92622184753 2.24629282951 2.24792075157 6.94193315506 13.5213165283 19.8715686798 23.5289974213 23.5242671967 19.8583087921 13.5045728683 6.92586565018 2.24628925323 2.2452609539 6.64998531342 12.9406633377 19.050579071 22.5668773651 22.562330246 19.0378170013 12.9245929718 6.63470458984 2.24380779266 2.24145436287 6.05635261536 11.7144966125 17.2656803131 20.422290802 20.4182281494 17.254152298 11.6999340057 6.04277467728 2.24033236504 2.23976254463 5.1733379364 9.71975040436 14.232465744 16.7034568787 16.7003364563 14.2232723236 9.70788288116 5.16262865067 2.23904824257 2.24182915688 3.94009280205 6.83078432083 9.58329582214 11.0863256454 11.084438324 9.5776720047 6.82332706451 3.93342757225 2.24151515961 
2.24194836617 3.93430447578 6.82133436203 9.57478523254 11.0787124634 11.0768718719 9.56919574738 6.81389713287 3.92766189575 2.24163651466 2.23987174034 5.16494464874 9.70550632477 14.2171134949 16.6892948151 16.6861877441 14.2079401016 9.69366168976 5.15426158905 2.23916172981 2.24151706696 6.04642868042 11.6969404221 17.2455005646 20.4044418335 20.4003791809 17.2339801788 11.6824026108 6.03287982941 2.24040222168 2.2452890873 6.63950443268 12.9214391708 19.0295639038 22.5568828583 22.5523071289 19.0167980194 12.9053878784 6.62424945831 2.24384379387 2.24793386459 6.93127298355 13.5017700195 19.8516368866 23.5292453766 23.5244560242 19.8383541107 13.4850502014 6.91522979736 2.24631023407 2.2479300499 6.9309129715 13.5010623932 19.850643158 23.5280742645 23.5232906342 19.8373584747 13.4843378067 6.91486978531 2.24630689621 2.24527978897 6.63840198517 12.9192199707 19.0264053345 22.5531139374 22.5485343933 19.0136318207 12.9031763077 6.62314891815 2.24383568764 2.24150919914 6.04459238052 11.6929969788 17.239654541 20.3973236084 20.3932609558 17.2281246185 11.6784543991 6.03104400635 2.24039506912 2.23987221718 5.16227817535 9.6994304657 14.2077131271 16.6777744293 16.674654007 14.1985244751 9.68758106232 5.1515994072 2.23916363716 2.24195718765 3.93099069595 6.8132853508 9.56163406372 11.0631332397 11.0612487793 9.5560131073 6.80584478378 3.92435383797 2.24164557457 
2.24194860458 3.93431377411 6.8213558197 9.5748167038 11.0787477493 11.0769062042 9.5692243576 6.81391906738 3.92767095566 2.24163603783 2.23987150192 5.16495990753 9.70553588867 14.2171535492 16.6893386841 16.6862316132 14.2079811096 9.69369411469 5.154276371 2.23916172981 2.24151730537 6.04644632339 11.696975708 17.2455463409 20.4045009613 20.4004383087 17.2340240479 11.6824388504 6.03289747238 2.2404024601 2.2452890873 6.63952589035 12.9214782715 19.0296230316 22.5569496155 22.5523719788 19.0168571472 12.9054327011 6.62427091599 2.24384427071 2.24793386459 6.9312953949 13.5018167496 19.8516979218 23.5293331146 23.5245494843 19.8384189606 13.4850959778 6.91525411606 2.24631047249 2.24793052673 6.93093633652 13.5011072159 19.8507041931 23.5281620026 23.5233821869 19.8374195099 13.4843854904 6.91489553452 2.24630713463 2.24528002739 6.63842439651 12.9192638397 19.0264663696 22.5531845093 22.5486030579 19.0136928558 12.903216362 6.62316942215 2.24383544922 2.24150872231 6.04461050034 11.693031311 17.2397003174 20.3973770142 20.3933143616 17.2281742096 11.6784925461 6.03106307983 2.2403948307 2.23987197876 5.16229200363 9.69946193695 14.2077522278 16.677816391 16.674697876 14.1985626221 9.68761253357 5.15161323547 2.23916316032 2.24195718765 3.93100142479 6.81330919266 9.5616645813 11.063167572 11.0612821579 9.55604457855 6.80586576462 3.92436385155 2.24164533615 
2.24194836617 3.93432593346 6.82138204575 9.57485198975 11.07878685 11.0769472122 9.56926345825 6.81394433975 3.92768311501 2.24163651466 2.2398712635 5.16497564316 9.70557022095 14.2172002792 16.6893920898 16.6862812042 14.2080249786 9.69372844696 5.15429401398 2.23916172981 2.24151730537 6.0464682579 11.697016716 17.2456092834 20.4045600891 20.4004993439 17.2340869904 11.6824846268 6.03291940689 2.24040269852 2.24528932571 6.63955020905 12.9215278625 19.0296936035 22.5570220947 22.5524406433 19.0169258118 12.9054851532 6.6242980957 2.24384427071 2.24793410301 6.9313249588 13.5018758774 19.851776123 23.5294284821 23.5246448517 19.8384990692 13.4851512909 6.91528224945 2.24631047249 2.24793052673 6.93096542358 13.5011644363 19.8507804871 23.5282554626 23.5234794617 19.8374996185 13.4844388962 6.91492271423 2.24630761147 2.24528002739 6.63844966888 12.9193153381 19.0265293121 22.5532588959 22.5486774445 19.013759613 12.9032678604 6.62319612503 2.24383544922 2.24150896072 6.04463148117 11.6930770874 17.2397594452 20.3974437714 20.3933753967 17.2282314301 11.6785354614 6.03108501434 2.2403948307 2.23987174034 5.16231012344 9.69949626923 14.2078018188 16.6778678894 16.6747455597 14.1986122131 9.68764781952 5.15163040161 2.23916316032 2.24195694923 3.93101358414 6.81333351135 9.56170082092 11.0632076263 11.0613222122 9.5560798645 6.80589151382 3.92437577248 2.24164509773 
2.24194860458 3.93433880806 6.82140779495 9.57488822937 11.0788288116 11.0769891739 9.56929969788 6.81397104263 3.92769551277 2.24163603783 2.23987102509 5.16499423981 9.70560741425 14.2172489166 16.6894454956 16.6863327026 14.2080755234 9.69376468658 5.15431165695 2.23916149139 2.24151730537 6.04648971558 11.6970653534 17.2456684113 20.4046268463 20.4005584717 17.2341442108 11.6825256348 6.03294086456 2.24040222168 2.24528932571 6.6395778656 12.9215764999 19.0297622681 22.5570983887 22.5525188446 19.0169944763 12.9055347443 6.62432336807 2.24384379387 2.24793434143 6.93135166168 13.5019283295 19.851852417 23.5295200348 23.5247383118 19.8385696411 13.485209465 6.91530942917 2.24631047249 2.24793052673 6.93099069595 13.5012178421 19.8508548737 23.5283508301 23.5235691071 19.8375720978 13.484500885 6.91494941711 2.24630761147 2.24528026581 6.63847589493 12.9193630219 19.026594162 22.5533313751 22.5487575531 19.0138301849 12.9033184052 6.62321996689 2.24383544922 2.24150896072 6.04465389252 11.6931209564 17.239818573 20.3975028992 20.3934288025 17.2282886505 11.6785802841 6.03110647202 2.24039435387 2.23987197876 5.16232872009 9.69953155518 14.2078475952 16.6779174805 16.6747951508 14.1986579895 9.68768310547 5.15164852142 2.23916268349 2.24195718765 3.93102622032 6.81336116791 9.5617351532 11.063249588 11.0613641739 9.55611801147 6.80591869354 3.92438721657 2.24164509773 
2.24194860458 3.93435025215 6.82143449783 9.57492446899 11.078868866 11.0770282745 9.56933498383 6.813996315 3.9277074337 2.24163603783 2.23987030983 5.16501045227 9.70564079285 14.2172956467 16.6894931793 16.6863861084 14.2081203461 9.69379615784 5.15432929993 2.23916172981 2.24151754379 6.04651117325 11.6971054077 17.245721817 20.4046840668 20.4006214142 17.2341976166 11.6825685501 6.0329618454 2.24040222168 2.24528956413 6.6396021843 12.9216308594 19.0298271179 22.55717659 22.5525951385 19.0170574188 12.9055871964 6.62434768677 2.24384379387 2.24793386459 6.93137836456 13.5019855499 19.8519248962 23.5296173096 23.5248336792 19.8386440277 13.4852628708 6.91533660889 2.24631094933 2.24793100357 6.93101978302 13.5012779236 19.8509311676 23.5284461975 23.5236644745 19.837644577 13.4845523834 6.91497707367 2.24630784988 2.24528002739 6.63849878311 12.9194164276 19.0266628265 22.5534057617 22.5488319397 19.0138931274 12.9033727646 6.62324571609 2.24383568764 2.24150872231 6.04467487335 11.6931629181 17.2398796082 20.3975658417 20.393497467 17.2283439636 11.6786212921 6.03112792969 2.24039435387 2.23987197876 5.16234540939 9.69956970215 14.2078952789 16.6779689789 16.6748523712 14.1987009048 9.68771743774 5.15166568756 2.23916244507 2.24195718765 3.93103647232 6.81338691711 9.56177043915 11.0632886887 11.0614042282 9.55615329742 6.80594396591 3.92439937592 2.24164485931 
2.24194812775 3.93436217308 6.82145929337 9.57495880127 11.0789079666 11.0770654678 9.56937026978 6.81402206421 3.92771840096 2.24163579941 2.23987054825 5.16502809525 9.7056760788 14.2173404694 16.689540863 16.6864318848 14.2081651688 9.69383430481 5.15434598923 2.23916125298 2.24151730537 6.04653167725 11.6971473694 17.2457771301 20.4047470093 20.4006824493 17.234254837 11.6826095581 6.03298425674 2.24040222168 2.24528956413 6.63962697983 12.9216785431 19.0298938751 22.5572509766 22.5526752472 19.017124176 12.9056348801 6.62437152863 2.24384403229 2.24793434143 6.93140792847 13.5020399094 19.8519992828 23.5297088623 23.5249290466 19.838716507 13.4853181839 6.91536331177 2.24631094933 2.24793100357 6.93104600906 13.5013303757 19.8510036469 23.5285377502 23.5237598419 19.8377151489 13.4846076965 6.91500425339 2.24630761147 2.24528026581 6.63852500916 12.9194660187 19.0267276764 22.5534820557 22.5489082336 19.0139579773 12.903418541 6.62326955795 2.24383592606 2.24150896072 6.04469633102 11.6932048798 17.2399253845 20.3976211548 20.3935585022 17.2283992767 11.6786632538 6.03114891052 2.24039435387 2.23987197876 5.16236162186 9.69960403442 14.2079381943 16.6780185699 16.6749019623 14.1987504959 9.68775272369 5.15168190002 2.23916268349 2.24195671082 3.93104910851 6.81341171265 9.56180667877 11.0633277893 11.0614442825 9.5561876297 6.80596923828 3.92441129684 2.24164533615 
